Time: 15/11/2016 11:28:14 AM
-----------------------------------------------------------
Date & Time: 11/15/2016 11:28:14 AM
Coach Name: Aditya Somisetty
Validation Status: Failed
Source: Makeup Sessions

Exception: 
-----------------------------------------------------------

