CREDIT,20090818120000[0:GMT],"MERCHANT BANKCD  DEPOSIT    267769904884    CCD ID: 7592126793",389.19
DEBIT,20090818120000[0:GMT],"WIRE ONLINE FOREIGN FEE",-40.00
DEBIT,20090818120000[0:GMT],"ONLINE WIRE TRANSFER VIA: CITIBANK/0008 A/C: ANDBINBBXXX MUMBAI IN BEN: NORTH SOUTH FOUNDATION HYDERABAD 500082 IND REF: FOR RECIPIENT:ULTIMATE CREDIT TO NORTH SOUTH FOUNDATION AT ANDHRASSN: 0251221 TRN: 0562200230ES",-25000.00
CREDIT,20090817120000[0:GMT],"MERCHANT BANKCD  DEPOSIT    267769904884    CCD ID: 7592126793",48.79
CREDIT,20090810120000[0:GMT],"MERCHANT BANKCD  DEPOSIT    267769904884    CCD ID: 7592126793",365.92
CREDIT,20090806120000[0:GMT],"MERCHANT BANKCD  DEPOSIT    267769904884    CCD ID: 7592126793",48.79
DSLIP,20090805120000[0:GMT],"DEPOSIT  ID NUMBER  12582",2674.16
CREDIT,20090805120000[0:GMT],"MERCHANT BANKCD  DEPOSIT    267769904884    CCD ID: 7592126793",48.79
DEBIT,20090805120000[0:GMT],"AMERICAN EXPRESS AXP DISCNT 3120684733      CCD ID: 1134992250",-17.24
DEBIT,20090804120000[0:GMT],"MERCHANT BANKCD  FEE        267769904884    CCD ID: 7592126793",-81.21
DEBIT,20090804120000[0:GMT],"DISCOVER NETWORK SETTLEMENT 601101321229500 CCD ID: 1510020270",-4.09
DEBIT,20090804120000[0:GMT],"MERCHANT BANKCD  INTERCHNG  267769904884    CCD ID: 7592126793",-0.77
CREDIT,20090803120000[0:GMT],"MERCHANT BANKCD  DEPOSIT    267769904884    CCD ID: 7592126793",23.76
CREDIT,20090803120000[0:GMT],"MERCHANT BANKCD  DEPOSIT    267769904884    CCD ID: 7592126793",9.43
CREDIT,20090803120000[0:GMT],"MERCHANT BANKCD  DEPOSIT    267769904884    CCD ID: 7592126793",5.33
CREDIT,20090731120000[0:GMT],"MERCHANT BANKCD  DEPOSIT    267769904884    CCD ID: 7592126793",48.79
CREDIT,20090731120000[0:GMT],"INTEREST PAYMENT",0.66
CREDIT,20090729120000[0:GMT],"AMERICAN EXPRESS SETTLEMENT 3120684733      CCD ID: 1134992250",50.00
DEBIT,20090729120000[0:GMT],"WIRE ONLINE FOREIGN FEE",-40.00
DEBIT,20090729120000[0:GMT],"ONLINE WIRE TRANSFER VIA: CITIBANK/0008 A/C: ANDBINBBXXX MUMBAI IN BEN: NORTH SOUTH FOUNDATION HYDERABAD 500082 IND REF: FOR RECIPIENT:ULTIMATE CREDIT TO NORTH SOUTH FOUNDATION AT ANDHRASSN: 0303215 TRN: 0647700210ES",-25000.00
CREDIT,20090727120000[0:GMT],"MERCHANT BANKCD  DEPOSIT    267769904884    CCD ID: 7592126793",9.76
DEBIT,20090727120000[0:GMT],"MERCHANT BANKCD  DEPOSIT    267769904884    CCD ID: 7592126793",-98.51
DEBIT,20090724120000[0:GMT],"MERCHANT BANKCD  DEPOSIT    267769904884    CCD ID: 7592126793",-80.00
CREDIT,20090720120000[0:GMT],"AMERICAN EXPRESS SETTLEMENT 3120684733      CCD ID: 1134992250",50.00
CREDIT,20090720120000[0:GMT],"MERCHANT BANKCD  DEPOSIT    267769904884    CCD ID: 7592126793",48.79
CREDIT,20090720120000[0:GMT],"MERCHANT BANKCD  DEPOSIT    267769904884    CCD ID: 7592126793",48.79
CREDIT,20090717120000[0:GMT],"MERCHANT BANKCD  DEPOSIT    267769904884    CCD ID: 7592126793",68.31
CREDIT,20090714120000[0:GMT],"AMERICAN EXPRESS SETTLEMENT 3120684733      CCD ID: 1134992250",50.00
DEBIT,20090714120000[0:GMT],"MERCHANT BANKCD  DEPOSIT    267769904884    CCD ID: 7592126793",-81.94
CREDIT,20090713120000[0:GMT],"MERCHANT BANKCD  DEPOSIT    267769904884    CCD ID: 7592126793",184.08
CREDIT,20090713120000[0:GMT],"AMERICAN EXPRESS SETTLEMENT 3120684733      CCD ID: 1134992250",80.00
CREDIT,20090713120000[0:GMT],"MERCHANT BANKCD  DEPOSIT    267769904884    CCD ID: 7592126793",9.76
CREDIT,20090710120000[0:GMT],"MERCHANT BANKCD  DEPOSIT    267769904884    CCD ID: 7592126793",76.33
DSLIP,20090709120000[0:GMT],"DEPOSIT  ID NUMBER  12581",8285.15
CREDIT,20090709120000[0:GMT],"MERCHANT BANKCD  DEPOSIT    267769904884    CCD ID: 7592126793",106.21
CREDIT,20090709120000[0:GMT],"DISCOVER NETWORK SETTLEMENT 601101321229500 CCD ID: 1510020270",50.00
CREDIT,20090709120000[0:GMT],"AMERICAN EXPRESS SETTLEMENT 3120684733      CCD ID: 1134992250",30.00
DEBIT,20090708120000[0:GMT],"MERCHANT BANKCD  DEPOSIT    267769904884    CCD ID: 7592126793",-61.45
CREDIT,20090706120000[0:GMT],"DTE ENERGY CO.   PAYMENTS   1500167904      CCD ID: 2383262618",800.00
CREDIT,20090706120000[0:GMT],"MERCHANT BANKCD  DEPOSIT    267769904884    CCD ID: 7592126793",163.30
CREDIT,20090706120000[0:GMT],"AMERICAN EXPRESS SETTLEMENT 3120684733      CCD ID: 1134992250",110.00
CREDIT,20090706120000[0:GMT],"MERCHANT BANKCD  DEPOSIT    267769904884    CCD ID: 7592126793",97.58
DEBIT,20090706120000[0:GMT],"AMERICAN EXPRESS AXP DISCNT 3120684733      CCD ID: 1134992250",-412.38
DEBIT,20090706120000[0:GMT],"MERCHANT BANKCD  FEE        267769904884    CCD ID: 7592126793",-259.77
DEBIT,20090706120000[0:GMT],"MERCHANT BANKCD  INTERCHNG  267769904884    CCD ID: 7592126793",-11.54
CREDIT,20090703120000[0:GMT],"MERCHANT BANKCD  DEPOSIT    267769904884    CCD ID: 7592126793",585.58
CREDIT,20090703120000[0:GMT],"AMERICAN EXPRESS SETTLEMENT 3120684733      CCD ID: 1134992250",120.00
CREDIT,20090703120000[0:GMT],"DISCOVER NETWORK SETTLEMENT 601101321229500 CCD ID: 1510020270",110.00
CREDIT,20090702120000[0:GMT],"MERCHANT BANKCD  DEPOSIT    267769904884    CCD ID: 7592126793",327.78
DEBIT,20090702120000[0:GMT],"DISCOVER NETWORK SETTLEMENT 601101321229500 CCD ID: 1510020270",-144.00
CREDIT,20090701120000[0:GMT],"MERCHANT BANKCD  DEPOSIT    267769904884    CCD ID: 7592126793",346.23
CREDIT,20090701120000[0:GMT],"DISCOVER NETWORK SETTLEMENT 601101321229500 CCD ID: 1510020270",100.00
CREDIT,20090630120000[0:GMT],"MERCHANT BANKCD  DEPOSIT    267769904884    CCD ID: 7592126793",224.43
CREDIT,20090630120000[0:GMT],"AMERICAN EXPRESS SETTLEMENT 3120684733      CCD ID: 1134992250",201.00
CREDIT,20090630120000[0:GMT],"DISCOVER NETWORK SETTLEMENT 601101321229500 CCD ID: 1510020270",80.00
CREDIT,20090630120000[0:GMT],"INTEREST PAYMENT",0.42
CREDIT,20090629120000[0:GMT],"MERCHANT BANKCD  DEPOSIT    267769904884    CCD ID: 7592126793",1256.89
CREDIT,20090629120000[0:GMT],"MERCHANT BANKCD  DEPOSIT    267769904884    CCD ID: 7592126793",985.02
CREDIT,20090629120000[0:GMT],"AMERICAN EXPRESS SETTLEMENT 3120684733      CCD ID: 1134992250",230.00
CREDIT,20090629120000[0:GMT],"MERCHANT BANKCD  DEPOSIT    267769904884    CCD ID: 7592126793",164.43
CREDIT,20090629120000[0:GMT],"AMERICAN EXPRESS SETTLEMENT 3120684733      CCD ID: 1134992250",160.00
CREDIT,20090629120000[0:GMT],"DISCOVER NETWORK SETTLEMENT 601101321229500 CCD ID: 1510020270",120.00
CREDIT,20090626120000[0:GMT],"MERCHANT BANKCD  DEPOSIT    267769904884    CCD ID: 7592126793",546.51
CREDIT,20090626120000[0:GMT],"AMERICAN EXPRESS SETTLEMENT 3120684733      CCD ID: 1134992250",240.00
CREDIT,20090626120000[0:GMT],"DISCOVER NETWORK SETTLEMENT 601101321229500 CCD ID: 1510020270",60.00
CREDIT,20090625120000[0:GMT],"MERCHANT BANKCD  DEPOSIT    267769904884    CCD ID: 7592126793",1340.90
CREDIT,20090625120000[0:GMT],"AMERICAN EXPRESS SETTLEMENT 3120684733      CCD ID: 1134992250",660.00
CREDIT,20090625120000[0:GMT],"DISCOVER NETWORK SETTLEMENT 601101321229500 CCD ID: 1510020270",120.00
CREDIT,20090624120000[0:GMT],"MERCHANT BANKCD  DEPOSIT    267769904884    CCD ID: 7592126793",2280.87
CREDIT,20090624120000[0:GMT],"AMERICAN EXPRESS SETTLEMENT 3120684733      CCD ID: 1134992250",270.00
CREDIT,20090624120000[0:GMT],"DISCOVER NETWORK SETTLEMENT 601101321229500 CCD ID: 1510020270",120.00
CREDIT,20090623120000[0:GMT],"MERCHANT BANKCD  DEPOSIT    267769904884    CCD ID: 7592126793",1510.84
CREDIT,20090623120000[0:GMT],"AMERICAN EXPRESS SETTLEMENT 3120684733      CCD ID: 1134992250",670.00
CREDIT,20090623120000[0:GMT],"DISCOVER NETWORK SETTLEMENT 601101321229500 CCD ID: 1510020270",360.00
CREDIT,20090623120000[0:GMT],"DISCOVER NETWORK SETTLEMENT 601101321229500 CCD ID: 1510020270",290.00
CREDIT,20090623120000[0:GMT],"DISCOVER NETWORK SETTLEMENT 601101321229500 CCD ID: 1510020270",200.00
CREDIT,20090622120000[0:GMT],"AMERICAN EXPRESS SETTLEMENT 3120684733      CCD ID: 1134992250",4530.00
CREDIT,20090622120000[0:GMT],"MERCHANT BANKCD  DEPOSIT    267769904884    CCD ID: 7592126793",2415.57
CREDIT,20090622120000[0:GMT],"MERCHANT BANKCD  DEPOSIT    267769904884    CCD ID: 7592126793",2245.59
CREDIT,20090622120000[0:GMT],"AMERICAN EXPRESS SETTLEMENT 3120684733      CCD ID: 1134992250",2080.00
CREDIT,20090622120000[0:GMT],"MERCHANT BANKCD  DEPOSIT    267769904884    CCD ID: 7592126793",1632.31
CREDIT,20090622120000[0:GMT],"DISCOVER NETWORK SETTLEMENT 601101321229500 CCD ID: 1510020270",830.00
CREDIT,20090619120000[0:GMT],"MERCHANT BANKCD  DEPOSIT    267769904884    CCD ID: 7592126793",12654.82
CREDIT,20090619120000[0:GMT],"AMERICAN EXPRESS SETTLEMENT 3120684733      CCD ID: 1134992250",2431.00
CREDIT,20090619120000[0:GMT],"DISCOVER NETWORK SETTLEMENT 601101321229500 CCD ID: 1510020270",2050.00
CREDIT,20090618120000[0:GMT],"MERCHANT BANKCD  DEPOSIT    267769904884    CCD ID: 7592126793",7847.45
CREDIT,20090618120000[0:GMT],"DISCOVER NETWORK SETTLEMENT 601101321229500 CCD ID: 1510020270",1270.00
CREDIT,20090618120000[0:GMT],"AMERICAN EXPRESS SETTLEMENT 3120684733      CCD ID: 1134992250",170.00
DSLIP,20090617120000[0:GMT],"DEPOSIT  ID NUMBER  12580",3222.26
CREDIT,20090617120000[0:GMT],"MERCHANT BANKCD  DEPOSIT    267769904884    CCD ID: 7592126793",605.91
DEBIT,20090617120000[0:GMT],"WIRE ONLINE FOREIGN FEE",-40.00
DEBIT,20090617120000[0:GMT],"ONLINE WIRE TRANSFER VIA: HSBC BANK USA/0108 A/C: CBININBBPAR NEW DELHI IN BEN: BHARTIYA YOG EVAM PRAKRITIK SESULTANPUR 228001 IND REF: FOR ULTIMATECREDIT TO A/C NO. CD 1111 OF BHARTIYA YOG EVAM PRAKRISSN: 0296632 TRN: 0464400168ES",-25000.00
CREDIT,20090616120000[0:GMT],"DISCOVER NETWORK SETTLEMENT 601101321229500 CCD ID: 1510020270",220.00
CREDIT,20090616120000[0:GMT],"AMERICAN EXPRESS SETTLEMENT 3120684733      CCD ID: 1134992250",60.00
CREDIT,20090615120000[0:GMT],"MERCHANT BANKCD  DEPOSIT    267769904884    CCD ID: 7592126793",58.55
CREDIT,20090610120000[0:GMT],"MERCHANT BANKCD  DEPOSIT    267769904884    CCD ID: 7592126793",48.79
CREDIT,20090608120000[0:GMT],"MERCHANT BANKCD  DEPOSIT    267769904884    CCD ID: 7592126793",48.79
CREDIT,20090605120000[0:GMT],"MERCHANT BANKCD  DEPOSIT    267769904884    CCD ID: 7592126793",47.66
DEBIT,20090605120000[0:GMT],"MERCHANT BANKCD  FEE        267769904884    CCD ID: 7592126793",-52.13
DEBIT,20090605120000[0:GMT],"MERCHANT BANKCD  INTERCHNG  267769904884    CCD ID: 7592126793",-0.09
CREDIT,20090604120000[0:GMT],"MERCHANT BANKCD  DEPOSIT    267769904884    CCD ID: 7592126793",47.66
DSLIP,20090603120000[0:GMT],"DEPOSIT  ID NUMBER  12573",3727.01
DSLIP,20090603120000[0:GMT],"DEPOSIT  ID NUMBER  12579",1066.00
CREDIT,20090602120000[0:GMT],"DISCOVER NETWORK SETTLEMENT 601101321229500 CCD ID: 1510020270",100.00
DEBIT,20090602120000[0:GMT],"DISCOVER NETWORK SETTLEMENT 601101321229500 CCD ID: 1510020270",-2.80
DEBIT,20090601120000[0:GMT],"MERCHANT BANKCD  DEPOSIT    267769904884    CCD ID: 7592126793",-112.66
DEBIT,20090601120000[0:GMT],"MERCHANT BANKCD  DEPOSIT    267769904884    CCD ID: 7592126793",-44.52
CREDIT,20090529120000[0:GMT],"INTEREST PAYMENT",0.27
CREDIT,20090528120000[0:GMT],"MERCHANT BANKCD  DEPOSIT    267769904884    CCD ID: 7592126793",97.58
DSLIP,20090518120000[0:GMT],"DEPOSIT  ID NUMBER  12575",2500.00
DSLIP,20090515120000[0:GMT],"DEPOSIT  ID NUMBER  12572",1800.00
DSLIP,20090515120000[0:GMT],"DEPOSIT  ID NUMBER  12574",437.48
CREDIT,20090511120000[0:GMT],"MERCHANT BANKCD  DEPOSIT    267769904884    CCD ID: 7592126793",47.66
CHECK,20090511120000[0:GMT],"CHECK 342",-10000.00
DSLIP,20090507120000[0:GMT],"DEPOSIT  ID NUMBER  12571",11989.73
DEBIT,20090507120000[0:GMT],"MERCHANT BANKCD  FEE        267769904884    CCD ID: 7592126793",-103.50
DEBIT,20090507120000[0:GMT],"MERCHANT BANKCD  INTERCHNG  267769904884    CCD ID: 7592126793",-4.44
DEBIT,20090507120000[0:GMT],"MERCHANT BANKCD  DEPOSIT    267769904884    CCD ID: 7592126793",-0.15
DEBIT,20090505120000[0:GMT],"AMERICAN EXPRESS AXP DISCNT 3120684733      CCD ID: 1134992250",-118.00
CREDIT,20090504120000[0:GMT],"MERCHANT BANKCD  DEPOSIT    267769904884    CCD ID: 7592126793",28.54
DEBIT,20090504120000[0:GMT],"DISCOVER NETWORK SETTLEMENT 601101321229500 CCD ID: 1510020270",-90.02
