











<Date>,<CheckNum>,<Description>,<Withdrawal Amount>,<Deposit Amount>,<Additional Info>
05/20/2009,1578,CHECK,-1187.04,,
05/20/2009,1583,CHECK,-309.0,,
05/20/2009,1585,CHECK,-84.41,,
05/19/2009,1576,CHECK,-1000.0,,
05/18/2009,1581,CHECK,-554.56,,
05/18/2009,1582,CHECK,-150.0,,
05/18/2009,,DEPOSIT,,541.57,
05/15/2009,,DEPOSIT,,1230.0,
05/15/2009,,DEPOSIT,,180.0,
05/14/2009,,FEE ASSESSED,-4.5,,DEPOSIT RETURN ITE
05/14/2009,,DEPOSIT RETURN ITEM,-30.0,,SAMBASIVA TALLAM CLOSED ACCOUNT
05/12/2009,1574,CHECK,-1925.27,,
05/12/2009,1572,CHECK,-1606.42,,
05/08/2009,,DEPOSIT,,10000.0,
05/08/2009,,DEPOSIT,,560.0,
05/08/2009,,DEPOSIT,,421.54,
05/01/2009,,DEPOSIT,,400.0,
04/30/2009,,INTEREST,,1.6,
04/28/2009,,PREAUTHORIZED CREDIT,,60.0,NORTH SOUTH FOUN PYMT COLL 090428
04/27/2009,1566,CHECK,-364.52,,
04/17/2009,1571,CHECK,-355.0,,
04/13/2009,1568,CHECK,-3220.81,,
04/13/2009,1570,CHECK,-202.9,,
04/13/2009,,DEPOSIT,,415.0,
04/10/2009,,PREAUTHORIZED DEBIT,-10.16,,U. P. S. UPS BILL 090410 090940000R63245
04/07/2009,1569,CHECK,-870.49,,




