











<Date>,<CheckNum>,<Description>,<Withdrawal Amount>,<Deposit Amount>,<Additional Info>
12/21/2009,,PREAUTHORIZED CREDIT,,60.0,NORTH SOUTH FOUN PYMT COLL 091221
12/17/2009,1631,CHECK,-250.0,,
12/14/2009,1634,CHECK,-116.0,,
12/07/2009,1630,CHECK,-7500.0,,
11/30/2009,,INTEREST,,1.01,
11/27/2009,,PREAUTHORIZED CREDIT,,60.0,NORTH SOUTH FOUN PYMT COLL 091125
11/20/2009,,PREAUTHORIZED DEBIT,-11.3,,U. P. S. UPS BILL 091120 093180000R63245




