











<Date>,<CheckNum>,<Description>,<Withdrawal Amount>,<Deposit Amount>,<Additional Info>
09/17/2009,1619,CHECK,-258.44,,
09/15/2009,1608,CHECK,-197.58,,
09/15/2009,1623,CHECK,-1784.82,,
09/09/2009,1621,CHECK,-53.5,,
09/09/2009,1611,CHECK,-197.58,,
09/03/2009,1618,CHECK,-238.37,,
08/31/2009,,INTEREST,,2.67,
08/31/2009,1598,CHECK,-85.36,,
08/27/2009,1615,CHECK,-500.0,,
08/26/2009,1595,CHECK,-449.83,,
08/26/2009,,DEPOSIT,,196.0,
08/25/2009,1614,CHECK,-444.2,,
08/21/2009,,PREAUTHORIZED CREDIT,,60.0,NORTH SOUTH FOUN PYMT COLL 090821
08/20/2009,1590,CHECK,-167.1,,
08/18/2009,1612,CHECK,-359.37,,
08/18/2009,1610,CHECK,-745.54,,
08/12/2009,1607,CHECK,-388.0,,
08/12/2009,1613,CHECK,-22206.23,,
08/10/2009,1609,CHECK,-264.0,,




