











<Date>,<CheckNum>,<Description>,<Withdrawal Amount>,<Deposit Amount>,<Additional Info>
06/24/2009,1594,CHECK,-91.42,,
06/23/2009,1588,CHECK,-178.72,,
06/22/2009,1589,CHECK,-36.43,,
06/18/2009,1591,CHECK,-432.03,,
06/17/2009,1580,CHECK,-1383.65,,
06/05/2009,1587,CHECK,-700.9,,
06/05/2009,,PREAUTHORIZED DEBIT,-7.74,,U. P. S. UPS BILL 090605 091500000R63245
06/04/2009,1586,CHECK,-402.49,,
06/04/2009,1577,CHECK,-167.5,,
06/04/2009,,DEPOSIT,,202.0,
06/02/2009,1584,CHECK,-407.06,,
06/01/2009,1579,CHECK,-87.02,,
05/29/2009,,INTEREST,,2.34,
05/26/2009,1575,CHECK,-70.0,,
05/26/2009,,PREAUTHORIZED CREDIT,,60.0,NORTH SOUTH FOUN PYMT COLL 090526
05/20/2009,1578,CHECK,-1187.04,,
05/20/2009,1583,CHECK,-309.0,,
05/20/2009,1585,CHECK,-84.41,,
05/19/2009,1576,CHECK,-1000.0,,
05/18/2009,1581,CHECK,-554.56,,
05/18/2009,1582,CHECK,-150.0,,
05/18/2009,,DEPOSIT,,541.57,
05/15/2009,,DEPOSIT,,1230.0,
05/15/2009,,DEPOSIT,,180.0,
05/14/2009,,FEE ASSESSED,-4.5,,DEPOSIT RETURN ITE
05/14/2009,,DEPOSIT RETURN ITEM,-30.0,,SAMBASIVA TALLAM CLOSED ACCOUNT




