











<Date>,<CheckNum>,<Description>,<Withdrawal Amount>,<Deposit Amount>,<Additional Info>
11/20/2009,,PREAUTHORIZED DEBIT,-11.3,,U. P. S. UPS BILL 091120 093180000R63245
10/30/2009,1629,CHECK,-2070.0,,
10/30/2009,,INTEREST,,1.18,
10/27/2009,1617,CHECK,-85.48,,
10/27/2009,1616,CHECK,-189.0,,
10/27/2009,,PREAUTHORIZED CREDIT,,60.0,NORTH SOUTH FOUN PYMT COLL 091027
10/23/2009,1622,CHECK,-234.69,,
10/19/2009,,DEPOSIT,,55.0,




