<Date>,<CheckNum>,<Description>,<Withdrawal Amount>,<Deposit Amount>,<Additional Info>
12/24/2009,,DEPOSIT,,1,
12/24/2009,,DEPOSIT,,2,
12/24/2009,,DEPOSIT,,3,
12/24/2009,,DEPOSIT,,4,
12/24/2009,,DEPOSIT,,5,
12/24/2009,,DEPOSIT,,6,
12/24/2009,,DEPOSIT RETURN ITEM,-6,,U. P. S. UPS BILL 090605 091500000R63245
12/24/2009,,DEPOSIT RETURN ITEM,-5,,
12/24/2009,,DEPOSIT RETURN ITEM,-4,,
12/24/2009,,DEPOSIT RETURN ITEM,-3,,
12/24/2009,,DEPOSIT RETURN ITEM,-2,,
12/24/2009,,DEPOSIT RETURN ITEM,-1,,
12/24/2009,,DEPOSIT RETURN ITEM,-7,,
12/24/2009,,DEPOSIT RETURN ITEM,-8,,
12/24/2009,,PREAUTHORIZED CREDIT,,60,NORTH SOUTH FOUN PYMT COLL 090526
12/24/2009,,DEPOSIT,,7,
12/24/2009,,DEPOSIT,,8,
12/24/2009,,DEPOSIT,,9,
12/24/2009,,DEPOSIT,,10,
12/24/2009,,DEPOSIT,,11,
12/24/2009,,DEPOSIT RETURN ITEM,-25,,
12/24/2009,,DEPOSIT RETURN ITEM,-26,,
12/24/2009,,DEPOSIT,,14,
12/24/2009,,DEPOSIT,,15,
12/24/2009,,DEPOSIT RETURN ITEM,-9,,DEPOSIT RETURN ITE
12/24/2009,,DEPOSIT RETURN ITEM,-10,,SAMBASIVA TALLAM CLOSED ACCOUNT
