
"Transaction Date","Amount","CardHolder Number","Terminal ID" 
"2009-04-01","$30.00","372342XXXXXX2009","1235" 
"2009-04-01","$30.00","549035XXXXXX2611","1235" 
"2009-04-01","$30.00","542418XXXXXX2776","1235" 
"2009-04-01","$120.00","601120XXXXXX3030","1235" 
"2009-04-01","$60.00","431307XXXXXX8308","1235" 
"2009-04-01","$50.00","446539XXXXXX1475","1235" 
"2009-04-01","$30.00","542418XXXXXX3686","1235" 
"2009-04-01","$30.00","485424XXXXXX6275","1235" 
"2009-04-01","$30.00","371513XXXXXX3007","1235" 
"2009-04-01","$60.00","371747XXXXXX1004","1235" 
"2009-04-01","$165.00","558828XXXXXX7082","1235" 
"2009-04-01","$50.00","601100XXXXXX4430","1235" 
"2009-04-01","$30.00","518863XXXXXX0283","1235" 
"2009-04-01","$60.00","462302XXXXXX9230","1235" 
"2009-04-01","$30.00","371313XXXXXX1004","1235" 
"2009-04-01","$50.00","480013XXXXXX6751","1235" 
"2009-04-01","$40.00","371315XXXXXX2011","1235" 
"2009-04-02","$30.00","480011XXXXXX3041","1235" 
"2009-04-02","($30.00)","546616XXXXXX4223","0000" 
"2009-04-02","($60.00)","372509XXXXXX1012","0000" 
"2009-04-02","$165.00","546616XXXXXX2052","1235" 
"2009-04-02","$60.00","488893XXXXXX5188","1235" 
"2009-04-02","$60.00","419200XXXXXX8662","1235" 
"2009-04-02","($250.00)","426429XXXXXX3908","1235" 
"2009-04-02","$45.00","482870XXXXXX7022","1235" 
"2009-04-02","$30.00","514892XXXXXX8335","1235" 
"2009-04-02","$60.00","372390XXXXXX1014","1235" 
"2009-04-02","$60.00","549113XXXXXX5787","1235" 
"2009-04-02","$30.00","546616XXXXXX6574","1235" 
"2009-04-02","$60.00","542418XXXXXX1203","1235" 
"2009-04-02","$95.00","549035XXXXXX6894","1235" 
"2009-04-03","$15.00","474478XXXXXX8822","1235" 
"2009-04-03","$30.00","377227XXXXXX1000","1235" 
"2009-04-03","$120.00","601140XXXXXX5126","1235" 
"2009-04-03","$30.00","377227XXXXXX1000","1235" 
"2009-04-03","$30.00","484343XXXXXX2387","1235" 
"2009-04-03","($30.00)","542418XXXXXX3125","0000" 
"2009-04-03","$50.00","541349XXXXXX5473","1235" 
"2009-04-03","$60.00","601120XXXXXX2324","1235" 
"2009-04-03","$35.00","542418XXXXXX4961","1235" 
"2009-04-03","$50.00","546616XXXXXX6466","1235" 
"2009-04-03","$205.00","371550XXXXXX2002","1235" 
"2009-04-03","$30.00","542418XXXXXX6932","1235" 
"2009-04-03","$30.00","601100XXXXXX1962","1235" 
"2009-04-04","$90.00","372373XXXXXX1004","1235" 
"2009-04-04","$185.00","372373XXXXXX1004","1235" 
"2009-04-04","$30.00","377265XXXXXX1000","1235" 
"2009-04-04","$30.00","446542XXXXXX7977","1235" 
"2009-04-04","$60.00","540168XXXXXX8774","1235" 
"2009-04-04","$45.00","414778XXXXXX7986","1235" 
"2009-04-04","$30.00","426428XXXXXX9051","1235" 
"2009-04-04","$60.00","601120XXXXXX9864","1235" 
"2009-04-04","$15.00","549099XXXXXX8927","1235" 
"2009-04-04","$30.00","414778XXXXXX0055","1235" 
"2009-04-04","$90.00","448275XXXXXX8423","1235" 
"2009-04-04","$105.00","548084XXXXXX4566","1235" 
"2009-04-05","$15.00","372525XXXXXX1014","1235" 
"2009-04-05","$60.00","482049XXXXXX1630","1235" 
"2009-04-05","$15.00","486895XXXXXX7848","1235" 
"2009-04-05","$60.00","542418XXXXXX3447","1235" 
"2009-04-05","$135.00","546655XXXXXX6489","1235" 
"2009-04-05","$90.00","542418XXXXXX5587","1235" 
"2009-04-05","$30.00","426684XXXXXX8560","1235" 
"2009-04-05","$90.00","371522XXXXXX1004","1235" 
"2009-04-05","$50.00","539655XXXXXX4849","1235" 
"2009-04-05","$60.00","545236XXXXXX9097","1235" 
"2009-04-05","$30.00","546616XXXXXX0851","1235" 
"2009-04-05","$30.00","540168XXXXXX0324","1235" 
"2009-04-06","$30.00","517909XXXXXX7809","1235" 
"2009-04-06","$30.00","601100XXXXXX8984","1235" 
"2009-04-06","$60.00","517805XXXXXX3772","1235" 
"2009-04-06","$60.00","484343XXXXXX4361","1235" 
"2009-04-06","$30.00","430572XXXXXX8981","1235" 
"2009-04-06","$30.00","546626XXXXXX2746","1235" 
"2009-04-06","$30.00","462302XXXXXX0614","1235" 
"2009-04-06","$30.00","426651XXXXXX3969","1235" 
"2009-04-06","$120.00","547584XXXXXX9013","1235" 
"2009-04-06","$30.00","371340XXXXXX2005","1235" 
"2009-04-06","$30.00","546616XXXXXX6023","1235" 
"2009-04-06","$30.00","372340XXXXXX2000","1235" 
"2009-04-06","$30.00","484341XXXXXX9244","1235" 
"2009-04-06","$30.00","464018XXXXXX2654","1235" 
"2009-04-06","$60.00","440872XXXXXX2337","1235" 
"2009-04-06","$15.00","464018XXXXXX7131","1235" 
"2009-04-06","$80.00","546616XXXXXX7837","1235" 
"2009-04-06","$30.00","546616XXXXXX7837","1235" 
"2009-04-06","$60.00","484343XXXXXX6427","1235" 
"2009-04-06","$30.00","546616XXXXXX7837","1235" 
"2009-04-06","$60.00","545800XXXXXX9061","1235" 
"2009-04-06","$45.00","414720XXXXXX1130","1235" 
"2009-04-06","$15.00","601100XXXXXX4216","1235" 
"2009-04-06","$30.00","414720XXXXXX9941","1235" 
"2009-04-06","$30.00","474475XXXXXX0258","1235" 
"2009-04-06","$15.00","371524XXXXXX1002","1235" 
"2009-04-06","$30.00","426684XXXXXX6158","1235" 
"2009-04-06","$30.00","371340XXXXXX2005","1235" 
"2009-04-06","$60.00","552815XXXXXX6503","1235" 
"2009-04-06","$60.00","371524XXXXXX1002","1235" 
"2009-04-06","$100.00","446542XXXXXX0239","1235" 
"2009-04-06","$120.00","601120XXXXXX7056","1235" 
"2009-04-06","$115.00","446542XXXXXX0239","1235" 
"2009-04-06","$75.00","432376XXXXXX1300","1235" 
"2009-04-06","$75.00","524049XXXXXX3717","1235" 
"2009-04-06","$75.00","514750XXXXXX1656","1235" 
"2009-04-06","$60.00","482049XXXXXX1397","1235" 
"2009-04-07","$30.00","546616XXXXXX5754","1235" 
"2009-04-07","$30.00","484341XXXXXX9919","1235" 
"2009-04-07","$45.00","414709XXXXXX2911","1235" 
"2009-04-07","$45.00","464018XXXXXX9439","1235" 
"2009-04-07","$30.00","426651XXXXXX7361","1235" 
"2009-04-07","$30.00","426651XXXXXX7361","1235" 
"2009-04-07","$120.00","371517XXXXXX1014","1235" 
"2009-04-07","$30.00","601120XXXXXX2255","1235" 
"2009-04-07","$120.00","371310XXXXXX5006","1235" 
"2009-04-07","$60.00","548084XXXXXX8825","1235" 
"2009-04-07","$30.00","431243XXXXXX5653","1235" 
"2009-04-07","$30.00","376730XXXXXX3005","1235" 
"2009-04-07","$30.00","426429XXXXXX0756","1235" 
"2009-04-07","$30.00","540302XXXXXX6942","1235" 
"2009-04-07","$30.00","426428XXXXXX4953","1235" 
"2009-04-07","$60.00","512257XXXXXX6752","1235" 
"2009-04-08","$60.00","431307XXXXXX7606","1235" 
"2009-04-08","$60.00","431196XXXXXX5325","1235" 
"2009-04-08","$30.00","518863XXXXXX0283","1235" 
"2009-04-08","$30.00","372525XXXXXX3011","1235" 
"2009-04-08","$50.00","514750XXXXXX1656","1235" 
"2009-04-08","($60.00)","546628XXXXXX9890","1235" 
"2009-04-08","$60.00","438852XXXXXX8842","1235" 
"2009-04-08","$30.00","546616XXXXXX7956","1235" 
"2009-04-08","$50.00","546616XXXXXX6466","1235" 
"2009-04-08","$45.00","464018XXXXXX9439","1235" 
"2009-04-08","$60.00","542418XXXXXX3618","1235" 
"2009-04-08","$50.00","426684XXXXXX2121","1235" 
"2009-04-09","$30.00","546616XXXXXX7695","1235" 
"2009-04-09","$30.00","414709XXXXXX8684","1235" 
"2009-04-09","$30.00","601100XXXXXX5495","1235" 
"2009-04-09","$30.00","406057XXXXXX7298","1235" 
"2009-04-10","$120.00","446542XXXXXX7377","1235" 
"2009-04-10","$105.00","372319XXXXXX1039","1235" 
"2009-04-10","$30.00","546626XXXXXX7934","1235" 
"2009-04-11","$135.00","546616XXXXXX2394","1235" 
"2009-04-11","$15.00","446542XXXXXX0637","1235" 
"2009-04-11","$90.00","372346XXXXXX1005","1235" 
"2009-04-11","$30.00","546616XXXXXX0265","1235" 
"2009-04-11","$90.00","402411XXXXXX5930","1235" 
"2009-04-11","$30.00","546628XXXXXX2023","1235" 
"2009-04-11","$30.00","484341XXXXXX0187","1235" 
"2009-04-11","$280.00","404657XXXXXX6403","1235" 
"2009-04-11","$30.00","377251XXXXXX1009","1235" 
"2009-04-11","$50.00","540168XXXXXX1100","1235" 
"2009-04-12","$30.00","424631XXXXXX7947","1235" 
"2009-04-12","$60.00","512107XXXXXX1615","1235" 
"2009-04-12","$60.00","546616XXXXXX7533","1235" 
"2009-04-12","$75.00","601100XXXXXX7789","1235" 
"2009-04-12","$15.00","546616XXXXXX7317","1235" 
"2009-04-12","$30.00","371317XXXXXX1018","1235" 
"2009-04-12","$30.00","484341XXXXXX8156","1235" 
"2009-04-12","$30.00","420767XXXXXX7711","1235" 
"2009-04-12","$30.00","424631XXXXXX1540","1235" 
"2009-04-12","$105.00","601100XXXXXX8357","1235" 
"2009-04-12","($250.00)","404657XXXXXX6403","0000" 
"2009-04-12","$45.00","377266XXXXXX1008","1235" 
"2009-04-12","$30.00","372393XXXXXX1005","1235" 
"2009-04-12","$30.00","546616XXXXXX5982","1235" 
"2009-04-12","$60.00","412800XXXXXX8676","1235" 
"2009-04-12","$30.00","546616XXXXXX3032","1235" 
"2009-04-12","$15.00","446542XXXXXX0637","1235" 
"2009-04-12","$60.00","601100XXXXXX1624","1235" 
"2009-04-12","$90.00","412800XXXXXX1199","1235" 
"2009-04-12","$30.00","372520XXXXXX2008","1235" 
"2009-04-12","$30.00","601100XXXXXX1313","1235" 
"2009-04-12","$30.00","512107XXXXXX1615","1235" 
"2009-04-13","$30.00","542418XXXXXX3475","1235" 
"2009-04-13","$60.00","377244XXXXXX1017","1235" 
"2009-04-13","$30.00","431307XXXXXX5354","1235" 
"2009-04-13","$60.00","372731XXXXXX3007","1235" 
"2009-04-13","$120.00","372372XXXXXX1002","1235" 
"2009-04-13","$30.00","546616XXXXXX8948","1235" 
"2009-04-14","$60.00","424631XXXXXX9874","1235" 
"2009-04-14","$30.00","414720XXXXXX9456","1235" 
"2009-04-14","$30.00","426428XXXXXX7633","1235" 
"2009-04-14","$30.00","484341XXXXXX8683","1235" 
"2009-04-14","$30.00","546616XXXXXX4328","1235" 
"2009-04-15","$45.00","546616XXXXXX2143","1235" 
"2009-04-15","$170.00","443113XXXXXX5822","1235" 
"2009-04-15","$30.00","532906XXXXXX1169","1235" 
"2009-04-15","$150.00","400344XXXXXX0405","1235" 
"2009-04-15","$90.00","372534XXXXXX2004","1235" 
"2009-04-15","$60.00","377230XXXXXX1011","1235" 
"2009-04-15","$60.00","426684XXXXXX0512","1235" 
"2009-04-16","$60.00","411774XXXXXX2572","1235" 
"2009-04-16","($250.00)","484341XXXXXX8365","1235" 
"2009-04-17","$30.00","371714XXXXXX1003","1235" 
"2009-04-17","$135.00","546616XXXXXX2506","1235" 
"2009-04-17","$50.00","371278XXXXXX1018","1235" 
"2009-04-18","$60.00","545198XXXXXX2661","1235" 
"2009-04-18","$60.00","484341XXXXXX0158","1235" 
"2009-04-18","$30.00","542418XXXXXX6296","1235" 
"2009-04-18","$90.00","542418XXXXXX5749","1235" 
"2009-04-18","$90.00","424631XXXXXX2477","1235" 
"2009-04-18","$90.00","542418XXXXXX5749","1235" 
"2009-04-19","$30.00","426684XXXXXX1346","1235" 
"2009-04-19","$30.00","426684XXXXXX1346","1235" 
"2009-04-19","$30.00","377256XXXXXX1003","1235" 
"2009-04-19","$60.00","549099XXXXXX1814","1235" 
"2009-04-19","$60.00","430851XXXXXX6342","1235" 
"2009-04-21","$60.00","549109XXXXXX3513","1235" 
"2009-04-21","$45.00","371701XXXXXX1004","1235" 
"2009-04-22","$90.00","464018XXXXXX7732","1235" 
"2009-04-22","$15.00","372534XXXXXX2012","1235" 
"2009-04-23","$60.00","536994XXXXXX5804","1235" 
"2009-04-23","$165.00","486895XXXXXX3204","1235" 
"2009-04-23","($45.00)","484341XXXXXX8745","1235" 
"2009-04-23","$50.00","549099XXXXXX8927","1235" 
"2009-04-24","$30.00","377225XXXXXX1011","1235" 
"2009-04-24","$90.00","601100XXXXXX4950","1235" 
"2009-04-24","$30.00","601100XXXXXX8463","1235" 
"2009-04-24","$15.00","478825XXXXXX9926","1235" 
"2009-04-24","$30.00","546616XXXXXX3220","1235" 
"2009-04-24","$60.00","546616XXXXXX3220","1235" 
"2009-04-25","$75.00","426684XXXXXX0799","1235" 
"2009-04-25","$30.00","372353XXXXXX1012","1235" 
"2009-04-25","$100.00","549035XXXXXX4091","1235" 
"2009-04-26","$30.00","372393XXXXXX1005","1235" 
"2009-04-26","$30.00","412800XXXXXX8676","1235" 
"2009-04-26","$60.00","420206XXXXXX2503","1235" 
"2009-04-26","$30.00","435237XXXXXX9516","1235" 
"2009-04-26","$90.00","484341XXXXXX2957","1235" 
"2009-04-26","$15.00","371271XXXXXX4003","1235" 
"2009-04-26","$500.00","549035XXXXXX8454","1235" 
"2009-04-26","$90.00","546647XXXXXX5146","1235" 
"2009-04-26","$30.00","546616XXXXXX0302","1235" 
"2009-04-27","$30.00","601100XXXXXX8267","1235" 
"2009-04-27","$90.00","488893XXXXXX8571","1235" 
"2009-04-30","($120.00)","601120XXXXXX9323","0000" 
"2009-04-30","$30.00","601149XXXXXX5347","1235" 
"2009-04-30","$30.00","601120XXXXXX2873","1235" 
"2009-04-30","$30.00","540168XXXXXX1552","1235" 