
"Transaction Date","Amount","CardHolder Number","Terminal ID" 
"2009-08-01","$10.00","546616XXXXXX8022","1235" 
"2009-08-03","$50.00","414773XXXXXX4232","1235" 
"2009-08-04","$50.00","432626XXXXXX7558","1235" 
"2009-08-08","$50.00","541822XXXXXX0149","1235" 
"2009-08-08","$200.00","431307XXXXXX3718","1235" 
"2009-08-08","$125.00","414709XXXXXX5596","1235" 
"2009-08-15","$50.00","541822XXXXXX0149","1235" 
"2009-08-16","$50.00","542418XXXXXX6417","1235" 
"2009-08-16","$350.00","431307XXXXXX2783","1235" 
"2009-08-17","$10.00","438852XXXXXX8842","1235" 
"2009-08-17","$50.00","484341XXXXXX6824","1235" 
"2009-08-20","$50.00","371262XXXXXX3002","1235" 
"2009-08-20","$100.00","542418XXXXXX6175","1235" 
"2009-08-20","($120.00)","426692XXXXXX3601","0000" 
"2009-08-23","$40.00","601120XXXXXX8886","1235" 
"2009-08-27","$50.00","400344XXXXXX1756","1235" 
"2009-08-27","$100.00","371344XXXXXX1011","1235" 