
"Transaction Date","Amount","CardHolder Number","Terminal ID" 
"2010-03-02","$60.00","546628XXXXXX5638","1235" 
"2010-03-02","$60.00","484341XXXXXX2674","1235" 
"2010-03-02","$60.00","414720XXXXXX7565","1235" 
"2010-03-02","$30.00","426684XXXXXX7410","1235" 
"2010-03-02","$30.00","601120XXXXXX3167","1235" 
"2010-03-02","$120.00","442813XXXXXX9222","1235" 
"2010-03-02","$120.00","442813XXXXXX9222","1235" 
"2010-03-02","$45.00","431705XXXXXX9450","1235" 
"2010-03-02","$90.00","431307XXXXXX6825","1235" 
"2010-03-02","$60.00","377222XXXXXX1019","1235" 
"2010-03-02","$65.00","431705XXXXXX9450","1235" 
"2010-03-02","$90.00","542418XXXXXX9111","1235" 
"2010-03-02","$60.00","540168XXXXXX0420","1235" 
"2010-03-02","$30.00","488889XXXXXX4591","1235" 
"2010-03-02","$30.00","486236XXXXXX5290","1235" 
"2010-03-02","$60.00","372390XXXXXX1011","1235" 
"2010-03-02","$60.00","371335XXXXXX1000","1235" 
"2010-03-02","$60.00","546616XXXXXX8859","1235" 
"2010-03-02","$60.00","546616XXXXXX0715","1235" 
"2010-03-02","$30.00","542418XXXXXX6242","1235" 
"2010-03-02","$60.00","372340XXXXXX2015","1235" 
"2010-03-02","$105.00","546616XXXXXX4074","1235" 
"2010-03-02","$30.00","484341XXXXXX5492","1235" 
"2010-03-02","$30.00","372340XXXXXX2015","1235" 
"2010-03-02","$30.00","546616XXXXXX8851","1235" 
"2010-03-02","$30.00","426681XXXXXX0958","1235" 
"2010-03-02","$30.00","411770XXXXXX8233","1235" 
"2010-03-02","$60.00","546616XXXXXX3257","1235" 
"2010-03-02","$220.00","421764XXXXXX0492","1235" 
"2010-03-02","$120.00","446542XXXXXX1468","1235" 
"2010-03-02","$120.00","401847XXXXXX8719","1235" 
"2010-03-02","$60.00","512107XXXXXX1615","1235" 
"2010-03-02","$45.00","442790XXXXXX8588","1235" 
"2010-03-02","$30.00","426429XXXXXX0392","1235" 
"2010-03-02","$60.00","371505XXXXXX1010","1235" 
"2010-03-02","$60.00","469227XXXXXX2647","1235" 
"2010-03-02","$60.00","542418XXXXXX4481","1235" 
"2010-03-02","$60.00","434197XXXXXX1225","1235" 
"2010-03-02","$30.00","377280XXXXXX1011","1235" 
"2010-03-02","$30.00","539882XXXXXX8673","1235" 
"2010-03-02","$60.00","539882XXXXXX8673","1235" 
"2010-03-02","$105.00","545236XXXXXX0643","1235" 
"2010-03-02","$60.00","371347XXXXXX2000","1235" 
"2010-03-02","$120.00","528935XXXXXX9169","1235" 
"2010-03-02","$30.00","546616XXXXXX8695","1235" 
"2010-03-02","$30.00","438857XXXXXX8734","1235" 
"2010-03-02","$30.00","422695XXXXXX3143","1235" 
"2010-03-02","$120.00","371266XXXXXX3005","1235" 
"2010-03-02","$30.00","540302XXXXXX9443","1235" 
"2010-03-02","$60.00","540302XXXXXX5472","1235" 
"2010-03-02","$30.00","549035XXXXXX8798","1235" 
"2010-03-02","$30.00","542418XXXXXX4452","1235" 
"2010-03-02","$30.00","546616XXXXXX0693","1235" 
"2010-03-02","$60.00","424652XXXXXX3173","1235" 
"2010-03-02","$150.00","422635XXXXXX0324","1235" 
"2010-03-02","$30.00","431307XXXXXX6361","1235" 
"2010-03-02","$15.00","411773XXXXXX0861","1235" 
"2010-03-02","$30.00","486895XXXXXX5793","1235" 
"2010-03-02","$30.00","420253XXXXXX4679","1235" 
"2010-03-02","$60.00","546632XXXXXX9185","1235" 
"2010-03-02","$105.00","431307XXXXXX7059","1235" 
"2010-03-02","$30.00","486796XXXXXX4617","1235" 
"2010-03-02","$135.00","471724XXXXXX9139","1235" 
"2010-03-02","$70.00","403766XXXXXX6793","1235" 
"2010-03-02","$30.00","486796XXXXXX4617","1235" 
"2010-03-02","$70.00","403766XXXXXX6793","1235" 
"2010-03-02","$60.00","546616XXXXXX7269","1235" 
"2010-03-02","$135.00","552321XXXXXX4055","1235" 
"2010-03-02","$60.00","431307XXXXXX5286","1235" 
"2010-03-02","$100.00","438857XXXXXX9456","1235" 
"2010-03-02","$60.00","414720XXXXXX4696","1235" 
"2010-03-02","$60.00","371322XXXXXX1004","1235" 
"2010-03-02","$165.00","371742XXXXXX1008","1235" 
"2010-03-02","$30.00","442791XXXXXX3591","1235" 
"2010-03-02","$120.00","417025XXXXXX0824","1235" 
"2010-03-02","$90.00","408161XXXXXX3962","1235" 
"2010-03-02","$30.00","406057XXXXXX4329","1235" 
"2010-03-02","$90.00","542418XXXXXX2872","1235" 
"2010-03-02","$30.00","542418XXXXXX0071","1235" 
"2010-03-02","$90.00","549035XXXXXX0891","1235" 
"2010-03-02","$100.00","462302XXXXXX4012","1235" 
"2010-03-02","$30.00","601120XXXXXX6678","1235" 
"2010-03-02","$60.00","546616XXXXXX5138","1235" 
"2010-03-02","$50.00","438857XXXXXX1076","1235" 
"2010-03-02","$90.00","486796XXXXXX1915","1235" 
"2010-03-03","$30.00","546616XXXXXX1521","1235" 
"2010-03-03","$60.00","546616XXXXXX7334","1235" 
"2010-03-03","$30.00","552815XXXXXX4068","1235" 
"2010-03-03","$30.00","371268XXXXXX1004","1235" 
"2010-03-03","$30.00","446542XXXXXX8888","1235" 
"2010-03-03","$60.00","377272XXXXXX1005","1235" 
"2010-03-03","$110.00","426428XXXXXX3604","1235" 
"2010-03-03","$30.00","371745XXXXXX1015","1235" 
"2010-03-03","$60.00","601120XXXXXX3915","1235" 
"2010-03-03","$60.00","540801XXXXXX1979","1235" 
"2010-03-03","$120.00","546616XXXXXX6046","1235" 
"2010-03-03","$105.00","540801XXXXXX1979","1235" 
"2010-03-03","$30.00","371333XXXXXX1004","1235" 
"2010-03-03","$90.00","484341XXXXXX0564","1235" 
"2010-03-03","$60.00","542418XXXXXX9633","1235" 
"2010-03-03","$40.00","422695XXXXXX0189","1235" 
"2010-03-03","$60.00","546616XXXXXX8949","1235" 
"2010-03-03","$60.00","412800XXXXXX8264","1235" 
"2010-03-03","$30.00","372509XXXXXX1008","1235" 
"2010-03-03","$30.00","426428XXXXXX1386","1235" 
"2010-03-03","$30.00","426428XXXXXX1386","1235" 
"2010-03-03","$30.00","377247XXXXXX1004","1235" 
"2010-03-03","$120.00","426428XXXXXX2755","1235" 
"2010-03-03","$30.00","371329XXXXXX1008","1235" 
"2010-03-03","$30.00","542418XXXXXX9955","1235" 
"2010-03-03","$30.00","371329XXXXXX1008","1235" 
"2010-03-03","$60.00","473901XXXXXX3814","1235" 
"2010-03-03","$30.00","372353XXXXXX1007","1235" 
"2010-03-03","$30.00","374350XXXXXX9425","1235" 
"2010-03-03","$30.00","542418XXXXXX0285","1235" 
"2010-03-03","$30.00","512107XXXXXX2975","1235" 
"2010-03-03","$30.00","371519XXXXXX1003","1235" 
"2010-03-03","$90.00","546626XXXXXX2493","1235" 
"2010-03-03","$60.00","601100XXXXXX6335","1235" 
"2010-03-03","$30.00","486896XXXXXX2560","1235" 
"2010-03-03","$30.00","372353XXXXXX2039","1235" 
"2010-03-03","$120.00","372556XXXXXX1006","1235" 
"2010-03-03","$60.00","372558XXXXXX1017","1235" 
"2010-03-03","$135.00","414720XXXXXX1796","1235" 
"2010-03-03","($250.00)","484341XXXXXX8154","1235" 
"2010-03-03","$30.00","426684XXXXXX7838","1235" 
"2010-03-03","$120.00","426684XXXXXX7838","1235" 
"2010-03-03","$120.00","475684XXXXXX4899","1235" 
"2010-03-03","$30.00","480013XXXXXX5602","1235" 
"2010-03-03","$30.00","549050XXXXXX3531","1235" 
"2010-03-03","$90.00","464018XXXXXX3639","1235" 
"2010-03-03","$30.00","549050XXXXXX3531","1235" 
"2010-03-03","$60.00","546616XXXXXX2741","1235" 
"2010-03-03","$90.00","422733XXXXXX9531","1235" 
"2010-03-03","$160.00","372809XXXXXX3005","1235" 
"2010-03-03","$60.00","518752XXXXXX2075","1235" 
"2010-03-03","$55.00","426684XXXXXX5347","1235" 
"2010-03-03","$30.00","403766XXXXXX7089","1235" 
"2010-03-03","$60.00","488893XXXXXX6047","1235" 
"2010-03-03","$30.00","549104XXXXXX3629","1235" 
"2010-03-03","$60.00","546604XXXXXX0930","1235" 
"2010-03-03","$30.00","601129XXXXXX2231","1235" 
"2010-03-03","$30.00","371345XXXXXX1014","1235" 
"2010-03-03","$30.00","552851XXXXXX3739","1235" 
"2010-03-03","$60.00","601120XXXXXX2956","1235" 
"2010-03-03","$30.00","464018XXXXXX3639","1235" 
"2010-03-03","$30.00","429420XXXXXX2803","1235" 
"2010-03-03","$30.00","372734XXXXXX1000","1235" 
"2010-03-03","$30.00","371313XXXXXX1003","1235" 
"2010-03-03","$90.00","549035XXXXXX0446","1235" 
"2010-03-03","$120.00","542418XXXXXX2434","1235" 
"2010-03-03","$60.00","372357XXXXXX1000","1235" 
"2010-03-03","$60.00","546628XXXXXX5310","1235" 
"2010-03-03","$35.00","546616XXXXXX5157","1235" 
"2010-03-03","$30.00","542418XXXXXX7426","1235" 
"2010-03-03","$60.00","372736XXXXXX1009","1235" 
"2010-03-03","$90.00","371315XXXXXX2013","1235" 
"2010-03-04","$60.00","557281XXXXXX6799","1235" 
"2010-03-04","$60.00","540302XXXXXX3177","1235" 
"2010-03-04","$145.00","443051XXXXXX5652","1235" 
"2010-03-04","$30.00","540168XXXXXX3717","1235" 
"2010-03-04","$120.00","546632XXXXXX7048","1235" 
"2010-03-04","$105.00","426429XXXXXX0392","1235" 
"2010-03-04","$90.00","372556XXXXXX1008","1235" 
"2010-03-04","$30.00","546647XXXXXX2872","1235" 
"2010-03-04","$30.00","464018XXXXXX5452","1235" 
"2010-03-04","$45.00","373495XXXXXX3016","1235" 
"2010-03-04","$30.00","373495XXXXXX3016","1235" 
"2010-03-04","$60.00","601120XXXXXX8657","1235" 
"2010-03-04","$60.00","542418XXXXXX0285","1235" 
"2010-03-04","$60.00","484343XXXXXX1897","1235" 
"2010-03-04","$30.00","601100XXXXXX9135","1235" 
"2010-03-04","$30.00","601120XXXXXX6678","1235" 
"2010-03-04","$30.00","542418XXXXXX2678","1235" 
"2010-03-04","$120.00","552851XXXXXX5508","1235" 
"2010-03-04","$15.00","601149XXXXXX5273","1235" 
"2010-03-04","$90.00","377258XXXXXX1003","1235" 
"2010-03-04","$30.00","552815XXXXXX4118","1235" 
"2010-03-04","$30.00","546616XXXXXX7454","1235" 
"2010-03-04","$90.00","414718XXXXXX0119","1235" 
"2010-03-04","$75.00","546616XXXXXX5149","1235" 
"2010-03-04","$90.00","431307XXXXXX5982","1235" 
"2010-03-04","$60.00","542418XXXXXX6317","1235" 
"2010-03-04","$60.00","542418XXXXXX8556","1235" 
"2010-03-04","$30.00","601149XXXXXX3097","1235" 
"2010-03-04","$30.00","546616XXXXXX9829","1235" 
"2010-03-04","$30.00","426688XXXXXX2899","1235" 
"2010-03-04","$15.00","482000XXXXXX1231","1235" 
"2010-03-04","$60.00","546616XXXXXX8508","1235" 
"2010-03-04","$60.00","601100XXXXXX4791","1235" 
"2010-03-04","$30.00","371728XXXXXX3008","1235" 
"2010-03-04","$60.00","431307XXXXXX5038","1235" 
"2010-03-04","$75.00","414720XXXXXX9268","1235" 
"2010-03-04","$60.00","377240XXXXXX3003","1235" 
"2010-03-04","$120.00","601120XXXXXX7899","1235" 
"2010-03-04","$30.00","601136XXXXXX9204","1235" 
"2010-03-04","$30.00","542418XXXXXX9551","1235" 
"2010-03-04","$90.00","488893XXXXXX6120","1235" 
"2010-03-04","$60.00","488893XXXXXX6120","1235" 
"2010-03-04","$30.00","601100XXXXXX6462","1235" 
"2010-03-04","$90.00","377276XXXXXX1009","1235" 
"2010-03-04","$30.00","488893XXXXXX4217","1235" 
"2010-03-04","$60.00","460269XXXXXX7193","1235" 
"2010-03-04","$30.00","484343XXXXXX7911","1235" 
"2010-03-04","$30.00","488893XXXXXX5531","1235" 
"2010-03-04","$90.00","512257XXXXXX9914","1235" 
"2010-03-04","$30.00","371323XXXXXX3002","1235" 
"2010-03-04","$30.00","546632XXXXXX9974","1235" 
"2010-03-04","$195.00","372504XXXXXX4006","1235" 
"2010-03-04","$90.00","419310XXXXXX5830","1235" 
"2010-03-04","$30.00","601120XXXXXX7698","1235" 
"2010-03-04","$30.00","377223XXXXXX2003","1235" 
"2010-03-04","$60.00","484341XXXXXX8886","1235" 
"2010-03-04","$30.00","430521XXXXXX7091","1235" 
"2010-03-04","$60.00","546626XXXXXX3627","1235" 
"2010-03-04","$30.00","371512XXXXXX3009","1235" 
"2010-03-04","$60.00","426452XXXXXX8656","1235" 
"2010-03-04","$60.00","441840XXXXXX7846","1235" 
"2010-03-04","$30.00","426452XXXXXX8656","1235" 
"2010-03-04","$60.00","377218XXXXXX1019","1235" 
"2010-03-04","$100.00","546632XXXXXX3498","1235" 
"2010-03-04","$60.00","377251XXXXXX1003","1235" 
"2010-03-05","$140.00","377274XXXXXX1009","1235" 
"2010-03-05","$30.00","377274XXXXXX1009","1235" 
"2010-03-05","$60.00","414720XXXXXX5621","1235" 
"2010-03-05","$30.00","546616XXXXXX8875","1235" 
"2010-03-05","$30.00","546604XXXXXX5930","1235" 
"2010-03-05","$60.00","426684XXXXXX4763","1235" 
"2010-03-05","$60.00","484343XXXXXX3032","1235" 
"2010-03-05","$55.00","372525XXXXXX3010","1235" 
"2010-03-05","$60.00","372525XXXXXX3010","1235" 
"2010-03-05","$30.00","488889XXXXXX4591","1235" 
"2010-03-05","$30.00","426692XXXXXX8543","1235" 
"2010-03-05","$60.00","549035XXXXXX4666","1235" 
"2010-03-05","$30.00","406042XXXXXX5876","1235" 
"2010-03-05","$60.00","601120XXXXXX8394","1235" 
"2010-03-05","$60.00","431303XXXXXX4476","1235" 
"2010-03-05","$30.00","377241XXXXXX1007","1235" 
"2010-03-05","$30.00","546616XXXXXX8022","1235" 
"2010-03-05","$60.00","484341XXXXXX5151","1235" 
"2010-03-05","$150.00","426692XXXXXX9895","1235" 
"2010-03-05","$120.00","426684XXXXXX1806","1235" 
"2010-03-05","$60.00","484341XXXXXX9849","1235" 
"2010-03-05","$80.00","414720XXXXXX5999","1235" 
"2010-03-05","$120.00","430679XXXXXX7591","1235" 
"2010-03-05","$30.00","542418XXXXXX7808","1235" 
"2010-03-05","$30.00","479853XXXXXX9293","1235" 
"2010-03-05","$60.00","517805XXXXXX2955","1235" 
"2010-03-05","$30.00","371534XXXXXX3008","1235" 
"2010-03-05","$75.00","484343XXXXXX9271","1235" 
"2010-03-05","$30.00","601149XXXXXX7519","1235" 
"2010-03-05","$60.00","546626XXXXXX7483","1235" 
"2010-03-05","$140.00","374716XXXXXX5424","1235" 
"2010-03-05","$60.00","558821XXXXXX3755","1235" 
"2010-03-05","$90.00","540168XXXXXX7006","1235" 
"2010-03-05","$110.00","540168XXXXXX7006","1235" 
"2010-03-05","$90.00","411774XXXXXX6774","1235" 
"2010-03-05","$140.00","426684XXXXXX8466","1235" 
"2010-03-05","$135.00","418587XXXXXX6362","1235" 
"2010-03-05","$60.00","371738XXXXXX1003","1235" 
"2010-03-05","$60.00","371579XXXXXX2001","1235" 
"2010-03-05","$60.00","377256XXXXXX1010","1235" 
"2010-03-05","$120.00","480012XXXXXX6791","1235" 
"2010-03-05","$30.00","403577XXXXXX8859","1235" 
"2010-03-05","$60.00","542418XXXXXX6108","1235" 
"2010-03-05","$45.00","601100XXXXXX1049","1235" 
"2010-03-05","$30.00","601100XXXXXX1049","1235" 
"2010-03-05","$105.00","431307XXXXXX3992","1235" 
"2010-03-05","$60.00","371343XXXXXX1005","1235" 
"2010-03-05","$90.00","431307XXXXXX3992","1235" 
"2010-03-05","$135.00","414720XXXXXX5737","1235" 
"2010-03-05","$60.00","601120XXXXXX1217","1235" 
"2010-03-05","$90.00","401180XXXXXX5364","1235" 
"2010-03-05","$165.00","434198XXXXXX1719","1235" 
"2010-03-05","$60.00","601120XXXXXX2983","1235" 
"2010-03-05","$75.00","601100XXXXXX6973","1235" 
"2010-03-05","$60.00","601100XXXXXX9134","1235" 
"2010-03-05","$100.00","371313XXXXXX1006","1235" 
"2010-03-05","$30.00","371280XXXXXX2007","1235" 
"2010-03-05","$30.00","371280XXXXXX2007","1235" 
"2010-03-05","$60.00","545236XXXXXX6322","1235" 
"2010-03-05","$30.00","372358XXXXXX1018","1235" 
"2010-03-06","$60.00","530787XXXXXX9417","1235" 
"2010-03-06","$280.00","371513XXXXXX1008","1235" 
"2010-03-06","$30.00","601120XXXXXX5965","1235" 
"2010-03-06","$30.00","377210XXXXXX2000","1235" 
"2010-03-06","$90.00","440872XXXXXX2337","1235" 
"2010-03-06","$60.00","484341XXXXXX9267","1235" 
"2010-03-06","$80.00","426684XXXXXX7538","1235" 
"2010-03-06","$30.00","542418XXXXXX2167","1235" 
"2010-03-06","$30.00","526341XXXXXX4829","1235" 
"2010-03-06","$60.00","546626XXXXXX7934","1235" 
"2010-03-06","$90.00","541065XXXXXX3503","1235" 
"2010-03-06","$30.00","601120XXXXXX9864","1235" 
"2010-03-06","$150.00","546626XXXXXX8459","1235" 
"2010-03-06","$60.00","540168XXXXXX6901","1235" 
"2010-03-06","$30.00","601100XXXXXX3630","1235" 
"2010-03-06","$60.00","540168XXXXXX3437","1235" 
"2010-03-06","$90.00","552815XXXXXX0394","1235" 
"2010-03-06","$60.00","540168XXXXXX0452","1235" 
"2010-03-06","$30.00","431351XXXXXX1591","1235" 
"2010-03-06","$30.00","549104XXXXXX0384","1235" 
"2010-03-06","$60.00","601100XXXXXX4220","1235" 
"2010-03-06","$30.00","372528XXXXXX1013","1235" 
"2010-03-06","$60.00","486830XXXXXX1009","1235" 
"2010-03-06","$30.00","414711XXXXXX5230","1235" 
"2010-03-06","$60.00","371264XXXXXX3009","1235" 
"2010-03-06","$60.00","546628XXXXXX4427","1235" 
"2010-03-06","$60.00","542418XXXXXX9724","1235" 
"2010-03-06","$30.00","377221XXXXXX1014","1235" 
"2010-03-06","$30.00","371311XXXXXX3006","1235" 
"2010-03-06","$75.00","372371XXXXXX1015","1235" 
"2010-03-06","$90.00","546616XXXXXX4688","1235" 
"2010-03-06","$90.00","540385XXXXXX1594","1235" 
"2010-03-06","$90.00","484341XXXXXX0837","1235" 
"2010-03-06","$30.00","371339XXXXXX1001","1235" 
"2010-03-06","$75.00","601120XXXXXX7227","1235" 
"2010-03-06","$60.00","377269XXXXXX1002","1235" 
"2010-03-06","$60.00","411770XXXXXX8746","1235" 
"2010-03-06","$90.00","542731XXXXXX7368","1235" 
"2010-03-06","$30.00","429420XXXXXX5699","1235" 
"2010-03-06","$60.00","371284XXXXXX1001","1235" 
"2010-03-06","$30.00","426452XXXXXX3733","1235" 
"2010-03-06","$90.00","601120XXXXXX7949","1235" 
"2010-03-06","$60.00","480011XXXXXX3218","1235" 
"2010-03-07","$30.00","546616XXXXXX4975","1235" 
"2010-03-07","$60.00","414778XXXXXX9211","1235" 
"2010-03-07","$30.00","404636XXXXXX8902","1235" 
"2010-03-07","$60.00","426684XXXXXX7539","1235" 
"2010-03-07","$30.00","549033XXXXXX7063","1235" 
"2010-03-07","$30.00","484341XXXXXX8333","1235" 
"2010-03-07","$90.00","371174XXXXXX4010","1235" 
"2010-03-07","$30.00","426684XXXXXX8783","1235" 
"2010-03-07","$105.00","601100XXXXXX9554","1235" 
"2010-03-07","$30.00","372538XXXXXX4018","1235" 
"2010-03-07","$90.00","480213XXXXXX1755","1235" 
"2010-03-07","$50.00","424631XXXXXX9234","1235" 
"2010-03-07","$60.00","480213XXXXXX1755","1235" 
"2010-03-07","$60.00","431307XXXXXX0153","1235" 
"2010-03-07","$60.00","540168XXXXXX3859","1235" 
"2010-03-07","$75.00","484341XXXXXX4849","1235" 
"2010-03-07","$60.00","372552XXXXXX1017","1235" 
"2010-03-07","$120.00","546616XXXXXX6158","1235" 
"2010-03-07","$60.00","446542XXXXXX4844","1235" 
"2010-03-07","$30.00","422695XXXXXX3617","1235" 
"2010-03-07","$60.00","446542XXXXXX2975","1235" 
"2010-03-07","$60.00","438857XXXXXX0550","1235" 
"2010-03-07","$60.00","377271XXXXXX1002","1235" 
"2010-03-07","$30.00","372500XXXXXX2007","1235" 
"2010-03-07","$60.00","426428XXXXXX4592","1235" 
"2010-03-07","$30.00","542418XXXXXX4164","1235" 
"2010-03-07","$120.00","546616XXXXXX1645","1235" 
"2010-03-07","$60.00","372525XXXXXX4003","1235" 
"2010-03-07","$30.00","441712XXXXXX5124","1235" 
"2010-03-07","$80.00","422834XXXXXX7266","1235" 
"2010-03-07","$30.00","374322XXXXXX7729","1235" 
"2010-03-07","$50.00","549035XXXXXX0446","1235" 
"2010-03-07","$370.00","484341XXXXXX4727","1235" 
"2010-03-07","$135.00","377220XXXXXX1007","1235" 
"2010-03-07","$30.00","601100XXXXXX2114","1235" 
"2010-03-07","$60.00","601100XXXXXX2114","1235" 
"2010-03-07","$370.00","546616XXXXXX5719","1235" 
"2010-03-07","$150.00","377239XXXXXX1010","1235" 
"2010-03-07","$30.00","431243XXXXXX0282","1235" 
"2010-03-07","$160.00","414709XXXXXX4964","1235" 
"2010-03-07","$120.00","431307XXXXXX7170","1235" 
"2010-03-07","$150.00","488893XXXXXX0308","1235" 
"2010-03-07","$120.00","422695XXXXXX8596","1235" 
"2010-03-07","$90.00","540302XXXXXX3344","1235" 
"2010-03-07","$90.00","543505XXXXXX9243","1235" 
"2010-03-07","$90.00","546626XXXXXX8271","1235" 
"2010-03-07","$30.00","542418XXXXXX8919","1235" 
"2010-03-07","$105.00","545800XXXXXX9061","1235" 
"2010-03-08","$30.00","431307XXXXXX1595","1235" 
"2010-03-08","$60.00","463668XXXXXX1149","1235" 
"2010-03-08","$75.00","424631XXXXXX4165","1235" 
"2010-03-08","$90.00","512257XXXXXX7973","1235" 
"2010-03-08","$60.00","485671XXXXXX5348","1235" 
"2010-03-08","$30.00","482890XXXXXX0018","1235" 
"2010-03-08","$30.00","601100XXXXXX1162","1235" 
"2010-03-08","$150.00","372529XXXXXX1014","1235" 
"2010-03-08","$30.00","371559XXXXXX1002","1235" 
"2010-03-08","$110.00","371506XXXXXX1007","1235" 
"2010-03-08","$30.00","536993XXXXXX0091","1235" 
"2010-03-08","$90.00","541349XXXXXX0980","1235" 
"2010-03-08","$150.00","542418XXXXXX6766","1235" 
"2010-03-08","$75.00","542418XXXXXX2663","1235" 
"2010-03-08","$120.00","371289XXXXXX2008","1235" 
"2010-03-08","$75.00","426692XXXXXX3130","1235" 
"2010-03-08","$30.00","542418XXXXXX4404","1235" 
"2010-03-08","$30.00","474476XXXXXX3537","1235" 
"2010-03-08","$60.00","470788XXXXXX6360","1235" 
"2010-03-08","$60.00","371285XXXXXX2012","1235" 
"2010-03-08","$60.00","601120XXXXXX6259","1235" 
"2010-03-08","$40.00","427514XXXXXX5348","1235" 
"2010-03-08","$60.00","426684XXXXXX2489","1235" 
"2010-03-08","$150.00","372374XXXXXX1008","1235" 
"2010-03-08","$30.00","371744XXXXXX1009","1235" 
"2010-03-08","$30.00","542418XXXXXX0744","1235" 
"2010-03-08","$30.00","546616XXXXXX0497","1235" 
"2010-03-08","$60.00","431351XXXXXX6574","1235" 
"2010-03-08","$160.00","430572XXXXXX0710","1235" 
"2010-03-08","$165.00","546616XXXXXX2394","1235" 
"2010-03-08","$60.00","464018XXXXXX3887","1235" 
"2010-03-08","$120.00","414736XXXXXX0176","1235" 
"2010-03-08","$15.00","376732XXXXXX1011","1235" 
"2010-03-08","$60.00","376732XXXXXX1011","1235" 
"2010-03-08","$105.00","549091XXXXXX4202","1235" 
"2010-03-08","$30.00","546616XXXXXX3052","1235" 
"2010-03-08","$30.00","546616XXXXXX3052","1235" 
"2010-03-08","$30.00","484341XXXXXX4336","1235" 
"2010-03-08","$30.00","377254XXXXXX1002","1235" 
"2010-03-08","$60.00","433237XXXXXX6638","1235" 
"2010-03-08","$30.00","441712XXXXXX9712","1235" 
"2010-03-08","$90.00","371516XXXXXX2000","1235" 
"2010-03-08","$60.00","446542XXXXXX1437","1235" 
"2010-03-08","$30.00","414720XXXXXX8346","1235" 
"2010-03-08","$30.00","433993XXXXXX3579","1235" 
"2010-03-08","$30.00","546616XXXXXX6408","1235" 
"2010-03-08","$30.00","371328XXXXXX1017","1235" 
"2010-03-08","$60.00","371519XXXXXX2011","1235" 
"2010-03-08","$60.00","464018XXXXXX6847","1235" 
"2010-03-08","$60.00","464018XXXXXX6847","1235" 
"2010-03-08","$30.00","422695XXXXXX0376","1235" 
"2010-03-08","$30.00","517805XXXXXX7196","1235" 
"2010-03-08","$30.00","431307XXXXXX3196","1235" 
"2010-03-08","$60.00","484341XXXXXX8219","1235" 
"2010-03-08","$60.00","601100XXXXXX8964","1235" 
"2010-03-08","$30.00","601100XXXXXX8964","1235" 
"2010-03-08","$30.00","371744XXXXXX2012","1235" 
"2010-03-08","$60.00","546616XXXXXX4603","1235" 
"2010-03-08","$90.00","372351XXXXXX3002","1235" 
"2010-03-08","$40.00","542418XXXXXX7876","1235" 
"2010-03-08","$145.00","544927XXXXXX0888","1235" 
"2010-03-08","$60.00","401180XXXXXX0924","1235" 
"2010-03-08","$30.00","371505XXXXXX3012","1235" 
"2010-03-08","$60.00","377213XXXXXX1002","1235" 
"2010-03-08","$60.00","371319XXXXXX1003","1235" 
"2010-03-08","$165.00","426690XXXXXX2818","1235" 
"2010-03-08","$60.00","438857XXXXXX4542","1235" 
"2010-03-08","$30.00","546616XXXXXX5186","1235" 
"2010-03-08","$280.00","441712XXXXXX9178","1235" 
"2010-03-08","$310.00","412174XXXXXX2943","1235" 
"2010-03-08","$30.00","512107XXXXXX9710","1235" 
"2010-03-08","$30.00","512107XXXXXX9710","1235" 
"2010-03-08","$165.00","371743XXXXXX1017","1235" 
"2010-03-08","$75.00","514865XXXXXX5464","1235" 
"2010-03-08","$60.00","514865XXXXXX5464","1235" 
"2010-03-08","$30.00","372372XXXXXX1008","1235" 
"2010-03-08","$90.00","552851XXXXXX5637","1235" 
"2010-03-08","$90.00","377253XXXXXX1009","1235" 
"2010-03-08","$30.00","412800XXXXXX3934","1235" 
"2010-03-09","$60.00","371278XXXXXX1011","1235" 
"2010-03-09","$30.00","372390XXXXXX2009","1235" 
"2010-03-09","$30.00","372574XXXXXX1005","1235" 
"2010-03-09","$30.00","372574XXXXXX1005","1235" 
"2010-03-09","$30.00","552815XXXXXX4118","1235" 
"2010-03-09","$30.00","484341XXXXXX4970","1235" 
"2010-03-09","$30.00","376741XXXXXX1018","1235" 
"2010-03-09","$85.00","414720XXXXXX7786","1235" 
"2010-03-09","$60.00","546616XXXXXX2106","1235" 
"2010-03-09","$60.00","546616XXXXXX2106","1235" 
"2010-03-09","$60.00","376731XXXXXX1005","1235" 
"2010-03-09","$30.00","431243XXXXXX0282","1235" 
"2010-03-09","$30.00","601100XXXXXX1868","1235" 
"2010-03-09","$30.00","441716XXXXXX5787","1235" 
"2010-03-09","$30.00","475427XXXXXX6899","1235" 
"2010-03-09","$85.00","546632XXXXXX7951","1235" 
"2010-03-09","$30.00","484341XXXXXX3140","1235" 
"2010-03-09","$30.00","552815XXXXXX7336","1235" 
"2010-03-09","$30.00","549085XXXXXX6622","1235" 
"2010-03-09","$60.00","371342XXXXXX1014","1235" 
"2010-03-09","$90.00","426684XXXXXX7728","1235" 
"2010-03-09","$90.00","414709XXXXXX5470","1235" 
"2010-03-09","$30.00","474476XXXXXX7799","1235" 
"2010-03-09","$60.00","429420XXXXXX2352","1235" 
"2010-03-09","$30.00","412800XXXXXX3190","1235" 
"2010-03-09","$60.00","377291XXXXXX2019","1235" 
"2010-03-09","$30.00","431307XXXXXX3616","1235" 
"2010-03-09","$60.00","429420XXXXXX1611","1235" 
"2010-03-09","$60.00","372504XXXXXX3015","1235" 
"2010-03-09","$120.00","424631XXXXXX1733","1235" 
"2010-03-09","$90.00","372536XXXXXX1010","1235" 
"2010-03-09","$135.00","426428XXXXXX3877","1235" 
"2010-03-09","$30.00","426684XXXXXX9217","1235" 
"2010-03-09","$30.00","546630XXXXXX1519","1235" 
"2010-03-09","$30.00","377248XXXXXX1001","1235" 
"2010-03-09","$30.00","546632XXXXXX6970","1235" 
"2010-03-09","$30.00","474473XXXXXX5869","1235" 
"2010-03-09","$30.00","438857XXXXXX3157","1235" 
"2010-03-09","$120.00","552851XXXXXX9930","1235" 
"2010-03-09","$30.00","542418XXXXXX9834","1235" 
"2010-03-09","$45.00","411770XXXXXX1765","1235" 
"2010-03-09","$30.00","438857XXXXXX8987","1235" 
"2010-03-09","$30.00","488893XXXXXX7100","1235" 
"2010-03-09","$30.00","426684XXXXXX1386","1235" 
"2010-03-09","$30.00","371521XXXXXX2008","1235" 
"2010-03-09","$30.00","425291XXXXXX7046","1235" 
"2010-03-09","$165.00","546604XXXXXX1376","1235" 
"2010-03-09","$60.00","372571XXXXXX3004","1235" 
"2010-03-09","$30.00","546626XXXXXX5457","1235" 
"2010-03-09","$60.00","526031XXXXXX6660","1235" 
"2010-03-09","$110.00","549033XXXXXX8878","1235" 
"2010-03-09","$30.00","400344XXXXXX2601","1235" 
"2010-03-09","$90.00","371747XXXXXX1000","1235" 
"2010-03-09","$30.00","377282XXXXXX1005","1235" 
"2010-03-09","$30.00","371747XXXXXX1000","1235" 
"2010-03-09","$30.00","601100XXXXXX8450","1235" 
"2010-03-09","$90.00","438857XXXXXX2225","1235" 
"2010-03-09","$30.00","377286XXXXXX1004","1235" 
"2010-03-09","$60.00","377298XXXXXX1000","1235" 
"2010-03-09","$15.00","484341XXXXXX2642","1235" 
"2010-03-09","$30.00","552851XXXXXX6952","1235" 
"2010-03-09","$30.00","438854XXXXXX7910","1235" 
"2010-03-09","$60.00","546616XXXXXX9699","1235" 
"2010-03-09","$30.00","400344XXXXXX8375","1235" 
"2010-03-09","$60.00","546616XXXXXX4630","1235" 
"2010-03-09","$30.00","414718XXXXXX4797","1235" 
"2010-03-09","$30.00","438857XXXXXX2893","1235" 
"2010-03-09","$60.00","546638XXXXXX6230","1235" 
"2010-03-09","$30.00","549035XXXXXX7481","1235" 
"2010-03-10","$55.00","549084XXXXXX6927","1235" 
"2010-03-10","$60.00","549084XXXXXX6927","1235" 
"2010-03-10","$280.00","438857XXXXXX2412","1235" 
"2010-03-10","$45.00","412800XXXXXX4892","1235" 
"2010-03-10","$15.00","484341XXXXXX4013","1235" 
"2010-03-10","$60.00","549096XXXXXX5345","1235" 
"2010-03-10","$30.00","542418XXXXXX7428","1235" 
"2010-03-10","$90.00","546604XXXXXX5694","1235" 
"2010-03-10","$100.00","376750XXXXXX1008","1235" 
"2010-03-10","$60.00","373995XXXXXX3022","1235" 
"2010-03-10","$120.00","488893XXXXXX1794","1235" 
"2010-03-10","$50.00","542418XXXXXX0797","1235" 
"2010-03-10","$50.00","542418XXXXXX0797","1235" 
"2010-03-10","$60.00","542418XXXXXX1179","1235" 
"2010-03-10","$90.00","601149XXXXXX2965","1235" 
"2010-03-10","$60.00","411770XXXXXX8594","1235" 
"2010-03-10","$30.00","429404XXXXXX7716","1235" 
"2010-03-10","$30.00","426605XXXXXX2650","1235" 
"2010-03-10","$90.00","470320XXXXXX5477","1235" 
"2010-03-10","$30.00","546616XXXXXX6822","1235" 
"2010-03-10","$95.00","549099XXXXXX6732","1235" 
"2010-03-10","$30.00","426429XXXXXX5810","1235" 
"2010-03-10","$30.00","377228XXXXXX1008","1235" 
"2010-03-10","$60.00","377297XXXXXX1010","1235" 
"2010-03-10","$60.00","480011XXXXXX1048","1235" 
"2010-03-10","$105.00","401981XXXXXX3623","1235" 
"2010-03-10","$45.00","542418XXXXXX0578","1235" 
"2010-03-10","$85.00","371519XXXXXX3013","1235" 
"2010-03-10","$30.00","426429XXXXXX8391","1235" 
"2010-03-10","$30.00","426684XXXXXX3445","1235" 
"2010-03-10","$75.00","542418XXXXXX5934","1235" 
"2010-03-10","$30.00","540168XXXXXX2772","1235" 
"2010-03-10","$60.00","442796XXXXXX0025","1235" 
"2010-03-10","$60.00","546616XXXXXX2018","1235" 
"2010-03-10","$30.00","475643XXXXXX8449","1235" 
"2010-03-10","$105.00","540168XXXXXX9911","1235" 
"2010-03-10","$90.00","546616XXXXXX1645","1235" 
"2010-03-10","$30.00","544368XXXXXX6941","1235" 
"2010-03-10","$30.00","545210XXXXXX9117","1235" 
"2010-03-10","$60.00","542418XXXXXX4214","1235" 
"2010-03-10","$60.00","432624XXXXXX2920","1235" 
"2010-03-10","$60.00","377214XXXXXX2009","1235" 
"2010-03-10","$30.00","546630XXXXXX0345","1235" 
"2010-03-10","$30.00","414718XXXXXX0224","1235" 
"2010-03-10","$105.00","426428XXXXXX5176","1235" 
"2010-03-10","$30.00","601100XXXXXX6837","1235" 
"2010-03-10","$90.00","426684XXXXXX8710","1235" 
"2010-03-10","$200.00","431243XXXXXX5543","1235" 
"2010-03-10","$90.00","419000XXXXXX8297","1235" 
"2010-03-10","$60.00","478200XXXXXX0808","1235" 
"2010-03-10","$30.00","414709XXXXXX8501","1235" 
"2010-03-10","$30.00","418586XXXXXX8554","1235" 
"2010-03-10","$60.00","540302XXXXXX2980","1235" 
"2010-03-10","$30.00","426684XXXXXX8710","1235" 
"2010-03-10","$160.00","372572XXXXXX2001","1235" 
"2010-03-10","$90.00","431196XXXXXX4863","1235" 
"2010-03-10","$60.00","414720XXXXXX8088","1235" 
"2010-03-10","$60.00","426429XXXXXX1418","1235" 
"2010-03-10","$75.00","377258XXXXXX1009","1235" 
"2010-03-10","$60.00","484343XXXXXX5669","1235" 
"2010-03-10","$30.00","549944XXXXXX1405","1235" 
"2010-03-10","$60.00","601100XXXXXX9495","1235" 
"2010-03-10","$30.00","546616XXXXXX6512","1235" 
"2010-03-10","$30.00","400344XXXXXX9552","1235" 
"2010-03-11","$30.00","438854XXXXXX3716","1235" 
"2010-03-11","$60.00","377256XXXXXX1000","1235" 
"2010-03-11","$30.00","518337XXXXXX7613","1235" 
"2010-03-11","$60.00","422635XXXXXX7970","1235" 
"2010-03-11","$30.00","512107XXXXXX3488","1235" 
"2010-03-11","$30.00","601136XXXXXX7558","1235" 
"2010-03-11","$135.00","601149XXXXXX8921","1235" 
"2010-03-11","$30.00","542418XXXXXX1582","1235" 
"2010-03-11","$30.00","420253XXXXXX4188","1235" 
"2010-03-11","$30.00","420253XXXXXX4188","1235" 
"2010-03-11","$30.00","541065XXXXXX1854","1235" 
"2010-03-11","$50.00","542418XXXXXX1582","1235" 
"2010-03-11","$60.00","546632XXXXXX4829","1235" 
"2010-03-11","$150.00","371514XXXXXX3008","1235" 
"2010-03-11","$30.00","514021XXXXXX7646","1235" 
"2010-03-11","$30.00","372357XXXXXX1009","1235" 
"2010-03-11","$30.00","372357XXXXXX1009","1235" 
"2010-03-11","$30.00","544974XXXXXX5715","1235" 
"2010-03-11","$60.00","601120XXXXXX4547","1235" 
"2010-03-11","$30.00","601136XXXXXX5154","1235" 
"2010-03-11","$90.00","434256XXXXXX8787","1235" 
"2010-03-11","$30.00","542418XXXXXX1002","1235" 
"2010-03-11","$30.00","377256XXXXXX1000","1235" 
"2010-03-11","$30.00","419008XXXXXX3244","1235" 
"2010-03-11","$60.00","546616XXXXXX2382","1235" 
"2010-03-11","$15.00","601100XXXXXX1503","1235" 
"2010-03-11","$30.00","372520XXXXXX2018","1235" 
"2010-03-11","$30.00","377258XXXXXX1001","1235" 
"2010-03-11","$30.00","546632XXXXXX3933","1235" 
"2010-03-11","$60.00","552815XXXXXX9517","1235" 
"2010-03-11","$60.00","414720XXXXXX9545","1235" 
"2010-03-11","$60.00","542418XXXXXX6282","1235" 
"2010-03-11","$30.00","601100XXXXXX9384","1235" 
"2010-03-11","$30.00","412800XXXXXX9650","1235" 
"2010-03-11","$30.00","426465XXXXXX7561","1235" 
"2010-03-11","$30.00","484343XXXXXX4672","1235" 
"2010-03-11","$30.00","431307XXXXXX5646","1235" 
"2010-03-11","$150.00","488894XXXXXX9681","1235" 
"2010-03-11","$120.00","549113XXXXXX5019","1235" 
"2010-03-11","$120.00","546616XXXXXX1982","1235" 
"2010-03-11","$60.00","430594XXXXXX3176","1235" 
"2010-03-11","$30.00","431307XXXXXX8653","1235" 
"2010-03-11","$30.00","371339XXXXXX1001","1235" 
"2010-03-11","$30.00","431307XXXXXX5646","1235" 
"2010-03-11","$30.00","482853XXXXXX8012","1235" 
"2010-03-11","$30.00","431307XXXXXX8653","1235" 
"2010-03-11","$80.00","546616XXXXXX9816","1235" 
"2010-03-11","$30.00","377257XXXXXX1015","1235" 
"2010-03-11","$30.00","414718XXXXXX0631","1235" 
"2010-03-11","$1000.00","430741XXXXXX5109","1235" 
"2010-03-11","$60.00","377227XXXXXX4008","1235" 
"2010-03-11","$90.00","403769XXXXXX6229","1235" 
"2010-03-11","$30.00","546632XXXXXX3933","1235" 
"2010-03-11","$75.00","377258XXXXXX1017","1235" 
"2010-03-11","$150.00","412800XXXXXX3933","1235" 
"2010-03-11","$30.00","545628XXXXXX5922","1235" 
"2010-03-11","$15.00","484341XXXXXX4158","1235" 
"2010-03-11","$75.00","422695XXXXXX1509","1235" 
"2010-03-11","$30.00","542418XXXXXX3423","1235" 
"2010-03-11","$135.00","546616XXXXXX8273","1235" 
"2010-03-11","$30.00","512107XXXXXX2975","1235" 
"2010-03-11","$165.00","601100XXXXXX6690","1235" 
"2010-03-11","$30.00","542418XXXXXX0511","1235" 
"2010-03-11","$30.00","546616XXXXXX7288","1235" 
"2010-03-11","$50.00","371328XXXXXX1012","1235" 
"2010-03-11","$30.00","601140XXXXXX4117","1235" 
"2010-03-11","$30.00","545236XXXXXX7145","1235" 
"2010-03-11","$120.00","601100XXXXXX7335","1235" 
"2010-03-11","$30.00","426692XXXXXX4042","1235" 
"2010-03-11","$120.00","435603XXXXXX0542","1235" 
"2010-03-11","$60.00","426684XXXXXX5437","1235" 
"2010-03-11","$30.00","546604XXXXXX0938","1235" 
"2010-03-12","$60.00","545236XXXXXX3636","1235" 
"2010-03-12","$15.00","426684XXXXXX3426","1235" 
"2010-03-12","$40.00","601149XXXXXX3135","1235" 
"2010-03-12","$30.00","601100XXXXXX9425","1235" 
"2010-03-12","$90.00","482049XXXXXX1397","1235" 
"2010-03-12","$30.00","484341XXXXXX9590","1235" 
"2010-03-12","$30.00","601100XXXXXX2991","1235" 
"2010-03-12","$30.00","544974XXXXXX5715","1235" 
"2010-03-12","$30.00","441103XXXXXX0972","1235" 
"2010-03-12","$60.00","463668XXXXXX1169","1235" 
"2010-03-12","$120.00","546630XXXXXX8500","1235" 
"2010-03-12","$60.00","480012XXXXXX8035","1235" 
"2010-03-12","$45.00","546651XXXXXX3477","1235" 
"2010-03-12","$30.00","371952XXXXXX1005","1235" 
"2010-03-12","$60.00","426684XXXXXX9423","1235" 
"2010-03-12","$30.00","488893XXXXXX9622","1235" 
"2010-03-12","$45.00","601120XXXXXX6300","1235" 
"2010-03-12","$30.00","552815XXXXXX7272","1235" 
"2010-03-12","$30.00","545236XXXXXX9198","1235" 
"2010-03-12","$30.00","414709XXXXXX1106","1235" 
"2010-03-12","$30.00","542418XXXXXX9894","1235" 
"2010-03-12","$50.00","432630XXXXXX9998","1235" 
"2010-03-12","$60.00","546616XXXXXX9352","1235" 
"2010-03-12","$30.00","372359XXXXXX1000","1235" 
"2010-03-12","$30.00","546616XXXXXX2374","1235" 
"2010-03-12","$30.00","546632XXXXXX9974","1235" 
"2010-03-12","$60.00","372524XXXXXX2011","1235" 
"2010-03-12","$30.00","372524XXXXXX2011","1235" 
"2010-03-12","$330.00","426428XXXXXX9428","1235" 
"2010-03-12","$60.00","486895XXXXXX3990","1235" 
"2010-03-12","$60.00","546616XXXXXX9522","1235" 
"2010-03-12","$60.00","541349XXXXXX4088","1235" 
"2010-03-12","$90.00","371314XXXXXX1001","1235" 
"2010-03-12","$30.00","442644XXXXXX9435","1235" 
"2010-03-12","$75.00","541711XXXXXX2457","1235" 
"2010-03-12","$150.00","426651XXXXXX9013","1235" 
"2010-03-12","$30.00","372379XXXXXX3003","1235" 
"2010-03-13","$120.00","371508XXXXXX1002","1235" 
"2010-03-13","$30.00","546616XXXXXX0519","1235" 
"2010-03-13","$30.00","511456XXXXXX0996","1235" 
"2010-03-13","$30.00","372532XXXXXX2002","1235" 
"2010-03-13","$60.00","417025XXXXXX9966","1235" 
"2010-03-13","$30.00","464018XXXXXX4355","1235" 
"2010-03-13","$60.00","546616XXXXXX5684","1235" 
"2010-03-13","$30.00","426429XXXXXX6881","1235" 
"2010-03-13","$30.00","488893XXXXXX3594","1235" 
"2010-03-13","$30.00","601100XXXXXX2204","1235" 
"2010-03-13","$120.00","372347XXXXXX2010","1235" 
"2010-03-13","$120.00","419310XXXXXX7209","1235" 
"2010-03-13","$280.00","601120XXXXXX4145","1235" 
"2010-03-13","$60.00","484343XXXXXX3505","1235" 
"2010-03-13","$30.00","441712XXXXXX7326","1235" 
"2010-03-13","$60.00","601120XXXXXX7373","1235" 
"2010-03-13","$30.00","484376XXXXXX3024","1235" 
"2010-03-13","$30.00","422695XXXXXX3143","1235" 
"2010-03-13","$105.00","601120XXXXXX1127","1235" 
"2010-03-13","$30.00","372578XXXXXX2000","1235" 
"2010-03-13","$30.00","474472XXXXXX4903","1235" 
"2010-03-13","$45.00","546616XXXXXX8026","1235" 
"2010-03-13","$30.00","464018XXXXXX9023","1235" 
"2010-03-13","$60.00","601149XXXXXX8757","1235" 
"2010-03-13","$90.00","377290XXXXXX1011","1235" 
"2010-03-13","$30.00","601149XXXXXX6736","1235" 
"2010-03-13","$30.00","438857XXXXXX0978","1235" 
"2010-03-13","$60.00","372350XXXXXX1008","1235" 
"2010-03-13","$30.00","441477XXXXXX0672","1235" 
"2010-03-13","$20.00","557566XXXXXX3018","1235" 
"2010-03-13","$90.00","371508XXXXXX1011","1235" 
"2010-03-13","$60.00","372543XXXXXX1011","1235" 
"2010-03-13","$30.00","371719XXXXXX2005","1235" 
"2010-03-13","$30.00","423317XXXXXX3844","1235" 
"2010-03-13","$60.00","484343XXXXXX8255","1235" 
"2010-03-13","$60.00","432626XXXXXX5542","1235" 
"2010-03-13","$30.00","558832XXXXXX8961","1235" 
"2010-03-13","$15.00","406057XXXXXX6712","1235" 
"2010-03-13","$30.00","601140XXXXXX8557","1235" 
"2010-03-13","$30.00","438857XXXXXX4542","1235" 
"2010-03-13","$15.00","403784XXXXXX6150","1235" 
"2010-03-13","$120.00","414720XXXXXX0935","1235" 
"2010-03-13","$30.00","601136XXXXXX1556","1235" 
"2010-03-13","$30.00","411770XXXXXX3031","1235" 
"2010-03-13","$30.00","377218XXXXXX1001","1235" 
"2010-03-13","$30.00","601120XXXXXX2604","1235" 
"2010-03-13","$30.00","601100XXXXXX5300","1235" 
"2010-03-13","$15.00","546616XXXXXX0693","1235" 
"2010-03-13","$15.00","542418XXXXXX9154","1235" 
"2010-03-13","$30.00","484341XXXXXX6226","1235" 
"2010-03-13","$30.00","552851XXXXXX1018","1235" 
"2010-03-13","$30.00","552851XXXXXX1018","1235" 
"2010-03-13","$30.00","371340XXXXXX2005","1235" 
"2010-03-13","$30.00","377215XXXXXX1018","1235" 
"2010-03-13","$30.00","372529XXXXXX2010","1235" 
"2010-03-13","$90.00","426681XXXXXX8398","1235" 
"2010-03-14","$145.00","546616XXXXXX5153","1235" 
"2010-03-14","$75.00","549050XXXXXX5726","1235" 
"2010-03-14","$30.00","426684XXXXXX3166","1235" 
"2010-03-14","$60.00","542418XXXXXX3161","1235" 
"2010-03-14","$30.00","426681XXXXXX9594","1235" 
"2010-03-14","$30.00","517805XXXXXX3254","1235" 
"2010-03-14","$280.00","517805XXXXXX3254","1235" 
"2010-03-14","$30.00","470416XXXXXX6987","1235" 
"2010-03-14","$75.00","488893XXXXXX5004","1235" 
"2010-03-14","$120.00","546626XXXXXX8942","1235" 
"2010-03-14","$60.00","446542XXXXXX6370","1235" 
"2010-03-14","$30.00","542418XXXXXX5305","1235" 
"2010-03-14","$30.00","540302XXXXXX5199","1235" 
"2010-03-14","$30.00","546616XXXXXX7673","1235" 
"2010-03-14","$60.00","439707XXXXXX1107","1235" 
"2010-03-14","$60.00","377286XXXXXX1005","1235" 
"2010-03-14","$30.00","486796XXXXXX3688","1235" 
"2010-03-14","$60.00","426429XXXXXX9821","1235" 
"2010-03-14","$15.00","426429XXXXXX9821","1235" 
"2010-03-14","$90.00","435688XXXXXX0259","1235" 
"2010-03-14","$15.00","552851XXXXXX7308","1235" 
"2010-03-14","$60.00","552851XXXXXX7308","1235" 
"2010-03-14","$60.00","372378XXXXXX2016","1235" 
"2010-03-14","$60.00","484343XXXXXX0630","1235" 
"2010-03-14","$60.00","484341XXXXXX6978","1235" 
"2010-03-14","$60.00","431196XXXXXX6888","1235" 
"2010-03-14","$30.00","542418XXXXXX4537","1235" 
"2010-03-14","$280.00","422587XXXXXX3138","1235" 
"2010-03-14","$45.00","431196XXXXXX9952","1235" 
"2010-03-14","$90.00","542418XXXXXX3761","1235" 
"2010-03-14","$30.00","541065XXXXXX4611","1235" 
"2010-03-14","$15.00","601136XXXXXX2181","1235" 
"2010-03-14","$90.00","374350XXXXXX7144","1235" 
"2010-03-14","$60.00","546616XXXXXX7231","1235" 
"2010-03-14","$30.00","542418XXXXXX6472","1235" 
"2010-03-14","$30.00","601120XXXXXX2983","1235" 
"2010-03-14","$30.00","371315XXXXXX1006","1235" 
"2010-03-14","$90.00","601120XXXXXX1991","1235" 
"2010-03-14","$60.00","371275XXXXXX1006","1235" 
"2010-03-14","$430.00","371736XXXXXX1004","1235" 
"2010-03-14","$30.00","431307XXXXXX6508","1235" 
"2010-03-14","$60.00","372390XXXXXX1003","1235" 
"2010-03-14","$60.00","431196XXXXXX3365","1235" 
"2010-03-14","$50.00","371751XXXXXX1009","1235" 
"2010-03-14","$40.00","448275XXXXXX2110","1235" 
"2010-03-14","$135.00","377263XXXXXX1007","1235" 
"2010-03-14","$60.00","464018XXXXXX8347","1235" 
"2010-03-14","$60.00","544927XXXXXX5310","1235" 
"2010-03-14","$30.00","546616XXXXXX5848","1235" 
"2010-03-14","$60.00","488893XXXXXX0739","1235" 
"2010-03-14","$30.00","455592XXXXXX8207","1235" 
"2010-03-14","$120.00","372570XXXXXX1000","1235" 
"2010-03-14","$30.00","464018XXXXXX2203","1235" 
"2010-03-14","$30.00","377239XXXXXX1009","1235" 
"2010-03-14","$60.00","446539XXXXXX1475","1235" 
"2010-03-14","$60.00","400344XXXXXX0093","1235" 
"2010-03-14","$90.00","542418XXXXXX1664","1235" 
"2010-03-14","$15.00","549099XXXXXX4393","1235" 
"2010-03-14","$60.00","455950XXXXXX9537","1235" 
"2010-03-14","$50.00","540168XXXXXX7434","1235" 
"2010-03-14","$60.00","546616XXXXXX9134","1235" 
"2010-03-14","$30.00","414709XXXXXX1794","1235" 
"2010-03-14","$30.00","542418XXXXXX1002","1235" 
"2010-03-14","$60.00","552815XXXXXX9488","1235" 
"2010-03-14","$60.00","372392XXXXXX5016","1235" 
"2010-03-14","$30.00","549109XXXXXX5155","1235" 
"2010-03-14","$60.00","421764XXXXXX8790","1235" 
"2010-03-14","$30.00","421764XXXXXX8790","1235" 
"2010-03-14","$30.00","601149XXXXXX9465","1235" 
"2010-03-14","$55.00","542418XXXXXX1452","1235" 
"2010-03-14","$30.00","426684XXXXXX1241","1235" 
"2010-03-14","$30.00","372731XXXXXX1007","1235" 
"2010-03-14","$30.00","371519XXXXXX1007","1235" 
"2010-03-14","$120.00","542418XXXXXX7624","1235" 
"2010-03-14","$60.00","371319XXXXXX4008","1235" 
"2010-03-14","$165.00","601100XXXXXX9212","1235" 
"2010-03-14","$415.00","372536XXXXXX2000","1235" 
"2010-03-14","$30.00","427138XXXXXX7359","1235" 
"2010-03-14","$30.00","482857XXXXXX8030","1235" 
"2010-03-14","$30.00","411770XXXXXX2705","1235" 
"2010-03-14","$60.00","464018XXXXXX7548","1235" 
"2010-03-14","$30.00","412800XXXXXX3451","1235" 
"2010-03-14","$100.00","426692XXXXXX2460","1235" 
"2010-03-14","$30.00","536994XXXXXX1686","1235" 
"2010-03-14","$30.00","601120XXXXXX9103","1235" 
"2010-03-14","$90.00","377263XXXXXX1016","1235" 
"2010-03-14","$15.00","438852XXXXXX8842","1235" 
"2010-03-14","$30.00","438852XXXXXX8842","1235" 
"2010-03-14","$60.00","373982XXXXXX4004","1235" 
"2010-03-14","$60.00","526224XXXXXX4785","1235" 
"2010-03-14","$105.00","426428XXXXXX4846","1235" 
"2010-03-14","$60.00","377230XXXXXX1021","1235" 
"2010-03-14","$60.00","480011XXXXXX1207","1235" 
"2010-03-14","$60.00","536993XXXXXX2606","1235" 
"2010-03-14","$30.00","377279XXXXXX1002","1235" 
"2010-03-14","$60.00","601130XXXXXX7998","1235" 
"2010-03-14","$30.00","446542XXXXXX2679","1235" 
"2010-03-14","$100.00","460222XXXXXX2809","1235" 
"2010-03-14","$30.00","549091XXXXXX7079","1235" 
"2010-03-14","$120.00","429404XXXXXX8595","1235" 
"2010-03-14","$320.00","430168XXXXXX0950","1235" 
"2010-03-15","$60.00","546616XXXXXX4290","1235" 
"2010-03-15","$135.00","601130XXXXXX4328","1235" 
"2010-03-15","$30.00","601120XXXXXX8145","1235" 
"2010-03-15","$30.00","545236XXXXXX4972","1235" 
"2010-03-15","$120.00","549033XXXXXX3123","1235" 
"2010-03-15","$75.00","484341XXXXXX9140","1235" 
"2010-03-15","$30.00","542418XXXXXX9348","1235" 
"2010-03-15","$30.00","464018XXXXXX5036","1235" 
"2010-03-15","$50.00","540302XXXXXX5007","1235" 
"2010-03-15","$50.00","540302XXXXXX3119","1235" 
"2010-03-15","$120.00","407130XXXXXX0060","1235" 
"2010-03-15","$60.00","541712XXXXXX7871","1235" 
"2010-03-15","$60.00","601100XXXXXX4077","1235" 
"2010-03-15","$30.00","517805XXXXXX8608","1235" 
"2010-03-15","$200.00","426684XXXXXX3718","1235" 
"2010-03-15","$30.00","518337XXXXXX6858","1235" 
"2010-03-15","$15.00","484341XXXXXX0087","1235" 
"2010-03-15","$30.00","414709XXXXXX9359","1235" 
"2010-03-15","$60.00","419002XXXXXX3389","1235" 
"2010-03-15","$135.00","377266XXXXXX1000","1235" 
"2010-03-15","$90.00","426692XXXXXX5617","1235" 
"2010-03-15","$150.00","545236XXXXXX9193","1235" 
"2010-03-15","$120.00","546632XXXXXX0632","1235" 
"2010-03-15","$15.00","462302XXXXXX0670","1235" 
"2010-03-15","$30.00","430858XXXXXX5457","1235" 
"2010-03-15","$120.00","371311XXXXXX2009","1235" 
"2010-03-15","$45.00","546616XXXXXX3302","1235" 
"2010-03-15","$150.00","371520XXXXXX2004","1235" 
"2010-03-15","$120.00","542418XXXXXX3206","1235" 
"2010-03-15","$30.00","541660XXXXXX0476","1235" 
"2010-03-15","$30.00","482870XXXXXX6029","1235" 
"2010-03-15","$200.00","400344XXXXXX5451","1235" 
"2010-03-15","$30.00","545800XXXXXX5984","1235" 
"2010-03-15","$60.00","426684XXXXXX4499","1235" 
"2010-03-15","$30.00","488894XXXXXX9405","1235" 
"2010-03-15","$30.00","488894XXXXXX9405","1235" 
"2010-03-15","$60.00","372341XXXXXX1046","1235" 
"2010-03-15","$60.00","546638XXXXXX4690","1235" 
"2010-03-15","$30.00","545236XXXXXX4972","1235" 
"2010-03-15","$60.00","371545XXXXXX5017","1235" 
"2010-03-15","$80.00","541660XXXXXX0476","1235" 
"2010-03-15","$30.00","426429XXXXXX3508","1235" 
"2010-03-15","$60.00","546616XXXXXX3303","1235" 
"2010-03-15","$30.00","420253XXXXXX4953","1235" 
"2010-03-15","$30.00","484341XXXXXX7190","1235" 
"2010-03-15","$60.00","371747XXXXXX1009","1235" 
"2010-03-15","$30.00","484341XXXXXX0934","1235" 
"2010-03-15","$60.00","542418XXXXXX7411","1235" 
"2010-03-15","$30.00","546616XXXXXX7327","1235" 
"2010-03-15","$30.00","414778XXXXXX7752","1235" 
"2010-03-15","$50.00","601100XXXXXX4430","1235" 
"2010-03-15","$15.00","429420XXXXXX4919","1235" 
"2010-03-15","$45.00","474478XXXXXX5892","1235" 
"2010-03-15","$30.00","431304XXXXXX1968","1235" 
"2010-03-15","$30.00","546616XXXXXX4388","1235" 
"2010-03-15","$30.00","542432XXXXXX7341","1235" 
"2010-03-15","$180.00","542418XXXXXX4020","1235" 
"2010-03-15","$30.00","542418XXXXXX0052","1235" 
"2010-03-15","$90.00","549035XXXXXX0204","1235" 
"2010-03-15","$60.00","484341XXXXXX7612","1235" 
"2010-03-15","$45.00","546616XXXXXX1080","1235" 
"2010-03-15","$80.00","542418XXXXXX0052","1235" 
"2010-03-15","$60.00","546616XXXXXX1080","1235" 
"2010-03-15","$60.00","546616XXXXXX1080","1235" 
"2010-03-15","$165.00","552851XXXXXX8188","1235" 
"2010-03-15","$30.00","377253XXXXXX1002","1235" 
"2010-03-15","$120.00","470788XXXXXX3487","1235" 
"2010-03-15","$30.00","435630XXXXXX5952","1235" 
"2010-03-15","$15.00","372321XXXXXX2010","1235" 
"2010-03-15","$30.00","414720XXXXXX0326","1235" 
"2010-03-15","$30.00","372500XXXXXX3009","1235" 
"2010-03-15","$30.00","371325XXXXXX1002","1235" 
"2010-03-15","$30.00","371325XXXXXX1002","1235" 
"2010-03-15","$30.00","431303XXXXXX1009","1235" 
"2010-03-15","$15.00","431305XXXXXX4505","1235" 
"2010-03-15","$30.00","422695XXXXXX4383","1235" 
"2010-03-15","$60.00","546626XXXXXX3072","1235" 
"2010-03-15","$30.00","484343XXXXXX1247","1235" 
"2010-03-15","$60.00","371282XXXXXX2004","1235" 
"2010-03-15","$30.00","426684XXXXXX1058","1235" 
"2010-03-15","$30.00","518445XXXXXX2046","1235" 
"2010-03-15","$60.00","374716XXXXXX0648","1235" 
"2010-03-15","$30.00","379469XXXXXX2007","1235" 
"2010-03-15","$75.00","377239XXXXXX1005","1235" 
"2010-03-15","$60.00","546616XXXXXX4923","1235" 
"2010-03-15","$30.00","374716XXXXXX7383","1235" 
"2010-03-15","$60.00","371315XXXXXX2002","1235" 
"2010-03-15","$60.00","540302XXXXXX8108","1235" 
"2010-03-15","$120.00","377244XXXXXX1007","1235" 
"2010-03-15","$30.00","542418XXXXXX8178","1235" 
"2010-03-15","$30.00","438857XXXXXX1076","1235" 
"2010-03-15","$60.00","443048XXXXXX2910","1235" 
"2010-03-15","$10.00","546616XXXXXX3956","1235" 
"2010-03-15","$50.00","546604XXXXXX6510","1235" 
"2010-03-15","$60.00","545236XXXXXX7789","1235" 
"2010-03-15","$150.00","462120XXXXXX2971","1235" 
"2010-03-15","$60.00","486796XXXXXX1938","1235" 
"2010-03-15","$120.00","549033XXXXXX4318","1235" 
"2010-03-15","$30.00","447972XXXXXX6222","1235" 
"2010-03-15","$60.00","486796XXXXXX1938","1235" 
"2010-03-15","$120.00","431307XXXXXX1755","1235" 
"2010-03-15","$60.00","549084XXXXXX9314","1235" 
"2010-03-15","$45.00","429420XXXXXX0413","1235" 
"2010-03-15","$60.00","371715XXXXXX1008","1235" 
"2010-03-15","$15.00","372731XXXXXX1007","1235" 
"2010-03-15","$60.00","546616XXXXXX7933","1235" 
"2010-03-15","$40.00","372579XXXXXX1000","1235" 
"2010-03-15","$60.00","601100XXXXXX2748","1235" 
"2010-03-15","$60.00","377242XXXXXX1001","1235" 
"2010-03-15","$30.00","601120XXXXXX8780","1235" 
"2010-03-15","$120.00","438857XXXXXX5396","1235" 
"2010-03-15","$60.00","422646XXXXXX8693","1235" 
"2010-03-15","$60.00","601140XXXXXX8780","1235" 
"2010-03-15","$90.00","377272XXXXXX1009","1235" 
"2010-03-15","$90.00","536225XXXXXX4051","1235" 
"2010-03-15","$60.00","601100XXXXXX4761","1235" 
"2010-03-15","$30.00","373026XXXXXX2016","1235" 
"2010-03-15","$75.00","601120XXXXXX2426","1235" 
"2010-03-15","$30.00","372734XXXXXX2007","1235" 
"2010-03-15","$90.00","372537XXXXXX6001","1235" 
"2010-03-15","$30.00","443071XXXXXX7503","1235" 
"2010-03-15","$30.00","426684XXXXXX4625","1235" 
"2010-03-15","$30.00","435237XXXXXX1868","1235" 
"2010-03-15","$15.00","546616XXXXXX4975","1235" 
"2010-03-15","$120.00","377261XXXXXX1005","1235" 
"2010-03-15","$70.00","441712XXXXXX8245","1235" 
"2010-03-16","$30.00","414718XXXXXX9444","1235" 
"2010-03-16","$240.00","541065XXXXXX1318","1235" 
"2010-03-16","$45.00","484341XXXXXX3583","1235" 
"2010-03-16","$60.00","486896XXXXXX3317","1235" 
"2010-03-16","$40.00","545236XXXXXX5831","1235" 
"2010-03-16","$60.00","546616XXXXXX0884","1235" 
"2010-03-16","$75.00","426684XXXXXX4482","1235" 
"2010-03-16","$90.00","371289XXXXXX3013","1235" 
"2010-03-16","$325.00","546616XXXXXX5285","1235" 
"2010-03-16","$30.00","484341XXXXXX0952","1235" 
"2010-03-16","$60.00","512107XXXXXX1058","1235" 
"2010-03-16","$30.00","377238XXXXXX3007","1235" 
"2010-03-16","$60.00","403766XXXXXX1054","1235" 
"2010-03-16","$60.00","517805XXXXXX1327","1235" 
"2010-03-16","$370.00","374322XXXXXX7776","1235" 
"2010-03-16","$30.00","549035XXXXXX2667","1235" 
"2010-03-16","$60.00","540168XXXXXX1552","1235" 
"2010-03-16","$30.00","601100XXXXXX2208","1235" 
"2010-03-16","$105.00","372574XXXXXX1002","1235" 
"2010-03-16","$60.00","601100XXXXXX6072","1235" 
"2010-03-16","$60.00","426690XXXXXX5032","1235" 
"2010-03-16","$75.00","542418XXXXXX7482","1235" 
"2010-03-16","$60.00","372522XXXXXX2001","1235" 
"2010-03-16","$50.00","376791XXXXXX1005","1235" 
"2010-03-16","$60.00","377243XXXXXX1006","1235" 
"2010-03-16","$30.00","552321XXXXXX1835","1235" 
"2010-03-16","($30.00)","464018XXXXXX7477","0000" 
"2010-03-16","$30.00","484343XXXXXX7598","1235" 
"2010-03-16","$30.00","431307XXXXXX0565","1235" 
"2010-03-16","$85.00","601120XXXXXX5168","1235" 
"2010-03-16","$30.00","371326XXXXXX2002","1235" 
"2010-03-16","$30.00","540168XXXXXX7929","1235" 
"2010-03-16","$60.00","372266XXXXXX3006","1235" 
"2010-03-16","$30.00","546616XXXXXX4919","1235" 
"2010-03-16","$30.00","419000XXXXXX5317","1235" 
"2010-03-16","$30.00","552815XXXXXX1706","1235" 
"2010-03-16","$45.00","443264XXXXXX9715","1235" 
"2010-03-16","$120.00","545236XXXXXX3441","1235" 
"2010-03-16","$60.00","540168XXXXXX8956","1235" 
"2010-03-16","$60.00","484343XXXXXX3335","1235" 
"2010-03-16","$60.00","371334XXXXXX1009","1235" 
"2010-03-16","$30.00","542418XXXXXX9131","1235" 
"2010-03-16","$60.00","406032XXXXXX7722","1235" 
"2010-03-16","$30.00","546103XXXXXX5395","1235" 
"2010-03-16","$30.00","372525XXXXXX3006","1235" 
"2010-03-16","$30.00","426428XXXXXX4584","1235" 
"2010-03-16","$30.00","540302XXXXXX0190","1235" 
"2010-03-16","$30.00","522276XXXXXX9006","1235" 
"2010-03-16","$30.00","431196XXXXXX3063","1235" 
"2010-03-16","$30.00","464018XXXXXX5409","1235" 
"2010-03-16","$90.00","371705XXXXXX2003","1235" 
"2010-03-16","$60.00","371737XXXXXX1012","1235" 
"2010-03-16","$30.00","372376XXXXXX1019","1235" 
"2010-03-16","$60.00","372525XXXXXX2022","1235" 
"2010-03-16","$135.00","558828XXXXXX9881","1235" 
"2010-03-16","$30.00","371281XXXXXX1013","1235" 
"2010-03-16","$135.00","512068XXXXXX9844","1235" 
"2010-03-16","$45.00","371313XXXXXX1019","1235" 
"2010-03-16","$30.00","536994XXXXXX5638","1235" 
"2010-03-16","$30.00","372390XXXXXX2007","1235" 
"2010-03-16","$50.00","601100XXXXXX5300","1235" 
"2010-03-16","$60.00","601100XXXXXX5407","1235" 
"2010-03-16","$30.00","484341XXXXXX9037","1235" 
"2010-03-16","$280.00","426651XXXXXX4403","1235" 
"2010-03-16","$60.00","488893XXXXXX9913","1235" 
"2010-03-16","$60.00","372354XXXXXX2002","1235" 
"2010-03-16","$15.00","372354XXXXXX2002","1235" 
"2010-03-16","$30.00","484341XXXXXX7361","1235" 
"2010-03-16","$60.00","484341XXXXXX7979","1235" 
"2010-03-16","$30.00","540168XXXXXX5586","1235" 
"2010-03-16","$60.00","542418XXXXXX3531","1235" 
"2010-03-16","($250.00)","422587XXXXXX3138","0000" 
"2010-03-16","$15.00","484341XXXXXX6732","1235" 
"2010-03-16","$15.00","546616XXXXXX8239","1235" 
"2010-03-16","$30.00","371311XXXXXX1000","1235" 
"2010-03-16","$30.00","474476XXXXXX7799","1235" 
"2010-03-16","$30.00","371748XXXXXX1005","1235" 
"2010-03-16","$45.00","400344XXXXXX8044","1235" 
"2010-03-16","$15.00","372522XXXXXX3009","1235" 
"2010-03-16","$95.00","558828XXXXXX0231","1235" 
"2010-03-16","$15.00","431307XXXXXX1225","1235" 
"2010-03-16","$30.00","377244XXXXXX1015","1235" 
"2010-03-16","$180.00","601120XXXXXX8638","1235" 
"2010-03-16","$60.00","377276XXXXXX1000","1235" 
"2010-03-17","$30.00","540168XXXXXX0167","1235" 
"2010-03-17","$30.00","426684XXXXXX3445","1235" 
"2010-03-17","$30.00","484341XXXXXX2584","1235" 
"2010-03-17","$60.00","542418XXXXXX8548","1235" 
"2010-03-17","$30.00","426684XXXXXX9479","1235" 
"2010-03-17","$165.00","441712XXXXXX4332","1235" 
"2010-03-17","$30.00","488893XXXXXX9400","1235" 
"2010-03-17","$60.00","371315XXXXXX1006","1235" 
"2010-03-17","$120.00","426428XXXXXX2905","1235" 
"2010-03-17","$60.00","426428XXXXXX2905","1235" 
"2010-03-17","$30.00","372372XXXXXX1010","1235" 
"2010-03-17","$30.00","372372XXXXXX1010","1235" 
"2010-03-17","$90.00","403766XXXXXX0711","1235" 
"2010-03-17","$90.00","371341XXXXXX1009","1235" 
"2010-03-17","$280.00","431307XXXXXX0039","1235" 
"2010-03-17","$30.00","372521XXXXXX1013","1235" 
"2010-03-17","$90.00","542418XXXXXX5544","1235" 
"2010-03-17","$60.00","435237XXXXXX1116","1235" 
"2010-03-17","$60.00","403766XXXXXX3648","1235" 
"2010-03-17","$60.00","552318XXXXXX6567","1235" 
"2010-03-17","$30.00","426692XXXXXX1291","1235" 
"2010-03-17","$30.00","484341XXXXXX3240","1235" 
"2010-03-17","$30.00","402094XXXXXX9055","1235" 
"2010-03-17","$60.00","372574XXXXXX1005","1235" 
"2010-03-17","$60.00","484341XXXXXX2658","1235" 
"2010-03-17","$90.00","546616XXXXXX4376","1235" 
"2010-03-17","$30.00","376750XXXXXX1008","1235" 
"2010-03-17","$60.00","514865XXXXXX3112","1235" 
"2010-03-17","$30.00","426684XXXXXX4510","1235" 
"2010-03-17","$75.00","546604XXXXXX9067","1235" 
"2010-03-17","$120.00","540126XXXXXX0070","1235" 
"2010-03-17","$60.00","371344XXXXXX4000","1235" 
"2010-03-17","$60.00","601120XXXXXX0466","1235" 
"2010-03-17","$60.00","421766XXXXXX2898","1235" 
"2010-03-17","$15.00","601136XXXXXX9701","1235" 
"2010-03-17","$105.00","546616XXXXXX0314","1235" 
"2010-03-17","$45.00","426684XXXXXX3404","1235" 
"2010-03-17","$30.00","601100XXXXXX8123","1235" 
"2010-03-17","$30.00","483950XXXXXX1276","1235" 
"2010-03-17","$45.00","549092XXXXXX8866","1235" 
"2010-03-17","$15.00","601100XXXXXX8616","1235" 
"2010-03-17","$15.00","422635XXXXXX3203","1235" 
"2010-03-17","$60.00","536994XXXXXX3861","1235" 
"2010-03-17","$90.00","542418XXXXXX9667","1235" 
"2010-03-17","$30.00","601149XXXXXX8622","1235" 
"2010-03-17","$30.00","405610XXXXXX5676","1235" 
"2010-03-17","$60.00","414718XXXXXX3941","1235" 
"2010-03-17","$30.00","414778XXXXXX5533","1235" 
"2010-03-18","$30.00","443001XXXXXX3528","1235" 
"2010-03-18","$120.00","546616XXXXXX3553","1235" 
"2010-03-18","$75.00","546616XXXXXX3553","1235" 
"2010-03-18","$60.00","484343XXXXXX5127","1235" 
"2010-03-18","$60.00","474473XXXXXX7467","1235" 
"2010-03-18","$60.00","400344XXXXXX7132","1235" 
"2010-03-18","$60.00","541712XXXXXX4217","1235" 
"2010-03-18","$50.00","431307XXXXXX7752","1235" 
"2010-03-18","$120.00","540168XXXXXX9967","1235" 
"2010-03-18","$60.00","545236XXXXXX6233","1235" 
"2010-03-18","$60.00","542418XXXXXX9562","1235" 
"2010-03-18","$30.00","466304XXXXXX9463","1235" 
"2010-03-18","$30.00","435237XXXXXX7395","1235" 
"2010-03-18","$60.00","541712XXXXXX4217","1235" 
"2010-03-18","$30.00","529149XXXXXX6248","1235" 
"2010-03-18","$30.00","529149XXXXXX6248","1235" 
"2010-03-18","$40.00","414709XXXXXX0861","1235" 
"2010-03-18","$60.00","371515XXXXXX4012","1235" 
"2010-03-18","$60.00","546616XXXXXX2582","1235" 
"2010-03-18","$40.00","414709XXXXXX0861","1235" 
"2010-03-18","$30.00","377272XXXXXX1019","1235" 
"2010-03-18","$30.00","542418XXXXXX6364","1235" 
"2010-03-18","$60.00","371757XXXXXX1011","1235" 
"2010-03-18","$210.00","601100XXXXXX7240","1235" 
"2010-03-18","$30.00","438857XXXXXX2824","1235" 
"2010-03-18","$60.00","542418XXXXXX4518","1235" 
"2010-03-18","$30.00","464018XXXXXX0746","1235" 
"2010-03-18","$30.00","601149XXXXXX4711","1235" 
"2010-03-18","$255.00","546616XXXXXX8599","1235" 
"2010-03-18","($250.00)","431307XXXXXX0039","0000" 
"2010-03-18","$60.00","426684XXXXXX2798","1235" 
"2010-03-18","$60.00","546632XXXXXX9200","1235" 
"2010-03-18","$30.00","512257XXXXXX6820","1235" 
"2010-03-18","$30.00","549099XXXXXX8802","1235" 
"2010-03-18","$60.00","371281XXXXXX4016","1235" 
"2010-03-18","$30.00","471830XXXXXX8918","1235" 
"2010-03-18","$60.00","601120XXXXXX5820","1235" 
"2010-03-18","$30.00","468490XXXXXX7397","1235" 
"2010-03-18","$30.00","542418XXXXXX6108","1235" 
"2010-03-18","$60.00","371281XXXXXX2000","1235" 
"2010-03-18","$30.00","517805XXXXXX3099","1235" 
"2010-03-18","$30.00","426684XXXXXX0733","1235" 
"2010-03-18","$90.00","488894XXXXXX4771","1235" 
"2010-03-18","$30.00","529115XXXXXX2108","1235" 
"2010-03-18","$30.00","542418XXXXXX9321","1235" 
"2010-03-18","$45.00","601100XXXXXX4679","1235" 
"2010-03-18","$60.00","546604XXXXXX7389","1235" 
"2010-03-18","$30.00","426684XXXXXX9958","1235" 
"2010-03-18","$310.00","442621XXXXXX7503","1235" 
"2010-03-18","$60.00","546604XXXXXX7700","1235" 
"2010-03-18","$30.00","551366XXXXXX4018","1235" 
"2010-03-18","$30.00","372345XXXXXX1001","1235" 
"2010-03-18","$150.00","541822XXXXXX0149","1235" 
"2010-03-18","$60.00","371275XXXXXX1000","1235" 
"2010-03-18","$30.00","418550XXXXXX4813","1235" 
"2010-03-18","$30.00","601149XXXXXX6892","1235" 
"2010-03-18","$50.00","601100XXXXXX4454","1235" 
"2010-03-19","$120.00","371318XXXXXX2001","1235" 
"2010-03-19","$30.00","601120XXXXXX0805","1235" 
"2010-03-19","$60.00","540975XXXXXX9596","1235" 
"2010-03-19","$30.00","546630XXXXXX6653","1235" 
"2010-03-19","$30.00","425218XXXXXX0259","1235" 
"2010-03-19","$60.00","542418XXXXXX3430","1235" 
"2010-03-19","$30.00","518863XXXXXX3681","1235" 
"2010-03-19","$50.00","446542XXXXXX2262","1235" 
"2010-03-19","$15.00","426684XXXXXX0403","1235" 
"2010-03-19","$50.00","446542XXXXXX2262","1235" 
"2010-03-19","$30.00","426684XXXXXX2998","1235" 
"2010-03-19","$60.00","414720XXXXXX2020","1235" 
"2010-03-19","$60.00","601129XXXXXX0344","1235" 
"2010-03-19","$30.00","414861XXXXXX2292","1235" 
"2010-03-19","$30.00","545236XXXXXX1366","1235" 
"2010-03-19","$30.00","431307XXXXXX8653","1235" 
"2010-03-19","$60.00","372284XXXXXX2026","1235" 
"2010-03-19","$40.00","482862XXXXXX4067","1235" 
"2010-03-19","$30.00","540168XXXXXX1801","1235" 
"2010-03-19","$30.00","540168XXXXXX1801","1235" 
"2010-03-19","$50.00","482862XXXXXX4067","1235" 
"2010-03-19","$60.00","371319XXXXXX1017","1235" 
"2010-03-19","$30.00","540168XXXXXX1801","1235" 
"2010-03-19","$60.00","540168XXXXXX1801","1235" 
"2010-03-19","$30.00","371283XXXXXX1003","1235" 
"2010-03-19","$60.00","414740XXXXXX7454","1235" 
"2010-03-19","$60.00","414740XXXXXX7454","1235" 
"2010-03-19","$30.00","601100XXXXXX1503","1235" 
"2010-03-19","$120.00","429819XXXXXX2130","1235" 
"2010-03-19","$60.00","371289XXXXXX3008","1235" 
"2010-03-19","$30.00","373981XXXXXX5016","1235" 
"2010-03-19","$30.00","601120XXXXXX5027","1235" 
"2010-03-19","$30.00","435787XXXXXX6321","1235" 
"2010-03-19","$30.00","484341XXXXXX2497","1235" 
"2010-03-19","$60.00","488893XXXXXX6668","1235" 
"2010-03-19","$30.00","474483XXXXXX3296","1235" 
"2010-03-19","$60.00","426684XXXXXX0701","1235" 
"2010-03-19","$120.00","430594XXXXXX9190","1235" 
"2010-03-19","$80.00","426429XXXXXX6418","1235" 
"2010-03-19","$30.00","546616XXXXXX5538","1235" 
"2010-03-19","$60.00","432388XXXXXX6900","1235" 
"2010-03-19","$60.00","542418XXXXXX3430","1235" 
"2010-03-19","$60.00","435684XXXXXX0013","1235" 
"2010-03-19","$15.00","431307XXXXXX6825","1235" 
"2010-03-19","($250.00)","442621XXXXXX7503","1235" 
"2010-03-19","($250.00)","601120XXXXXX4145","0000" 
"2010-03-19","$30.00","601120XXXXXX3010","1235" 
"2010-03-19","$85.00","601100XXXXXX8865","1235" 
"2010-03-19","$100.00","481256XXXXXX1639","1235" 
"2010-03-19","$60.00","432628XXXXXX8337","1235" 
"2010-03-19","$30.00","421763XXXXXX2257","1235" 
"2010-03-19","$30.00","443044XXXXXX2468","1235" 
"2010-03-19","$60.00","426684XXXXXX1278","1235" 
"2010-03-19","$60.00","377249XXXXXX1012","1235" 
"2010-03-19","$60.00","546626XXXXXX7755","1235" 
"2010-03-19","($30.00)","373021XXXXXX6002","0000" 
"2010-03-19","($30.00)","426692XXXXXX8543","0000" 
"2010-03-19","$60.00","541065XXXXXX7305","1235" 
"2010-03-19","$30.00","426681XXXXXX9500","1235" 
"2010-03-19","$30.00","546616XXXXXX4339","1235" 
"2010-03-19","$60.00","601100XXXXXX6246","1235" 
"2010-03-19","$30.00","372399XXXXXX1000","1235" 
"2010-03-19","$30.00","426684XXXXXX7275","1235" 
"2010-03-19","$105.00","549035XXXXXX5373","1235" 
"2010-03-19","$120.00","546616XXXXXX0379","1235" 
"2010-03-19","$30.00","414720XXXXXX1556","1235" 
"2010-03-19","$30.00","542418XXXXXX8720","1235" 
"2010-03-19","$150.00","488894XXXXXX6656","1235" 
"2010-03-19","$60.00","371506XXXXXX2010","1235" 
"2010-03-20","$60.00","542418XXXXXX2663","1235" 
"2010-03-20","$30.00","426681XXXXXX9241","1235" 
"2010-03-20","$60.00","542418XXXXXX2663","1235" 
"2010-03-20","$30.00","536994XXXXXX8628","1235" 
"2010-03-20","$30.00","431307XXXXXX8113","1235" 
"2010-03-20","$60.00","541065XXXXXX6117","1235" 
"2010-03-20","$60.00","546616XXXXXX2445","1235" 
"2010-03-20","$30.00","536993XXXXXX3046","1235" 
"2010-03-20","$60.00","418550XXXXXX5123","1235" 
"2010-03-20","$30.00","377225XXXXXX2009","1235" 
"2010-03-20","$40.00","433797XXXXXX6011","1235" 
"2010-03-20","$30.00","541065XXXXXX1709","1235" 
"2010-03-20","$30.00","410951XXXXXX7322","1235" 
"2010-03-20","$60.00","451046XXXXXX9980","1235" 
"2010-03-20","$60.00","371508XXXXXX5019","1235" 
"2010-03-20","$30.00","438854XXXXXX7656","1235" 
"2010-03-20","$30.00","549099XXXXXX8927","1235" 
"2010-03-20","$30.00","371334XXXXXX1014","1235" 
"2010-03-20","$30.00","371334XXXXXX1014","1235" 
"2010-03-20","$30.00","421766XXXXXX6382","1235" 
"2010-03-20","$60.00","488894XXXXXX0259","1235" 
"2010-03-20","$30.00","371504XXXXXX1001","1235" 
"2010-03-20","$95.00","601100XXXXXX0890","1235" 
"2010-03-20","$30.00","546616XXXXXX6376","1235" 
"2010-03-20","$30.00","546616XXXXXX5764","1235" 
"2010-03-20","$30.00","377260XXXXXX1012","1235" 
"2010-03-20","$60.00","530787XXXXXX7034","1235" 
"2010-03-20","$30.00","412800XXXXXX4047","1235" 
"2010-03-20","$30.00","371507XXXXXX1001","1235" 
"2010-03-20","$30.00","546616XXXXXX0876","1235" 
"2010-03-20","$60.00","488893XXXXXX1115","1235" 
"2010-03-20","$60.00","546616XXXXXX0323","1235" 
"2010-03-20","$45.00","546616XXXXXX5788","1235" 
"2010-03-20","$30.00","372398XXXXXX3008","1235" 
"2010-03-20","$60.00","601149XXXXXX0861","1235" 
"2010-03-20","$30.00","372398XXXXXX3008","1235" 
"2010-03-20","$85.00","462302XXXXXX4260","1235" 
"2010-03-20","$60.00","601100XXXXXX7752","1235" 
"2010-03-20","$30.00","371285XXXXXX1003","1235" 
"2010-03-20","$110.00","371749XXXXXX1018","1235" 
"2010-03-21","$30.00","447995XXXXXX2813","1235" 
"2010-03-21","$15.00","376771XXXXXX1015","1235" 
"2010-03-21","$30.00","376771XXXXXX1015","1235" 
"2010-03-21","$30.00","540168XXXXXX8758","1235" 
"2010-03-21","$60.00","377212XXXXXX3003","1235" 
"2010-03-21","$30.00","431196XXXXXX6888","1235" 
"2010-03-21","$310.00","426692XXXXXX1362","1235" 
"2010-03-21","$30.00","601100XXXXXX0373","1235" 
"2010-03-21","$180.00","372287XXXXXX2005","1235" 
"2010-03-21","$30.00","464018XXXXXX4846","1235" 
"2010-03-21","$30.00","419000XXXXXX1574","1235" 
"2010-03-21","$60.00","601120XXXXXX8058","1235" 
"2010-03-21","$50.00","436611XXXXXX4949","1235" 
"2010-03-21","$60.00","546616XXXXXX1320","1235" 
"2010-03-21","$60.00","552851XXXXXX3112","1235" 
"2010-03-21","$80.00","546632XXXXXX4236","1235" 
"2010-03-21","$60.00","484341XXXXXX6178","1235" 
"2010-03-21","$60.00","447094XXXXXX3019","1235" 
"2010-03-21","$30.00","414720XXXXXX5825","1235" 
"2010-03-21","$30.00","484341XXXXXX6818","1235" 
"2010-03-21","$30.00","414720XXXXXX5825","1235" 
"2010-03-21","$60.00","376731XXXXXX2000","1235" 
"2010-03-21","$60.00","372552XXXXXX1002","1235" 
"2010-03-21","$30.00","463668XXXXXX0429","1235" 
"2010-03-21","$60.00","484341XXXXXX0652","1235" 
"2010-03-21","$60.00","488893XXXXXX9954","1235" 
"2010-03-21","$60.00","601120XXXXXX6230","1235" 
"2010-03-21","$60.00","549033XXXXXX2424","1235" 
"2010-03-21","$105.00","426684XXXXXX4387","1235" 
"2010-03-21","$280.00","372349XXXXXX1005","1235" 
"2010-03-21","$30.00","431307XXXXXX3616","1235" 
"2010-03-21","$120.00","549033XXXXXX7063","1235" 
"2010-03-21","$30.00","409489XXXXXX0805","1235" 
"2010-03-21","$310.00","371288XXXXXX4007","1235" 
"2010-03-21","$60.00","601120XXXXXX7528","1235" 
"2010-03-21","$60.00","546616XXXXXX3046","1235" 
"2010-03-21","$60.00","464018XXXXXX4504","1235" 
"2010-03-21","$75.00","377228XXXXXX1008","1235" 
"2010-03-21","$75.00","377255XXXXXX1018","1235" 
"2010-03-21","$30.00","541931XXXXXX0583","1235" 
"2010-03-21","$30.00","552815XXXXXX0588","1235" 
"2010-03-21","$30.00","438857XXXXXX0750","1235" 
"2010-03-21","$30.00","377295XXXXXX1002","1235" 
"2010-03-21","$60.00","371314XXXXXX5004","1235" 
"2010-03-21","$30.00","371745XXXXXX1000","1235" 
"2010-03-22","$90.00","372525XXXXXX2005","1235" 
"2010-03-22","$30.00","403766XXXXXX9234","1235" 
"2010-03-22","$160.00","484341XXXXXX4903","1235" 
"2010-03-22","$30.00","371508XXXXXX1012","1235" 
"2010-03-22","$120.00","549035XXXXXX6025","1235" 
"2010-03-22","$15.00","377260XXXXXX1010","1235" 
"2010-03-22","$30.00","426684XXXXXX3502","1235" 
"2010-03-22","$50.00","601100XXXXXX4430","1235" 
"2010-03-22","$60.00","379463XXXXXX1004","1235" 
"2010-03-22","$30.00","601149XXXXXX1373","1235" 
"2010-03-22","$30.00","546616XXXXXX7724","1235" 
"2010-03-22","$90.00","426684XXXXXX8170","1235" 
"2010-03-22","$30.00","549035XXXXXX8454","1235" 
"2010-03-22","$45.00","546616XXXXXX7724","1235" 
"2010-03-22","$30.00","426692XXXXXX8859","1235" 
"2010-03-22","$60.00","540168XXXXXX6502","1235" 
"2010-03-22","$30.00","601100XXXXXX6218","1235" 
"2010-03-22","$30.00","410414XXXXXX3933","1235" 
"2010-03-22","$30.00","601100XXXXXX6218","1235" 
"2010-03-22","$60.00","426932XXXXXX0093","1235" 
"2010-03-22","$30.00","371283XXXXXX1003","1235" 
"2010-03-22","$90.00","488893XXXXXX9250","1235" 
"2010-03-22","$30.00","376790XXXXXX1009","1235" 
"2010-03-22","$195.00","546632XXXXXX9844","1235" 
"2010-03-22","$30.00","446542XXXXXX2279","1235" 
"2010-03-22","$30.00","484341XXXXXX2941","1235" 
"2010-03-22","$120.00","601149XXXXXX3035","1235" 
"2010-03-22","$30.00","540168XXXXXX9090","1235" 
"2010-03-22","$50.00","414720XXXXXX3118","1235" 
"2010-03-22","$60.00","371735XXXXXX1017","1235" 
"2010-03-22","$30.00","542418XXXXXX3012","1235" 
"2010-03-22","$120.00","474476XXXXXX0939","1235" 
"2010-03-22","$30.00","377258XXXXXX1002","1235" 
"2010-03-22","$45.00","448275XXXXXX4731","1235" 
"2010-03-22","$60.00","549113XXXXXX1257","1235" 
"2010-03-22","$60.00","542418XXXXXX5435","1235" 
"2010-03-22","$60.00","426692XXXXXX6971","1235" 
"2010-03-22","$30.00","549096XXXXXX9309","1235" 
"2010-03-22","$30.00","414718XXXXXX7226","1235" 
"2010-03-22","$90.00","372346XXXXXX1004","1235" 
"2010-03-22","$150.00","374321XXXXXX0530","1235" 
"2010-03-22","$30.00","601100XXXXXX9910","1235" 
"2010-03-22","$30.00","546616XXXXXX1789","1235" 
"2010-03-22","$30.00","601100XXXXXX9910","1235" 
"2010-03-22","$50.00","377231XXXXXX1002","1235" 
"2010-03-22","$30.00","431307XXXXXX4483","1235" 
"2010-03-22","$90.00","601100XXXXXX3888","1235" 
"2010-03-22","$120.00","545534XXXXXX2837","1235" 
"2010-03-22","$110.00","546616XXXXXX5361","1235" 
"2010-03-22","$30.00","402094XXXXXX9055","1235" 
"2010-03-22","$60.00","542418XXXXXX0736","1235" 
"2010-03-22","$60.00","601120XXXXXX4280","1235" 
"2010-03-22","$30.00","442790XXXXXX8253","1235" 
"2010-03-22","$30.00","484341XXXXXX0206","1235" 
"2010-03-22","$30.00","601100XXXXXX6238","1235" 
"2010-03-22","$30.00","372577XXXXXX1005","1235" 
"2010-03-22","$30.00","438857XXXXXX7200","1235" 
"2010-03-22","$45.00","546638XXXXXX3166","1235" 
"2010-03-22","$60.00","371720XXXXXX1001","1235" 
"2010-03-22","$120.00","546616XXXXXX5074","1235" 
"2010-03-22","$150.00","480260XXXXXX3642","1235" 
"2010-03-22","$45.00","601100XXXXXX0582","1235" 
"2010-03-22","$90.00","371526XXXXXX3009","1235" 
"2010-03-22","$80.00","540168XXXXXX9270","1235" 
"2010-03-22","$120.00","412800XXXXXX8543","1235" 
"2010-03-22","$30.00","541065XXXXXX6418","1235" 
"2010-03-22","$90.00","371310XXXXXX2005","1235" 
"2010-03-23","$30.00","601120XXXXXX3148","1235" 
"2010-03-23","$30.00","542418XXXXXX9615","1235" 
"2010-03-23","$30.00","601120XXXXXX3148","1235" 
"2010-03-23","$75.00","430679XXXXXX8399","1235" 
"2010-03-23","$60.00","536993XXXXXX4052","1235" 
"2010-03-23","$90.00","377266XXXXXX1008","1235" 
"2010-03-23","$15.00","371348XXXXXX1002","1235" 
"2010-03-23","$30.00","546616XXXXXX8114","1235" 
"2010-03-23","$30.00","484343XXXXXX8255","1235" 
"2010-03-23","$90.00","542418XXXXXX2887","1235" 
"2010-03-23","$60.00","447010XXXXXX7567","1235" 
"2010-03-23","$90.00","546632XXXXXX7500","1235" 
"2010-03-23","$30.00","524038XXXXXX0727","1235" 
"2010-03-23","$30.00","546628XXXXXX8381","1235" 
"2010-03-23","$30.00","446542XXXXXX5767","1235" 
"2010-03-23","$60.00","446542XXXXXX5767","1235" 
"2010-03-23","$45.00","447994XXXXXX8040","1235" 
"2010-03-23","$60.00","377237XXXXXX1001","1235" 
"2010-03-23","$31.00","546616XXXXXX6072","1235" 
"2010-03-23","$60.00","438857XXXXXX9971","1235" 
"2010-03-23","$60.00","601100XXXXXX0285","1235" 
"2010-03-23","$90.00","488893XXXXXX7865","1235" 
"2010-03-23","$30.00","426429XXXXXX9472","1235" 
"2010-03-23","$60.00","542418XXXXXX3961","1235" 
"2010-03-23","$30.00","426684XXXXXX7774","1235" 
"2010-03-23","$30.00","372377XXXXXX1002","1235" 
"2010-03-23","$45.00","371744XXXXXX2014","1235" 
"2010-03-23","$30.00","546616XXXXXX2438","1235" 
"2010-03-23","$150.00","377233XXXXXX3004","1235" 
"2010-03-23","$30.00","546616XXXXXX4781","1235" 
"2010-03-23","$60.00","371281XXXXXX1000","1235" 
"2010-03-23","$30.00","601120XXXXXX7357","1235" 
"2010-03-23","$90.00","377274XXXXXX1016","1235" 
"2010-03-23","$30.00","419485XXXXXX6877","1235" 
"2010-03-23","$30.00","377241XXXXXX1013","1235" 
"2010-03-23","$180.00","443044XXXXXX0851","1235" 
"2010-03-23","$60.00","518863XXXXXX6337","1235" 
"2010-03-23","$30.00","484343XXXXXX4448","1235" 
"2010-03-23","$30.00","371315XXXXXX1016","1235" 
"2010-03-23","$30.00","371315XXXXXX1016","1235" 
"2010-03-23","$30.00","426452XXXXXX3733","1235" 
"2010-03-23","$60.00","546616XXXXXX2506","1235" 
"2010-03-23","$60.00","512257XXXXXX9914","1235" 
"2010-03-23","$60.00","542418XXXXXX3060","1235" 
"2010-03-23","$70.00","546616XXXXXX5217","1235" 
"2010-03-23","$30.00","377270XXXXXX1016","1235" 
"2010-03-23","$120.00","601149XXXXXX7341","1235" 
"2010-03-23","$30.00","514922XXXXXX1569","1235" 
"2010-03-23","$30.00","546616XXXXXX5835","1235" 
"2010-03-23","$30.00","488891XXXXXX3799","1235" 
"2010-03-23","$60.00","552481XXXXXX0637","1235" 
"2010-03-23","$30.00","403766XXXXXX0273","1235" 
"2010-03-23","$60.00","448275XXXXXX6122","1235" 
"2010-03-23","$30.00","484341XXXXXX0898","1235" 
"2010-03-23","$30.00","422695XXXXXX3553","1235" 
"2010-03-23","$30.00","377258XXXXXX2005","1235" 
"2010-03-23","$60.00","512107XXXXXX5238","1235" 
"2010-03-23","$105.00","422695XXXXXX6930","1235" 
"2010-03-23","$30.00","484343XXXXXX7063","1235" 
"2010-03-23","$30.00","414718XXXXXX0117","1235" 
"2010-03-23","$60.00","601120XXXXXX3294","1235" 
"2010-03-23","$30.00","442791XXXXXX7211","1235" 
"2010-03-23","$270.00","406057XXXXXX9865","1235" 
"2010-03-23","$30.00","431196XXXXXX9696","1235" 
"2010-03-23","$30.00","488894XXXXXX9068","1235" 
"2010-03-23","$75.00","546626XXXXXX6960","1235" 
"2010-03-23","$60.00","546626XXXXXX6960","1235" 
"2010-03-23","$60.00","549050XXXXXX9445","1235" 
"2010-03-23","$30.00","546616XXXXXX6396","1235" 
"2010-03-23","$120.00","488893XXXXXX3326","1235" 
"2010-03-23","$30.00","448275XXXXXX8965","1235" 
"2010-03-23","$30.00","558250XXXXXX3402","1235" 
"2010-03-23","$30.00","532904XXXXXX4634","1235" 
"2010-03-23","$30.00","426684XXXXXX9765","1235" 
"2010-03-23","$90.00","438857XXXXXX5721","1235" 
"2010-03-23","$30.00","542418XXXXXX4002","1235" 
"2010-03-23","$30.00","540168XXXXXX2941","1235" 
"2010-03-23","$30.00","415874XXXXXX1841","1235" 
"2010-03-23","$60.00","431307XXXXXX5668","1235" 
"2010-03-24","$60.00","488893XXXXXX4563","1235" 
"2010-03-24","$30.00","601149XXXXXX8847","1235" 
"2010-03-24","$60.00","484343XXXXXX2112","1235" 
"2010-03-24","$30.00","414720XXXXXX6583","1235" 
"2010-03-24","$15.00","377210XXXXXX2002","1235" 
"2010-03-24","$60.00","371522XXXXXX1004","1235" 
"2010-03-24","$30.00","377210XXXXXX2002","1235" 
"2010-03-24","$15.00","601120XXXXXX7214","1235" 
"2010-03-24","$60.00","426684XXXXXX9698","1235" 
"2010-03-24","$30.00","486895XXXXXX0444","1235" 
"2010-03-24","$60.00","403784XXXXXX9977","1235" 
"2010-03-24","$30.00","376781XXXXXX1005","1235" 
"2010-03-24","$90.00","426684XXXXXX7511","1235" 
"2010-03-24","$60.00","530787XXXXXX2972","1235" 
"2010-03-24","$30.00","601120XXXXXX8890","1235" 
"2010-03-24","$60.00","371737XXXXXX1004","1235" 
"2010-03-24","$60.00","601100XXXXXX2717","1235" 
"2010-03-24","$30.00","552851XXXXXX5705","1235" 
"2010-03-24","$30.00","424631XXXXXX6962","1235" 
"2010-03-24","$30.00","542418XXXXXX6858","1235" 
"2010-03-24","$30.00","546616XXXXXX5186","1235" 
"2010-03-24","$30.00","423347XXXXXX8300","1235" 
"2010-03-24","$60.00","423347XXXXXX8300","1235" 
"2010-03-24","$30.00","484313XXXXXX6513","1235" 
"2010-03-24","$60.00","546616XXXXXX9824","1235" 
"2010-03-24","$95.00","371266XXXXXX2014","1235" 
"2010-03-24","$30.00","488893XXXXXX5130","1235" 
"2010-03-24","$60.00","601100XXXXXX3433","1235" 
"2010-03-24","$30.00","546632XXXXXX9160","1235" 
"2010-03-24","$30.00","478200XXXXXX4608","1235" 
"2010-03-24","($250.00)","371288XXXXXX4007","0000" 
"2010-03-24","($250.00)","372349XXXXXX1005","0000" 
"2010-03-24","($40.00)","414709XXXXXX0861","0000" 
"2010-03-24","$30.00","546616XXXXXX8927","1235" 
"2010-03-24","$30.00","473184XXXXXX4464","1235" 
"2010-03-24","$60.00","464018XXXXXX7443","1235" 
"2010-03-24","$90.00","426428XXXXXX1119","1235" 
"2010-03-24","$90.00","438857XXXXXX6549","1235" 
"2010-03-24","$30.00","377267XXXXXX1000","1235" 
"2010-03-24","$75.00","464018XXXXXX7443","1235" 
"2010-03-24","$30.00","540168XXXXXX5953","1235" 
"2010-03-24","$60.00","540168XXXXXX5953","1235" 
"2010-03-24","$45.00","542418XXXXXX0125","1235" 
"2010-03-24","$30.00","372346XXXXXX1005","1235" 
"2010-03-24","$50.00","549050XXXXXX3124","1235" 
"2010-03-24","$90.00","540302XXXXXX6580","1235" 
"2010-03-24","$60.00","426684XXXXXX3518","1235" 
"2010-03-24","$30.00","484341XXXXXX0581","1235" 
"2010-03-24","$120.00","542418XXXXXX2648","1235" 
"2010-03-24","$30.00","377239XXXXXX1006","1235" 
"2010-03-24","$30.00","371289XXXXXX2008","1235" 
"2010-03-24","$60.00","431307XXXXXX2349","1235" 
"2010-03-24","$30.00","426428XXXXXX8092","1235" 
"2010-03-25","$75.00","441712XXXXXX3266","1235" 
"2010-03-25","$60.00","441712XXXXXX3266","1235" 
"2010-03-25","$30.00","545236XXXXXX9500","1235" 
"2010-03-25","$30.00","484341XXXXXX3583","1235" 
"2010-03-25","$60.00","542418XXXXXX1047","1235" 
"2010-03-25","$30.00","376731XXXXXX1000","1235" 
"2010-03-25","$30.00","371510XXXXXX2003","1235" 
"2010-03-25","$30.00","439996XXXXXX4740","1235" 
"2010-03-25","$60.00","371700XXXXXX1012","1235" 
"2010-03-25","$120.00","546604XXXXXX3033","1235" 
"2010-03-25","$45.00","426651XXXXXX7288","1235" 
"2010-03-25","$90.00","414720XXXXXX5768","1235" 
"2010-03-25","$45.00","408525XXXXXX2769","1235" 
"2010-03-25","$110.00","463668XXXXXX9743","1235" 
"2010-03-25","$30.00","371707XXXXXX3015","1235" 
"2010-03-25","$90.00","601100XXXXXX8028","1235" 
"2010-03-25","$30.00","601140XXXXXX6268","1235" 
"2010-03-25","$90.00","546626XXXXXX6678","1235" 
"2010-03-25","$60.00","414720XXXXXX4761","1235" 
"2010-03-25","$30.00","442644XXXXXX6853","1235" 
"2010-03-25","$30.00","377281XXXXXX1002","1235" 
"2010-03-25","$30.00","601149XXXXXX5170","1235" 
"2010-03-25","$60.00","484341XXXXXX2760","1235" 
"2010-03-25","$90.00","546616XXXXXX2237","1235" 
"2010-03-25","$60.00","377294XXXXXX1000","1235" 
"2010-03-25","$30.00","377269XXXXXX1014","1235" 
"2010-03-25","$30.00","601100XXXXXX8726","1235" 
"2010-03-25","$90.00","426684XXXXXX9888","1235" 
"2010-03-25","$60.00","431351XXXXXX1871","1235" 
"2010-03-25","$30.00","463576XXXXXX5502","1235" 
"2010-03-25","$30.00","426684XXXXXX9737","1235" 
"2010-03-25","$90.00","372346XXXXXX1016","1235" 
"2010-03-25","$60.00","426684XXXXXX9411","1235" 
"2010-03-25","$45.00","442644XXXXXX6179","1235" 
"2010-03-25","$60.00","371289XXXXXX6010","1235" 
"2010-03-25","$30.00","512107XXXXXX0102","1235" 
"2010-03-25","$30.00","542418XXXXXX8980","1235" 
"2010-03-25","$30.00","371327XXXXXX1008","1235" 
"2010-03-25","$60.00","601100XXXXXX0732","1235" 
"2010-03-25","$120.00","426428XXXXXX9518","1235" 
"2010-03-25","$30.00","441712XXXXXX3094","1235" 
"2010-03-25","$30.00","371280XXXXXX1001","1235" 
"2010-03-25","$60.00","601149XXXXXX0116","1235" 
"2010-03-25","$60.00","540168XXXXXX4994","1235" 
"2010-03-25","$60.00","402228XXXXXX2952","1235" 
"2010-03-25","$60.00","542418XXXXXX3640","1235" 
"2010-03-25","$225.00","414709XXXXXX9225","1235" 
"2010-03-25","$50.00","541065XXXXXX1709","1235" 
"2010-03-25","$50.00","541065XXXXXX1709","1235" 
"2010-03-25","$30.00","546616XXXXXX7269","1235" 
"2010-03-25","$30.00","601100XXXXXX1807","1235" 
"2010-03-25","$30.00","414750XXXXXX6201","1235" 
"2010-03-25","$30.00","517805XXXXXX8401","1235" 
"2010-03-25","$30.00","372571XXXXXX3004","1235" 
"2010-03-25","$60.00","426651XXXXXX6175","1235" 
"2010-03-25","$60.00","414720XXXXXX1896","1235" 
"2010-03-25","$90.00","601100XXXXXX4950","1235" 
"2010-03-25","$60.00","486796XXXXXX7417","1235" 
"2010-03-25","$30.00","601100XXXXXX7908","1235" 
"2010-03-25","$205.00","438857XXXXXX7526","1235" 
"2010-03-25","$90.00","372355XXXXXX1002","1235" 
"2010-03-25","$30.00","422635XXXXXX6270","1235" 
"2010-03-25","$60.00","377229XXXXXX1014","1235" 
"2010-03-25","$30.00","430851XXXXXX7938","1235" 
"2010-03-26","$15.00","438857XXXXXX2030","1235" 
"2010-03-26","$50.00","431307XXXXXX1287","1235" 
"2010-03-26","$30.00","372736XXXXXX1000","1235" 
"2010-03-26","$30.00","484341XXXXXX1194","1235" 
"2010-03-26","$60.00","484341XXXXXX1194","1235" 
"2010-03-26","$60.00","377228XXXXXX1008","1235" 
"2010-03-26","$120.00","423729XXXXXX2776","1235" 
"2010-03-26","$30.00","426684XXXXXX4448","1235" 
"2010-03-26","$30.00","372734XXXXXX2005","1235" 
"2010-03-26","$15.00","542418XXXXXX1450","1235" 
"2010-03-26","$120.00","552486XXXXXX5713","1235" 
"2010-03-26","$30.00","601100XXXXXX3934","1235" 
"2010-03-26","$60.00","601100XXXXXX3934","1235" 
"2010-03-26","$30.00","542418XXXXXX5060","1235" 
"2010-03-26","$50.00","484341XXXXXX5453","1235" 
"2010-03-26","$15.00","540219XXXXXX9898","1235" 
"2010-03-26","$60.00","438857XXXXXX2535","1235" 
"2010-03-26","$40.00","546616XXXXXX7703","1235" 
"2010-03-26","$60.00","474476XXXXXX8716","1235" 
"2010-03-26","$30.00","484341XXXXXX3061","1235" 
"2010-03-26","$60.00","601100XXXXXX3523","1235" 
"2010-03-26","$45.00","430177XXXXXX4100","1235" 
"2010-03-26","$30.00","601100XXXXXX3523","1235" 
"2010-03-26","$30.00","419000XXXXXX4266","1235" 
"2010-03-26","$30.00","484341XXXXXX0574","1235" 
"2010-03-26","$60.00","426684XXXXXX8620","1235" 
"2010-03-26","$30.00","546616XXXXXX4189","1235" 
"2010-03-26","$60.00","601149XXXXXX0725","1235" 
"2010-03-26","$30.00","377284XXXXXX1008","1235" 
"2010-03-26","$30.00","403766XXXXXX4480","1235" 
"2010-03-26","$60.00","488894XXXXXX2861","1235" 
"2010-03-26","$70.00","414720XXXXXX3451","1235" 
"2010-03-26","$30.00","546616XXXXXX7177","1235" 
"2010-03-26","$60.00","488891XXXXXX6435","1235" 
"2010-03-26","$30.00","540168XXXXXX4647","1235" 
"2010-03-26","$90.00","377280XXXXXX1011","1235" 
"2010-03-26","$75.00","371734XXXXXX1004","1235" 
"2010-03-26","$60.00","426429XXXXXX2195","1235" 
"2010-03-27","$60.00","542418XXXXXX8984","1235" 
"2010-03-27","$30.00","484341XXXXXX7406","1235" 
"2010-03-27","$60.00","546632XXXXXX3002","1235" 
"2010-03-27","$90.00","427138XXXXXX0259","1235" 
"2010-03-27","$90.00","512257XXXXXX8477","1235" 
"2010-03-27","$30.00","522276XXXXXX3073","1235" 
"2010-03-27","$120.00","542418XXXXXX6467","1235" 
"2010-03-27","$30.00","372525XXXXXX3006","1235" 
"2010-03-27","$90.00","546616XXXXXX9309","1235" 
"2010-03-27","$60.00","371512XXXXXX4000","1235" 
"2010-03-27","$30.00","546616XXXXXX9538","1235" 
"2010-03-27","$30.00","442507XXXXXX3255","1235" 
"2010-03-27","$60.00","542418XXXXXX2257","1235" 
"2010-03-27","$30.00","421766XXXXXX1516","1235" 
"2010-03-27","$90.00","372523XXXXXX2014","1235" 
"2010-03-27","$60.00","601129XXXXXX1697","1235" 
"2010-03-27","$30.00","446500XXXXXX8334","1235" 
"2010-03-27","$30.00","542418XXXXXX8382","1235" 
"2010-03-27","$15.00","372373XXXXXX2008","1235" 
"2010-03-27","$30.00","371321XXXXXX1010","1235" 
"2010-03-27","$30.00","546616XXXXXX5745","1235" 
"2010-03-27","$30.00","377249XXXXXX1012","1235" 
"2010-03-27","$30.00","426429XXXXXX4547","1235" 
"2010-03-27","$90.00","545116XXXXXX7613","1235" 
"2010-03-27","$30.00","464018XXXXXX2050","1235" 
"2010-03-27","$30.00","406057XXXXXX5935","1235" 
"2010-03-27","$30.00","552815XXXXXX9890","1235" 
"2010-03-27","$30.00","540168XXXXXX7737","1235" 
"2010-03-27","$90.00","376750XXXXXX1004","1235" 
"2010-03-27","$30.00","541775XXXXXX2203","1235" 
"2010-03-27","$30.00","426684XXXXXX6939","1235" 
"2010-03-27","$31.00","486236XXXXXX7075","1235" 
"2010-03-27","$60.00","414740XXXXXX3923","1235" 
"2010-03-27","$30.00","372505XXXXXX4008","1235" 
"2010-03-27","$30.00","549113XXXXXX1257","1235" 
"2010-03-27","$90.00","372375XXXXXX1007","1235" 
"2010-03-27","$30.00","377225XXXXXX2002","1235" 
"2010-03-28","$30.00","546616XXXXXX4733","1235" 
"2010-03-28","$30.00","546616XXXXXX4733","1235" 
"2010-03-28","$60.00","438857XXXXXX2882","1235" 
"2010-03-28","$135.00","424631XXXXXX4431","1235" 
"2010-03-28","$60.00","372351XXXXXX1007","1235" 
"2010-03-28","$120.00","464018XXXXXX9847","1235" 
"2010-03-28","$90.00","464018XXXXXX9847","1235" 
"2010-03-28","$15.00","546616XXXXXX8296","1235" 
"2010-03-28","$120.00","371524XXXXXX2001","1235" 
"2010-03-28","$60.00","601100XXXXXX4927","1235" 
"2010-03-28","$90.00","371548XXXXXX1014","1235" 
"2010-03-28","$60.00","512107XXXXXX5887","1235" 
"2010-03-28","$60.00","512107XXXXXX3933","1235" 
"2010-03-28","$30.00","512107XXXXXX3933","1235" 
"2010-03-28","$120.00","414709XXXXXX3788","1235" 
"2010-03-28","$60.00","601100XXXXXX7233","1235" 
"2010-03-28","$60.00","542418XXXXXX0480","1235" 
"2010-03-28","$50.00","546616XXXXXX1995","1235" 
"2010-03-28","$445.00","371278XXXXXX1007","1235" 
"2010-03-28","$150.00","540168XXXXXX5643","1235" 
"2010-03-28","$30.00","464018XXXXXX9023","1235" 
"2010-03-28","$30.00","542418XXXXXX2802","1235" 
"2010-03-28","$170.00","540168XXXXXX5643","1235" 
"2010-03-28","$45.00","438857XXXXXX1482","1235" 
"2010-03-28","$60.00","414720XXXXXX0709","1235" 
"2010-03-28","$40.00","443292XXXXXX4279","1235" 
"2010-03-28","$90.00","426684XXXXXX4821","1235" 
"2010-03-28","$30.00","431307XXXXXX5033","1235" 
"2010-03-28","$80.00","484341XXXXXX9225","1235" 
"2010-03-28","$30.00","372884XXXXXX2007","1235" 
"2010-03-28","$30.00","372347XXXXXX1006","1235" 
"2010-03-28","$30.00","403766XXXXXX2868","1235" 
"2010-03-28","$30.00","431307XXXXXX9995","1235" 
"2010-03-28","$35.00","549033XXXXXX3503","1235" 
"2010-03-28","$30.00","426684XXXXXX8874","1235" 
"2010-03-28","$45.00","541349XXXXXX4822","1235" 
"2010-03-28","$30.00","546616XXXXXX5337","1235" 
"2010-03-28","$30.00","541349XXXXXX4822","1235" 
"2010-03-28","$45.00","412160XXXXXX8376","1235" 
"2010-03-28","$60.00","371345XXXXXX1005","1235" 
"2010-03-28","$60.00","545236XXXXXX1232","1235" 
"2010-03-28","$30.00","414718XXXXXX0115","1235" 
"2010-03-28","$30.00","371326XXXXXX1000","1235" 
"2010-03-28","$60.00","546616XXXXXX4531","1235" 
"2010-03-28","$75.00","372349XXXXXX1016","1235" 
"2010-03-28","$30.00","463668XXXXXX0768","1235" 
"2010-03-28","$30.00","542418XXXXXX1376","1235" 
"2010-03-28","$60.00","438857XXXXXX4699","1235" 
"2010-03-28","$30.00","431307XXXXXX2394","1235" 
"2010-03-28","$105.00","601120XXXXXX5307","1235" 
"2010-03-28","$30.00","426452XXXXXX0816","1235" 
"2010-03-28","$30.00","540999XXXXXX9080","1235" 
"2010-03-29","$120.00","540168XXXXXX3542","1235" 
"2010-03-29","$60.00","414720XXXXXX3104","1235" 
"2010-03-29","$60.00","601149XXXXXX7619","1235" 
"2010-03-29","$30.00","374321XXXXXX7463","1235" 
"2010-03-29","$75.00","520001XXXXXX6009","1235" 
"2010-03-29","$30.00","377260XXXXXX1008","1235" 
"2010-03-29","$170.00","372572XXXXXX2007","1235" 
"2010-03-29","$60.00","414720XXXXXX9169","1235" 
"2010-03-29","$15.00","480011XXXXXX9853","1235" 
"2010-03-29","$280.00","424631XXXXXX6674","1235" 
"2010-03-29","$60.00","414778XXXXXX6464","1235" 
"2010-03-29","$30.00","546616XXXXXX2331","1235" 
"2010-03-29","$70.00","549033XXXXXX3606","1235" 
"2010-03-29","$90.00","549110XXXXXX0579","1235" 
"2010-03-29","$60.00","542418XXXXXX1510","1235" 
"2010-03-29","$30.00","520001XXXXXX6753","1235" 
"2010-03-29","$60.00","542418XXXXXX1510","1235" 
"2010-03-29","$150.00","431307XXXXXX9545","1235" 
"2010-03-29","$120.00","549113XXXXXX9603","1235" 
"2010-03-29","$30.00","447145XXXXXX4997","1235" 
"2010-03-29","$30.00","552851XXXXXX0036","1235" 
"2010-03-29","$30.00","426684XXXXXX8791","1235" 
"2010-03-29","$90.00","545236XXXXXX1371","1235" 
"2010-03-29","$150.00","462192XXXXXX0055","1235" 
"2010-03-29","$15.00","432626XXXXXX2484","1235" 
"2010-03-29","$30.00","540168XXXXXX6056","1235" 
"2010-03-29","$30.00","430679XXXXXX5642","1235" 
"2010-03-29","$60.00","430679XXXXXX5642","1235" 
"2010-03-29","$90.00","446542XXXXXX4100","1235" 
"2010-03-29","$30.00","546616XXXXXX1585","1235" 
"2010-03-29","$60.00","601149XXXXXX1974","1235" 
"2010-03-29","$30.00","431307XXXXXX9995","1235" 
"2010-03-29","$30.00","549122XXXXXX7082","1235" 
"2010-03-29","$60.00","546616XXXXXX8656","1235" 
"2010-03-29","$30.00","464018XXXXXX9023","1235" 
"2010-03-29","$60.00","601149XXXXXX2046","1235" 
"2010-03-29","$15.00","601100XXXXXX5285","1235" 
"2010-03-29","$60.00","601149XXXXXX6263","1235" 
"2010-03-29","$30.00","601100XXXXXX9135","1235" 
"2010-03-29","$75.00","430154XXXXXX1847","1235" 
"2010-03-29","$60.00","406057XXXXXX1219","1235" 
"2010-03-29","$60.00","546616XXXXXX9337","1235" 
"2010-03-29","$30.00","484341XXXXXX2207","1235" 
"2010-03-29","$30.00","512107XXXXXX0047","1235" 
"2010-03-29","$90.00","542418XXXXXX2335","1235" 
"2010-03-29","$30.00","512107XXXXXX0047","1235" 
"2010-03-29","$90.00","542418XXXXXX5106","1235" 
"2010-03-29","$60.00","601100XXXXXX9328","1235" 
"2010-03-29","$30.00","484341XXXXXX5617","1235" 
"2010-03-29","$30.00","377216XXXXXX2015","1235" 
"2010-03-29","$60.00","601120XXXXXX4017","1235" 
"2010-03-29","$30.00","426684XXXXXX9594","1235" 
"2010-03-29","$90.00","438857XXXXXX7780","1235" 
"2010-03-29","$135.00","422695XXXXXX1995","1235" 
"2010-03-29","$30.00","371514XXXXXX4008","1235" 
"2010-03-29","$120.00","601100XXXXXX1968","1235" 
"2010-03-29","$30.00","374350XXXXXX7605","1235" 
"2010-03-29","$120.00","377242XXXXXX1028","1235" 
"2010-03-29","$60.00","438854XXXXXX6189","1235" 
"2010-03-29","$30.00","377212XXXXXX3003","1235" 
"2010-03-29","$60.00","546616XXXXXX1949","1235" 
"2010-03-29","$30.00","528710XXXXXX1565","1235" 
"2010-03-29","$60.00","484341XXXXXX3937","1235" 
"2010-03-29","$75.00","546064XXXXXX3423","1235" 
"2010-03-29","$120.00","426681XXXXXX5321","1235" 
"2010-03-29","$30.00","430679XXXXXX3331","1235" 
"2010-03-29","$50.00","549122XXXXXX7082","1235" 
"2010-03-29","$60.00","601140XXXXXX1377","1235" 
"2010-03-29","$120.00","464018XXXXXX0780","1235" 
"2010-03-29","$30.00","372571XXXXXX1009","1235" 
"2010-03-29","$60.00","438857XXXXXX9984","1235" 
"2010-03-29","$165.00","371277XXXXXX1006","1235" 
"2010-03-29","$60.00","372525XXXXXX1009","1235" 
"2010-03-29","$60.00","517940XXXXXX1797","1235" 
"2010-03-29","$60.00","601120XXXXXX6236","1235" 
"2010-03-29","$60.00","542418XXXXXX1584","1235" 
"2010-03-30","$120.00","552851XXXXXX1822","1235" 
"2010-03-30","$30.00","374712XXXXXX0495","1235" 
"2010-03-30","$60.00","371345XXXXXX3016","1235" 
"2010-03-30","$30.00","426684XXXXXX3829","1235" 
"2010-03-30","$30.00","514865XXXXXX6372","1235" 
"2010-03-30","$60.00","601140XXXXXX5041","1235" 
"2010-03-30","$30.00","426428XXXXXX6530","1235" 
"2010-03-30","$30.00","484341XXXXXX1417","1235" 
"2010-03-30","$30.00","542418XXXXXX9296","1235" 
"2010-03-30","$30.00","546616XXXXXX8382","1235" 
"2010-03-30","$30.00","431307XXXXXX3921","1235" 
"2010-03-30","$60.00","377257XXXXXX1006","1235" 
"2010-03-30","$30.00","484341XXXXXX6135","1235" 
"2010-03-30","$60.00","542418XXXXXX9562","1235" 
"2010-03-30","$60.00","418586XXXXXX5410","1235" 
"2010-03-30","($60.00)","484343XXXXXX5127","1235" 
"2010-03-30","$60.00","377286XXXXXX1014","1235" 
"2010-03-30","$120.00","430679XXXXXX4479","1235" 
"2010-03-30","$310.00","377253XXXXXX1014","1235" 
"2010-03-30","$30.00","478975XXXXXX0678","1235" 
"2010-03-30","$30.00","542418XXXXXX5892","1235" 
"2010-03-30","$30.00","371567XXXXXX2012","1235" 
"2010-03-30","$60.00","512107XXXXXX4962","1235" 
"2010-03-30","$30.00","488894XXXXXX7614","1235" 
"2010-03-30","$30.00","426465XXXXXX4367","1235" 
"2010-03-30","$30.00","484343XXXXXX8967","1235" 
"2010-03-30","$60.00","542418XXXXXX5438","1235" 
"2010-03-30","$30.00","426684XXXXXX7556","1235" 
"2010-03-30","$30.00","470788XXXXXX6079","1235" 
"2010-03-30","$30.00","446542XXXXXX0515","1235" 
"2010-03-30","$15.00","372352XXXXXX2006","1235" 
"2010-03-30","$30.00","520001XXXXXX5305","1235" 
"2010-03-30","$30.00","546616XXXXXX5555","1235" 
"2010-03-30","$60.00","430177XXXXXX0141","1235" 
"2010-03-30","$30.00","488893XXXXXX9120","1235" 
"2010-03-30","$30.00","426690XXXXXX7551","1235" 
"2010-03-30","$30.00","431196XXXXXX1957","1235" 
"2010-03-30","$30.00","409477XXXXXX7774","1235" 
"2010-03-30","$30.00","546616XXXXXX6894","1235" 
"2010-03-30","$250.00","372351XXXXXX1008","1235" 
"2010-03-30","$30.00","464018XXXXXX6043","1235" 
"2010-03-30","$60.00","546616XXXXXX6302","1235" 
"2010-03-30","$120.00","601120XXXXXX0343","1235" 
"2010-03-30","$60.00","549033XXXXXX4994","1235" 
"2010-03-30","$60.00","484341XXXXXX5226","1235" 
"2010-03-30","$60.00","549107XXXXXX7065","1235" 
"2010-03-30","$100.00","371343XXXXXX1002","1235" 
"2010-03-30","$60.00","540168XXXXXX0931","1235" 
"2010-03-30","$30.00","515625XXXXXX1239","1235" 
"2010-03-30","$60.00","377218XXXXXX1001","1235" 
"2010-03-30","$60.00","484343XXXXXX3342","1235" 
"2010-03-30","$30.00","377269XXXXXX1010","1235" 
"2010-03-30","$15.00","372540XXXXXX1010","1235" 
"2010-03-30","$30.00","552225XXXXXX8751","1235" 
"2010-03-30","$30.00","414778XXXXXX7713","1235" 
"2010-03-30","$30.00","546184XXXXXX0265","1235" 
"2010-03-30","$30.00","540302XXXXXX8780","1235" 
"2010-03-30","$60.00","488893XXXXXX2146","1235" 
"2010-03-30","$60.00","377254XXXXXX1019","1235" 
"2010-03-30","$30.00","546616XXXXXX4757","1235" 
"2010-03-30","$40.00","546628XXXXXX1150","1235" 
"2010-03-30","$60.00","601129XXXXXX0805","1235" 
"2010-03-30","$150.00","371745XXXXXX1009","1235" 
"2010-03-30","$30.00","403766XXXXXX7779","1235" 
"2010-03-30","$120.00","414720XXXXXX1437","1235" 
"2010-03-30","$30.00","414720XXXXXX7831","1235" 
"2010-03-30","$60.00","512257XXXXXX2765","1235" 
"2010-03-30","$30.00","473184XXXXXX4464","1235" 
"2010-03-30","$30.00","431307XXXXXX6616","1235" 
"2010-03-30","$60.00","418586XXXXXX8384","1235" 
"2010-03-30","$60.00","422695XXXXXX3198","1235" 
"2010-03-30","$30.00","419423XXXXXX3419","1235" 
"2010-03-30","$60.00","540168XXXXXX5854","1235" 
"2010-03-30","$90.00","601149XXXXXX4969","1235" 
"2010-03-30","$120.00","546632XXXXXX4236","1235" 
"2010-03-30","$90.00","372396XXXXXX2017","1235" 
"2010-03-30","$30.00","484341XXXXXX2052","1235" 
"2010-03-30","$150.00","374322XXXXXX5887","1235" 
"2010-03-30","$120.00","546647XXXXXX7739","1235" 
"2010-03-30","$90.00","371342XXXXXX1006","1235" 
"2010-03-30","$30.00","371343XXXXXX1007","1235" 
"2010-03-30","$90.00","371342XXXXXX1006","1235" 
"2010-03-31","$60.00","371500XXXXXX3005","1235" 
"2010-03-31","$30.00","554514XXXXXX1812","1235" 
"2010-03-31","$120.00","371283XXXXXX1012","1235" 
"2010-03-31","$60.00","371550XXXXXX2006","1235" 
"2010-03-31","$30.00","480213XXXXXX6828","1235" 
"2010-03-31","$60.00","426651XXXXXX0455","1235" 
"2010-03-31","$90.00","484341XXXXXX6105","1235" 
"2010-03-31","$90.00","484341XXXXXX6105","1235" 
"2010-03-31","$90.00","430679XXXXXX1315","1235" 
"2010-03-31","$30.00","414740XXXXXX4248","1235" 
"2010-03-31","$60.00","414740XXXXXX4248","1235" 
"2010-03-31","$60.00","377275XXXXXX1005","1235" 
"2010-03-31","$60.00","426684XXXXXX4367","1235" 
"2010-03-31","$30.00","374633XXXXXX8355","1235" 
"2010-03-31","$30.00","374633XXXXXX8355","1235" 
"2010-03-31","$60.00","372358XXXXXX2005","1235" 
"2010-03-31","$30.00","542418XXXXXX2551","1235" 
"2010-03-31","$30.00","601136XXXXXX8651","1235" 
"2010-03-31","$30.00","431307XXXXXX6444","1235" 
"2010-03-31","$30.00","546616XXXXXX4749","1235" 
"2010-03-31","$60.00","601120XXXXXX0764","1235" 
"2010-03-31","$30.00","441103XXXXXX6032","1235" 
"2010-03-31","$30.00","477808XXXXXX7040","1235" 
"2010-03-31","$220.00","549099XXXXXX0959","1235" 
"2010-03-31","$75.00","372507XXXXXX2003","1235" 
"2010-03-31","$30.00","422695XXXXXX2259","1235" 
"2010-03-31","$30.00","449227XXXXXX2026","1235" 
"2010-03-31","$60.00","601100XXXXXX6740","1235" 
"2010-03-31","$30.00","449227XXXXXX2026","1235" 
"2010-03-31","$30.00","546628XXXXXX0419","1235" 
"2010-03-31","$240.00","371347XXXXXX1002","1235" 
"2010-03-31","$120.00","377269XXXXXX1006","1235" 
"2010-03-31","$30.00","462300XXXXXX3728","1235" 
"2010-03-31","$15.00","431307XXXXXX1936","1235" 
"2010-03-31","$400.00","377243XXXXXX1015","1235" 
"2010-03-31","$30.00","426692XXXXXX2156","1235" 
"2010-03-31","$30.00","414720XXXXXX8738","1235" 
"2010-03-31","$120.00","426429XXXXXX9821","1235" 
"2010-03-31","$30.00","426692XXXXXX2156","1235" 
"2010-03-31","$120.00","546626XXXXXX7934","1235" 
"2010-03-31","$80.00","372379XXXXXX1003","1235" 
"2010-03-31","$30.00","372288XXXXXX2014","1235" 
"2010-03-31","$60.00","546616XXXXXX7889","1235" 
"2010-03-31","$60.00","430154XXXXXX2899","1235" 
"2010-03-31","$15.00","430154XXXXXX2899","1235" 
"2010-03-31","$30.00","403784XXXXXX9428","1235" 
"2010-03-31","$60.00","540302XXXXXX3737","1235" 
"2010-03-31","$75.00","601100XXXXXX5263","1235" 
"2010-03-31","$30.00","430679XXXXXX1067","1235" 
"2010-03-31","$30.00","542418XXXXXX1756","1235" 
"2010-03-31","$200.00","485424XXXXXX3567","1235" 
"2010-03-31","$60.00","371521XXXXXX1016","1235" 
"2010-03-31","$30.00","372737XXXXXX3005","1235" 
"2010-03-31","$30.00","542418XXXXXX7624","1235" 
"2010-03-31","$30.00","552486XXXXXX7930","1235" 
"2010-03-31","$60.00","552321XXXXXX5853","1235" 
"2010-03-31","$30.00","484341XXXXXX4618","1235" 
"2010-03-31","$60.00","426428XXXXXX9239","1235" 
"2010-03-31","$60.00","414720XXXXXX6587","1235" 
"2010-03-31","$60.00","414720XXXXXX6587","1235" 
"2010-03-31","$120.00","400344XXXXXX0590","1235" 
"2010-03-31","$30.00","546616XXXXXX6921","1235" 
"2010-03-31","$50.00","601100XXXXXX3565","1235" 
"2010-03-31","$60.00","484341XXXXXX5446","1235" 
"2010-03-31","$90.00","371754XXXXXX2007","1235" 
"2010-03-31","$30.00","484343XXXXXX0341","1235" 
"2010-03-31","$60.00","486896XXXXXX7696","1235" 
"2010-03-31","$60.00","426428XXXXXX9051","1235" 
"2010-03-31","$30.00","426428XXXXXX9051","1235" 
"2010-03-31","$310.00","377234XXXXXX1007","1235" 
"2010-03-31","$30.00","540302XXXXXX5584","1235" 
"2010-03-31","$60.00","426429XXXXXX5329","1235" 
"2010-03-31","$30.00","484343XXXXXX1079","1235" 
"2010-03-31","$30.00","414718XXXXXX9600","1235" 
"2010-03-31","$30.00","372374XXXXXX1012","1235" 
"2010-03-31","$30.00","549033XXXXXX8724","1235" 
"2010-04-01","$150.00","518752XXXXXX4892","1235" 
"2010-04-01","$30.00","426684XXXXXX0608","1235" 
"2010-04-01","$45.00","545236XXXXXX7218","1235" 
"2010-04-01","$30.00","464018XXXXXX0099","1235" 
"2010-04-01","$30.00","540168XXXXXX9298","1235" 
"2010-04-01","$30.00","540168XXXXXX0718","1235" 
"2010-04-01","$30.00","542418XXXXXX6983","1235" 
"2010-04-01","$160.00","484341XXXXXX5975","1235" 
"2010-04-01","$30.00","414718XXXXXX1584","1235" 
"2010-04-01","$60.00","441712XXXXXX2709","1235" 
"2010-04-01","$60.00","441712XXXXXX4788","1235" 
"2010-04-01","$45.00","518863XXXXXX6889","1235" 
"2010-04-01","$30.00","371745XXXXXX1008","1235" 
"2010-04-01","$340.00","371284XXXXXX2014","1235" 
"2010-04-01","$60.00","542418XXXXXX7416","1235" 
"2010-04-01","$120.00","464018XXXXXX9909","1235" 
"2010-04-01","$60.00","601100XXXXXX4650","1235" 
"2010-04-01","$30.00","426684XXXXXX0093","1235" 
"2010-04-01","$60.00","448926XXXXXX3589","1235" 
"2010-04-01","$15.00","558832XXXXXX8961","1235" 
"2010-04-01","$30.00","601120XXXXXX8896","1235" 
"2010-04-01","$15.00","601120XXXXXX8058","1235" 
"2010-04-01","$60.00","426684XXXXXX3112","1235" 
"2010-04-01","$30.00","423703XXXXXX1966","1235" 
"2010-04-01","$60.00","546604XXXXXX2269","1235" 
"2010-04-01","$75.00","542418XXXXXX3119","1235" 
"2010-04-01","$30.00","372768XXXXXX2006","1235" 
"2010-04-01","$60.00","546616XXXXXX0738","1235" 
"2010-04-01","$30.00","539655XXXXXX5154","1235" 
"2010-04-01","$75.00","414720XXXXXX3328","1235" 
"2010-04-01","$30.00","414736XXXXXX2965","1235" 
"2010-04-01","$30.00","414740XXXXXX3770","1235" 
"2010-04-01","$90.00","414720XXXXXX3714","1235" 
"2010-04-01","$60.00","542418XXXXXX8798","1235" 
"2010-04-01","$90.00","542418XXXXXX3726","1235" 
"2010-04-01","$80.00","601120XXXXXX2026","1235" 
"2010-04-01","$60.00","542418XXXXXX7619","1235" 
"2010-04-01","$30.00","484343XXXXXX1784","1235" 
"2010-04-01","$60.00","372542XXXXXX1014","1235" 
"2010-04-01","$90.00","414711XXXXXX8125","1235" 
"2010-04-01","$60.00","539870XXXXXX4501","1235" 
"2010-04-01","$60.00","552851XXXXXX5172","1235" 
"2010-04-01","$30.00","601100XXXXXX3869","1235" 
"2010-04-01","$60.00","414778XXXXXX9886","1235" 
"2010-04-01","$60.00","484343XXXXXX8075","1235" 
"2010-04-01","$45.00","546616XXXXXX1651","1235" 
"2010-04-01","$105.00","546616XXXXXX9750","1235" 
"2010-04-01","$45.00","430154XXXXXX1566","1235" 
"2010-04-01","$30.00","601120XXXXXX5424","1235" 
"2010-04-01","$60.00","546616XXXXXX4938","1235" 
"2010-04-01","$35.00","601100XXXXXX0479","1235" 
"2010-04-01","$30.00","464018XXXXXX8100","1235" 
"2010-04-01","$90.00","546616XXXXXX7116","1235" 
"2010-04-01","$30.00","412800XXXXXX1393","1235" 
"2010-04-01","$30.00","485424XXXXXX3567","1235" 
"2010-04-01","$60.00","488893XXXXXX9257","1235" 
"2010-04-01","$30.00","601120XXXXXX0418","1235" 
"2010-04-01","$60.00","546616XXXXXX7428","1235" 
"2010-04-01","$45.00","474481XXXXXX2512","1235" 
"2010-04-01","$30.00","371514XXXXXX3002","1235" 
"2010-04-01","$30.00","542418XXXXXX8205","1235" 
"2010-04-01","$30.00","371340XXXXXX1004","1235" 
"2010-04-01","$70.00","485424XXXXXX1353","1235" 
"2010-04-01","$15.00","371321XXXXXX1007","1235" 
"2010-04-01","$30.00","371534XXXXXX1001","1235" 
"2010-04-01","$30.00","484341XXXXXX0139","1235" 
"2010-04-01","$30.00","372343XXXXXX1016","1235" 
"2010-04-01","$60.00","601100XXXXXX0310","1235" 
"2010-04-01","$30.00","542418XXXXXX4066","1235" 
"2010-04-01","$60.00","407158XXXXXX2760","1235" 
"2010-04-01","$30.00","546616XXXXXX6763","1235" 
"2010-04-01","$60.00","426684XXXXXX9875","1235" 
"2010-04-01","$30.00","377247XXXXXX1004","1235" 
"2010-04-01","$30.00","439707XXXXXX1107","1235" 
"2010-04-01","$50.00","601100XXXXXX2825","1235" 
"2010-04-01","$30.00","441712XXXXXX9826","1235" 
"2010-04-01","$30.00","549099XXXXXX1323","1235" 
"2010-04-01","$60.00","377268XXXXXX2014","1235" 
"2010-04-01","$30.00","371745XXXXXX1008","1235" 