
"Transaction Date","Amount","CardHolder Number","Terminal ID" 
"2009-07-01","$60.00","414729XXXXXX3586","1235" 
"2009-07-01","$60.00","601100XXXXXX9751","1235" 
"2009-07-01","$60.00","484341XXXXXX9925","1235" 
"2009-07-01","$50.00","371310XXXXXX5006","1235" 
"2009-07-01","$120.00","549113XXXXXX0479","1235" 
"2009-07-01","$50.00","540168XXXXXX1354","1235" 
"2009-07-01","($80.00)","426684XXXXXX8832","0000" 
"2009-07-01","$50.00","601100XXXXXX4561","1235" 
"2009-07-01","$90.00","552319XXXXXX5052","1235" 
"2009-07-01","$250.00","549033XXXXXX6859","1235" 
"2009-07-01","$60.00","371342XXXXXX1014","1235" 
"2009-07-01","$60.00","546616XXXXXX1368","1235" 
"2009-07-02","$100.00","541349XXXXXX5864","1235" 
"2009-07-03","$30.00","546616XXXXXX6466","1235" 
"2009-07-03","$20.00","546616XXXXXX6466","1235" 
"2009-07-03","$60.00","542418XXXXXX5749","1235" 
"2009-07-03","$60.00","426690XXXXXX3144","1235" 
"2009-07-06","$30.00","372346XXXXXX1015","1235" 
"2009-07-06","($60.00)","546616XXXXXX6229","0000" 
"2009-07-07","$50.00","546616XXXXXX0126","1235" 
"2009-07-07","$50.00","601120XXXXXX3757","1235" 
"2009-07-07","$60.00","441712XXXXXX2709","1235" 
"2009-07-08","$80.00","546616XXXXXX5266","1235" 
"2009-07-09","$60.00","482049XXXXXX1397","1235" 
"2009-07-09","$60.00","518337XXXXXX4591","1235" 
"2009-07-09","$80.00","371313XXXXXX1004","1235" 
"2009-07-09","$60.00","542418XXXXXX2887","1235" 
"2009-07-09","$10.00","414720XXXXXX3714","1235" 
"2009-07-11","$10.00","486796XXXXXX4753","1235" 
"2009-07-11","$50.00","372526XXXXXX3015","1235" 
"2009-07-12","($80.00)","546616XXXXXX9858","0000" 
"2009-07-15","$70.00","414720XXXXXX6613","1235" 
"2009-07-16","$50.00","371516XXXXXX2000","1235" 
"2009-07-16","$50.00","429134XXXXXX4144","1235" 
"2009-07-17","$50.00","464018XXXXXX0171","1235" 
"2009-07-23","$10.00","488893XXXXXX3899","1235" 
"2009-07-25","($120.00)","546616XXXXXX6803","0000" 
"2009-07-25","$25.00","426692XXXXXX5581","1235" 
"2009-07-26","$50.00","371327XXXXXX1018","1235" 
"2009-07-29","$50.00","440494XXXXXX5281","1235" 
"2009-07-30","$25.00","512107XXXXXX9102","1235" 
"2009-07-31","($60.00)","426684XXXXXX3612","0000" 
"2009-07-31","$70.00","541065XXXXXX6011","1235" 