
"Transaction Date","Amount","CardHolder Number","Terminal ID" 
"2009-09-03","$500.00","371717XXXXXX1002","1235" 
"2009-09-03","$250.00","419008XXXXXX8008","1235" 
"2009-09-03","$250.00","431307XXXXXX6770","1235" 
"2009-09-04","($50.00)","541822XXXXXX0149","0000" 
"2009-09-06","$50.00","426651XXXXXX4794","1235" 
"2009-09-06","$50.00","406315XXXXXX0900","1235" 
"2009-09-13","($110.00)","540168XXXXXX6991","0000" 
"2009-09-19","$500.00","426428XXXXXX7030","1235" 
"2009-09-26","$25.00","461374XXXXXX0369","1235" 
"2009-09-27","$250.00","426684XXXXXX8632","1235" 
"2009-09-27","$40.00","438852XXXXXX8842","1235" 