
"Transaction Date","Amount","CardHolder Number","Terminal ID" 
"2009-05-08","$50.00","518863XXXXXX6717","1235" 
"2009-05-26","$100.00","408161XXXXXX1262","1235" 
"2009-05-29","$50.00","540168XXXXXX6991","1235" 
"2009-05-29","($90.00)","542418XXXXXX5749","1235" 
"2009-05-30","$100.00","601120XXXXXX6173","1235" 
"2009-05-30","($110.00)","536226XXXXXX4102","0000" 