Store ID,Order #,Date,User ID,Type,PayerAuth,Invoice #,PO #,Trans ID,Card/Route Number,Exp. Date,Approval,Amount
825077,D80AF279-4ABED93F-191-16B706,09/26/2009 08:17:19 PM,,Sale,,,,,4388...8842,06/2010,Y:01593C0574819903:YYYX:,40.0
825077,D80AF279-4ABE47A3-776-16B706,09/26/2009 09:56:04 AM,,Sale,,,,,4266...8632,08/2012,Y:08134B0574649667:YYYX:,250.0
825077,D80AF279-4ABD4923-682-16A168,09/25/2009 03:50:12 PM,,Sale,,,,,4613...0369,12/2011,Y:0032610574426201:YYYX:,25.0
825077,D80AF279-4AB3C349-728-160A16,09/18/2009 10:28:41 AM,,Sale,,,,,4264...7030,01/2012,Y:02582A0571457164:YYYX:,500.0
825077,D80AF279-4A36CED6-902-E0474,09/12/2009 09:08:11 PM,825077,Return,,,,100653060041,5401...6991,01/2012,Y:0569064376:    :100653060041:,110.0
825077,D80AF279-4AA316B1-120-14F110,09/05/2009 06:56:01 PM,,Sale,,,,,4063...0900,06/2011,Y:5881640566195683:YYYX:,50.0
825077,D80AF279-4AA2D591-723-14F110,09/05/2009 02:18:10 PM,,Sale,,,,,4266...4794,10/2009,Y:04304C0566108362:YYYX:,50.0
825077,11614,09/03/2009 10:21:27 AM,825077,Return,,,,100652654519,5418...0149,09/2011,Y:0565184764:    :100652654519:,50.0
825077,D80AF279-4A9F487F-557-14C5D4,09/02/2009 09:39:27 PM,,Sale,,,,,4313...6770,02/2011,Y:03598C0564983861:YYYX:,250.0
825077,D80AF279-4A9F43F7-379-14C5D4,09/02/2009 09:20:07 PM,,Sale,,,,,4190...8008,07/2012,Y:32200C0564980982:YYYX:,250.0
825077,D80AF279-4A9F23FB-277-14B036,09/02/2009 07:03:39 PM,,Sale,,,,,3717...1002,05/2010,Y:1296390564951875:YYYX:,500.0
825077,11619,08/26/2009 03:49:12 PM,,Sale,,,,,3713...1011,12/2009,Y:2433160561675496:YYYP:,100.0
825077,11618,08/26/2009 10:27:34 AM,,Sale,,,,,4003...1756,11/2012,Y:02022B0561532768:YYYX:,50.0
825077,D80AF279-4A909420-655-13C26C,08/22/2009 05:58:09 PM,,Sale,,,,,6011...8886,05/2013,Y:0221520560005525:YYY :,40.0
825077,D80AF279-4A8CCC64-366-139730,08/19/2009 09:09:08 PM,,Sale,,,,,5424...6175,04/2010,Y:36350B0558808413:YYY :,100.0
825077,D80AF279-4A8C5DDE-223-138192,08/19/2009 01:17:34 PM,,Sale,,,,,3712...3002,06/2011,Y:1887340558649859:YYY :,50.0
825077,D80AF279-4A3E9BBE-718-E8628,08/19/2009 05:36:11 AM,825077,Return,,,,400696013721,4266...3601,05/2012,Y:0558454196:    :400696013721:,120.0
825077,D80AF279-4A88AD66-135-1340B8,08/16/2009 06:07:50 PM,,Sale,,,,,4843...6824,06/2011,Y:0806880557355565:YYY :,50.0
825077,D80AF279-4A8797EC-931-1340B8,08/15/2009 10:23:57 PM,,Sale,,,,,4388...8842,06/2010,Y:00725C0557068530:YYY :,10.0
825077,11617,08/15/2009 11:23:59 AM,,Sale,,,,,4313...2783,02/2012,Y:02535C0556871166:YYYX:,350.0
825077,11616,08/15/2009 09:22:46 AM,,Sale,,,,,5424...6417,02/2010,Y:44303B0556836541:YYYM:,50.0
825077,11615,08/14/2009 11:28:42 AM,,Sale,,,,,5418...0149,09/2011,Y:05271Z0556464457:YYYP:,50.0
825077,11614,08/07/2009 11:51:59 AM,,Sale,,,,400693671405,5418...0149,09/2011,Y:04794Z0553444770:YYYP:400693671405:,50.0
825077,11613,08/07/2009 09:40:38 AM,,Sale,,,,400693628833,4313...3718,12/2011,Y:04507C0553382925:YYYX:400693628833:,200.0
825077,11612,08/07/2009 04:07:18 AM,,Sale,,,,400693550195,4147...5596,04/2012,Y:01541C0553271548:YYYM:400693550195:,125.0
825077,11611,08/03/2009 01:39:30 PM,,Sale,,,,400692469940,4326...7558,02/2011,Y:1933990551613803:NNNX:400692469940:,50.0
825077,11610,08/01/2009 09:43:15 PM,,Sale,,,,400692012400,4147...4232,10/2009,Y:0453120550916680:YYYX:400692012400:,50.0
825077,D80AF279-4A72FA34-136-11E6D8,07/31/2009 07:05:40 AM,,Sale,,,,400691339163,5466...8022,12/2012,Y:56405Z0549970920:YYYP:400691339163:,10.0
825077,D80AF279-4A37338D-820-E1A12,07/30/2009 11:03:53 AM,825077,Return,,,,400691101225,4266...3612,05/2011,Y:0549614235:    :400691101225:,60.0
825077,D80AF279-4A71912E-922-11D13A,07/30/2009 05:25:19 AM,,Sale,,,,400691008291,5410...6011,03/2011,Y:04260B0549482773:YYYP:400691008291:,70.0
825077,11609,07/29/2009 02:08:26 PM,,Sale,,,,400690866430,5121...9102,04/2012,Y:02979B0549260296:YYYP:400690866430:,25.0
825077,11608,07/28/2009 07:27:03 PM,,Sale,,,,400690630908,4404...5281,07/2010,Y:0055110548925566:YYYX:400690630908:,50.0
825077,11607,07/25/2009 02:02:23 PM,,Sale,,,,400689775160,3713...1018,07/2011,Y:2521270547525516:YYYP:400689775160:,50.0
825077,D80AF279-4A37F9E3-458-E1A12,07/24/2009 01:52:30 PM,825077,Return,,,,400689562805,5466...6803,09/2012,Y:0547171140:    :400689562805:,120.0
825077,11606,07/24/2009 07:19:09 AM,,Sale,,,,400689421085,4266...5581,03/2010,Y:07305B0546968591:YYYX:400689421085:,25.0
825077,D80AF279-4A67A96B-809-11244A,07/22/2009 05:06:04 PM,,Sale,,,,400688990255,4888...3899,05/2010,Y:00552B0546314906:YYYX:400688990255:,10.0
825077,11605,07/16/2009 06:16:41 AM,,Sale,,,,100651578868,4640...0171,10/2010,Y:09273B0543434405:YYYX:100651578868:,50.0
825077,11604,07/15/2009 05:26:25 PM,,Sale,,,,100651460176,3715...2000,03/2012,Y:1241010543263748:YYYX:100651460176:,50.0
825077,11603,07/15/2009 07:45:50 AM,,Sale,,,,100651274569,4291...4144,10/2010,Y:6345410542989902:YYYX:100651274569:,50.0
825077,D80AF279-4A5D305E-292-10775A,07/14/2009 06:26:54 PM,,Sale,,,,100651131963,4147...6613,07/2011,Y:09652C0542792744:YYYX:100651131963:,70.0
825077,D80AF279-4A3E72AB-632-E8628,07/11/2009 07:30:47 PM,825077,Return,,,,100650317551,5466...9858,09/2010,Y:0541519137:    :100650317551:,80.0
825077,11602,07/10/2009 06:18:56 PM,,Sale,,,,100650114017,4867...4753,10/2011,Y:0618210541165549:YYYX:100650114017:,10.0
825077,11601,07/10/2009 06:17:54 AM,,Sale,,,,100649903818,3725...3015,01/2012,Y:1238840540846597:YYYX:100649903818:,50.0
825077,D80AF279-4A56B7F9-180-100B44,07/09/2009 08:39:37 PM,,Sale,,,,100649816030,5466...2542,02/2012,N:Declined:YYYP,60.0
825077,D80AF279-4A56724B-521-100B44,07/09/2009 03:42:19 PM,,Sale,,,,100649760500,5466...2542,02/2012,N:Declined:YYYP,60.0
825077,D80AF279-4A556819-828-FF5A6,07/08/2009 08:46:33 PM,,Sale,,,,100649471816,4820...1397,02/2010,Y:00845A0540238327:YYYX:100649471816:,60.0
825077,D80AF279-4A5556EF-249-FF5A6,07/08/2009 07:33:19 PM,,Sale,,,,100649459373,5183...4591,01/2010,Y:09587Z0540219736:YYYP:100649459373:,60.0
825077,D80AF279-4A55545E-095-FF5A6,07/08/2009 07:22:22 PM,,Sale,,,,100649457428,3713...1004,04/2012,Y:1848250540216636:YYYX:100649457428:,80.0
825077,D80AF279-4A554F25-710-FF5A6,07/08/2009 07:00:06 PM,,Sale,,,,100649452044,5424...2887,01/2013,Y:24938B0540208418:YYYP:100649452044:,60.0
825077,D80AF279-4A54B8B2-772-FF5A6,07/08/2009 08:18:11 AM,,Sale,,,,100649245567,4147...3714,11/2011,Y:04359C0539899319:YYYX:100649245567:,10.0
825077,D80AF279-4A5404C0-448-FE008,07/07/2009 07:30:24 PM,,Sale,,,,,5466...5266,02/2011,NFRAUD,80.0
825077,D80AF279-4A540496-993-FE008,07/07/2009 07:29:43 PM,,Sale,,,,100649075490,5466...5266,02/2011,Y:95356P0539680555:YYYP:100649075490:,80.0
825077,D80AF279-4A52B164-026-FCA6A,07/06/2009 07:22:28 PM,,Sale,,,,100648763160,5466...0126,08/2012,Y:88734Z0539212138:YYYP:100648763160:,50.0
825077,11600,07/06/2009 11:55:04 AM,,Sale,,,,100648653602,6011...3757,05/2013,Y:0068640539013304:YYYS:100648653602:,50.0
825077,11599,07/06/2009 11:51:43 AM,,Sale,,,,100648652532,6011...6953,05/2013,N:Declined:XXRP,50.0
825077,D80AF279-4A52074C-415-FCA6A,07/06/2009 07:16:45 AM,,Sale,,,,100648558190,4417...2709,02/2012,Y:09372C0538873758:YYYX:100648558190:,60.0
825077,D80AF279-4A5175DA-033-FB4CC,07/05/2009 08:56:10 PM,,Sale,,,,100648473313,3723...1015,04/2011,Y:1224240538749564:YYYX:100648473313:,30.0
825077,D80AF279-4A3C17EA-139-E5AEC,07/05/2009 07:48:19 PM,825077,Return,,,,100648467846,5466...6229,06/2012,Y:0538738178:    :100648467846:,60.0
825077,D80AF279-4A4D49A0-616-F73F2,07/02/2009 04:58:24 PM,,Sale,,,,100647962605,5466...6466,01/2011,Y:14641Z0537814428:YYYP:100647962605:,30.0
825077,D80AF279-4A4D48FF-139-F73F2,07/02/2009 04:55:43 PM,,Sale,,,,100647962169,5466...6466,01/2011,Y:52220Z0537813531:YYYP:100647962169:,20.0
825077,D80AF279-4A4D0D74-205-F73F2,07/02/2009 12:41:40 PM,,Sale,,,,100647896150,5424...5749,11/2011,Y:60733B0537699422:YYYP:100647896150:,60.0
825077,D80AF279-4A4CE334-226-F73F2,07/02/2009 09:41:24 AM,,Sale,,,,100647833294,4266...3144,07/2012,Y:03757A0537611011:YYYX:100647833294:,60.0
825077,D80AF279-4A4BFADB-093-F5E54,07/01/2009 05:10:03 PM,,Sale,,,,100647657247,5413...5864,09/2009,Y:0059320537358187:YYYP:100647657247:,100.0
825077,D80AF279-4A4AD291-336-F48B6,06/30/2009 08:05:53 PM,,Sale,,,,100647128535,4147...3586,02/2011,Y:45643C0536708640:YYYX:100647128535:,60.0
825077,D80AF279-4A4AC84E-452-F48B6,06/30/2009 07:22:07 PM,,Sale,,,,100647116701,6011...9751,11/2014,Y:0308220536696541:YYYS:100647116701:,60.0
825077,D80AF279-4A4AB439-397-F48B6,06/30/2009 05:56:25 PM,,Sale,,,,100647081805,4843...9925,06/2011,Y:0345390536661109:YYYX:100647081805:,60.0
825077,11598,06/30/2009 03:04:06 PM,,Sale,,,,100647006678,3713...5006,10/2011,Y:1949500536584715:YYYX:100647006678:,50.0
825077,D80AF279-4A4A75E8-236-F48B6,06/30/2009 01:30:32 PM,,Sale,,,,100646958721,5491...0479,10/2010,Y:19065B0536535773:YYYP:100646958721:,120.0
825077,11597,06/30/2009 01:17:47 PM,,Sale,,,,100646951220,5401...1354,03/2011,Y:02426Z0536528089:YYYP:100646951220:,50.0
825077,D80AF279-4A377E53-403-E1A12,06/30/2009 09:25:49 AM,825077,Return,,,,100646831452,4266...8832,09/2010,Y:0536405748:    :100646831452:,80.0
825077,D80AF279-4A4A1CAB-751-F48B6,06/30/2009 07:09:48 AM,,Sale,,,,100646770555,6011...4561,08/2013,Y:0307920536343853:YYYS:100646770555:,50.0
825077,D80AF279-4A4A1019-685-F48B6,06/30/2009 06:16:09 AM,,Sale,,,,100646751827,5523...5052,09/2010,Y:2115420536324788:YYYP:100646751827:,90.0
825077,11596,06/30/2009 06:10:59 AM,,Sale,,,,100646750005,5490...6859,02/2012,Y:01509Z0536322944:YYYP:100646750005:,250.0
825077,D80AF279-4A4A0B96-298-F48B6,06/30/2009 05:56:54 AM,,Sale,,,,100646745067,3713...1014,10/2011,Y:1710550536317888:YYYX:100646745067:,60.0
825077,D80AF279-4A49A1FE-898-F48B6,06/29/2009 10:26:23 PM,,Sale,,,,100646658287,5466...1368,07/2011,Y:03148Z0536227436:YYYP:100646658287:,60.0
825077,D80AF279-4A497060-468-F3318,06/29/2009 06:54:40 PM,,Sale,,,,100646609770,3715...2005,05/2015,Y:1827670536177607:YYYX:100646609770:,70.0
825077,D80AF279-4A494CBD-942-F3318,06/29/2009 04:22:37 PM,,Sale,,,,100646552209,5491...0479,10/2010,Y:65026B0536118968:YYYP:100646552209:,90.0
825077,D80AF279-4A4946DF-228-F3318,06/29/2009 03:57:35 PM,,Sale,,,,100646541121,5491...0479,10/2010,Y:41655B0536107678:YYYP:100646541121:,30.0
825077,D80AF279-4A4939B9-302-F3318,06/29/2009 03:01:29 PM,,Sale,,,,100646515104,3725...1018,05/2012,Y:1355840536081261:YYYX:100646515104:,50.0
825077,D80AF279-4A491070-948-F3318,06/29/2009 12:05:20 PM,,Sale,,,,100646426232,4888...2088,06/2012,Y:00557B0535990746:YYYX:100646426232:,50.0
825077,D80AF279-4A490E57-265-F3318,06/29/2009 11:56:23 AM,,Sale,,,,100646421389,4888...2088,06/2012,Y:05562B0535985806:YYYX:100646421389:,30.0
825077,D80AF279-4A490BF4-635-F3318,06/29/2009 11:46:12 AM,,Sale,,,,100646416430,4060...2756,01/2011,Y:0568370535980767:YYYX:100646416430:,80.0
825077,D80AF279-4A48DD08-265-F3318,06/29/2009 08:26:00 AM,,Sale,,,,100646320669,5369...7704,01/2012,Y:08051B0535883129:YYYP:100646320669:,60.0
825077,D80AF279-4A483002-393-F1D7A,06/28/2009 08:07:46 PM,,Sale,,,,100646176450,5466...3553,02/2011,Y:41965Z0535731524:YYYP:100646176450:,140.0
825077,11595,06/28/2009 05:19:39 PM,,Sale,,,,100646124308,5410...6418,01/2010,Y:55819B0535678462:YYYP:100646124308:,100.0
825077,D80AF279-4A47CA8C-448-F1D7A,06/28/2009 12:54:52 PM,,Sale,,,,100646029885,4636...9882,01/2011,Y:03618C0535583156:YYYX:100646029885:,120.0
825077,D80AF279-4A478FEF-342-F1D7A,06/28/2009 08:44:48 AM,,Sale,,,,100645963762,6011...8813,04/2013,Y:0286180535516412:YYYS:100645963762:,100.0
825077,D80AF279-4A46B150-056-F07DC,06/27/2009 04:54:56 PM,,Sale,,,,100645789560,4388...1482,03/2010,Y:03714C0535337593:YYYX:100645789560:,60.0
825077,D80AF279-4A466C91-807-F07DC,06/27/2009 12:01:38 PM,,Sale,,,,100645696731,4843...7158,06/2011,Y:0154520535243983:YYYX:100645696731:,160.0
825077,D80AF279-4A4640E0-599-F07DC,06/27/2009 08:55:12 AM,,Sale,,,,100645642092,4266...3206,08/2010,Y:05412B0535188670:YYYX:100645642092:,10.0
825077,D80AF279-4A45994B-260-F07DC,06/26/2009 09:00:11 PM,,Sale,,,,100645530053,5451...7661,04/2012,Y:T004910535072997:YYYP:100645530053:,50.0
825077,D80AF279-4A45983A-296-EF23E,06/26/2009 08:55:38 PM,,Sale,,,,100645529402,5451...7661,04/2012,Y:T091620535072333:YYYP:100645529402:,10.0
825077,11594,06/26/2009 01:38:13 PM,,Sale,,,,100645375312,3713...2004,04/2011,Y:1476490534916093:YYYX:100645375312:,101.0
825077,D80AF279-4A44FB02-309-EF23E,06/26/2009 09:44:50 AM,,Sale,,,,100645268561,4411...0972,02/2011,Y:0144120534807578:YYYX:100645268561:,60.0
825077,D80AF279-4A44E85C-172-EF23E,06/26/2009 08:25:16 AM,,Sale,,,,100645232604,3772...1000,02/2012,Y:1515750534771175:YYYX:100645232604:,100.0
825077,11593,06/26/2009 07:21:24 AM,,Sale,,,,100645205460,4636...3457,02/2011,Y:03764C0534743666:YYYX:100645205460:,50.0
825077,D80AF279-4A443F42-211-EDCA0,06/25/2009 08:23:46 PM,,Sale,,,,100645080747,5466...2930,09/2012,Y:96751P0534614669:YYYP:100645080747:,100.0
825077,D80AF279-4A443E88-788-EDCA0,06/25/2009 08:20:40 PM,,Sale,,,,100645080150,4266...6148,10/2011,Y:01238B0534614069:YYYX:100645080150:,60.0
825077,D80AF279-4A442FF5-729-EDCA0,06/25/2009 07:18:29 PM,,Sale,,,,100645066989,4306...9135,07/2011,Y:0259170534600582:YYYX:100645066989:,60.0
825077,D80AF279-4A442806-191-EDCA0,06/25/2009 06:44:38 PM,,Sale,,,,100645057726,4388...9155,09/2009,Y:03180C0534591150:YYYX:100645057726:,120.0
825077,D80AF279-4A43C7F3-555-EDCA0,06/25/2009 11:54:43 AM,,Sale,,,,100644903340,4264...7946,05/2012,Y:05540B0534433897:YYYX:100644903340:,140.0
825077,D80AF279-4A43BDCF-979-EDCA0,06/25/2009 11:11:28 AM,,Sale,,,,100644884463,3767...2014,07/2012,Y:1557050534414623:YYYX:100644884463:,60.0
825077,D80AF279-4A43B85B-135-EDCA0,06/25/2009 10:48:11 AM,,Sale,,,,100644874678,5424...7604,02/2011,Y:17012B0534404643:YYYP:100644874678:,190.0
825077,D80AF279-4A43A070-011-EDCA0,06/25/2009 09:06:08 AM,,Sale,,,,100644830404,5401...5697,01/2010,Y:00560Z0534359740:YYYP:100644830404:,100.0
825077,D80AF279-4A439788-892-EDCA0,06/25/2009 08:28:09 AM,,Sale,,,,100644813966,4417...4332,06/2011,Y:04293A0534343025:YYYX:100644813966:,60.0
825077,D80AF279-4A43901B-914-EDCA0,06/25/2009 07:56:27 AM,,Sale,,,,100644800808,4559...2150,07/2009,Y:08859A0534329597:YYYX:100644800808:,100.0
825077,D80AF279-4A438D3C-974-EDCA0,06/25/2009 07:44:13 AM,,Sale,,,,100644795424,5466...8939,07/2011,Y:37378P0534324138:YYYP:100644795424:,60.0
825077,D80AF279-4A438312-940-EDCA0,06/25/2009 07:00:51 AM,,Sale,,,,100644779016,6011...7439,03/2013,Y:0256940534307434:YYYS:100644779016:,80.0
825077,D80AF279-4A4307FA-047-EDCA0,06/24/2009 10:15:38 PM,,Sale,,,,100644685615,4147...1755,05/2012,Y:06143C0534209935:YYYX:100644685615:,150.0
825077,D80AF279-4A430397-319-EDCA0,06/24/2009 09:56:55 PM,,Sale,,,,100644681354,5140...9675,12/2010,Y:09678B0534205501:YYYP:100644681354:,100.0
825077,D80AF279-4A42EBA2-151-EC702,06/24/2009 08:14:42 PM,,Sale,,,,100644665672,4266...5551,12/2011,Y:03278A0534189168:YYYX:100644665672:,80.0
825077,D80AF279-4A42DDD3-407-EC702,06/24/2009 07:15:47 PM,,Sale,,,,100644651680,5466...4675,05/2011,Y:81376Z0534174818:YYYP:100644651680:,180.0
825077,D80AF279-4A42DCA4-314-EC702,06/24/2009 07:10:44 PM,,Sale,,,,100644650154,6011...3886,07/2013,Y:0244580534173271:YYYS:100644650154:,60.0
825077,D80AF279-4A42CDDC-060-EC702,06/24/2009 06:07:40 PM,,Sale,,,,100644628775,3723...1008,09/2011,Y:1347000534151532:YYYX:100644628775:,100.0
825077,D80AF279-4A42C9AF-896-EC702,06/24/2009 05:49:51 PM,,Sale,,,,100644622610,6011...7582,01/2014,Y:0249830534145263:YYYS:100644622610:,60.0
825077,D80AF279-4A42C4CD-088-EC702,06/24/2009 05:29:01 PM,,Sale,,,,100644615968,5466...8239,04/2011,Y:96918Z0534138494:YYYP:100644615968:,60.0
825077,D80AF279-4A42C2D0-077-EC702,06/24/2009 05:20:32 PM,,Sale,,,,100644613752,5401...7006,12/2010,Y:00987B0534136248:YYYP:100644613752:,150.0
825077,D80AF279-4A42B939-791-EC702,06/24/2009 04:39:38 PM,,Sale,,,,100644600920,4313...9532,11/2011,Y:03598C0534123169:YYYX:100644600920:,60.0
825077,D80AF279-4A426361-066-EC702,06/24/2009 10:33:21 AM,,Sale,,,,100644449932,4623...0779,09/2010,Y:21423B0533969403:YYYX:100644449932:,120.0
825077,D80AF279-4A424D91-698-EC702,06/24/2009 09:00:18 AM,,Sale,,,,100644411207,4117...1398,11/2012,Y:1105080533930001:YYYX:100644411207:,80.0
825077,D80AF279-4A424296-459-EC702,06/24/2009 08:13:26 AM,,Sale,,,,100644391662,4387...2820,08/2009,Y:0244050533910126:YYYX:100644391662:,60.0
825077,D80AF279-4A42400A-176-EC702,06/24/2009 08:02:34 AM,,Sale,,,,100644387273,4888...6600,10/2009,N:Declined:YYYX,80.0
825077,11592,06/24/2009 07:42:59 AM,,Sale,,,,100644379242,4388...6342,05/2010,Y:09020C0533897533:YYYX:100644379242:,50.0
825077,D80AF279-4A4238EC-258-EC702,06/24/2009 07:32:12 AM,,Sale,,,,100644374838,4264...9051,05/2011,Y:03520B0533893029:YYYX:100644374838:,80.0
825077,D80AF279-4A4225E9-487-EC702,06/24/2009 06:11:05 AM,,Sale,,,,100644347507,5490...3326,08/2011,Y:01512Z0533865228:YYYP:100644347507:,80.0
825077,D80AF279-4A421447-751-EC702,06/24/2009 04:55:52 AM,,Sale,,,,100644332864,4037...8205,09/2011,Y:60425B0533850388:YYYX:100644332864:,80.0
825077,D80AF279-4A41F28A-282-EC702,06/24/2009 02:31:54 AM,,Sale,,,,100644314771,4744...5032,07/2011,Y:1032190533832198:YYYX:100644314771:,60.0
825077,D80AF279-4A41C461-526-EC702,06/23/2009 11:14:58 PM,,Sale,,,,100644266773,5466...0724,03/2010,Y:79655Z0533781094:YYYP:100644266773:,60.0
825077,D80AF279-4A41B324-214-EC702,06/23/2009 10:01:24 PM,,Sale,,,,100644254961,4313...6619,12/2009,N:Declined:YYYX,80.0
825077,D80AF279-4A41AE07-524-EC702,06/23/2009 09:39:35 PM,,Sale,,,,100644252029,4313...6619,12/2009,N:Declined:YYYX,80.0
825077,D80AF279-4A41AD12-340-EC702,06/23/2009 09:35:30 PM,,Sale,,,,100644251563,4313...6619,12/2009,N:Declined:YYYX,80.0
825077,D80AF279-4A419981-594-EB164,06/23/2009 08:12:01 PM,,Sale,,,,100644237965,4313...6619,12/2009,N:Declined:YYYX,80.0
825077,D80AF279-4A41964C-798-EB164,06/23/2009 07:58:21 PM,,Sale,,,,100644235285,4246...1384,06/2012,Y:0464160533748363:YYYX:100644235285:,120.0
825077,D80AF279-4A4188DC-927-EB164,06/23/2009 07:01:00 PM,,Sale,,,,100644220214,4003...0405,02/2012,Y:01801B0533732983:YYYX:100644220214:,180.0
825077,11591,06/23/2009 06:39:54 PM,,Sale,,,,100644212607,3715...2004,01/2012,Y:2828470533725252:NNNP:100644212607:,100.0
825077,D80AF279-4A41813A-721-EB164,06/23/2009 06:28:27 PM,,Sale,,,,100644208359,5466...4469,03/2011,Y:62931Z0533720920:YYYP:100644208359:,60.0
825077,D80AF279-4A414109-667-EB164,06/23/2009 01:54:33 PM,,Sale,,,,100644104651,4313...6619,12/2009,N:Declined:YYYX,80.0
825077,D80AF279-4A413E09-572-EB164,06/23/2009 01:41:46 PM,,Sale,,,,100644098390,6011...5300,09/2013,Y:0233970533609087:YYYS:100644098390:,60.0
825077,D80AF279-4A411766-672-EB164,06/23/2009 10:56:54 AM,,Sale,,,,100644019131,5417...5996,08/2009,Y:09671Z0533528334:YYYP:100644019131:,70.0
825077,D80AF279-4A4108BC-138-EB164,06/23/2009 09:54:20 AM,,Sale,,,,100643992523,5401...4197,02/2011,Y:02630B0533501335:YYYP:100643992523:,60.0
825077,D80AF279-4A40F815-709-EB164,06/23/2009 08:43:18 AM,,Sale,,,,100643963550,5466...8784,06/2010,Y:75576Z0533471796:YYYP:100643963550:,70.0
825077,D80AF279-4A40E96F-937-EB164,06/23/2009 07:40:48 AM,,Sale,,,,100643936586,3725...3005,07/2011,Y:1405100533444489:YYYX:100643936586:,70.0
825077,D80AF279-4A40CCFA-679-EB164,06/23/2009 05:39:23 AM,,Sale,,,,100643898061,5466...5538,09/2010,Y:54111Z0533405306:YYYP:100643898061:,70.0
825077,D80AF279-4A40BE09-894-EB164,06/23/2009 04:35:38 AM,,Sale,,,,100643887897,3772...2006,10/2009,Y:1808540533395026:YYYX:100643887897:,60.0
825077,D80AF279-4A4059C0-546-EB164,06/22/2009 09:27:45 PM,,Sale,,,,100643811508,5524...5204,04/2011,Y:02366S0533315058:YYYP:100643811508:,240.0
825077,D80AF279-4A404D79-654-E9BC6,06/22/2009 08:35:22 PM,,Sale,,,,100643800217,4313...6473,10/2011,Y:03554C0533303565:YYYX:100643800217:,70.0
825077,D80AF279-4A4041A1-534-E9BC6,06/22/2009 07:44:49 PM,,Sale,,,,100643788654,4313...0153,01/2012,Y:04541C0533291765:YYYX:100643788654:,110.0
825077,D80AF279-4A403B82-373-E9BC6,06/22/2009 07:18:42 PM,,Sale,,,,100643780364,6011...2959,04/2014,Y:0225300533283363:YYYS:100643780364:,60.0
825077,D80AF279-4A401325-660-E9BC6,06/22/2009 04:26:29 PM,,Sale,,,,100643717947,5452...8377,05/2011,Y:0256740533219971:YYYP:100643717947:,60.0
825077,D80AF279-4A40110D-342-E9BC6,06/22/2009 04:17:33 PM,,Sale,,,,100643714139,4037...7491,02/2011,Y:81227A0533216111:YYYX:100643714139:,60.0
825077,D80AF279-4A400EF4-233-E9BC6,06/22/2009 04:08:36 PM,,Sale,,,,100643710378,4117...9017,02/2012,Y:1102890533212291:YYYX:100643710378:,70.0
825077,D80AF279-4A400013-700-E9BC6,06/22/2009 03:05:07 PM,,Sale,,,,100643680854,5401...7892,05/2011,Y:05247B0533182420:YYYP:100643680854:,70.0
825077,D80AF279-4A3FFAC6-806-E9BC6,06/22/2009 02:42:31 PM,,Sale,,,,100643670119,5466...4251,03/2010,Y:69458P0533171578:YYYP:100643670119:,330.0
825077,D80AF279-4A36FDEC-773-E0474,06/22/2009 12:52:33 PM,825077,Return,,,,100643619022,4266...2689,05/2010,Y:0533119722:    :100643619022:,70.0
825077,D80AF279-4A3FCD7E-565-E9BC6,06/22/2009 11:29:18 AM,,Sale,,,,100643575647,5466...2652,07/2010,Y:01555Z0533075794:YYYP:100643575647:,150.0
825077,D80AF279-4A3FCA0E-991-E9BC6,06/22/2009 11:14:39 AM,,Sale,,,,100643567948,3723...1016,10/2011,Y:1429920533067970:YYYX:100643567948:,100.0
825077,D80AF279-4A3FB5D3-271-E9BC6,06/22/2009 09:48:19 AM,,Sale,,,,100643520542,3712...2019,06/2012,Y:1683820533019852:YYYX:100643520542:,120.0
825077,D80AF279-4A3FB09E-408-E9BC6,06/22/2009 09:26:07 AM,,Sale,,,,100643509394,6011...4083,05/2013,Y:0224440533008540:YYYS:100643509394:,60.0
825077,D80AF279-4A3FA368-876-E9BC6,06/22/2009 08:29:45 AM,,Sale,,,,100643482473,4226...0323,08/2011,Y:08348B0532981251:YYYX:100643482473:,60.0
825077,D80AF279-4A3F9998-238-E9BC6,06/22/2009 07:47:52 AM,,Sale,,,,100643464322,5407...5871,02/2010,Y:02592Z0532962829:YYYP:100643464322:,60.0
825077,D80AF279-4A3F9375-678-E9BC6,06/22/2009 07:21:42 AM,,Sale,,,,100643453224,5424...9831,05/2011,Y:83742B0532950510:YYYP:100643453224:,70.0
825077,D80AF279-4A36BBE4-757-E0474,06/22/2009 06:15:18 AM,825077,Return,,,,100643428153,3725...1017,10/2010,Y:0532924500:    :100643428153:,80.0
825077,D80AF279-4A3F1666-993-E9BC6,06/21/2009 10:28:07 PM,,Sale,,,,100643346088,5466...1191,04/2012,Y:04224Z0532838580:YYYP:100643346088:,60.0
825077,D80AF279-4A3F0C78-697-E9BC6,06/21/2009 09:45:44 PM,,Sale,,,,100643337743,5466...5995,07/2009,Y:8385070532829947:YYYP:100643337743:,60.0
825077,D80AF279-4A3F0C28-284-E9BC6,06/21/2009 09:44:24 PM,,Sale,,,,100643337531,3723...1004,01/2013,Y:1068940532829729:YYYX:100643337531:,100.0
825077,D80AF279-4A3F0192-831-E8628,06/21/2009 08:59:14 PM,,Sale,,,,100643327923,3723...1006,02/2012,Y:1218130532819847:YYYX:100643327923:,100.0
825077,D80AF279-4A3EF1F3-580-E8628,06/21/2009 07:52:35 PM,,Sale,,,,100643315852,5424...8763,08/2010,Y:08966B0532807466:YYYP:100643315852:,120.0
825077,D80AF279-4A3EEF81-827-E8628,06/21/2009 07:42:09 PM,,Sale,,,,100643313548,5424...8763,08/2010,Y:69105B0532805116:YYYP:100643313548:,120.0
825077,D80AF279-4A3EED23-913-E8628,06/21/2009 07:32:03 PM,,Sale,,,,100643311265,3725...2005,08/2012,Y:1431940532802779:YYYX:100643311265:,140.0
825077,D80AF279-4A3EEB05-265-E8628,06/21/2009 07:23:01 PM,,Sale,,,,100643309141,5120...8951,10/2011,Y:82306B0532800597:NYZP:100643309141:,60.0
825077,D80AF279-4A3EE717-168-E8628,06/21/2009 07:06:15 PM,,Sale,,,,100643304236,5401...4106,07/2011,Y:08471B0532795545:YYYP:100643304236:,60.0
825077,D80AF279-4A3EE41D-906-E8628,06/21/2009 06:53:33 PM,,Sale,,,,100643300289,4640...7548,07/2011,Y:00032B0532791486:YYYX:100643300289:,100.0
825077,D80AF279-4A3EE119-949-E8628,06/21/2009 06:40:41 PM,,Sale,,,,100643296467,5401...4106,07/2011,Y:01273B0532787553:YYYP:100643296467:,60.0
825077,D80AF279-4A3EDCD5-143-E8628,06/21/2009 06:22:29 PM,,Sale,,,,100643291096,4313...2783,02/2012,Y:02526C0532782034:YYYX:100643291096:,370.0
825077,11590,06/21/2009 05:35:25 PM,,Sale,,,,100643275907,5401...2931,05/2011,Y:05781T0532766567:YYYP:100643275907:,100.0
825077,D80AF279-4A3EBF5F-454-E8628,06/21/2009 04:16:47 PM,,Sale,,,,100643250277,3723...1004,09/2010,Y:1648450532740511:YYYX:100643250277:,70.0
825077,D80AF279-4A3EAE3A-472-E8628,06/21/2009 03:03:38 PM,,Sale,,,,100643227313,4266...9251,11/2011,Y:00172B0532717258:YYYX:100643227313:,60.0
825077,D80AF279-4A3E9BBE-718-E8628,06/21/2009 01:44:46 PM,,Sale,,,,100643202166,4266...3601,05/2012,Y:03418B0532691859:YYYX:100643202166:,260.0
825077,D80AF279-4A3E9356-056-E8628,06/21/2009 01:08:54 PM,,Sale,,,,100643191952,4147...1251,04/2012,Y:05642C0532681536:YYYX:100643191952:,60.0
825077,D80AF279-4A3E8A89-160-E8628,06/21/2009 12:31:21 PM,,Sale,,,,100643181243,4843...4213,04/2011,Y:0625300532670725:YYYX:100643181243:,120.0
825077,D80AF279-4A3E7C11-551-E8628,06/21/2009 11:29:37 AM,,Sale,,,,100643164529,6011...1599,01/2013,Y:0211730532653752:YYYS:100643164529:,120.0
825077,D80AF279-4A3E7B16-146-E8628,06/21/2009 11:25:26 AM,,Sale,,,,100643163521,5588...4808,01/2012,Y:4653100532652732:YYYP:100643163521:,120.0
825077,D80AF279-4A3E78CF-510-E8628,06/21/2009 11:15:43 AM,,Sale,,,,100643161111,5409...4525,07/2009,Y:8327300532650296:YYYP:100643161111:,200.0
825077,D80AF279-4A3E7404-288-E8628,06/21/2009 10:55:16 AM,,Sale,,,,100643156088,4037...3055,10/2010,Y:21125B0532645211:YYYX:100643156088:,100.0
825077,D80AF279-4A3E73BA-593-E8628,06/21/2009 10:54:02 AM,,Sale,,,,100643155753,5466...9858,09/2010,Y:29461Z0532644871:YYYP:100643155753:,80.0
825077,D80AF279-4A3E72AB-632-E8628,06/21/2009 10:49:31 AM,,Sale,,,,100643154591,5466...9858,09/2010,Y:92730Z0532643692:YYYP:100643154591:,80.0
825077,D80AF279-4A3E6FC5-392-E8628,06/21/2009 10:37:09 AM,,Sale,,,,100643151237,3713...5004,04/2012,Y:1511910532640299:YYYX:100643151237:,200.0
825077,D80AF279-4A3E5C3C-214-E8628,06/21/2009 09:13:48 AM,,Sale,,,,100643132328,5528...4107,04/2010,Y:7922210532621062:YYYP:100643132328:,110.0
825077,D80AF279-4A3E581B-346-E8628,06/21/2009 08:56:11 AM,,Sale,,,,100643129002,5438...5424,11/2010,Y:7825570532617671:YYYP:100643129002:,50.0
825077,D80AF279-4A3E578F-806-E8628,06/21/2009 08:53:51 AM,,Sale,,,,100643128571,5438...5424,11/2010,Y:7822900532617237:YYYP:100643128571:,10.0
825077,D80AF279-4A3E52F3-105-E8628,06/21/2009 08:34:11 AM,,Sale,,,,100643124357,3715...1002,10/2009,Y:1866290532612955:YYYX:100643124357:,70.0
825077,D80AF279-4A3E4C53-440-E8628,06/21/2009 08:05:55 AM,,Sale,,,,100643119219,3725...1017,10/2012,Y:1752330532607744:YYYX:100643119219:,80.0
825077,D80AF279-4A3E3587-040-E8628,06/21/2009 06:28:39 AM,,Sale,,,,100643087396,4388...3958,01/2012,Y:05207D0532573028:YYYX:100643087396:,120.0
825077,D80AF279-4A3DB2D1-142-E8628,06/20/2009 09:10:57 PM,,Sale,,,,100643047048,3713...1009,07/2012,Y:1628860532532029:YYYX:100643047048:,60.0
825077,D80AF279-4A3DA84B-706-E708A,06/20/2009 08:26:03 PM,,Sale,,,,100643038063,4094...4003,01/2011,Y:0020620532522971:YYYX:100643038063:,60.0
825077,D80AF279-4A3DA569-467-E708A,06/20/2009 08:13:45 PM,,Sale,,,,,3715...3000,01/2012,NFRAUD,70.0
825077,D80AF279-4A3DA567-395-E708A,06/20/2009 08:13:43 PM,,Sale,,,,100643035573,3715...3000,01/2012,Y:1270890532520454:YYYX:100643035573:,70.0
825077,D80AF279-4A3DA507-869-E708A,06/20/2009 08:12:07 PM,,Sale,,,,100643035253,5369...9181,01/2011,Y:06248P0532520131:YYYP:100643035253:,70.0
825077,D80AF279-4A3DA36A-701-E708A,06/20/2009 08:05:14 PM,,Sale,,,,100643033795,3715...3000,01/2012,Y:1610750532518656:YYYX:100643033795:,60.0
825077,D80AF279-4A3DA144-626-E708A,06/20/2009 07:56:04 PM,,Sale,,,,100643031598,4313...9296,01/2012,Y:05554C0532516428:YYYX:100643031598:,60.0
825077,D80AF279-4A3D9E95-318-E708A,06/20/2009 07:44:37 PM,,Sale,,,,100643028774,5466...6890,12/2012,Y:77132P0532513573:YYYP:100643028774:,80.0
825077,D80AF279-4A3D9DC5-187-E708A,06/20/2009 07:41:09 PM,,Sale,,,,100643027911,5466...6890,12/2012,Y:18154P0532512702:YYYP:100643027911:,130.0
825077,D80AF279-4A3D8BF1-635-E708A,06/20/2009 06:25:05 PM,,Sale,,,,100643005704,5490...9910,02/2012,Y:02553Z0532490319:YYYP:100643005704:,130.0
825077,D80AF279-4A3D5FA6-917-E708A,06/20/2009 03:16:06 PM,,Sale,,,,100642941648,5466...1472,07/2010,Y:96772Z0532425755:YYYP:100642941648:,60.0
825077,D80AF279-4A3D5E8A-405-E708A,06/20/2009 03:11:22 PM,,Sale,,,,100642939956,3715...1006,12/2010,Y:1841490532424047:YYYX:100642939956:,20.0
825077,D80AF279-4A3D53D1-370-E708A,06/20/2009 02:25:37 PM,,Sale,,,,100642924860,4802...4946,07/2009,Y:0609250532408830:YYYX:100642924860:,190.0
825077,D80AF279-4A3D4D91-127-E708A,06/20/2009 01:58:57 PM,,Sale,,,,100642915530,5466...1472,07/2010,Y:61296Z0532399441:YYYP:100642915530:,60.0
825077,D80AF279-4A3D3F45-236-E708A,06/20/2009 12:57:57 PM,,Sale,,,,100642895275,5424...6517,08/2012,Y:86502B0532378965:YYYP:100642895275:,60.0
825077,D80AF279-4A3D2C1D-423-E708A,06/20/2009 11:36:13 AM,,Sale,,,,100642869664,5401...0167,05/2012,Y:08420Z0532353131:YYYP:100642869664:,80.0
825077,D80AF279-4A3D2C00-409-E708A,06/20/2009 11:35:44 AM,,Sale,,,,100642869519,5424...2543,09/2009,Y:13773B0532352985:YYYP:100642869519:,60.0
825077,D80AF279-4A3D1B6B-722-E708A,06/20/2009 10:24:59 AM,,Sale,,,,100642847764,4327...9601,04/2011,Y:03792A0532330904:NYZX:100642847764:,70.0
825077,D80AF279-4A3D1830-670-E708A,06/20/2009 10:11:12 AM,,Sale,,,,100642843158,5121...4241,04/2010,Y:02053B0532326251:YYYP:100642843158:,60.0
825077,D80AF279-4A3D1169-366-E708A,06/20/2009 09:42:17 AM,,Sale,,,,100642833816,4512...0658,04/2010,Y:0200840532316828:YYYX:100642833816:,60.0
825077,D80AF279-4A3D10F0-796-E708A,06/20/2009 09:40:16 AM,,Sale,,,,100642833210,3772...1017,04/2012,Y:1864450532316214:YYYX:100642833210:,60.0
825077,D80AF279-4A3D04E8-191-E708A,06/20/2009 08:48:56 AM,,Sale,,,,100642817054,4294...1703,04/2012,Y:0202190532299888:YYYX:100642817054:,60.0
825077,D80AF279-4A3D03F3-005-E708A,06/20/2009 08:44:51 AM,,Sale,,,,100642815803,5452...0849,01/2012,Y:0454550532298622:YYYP:100642815803:,60.0
825077,D80AF279-4A3D0141-651-E708A,06/20/2009 08:33:21 AM,,Sale,,,,100642812098,4266...1634,04/2010,Y:09670C0532294874:YYYX:100642812098:,70.0
825077,D80AF279-4A3CF9AC-355-E708A,06/20/2009 08:01:00 AM,,Sale,,,,100642802155,6011...1599,01/2013,Y:0206850532284855:YYYS:100642802155:,60.0
825077,D80AF279-4A3CF3DA-612-E708A,06/20/2009 07:36:10 AM,,Sale,,,,100642794775,6011...7357,04/2011,Y:0209580532277414:YYYS:100642794775:,160.0
825077,D80AF279-4A3CE97E-876-E708A,06/20/2009 06:51:58 AM,,Sale,,,,100642783467,5490...3245,06/2011,Y:05513B0532266020:YYYP:100642783467:,70.0
825077,D80AF279-4A3CDCF0-401-E708A,06/20/2009 05:58:24 AM,,Sale,,,,100642771574,5491...1053,11/2010,Y:04769P0532254000:YYYP:100642771574:,80.0
825077,D80AF279-4A3C937B-237-E708A,06/20/2009 12:44:59 AM,,Sale,,,,100642718114,6011...1204,07/2009,Y:0200540532197913:YYYS:100642718114:,140.0
825077,D80AF279-4A3653A0-436-E0474,06/19/2009 09:04:10 PM,825077,Return,,,,400688099834,4479...1826,12/2011,Y:0532164343:    :400688099834:,60.0
825077,D80AF279-4A3C5218-296-E5AEC,06/19/2009 08:06:00 PM,,Sale,,,,400688091056,3715...1003,07/2012,Y:1996730532155404:YYYX:400688091056:,180.0
825077,D80AF279-4A3C51CD-243-E5AEC,06/19/2009 08:04:45 PM,,Sale,,,,400688090835,4147...7154,08/2011,Y:03371C0532155178:YYYX:400688090835:,140.0
825077,D80AF279-4A3C511D-500-E5AEC,06/19/2009 08:01:49 PM,,Sale,,,,400688090283,6011...7083,11/2012,Y:0199140532154626:YYYS:400688090283:,60.0
825077,D80AF279-4A3C5114-166-E5AEC,06/19/2009 08:01:40 PM,,Sale,,,,400688090246,4266...0242,05/2012,Y:04224B0532154589:YYYX:400688090246:,180.0
825077,D80AF279-4A3C5100-523-E5AEC,06/19/2009 08:01:20 PM,,Sale,,,,400688090169,5401...1091,11/2010,Y:03625T0532154512:YYYP:400688090169:,60.0
825077,D80AF279-4A3C5066-735-E5AEC,06/19/2009 07:58:46 PM,,Sale,,,,,5401...1091,11/2010,NFRAUD,60.0
825077,D80AF279-4A3C5045-856-E5AEC,06/19/2009 07:58:13 PM,,Sale,,,,400688089631,5401...1091,11/2010,Y:04424T0532153964:YYYP:400688089631:,60.0
825077,D80AF279-4A3C46B4-758-E5AEC,06/19/2009 07:17:25 PM,,Sale,,,,400688080551,4266...7288,10/2011,Y:01767C0532144779:YYYX:400688080551:,100.0
825077,D80AF279-4A3C3464-533-E5AEC,06/19/2009 05:59:16 PM,,Sale,,,,400688056434,5424...5663,10/2010,Y:74597B0532120441:YYYP:400688056434:,80.0
825077,D80AF279-4A3C24F7-024-E5AEC,06/19/2009 04:53:27 PM,,Sale,,,,400688036565,4311...9453,02/2010,Y:01990B0532100335:YYYX:400688036565:,50.0
825077,D80AF279-4A3C1892-231-E5AEC,06/19/2009 04:00:34 PM,,Sale,,,,400688018132,5466...6229,06/2013,Y:48112Z0532081503:YYYP:400688018132:,60.0
825077,D80AF279-4A3C17EA-139-E5AEC,06/19/2009 03:57:46 PM,,Sale,,,,400688017094,5466...6229,06/2012,Y:73444Z0532080452:YYYP:400688017094:,60.0
825077,D80AF279-4A3BF6B5-554-E5AEC,06/19/2009 01:36:05 PM,,Sale,,,,400687961611,4037...6379,09/2011,Y:51916B0532024138:YYYX:400687961611:,60.0
825077,D80AF279-4A3BF210-800-E5AEC,06/19/2009 01:16:16 PM,,Sale,,,,400687952541,3713...2008,08/2012,Y:1658960532014884:YYYX:400687952541:,200.0
825077,D80AF279-4A3BE9BB-819-E5AEC,06/19/2009 12:40:44 PM,,Sale,,,,400687935781,4802...1175,04/2012,Y:0130030531997800:YYYX:400687935781:,60.0
825077,D80AF279-4A3BD81E-528-E5AEC,06/19/2009 11:25:34 AM,,Sale,,,,400687900570,4266...7821,02/2011,Y:06066B0531961943:YYYX:400687900570:,60.0
825077,D80AF279-4A3BCD35-400-E5AEC,06/19/2009 10:39:01 AM,,Sale,,,,400687880162,5424...0451,12/2010,Y:32826B0531941208:NYZP:400687880162:,50.0
825077,D80AF279-4A3BC9D3-889-E5AEC,06/19/2009 10:24:36 AM,,Sale,,,,400687874203,5466...0128,06/2011,Y:42535Z0531935143:YYYP:400687874203:,80.0
825077,D80AF279-4A3BC2A2-169-E5AEC,06/19/2009 09:53:54 AM,,Sale,,,,400687857939,3725...1007,11/2012,Y:1752980531918682:YYYX:400687857939:,100.0
825077,D80AF279-4A3BBE3E-779-E5AEC,06/19/2009 09:35:10 AM,,Sale,,,,400687850476,4417...3847,10/2009,Y:05343C0531911114:YYYX:400687850476:,70.0
825077,D80AF279-4A3BBDC1-127-E5AEC,06/19/2009 09:33:05 AM,,Sale,,,,400687849509,5369...8810,01/2011,Y:09179P0531910136:YYYP:400687849509:,60.0
825077,D80AF279-4A3BAF28-977-E5AEC,06/19/2009 08:30:49 AM,,Sale,,,,400687821903,5122...7756,02/2010,Y:01523Z0531882149:YYYP:400687821903:,50.0
825077,D80AF279-4A3B95A5-476-E5AEC,06/19/2009 06:41:57 AM,,Sale,,,,400687778030,6011...1985,04/2013,Y:0192340531837704:NNNS:400687778030:,70.0
825077,D80AF279-4A3B9236-316-E5AEC,06/19/2009 06:27:18 AM,,Sale,,,,400687773496,3743...7776,12/2011,Y:7852710531833110:YYYX:400687773496:,70.0
825077,D80AF279-4A3B88F2-894-E5AEC,06/19/2009 05:47:47 AM,,Sale,,,,400687761780,4266...4851,07/2010,Y:02443B0531821245:YYYX:400687761780:,150.0
825077,D80AF279-4A3B848E-626-E5AEC,06/19/2009 05:29:02 AM,,Sale,,,,400687756908,5466...8508,12/2011,Y:08134P0531816332:YYYP:400687756908:,60.0
825077,D80AF279-4A3B7C5C-775-E5AEC,06/19/2009 04:54:04 AM,,Sale,,,,400687750345,5538...0533,04/2011,Y:1253420531809688:YYYP:400687750345:,80.0
825077,D80AF279-4A3B7AE3-889-E5AEC,06/19/2009 04:47:48 AM,,Sale,,,,400687749622,5538...1505,05/2013,Y:1745710531808956:YYYP:400687749622:,120.0
825077,D80AF279-4A3B49C0-926-E5AEC,06/19/2009 01:18:08 AM,,Sale,,,,400687709394,4266...3206,08/2010,Y:04295B0531766167:YYYX:400687709394:,60.0
825077,D80AF279-4A3B240E-435-E5AEC,06/18/2009 10:37:18 PM,,Sale,,,,400687694913,6011...1985,04/2013,Y:0191410531751188:YYYS:400687694913:,50.0
825077,D80AF279-4A3B230B-173-E5AEC,06/18/2009 10:32:59 PM,,Sale,,,,400687694520,6011...1985,04/2013,Y:0197360531750770:YYYS:400687694520:,20.0
825077,D80AF279-4A3B15C3-769-E5AEC,06/18/2009 09:36:20 PM,,Sale,,,,400687688477,3712...3013,06/2010,Y:1880810531742472:YYYX:400687688477:,120.0
825077,D80AF279-4A3B0A68-683-E454E,06/18/2009 08:47:52 PM,,Sale,,,,400687680940,5490...5726,05/2010,Y:04570Z0531734761:YYYP:400687680940:,60.0
825077,D80AF279-4A3AFF11-849-E454E,06/18/2009 07:59:29 PM,,Sale,,,,400687673025,4264...6726,03/2010,Y:05590B0531726677:YYYX:400687673025:,60.0
825077,D80AF279-4A3AFDED-699-E454E,06/18/2009 07:54:37 PM,,Sale,,,,400687672098,3723...2003,03/2011,Y:1011430531725727:YYYX:400687672098:,60.0
825077,D80AF279-4A3AFA3F-637-E454E,06/18/2009 07:38:55 PM,,Sale,,,,400687668948,5313...5757,12/2010,Y:1281830531722505:YYYP:400687668948:,60.0
825077,D80AF279-4A3AF907-725-E454E,06/18/2009 07:33:43 PM,,Sale,,,,400687667890,5452...4725,08/2011,Y:0353480531721417:YYYP:400687667890:,60.0
825077,D80AF279-4A3AF78C-631-E454E,06/18/2009 07:27:24 PM,,Sale,,,,400687666545,4313...1968,03/2010,Y:02579A0531720036:YYYX:400687666545:,60.0
825077,D80AF279-4A3AF491-226-E454E,06/18/2009 07:14:41 PM,,Sale,,,,,4704...1508,10/2009,NFRAUD,160.0
825077,D80AF279-4A3AF48D-733-E454E,06/18/2009 07:14:37 PM,,Sale,,,,400687663624,4704...1508,10/2009,Y:0181350531717061:YYYX:400687663624:,160.0
825077,D80AF279-4A3AF07C-294-E454E,06/18/2009 06:57:16 PM,,Sale,,,,400687658655,5188...6717,04/2010,Y:01503P0531712011:YYYP:400687658655:,210.0
825077,D80AF279-4A3AED6F-856-E454E,06/18/2009 06:44:15 PM,,Sale,,,,400687654724,4843...7521,05/2011,Y:0669840531708009:YYYX:400687654724:,60.0
825077,D80AF279-4A3AEBBB-711-E454E,06/18/2009 06:36:59 PM,,Sale,,,,400687652005,5466...0106,06/2010,Y:37270Z0531705250:YYYP:400687652005:,120.0
825077,D80AF279-4A3AE2E4-545-E454E,06/18/2009 05:59:16 PM,,Sale,,,,400687641558,4417...7229,05/2011,Y:07509C0531694590:YYYX:400687641558:,60.0
825077,D80AF279-4A3AE10E-472-E454E,06/18/2009 05:51:26 PM,,Sale,,,,400687639170,5424...2732,04/2012,Y:30632B0531692168:YYYP:400687639170:,80.0
825077,D80AF279-4A3ABAF3-863-E454E,06/18/2009 03:08:52 PM,,Sale,,,,400687585840,4417...4788,03/2012,Y:05578B0531637915:YYYX:400687585840:,80.0
825077,D80AF279-4A3AB740-166-E454E,06/18/2009 02:53:04 PM,,Sale,,,,400687579873,3725...3009,09/2011,Y:1218070531631856:YYYX:400687579873:,70.0
825077,D80AF279-4A3AACA1-916-E454E,06/18/2009 02:07:45 PM,,Sale,,,,400687562220,4465...6599,10/2009,Y:01825B0531613969:YYYX:400687562220:,60.0
825077,D80AF279-4A3AAC99-566-E454E,06/18/2009 02:07:37 PM,,Sale,,,,400687562169,6011...4874,05/2013,Y:0183330531613916:YYYS:400687562169:,220.0
825077,D80AF279-4A3AA8AD-710-E454E,06/18/2009 01:50:54 PM,,Sale,,,,400687555424,3772...1003,05/2011,Y:1990700531607074:YYYX:400687555424:,140.0
825077,11589,06/18/2009 12:50:06 PM,,Sale,,,,400687529112,4147...8653,01/2011,Y:75136C0531580430:YYYX:400687529112:,50.0
825077,D80AF279-4A3A820C-041-E454E,06/18/2009 11:06:04 AM,,Sale,,,,400687484878,4756...9345,04/2012,Y:01833A0531535569:NYZX:400687484878:,50.0
825077,D80AF279-4A3A79AC-939-E454E,06/18/2009 10:30:20 AM,,Sale,,,,400687471491,4756...9345,04/2012,Y:01810A0531521996:NYZX:400687471491:,20.0
825077,D80AF279-4A3A7929-805-E454E,06/18/2009 10:28:09 AM,,Sale,,,,400687470676,5401...0986,01/2010,Y:04313B0531521173:YYYP:400687470676:,60.0
825077,D80AF279-4A3A70B7-274-E454E,06/18/2009 09:52:07 AM,,Sale,,,,400687455211,4843...7132,07/2010,Y:0898540531505533:YYYX:400687455211:,70.0
825077,D80AF279-4A3A6934-684-E454E,06/18/2009 09:20:04 AM,,Sale,,,,400687443065,4305...9563,07/2011,Y:00162B0531493199:YYYX:400687443065:,10.0
825077,11588,06/18/2009 09:18:08 AM,,Sale,,,,400687442307,4425...9290,11/2011,Y:01809B0531492432:YYYX:400687442307:,50.0
825077,D80AF279-4A3A6308-814-E454E,06/18/2009 08:53:44 AM,,Sale,,,,400687432183,4305...9563,07/2011,Y:00372B0531482176:YYYX:400687432183:,60.0
825077,D80AF279-4A3A5C80-743-E454E,06/18/2009 08:25:53 AM,,Sale,,,,400687421265,4312...3481,08/2010,Y:06446B0531471099:YYYX:400687421265:,80.0
825077,D80AF279-4A3A554E-949-E454E,06/18/2009 07:55:11 AM,,Sale,,,,400687409507,4388...8842,06/2010,Y:05355C0531459196:NNNX:400687409507:,50.0
825077,D80AF279-4A3A5219-494-E454E,06/18/2009 07:41:30 AM,,Sale,,,,400687404105,4313...5358,08/2011,Y:04513C0531453715:YYYX:400687404105:,60.0
825077,D80AF279-4A3A44A5-742-E454E,06/18/2009 06:44:05 AM,,Sale,,,,400687384908,4417...4788,03/2012,Y:02198B0531434171:YYYX:400687384908:,80.0
825077,D80AF279-4A3A410B-169-E454E,06/18/2009 06:28:43 AM,,Sale,,,,400687380326,4147...3714,11/2011,Y:05350C0531429528:YYYX:400687380326:,80.0
825077,D80AF279-4A3A35A3-523-E454E,06/18/2009 05:40:03 AM,,Sale,,,,400687368303,3723...2000,01/2011,Y:1436630531417351:YYYX:400687368303:,60.0
825077,D80AF279-4A3A10FC-866-E454E,06/18/2009 03:03:41 AM,,Sale,,,,400687347580,6011...8058,05/2013,Y:0187710531396400:YYYS:400687347580:,70.0
825077,D80AF279-4A39DD26-436-E454E,06/17/2009 11:22:30 PM,,Sale,,,,400687305656,5401...6717,07/2011,Y:02528Z0531351572:YYYP:400687305656:,60.0
825077,D80AF279-4A39D8DA-432-E454E,06/17/2009 11:04:10 PM,,Sale,,,,400687302290,5401...6717,07/2011,Y:00540Z0531348115:YYYP:400687302290:,280.0
825077,D80AF279-4A39D217-782-E454E,06/17/2009 10:35:19 PM,,Sale,,,,400687298335,3712...1018,03/2013,Y:1754500531343942:YYYX:400687298335:,140.0
825077,D80AF279-4A39D18C-376-E454E,06/17/2009 10:33:00 PM,,Sale,,,,400687298078,4843...3570,07/2011,Y:0496710531343662:YYYX:400687298078:,160.0
825077,D80AF279-4A39C6D8-760-E454E,06/17/2009 09:47:20 PM,,Sale,,,,400687289938,5466...9748,04/2011,Y:42868Z0531335265:YYYP:400687289938:,140.0
825077,D80AF279-4A39C494-857-E454E,06/17/2009 09:37:41 PM,,Sale,,,,400687288496,3727...1000,09/2009,Y:1699900531333778:YYYX:400687288496:,60.0
825077,D80AF279-4A39C28A-778-E454E,06/17/2009 09:28:58 PM,,Sale,,,,400687287152,4266...5617,04/2010,Y:05775B0531332384:YYYX:400687287152:,70.0
825077,D80AF279-4A39C1A2-090-E454E,06/17/2009 09:25:06 PM,,Sale,,,,400687286556,6011...7240,04/2013,Y:0187520531331764:YYYS:400687286556:,140.0
825077,D80AF279-4A39C09A-554-E454E,06/17/2009 09:20:43 PM,,Sale,,,,400687285724,6011...9965,06/2013,Y:0186120531330904:YYYS:400687285724:,70.0
825077,D80AF279-4A39B4D9-548-E2FB0,06/17/2009 08:30:33 PM,,Sale,,,,400687275183,3715...1014,12/2010,Y:1054650531320117:YYYX:400687275183:,180.0
825077,D80AF279-4A39A07A-447-E2FB0,06/17/2009 07:03:38 PM,,Sale,,,,400687254135,3715...1003,05/2012,Y:1801770531298620:NNNX:400687254135:,140.0
825077,D80AF279-4A399F89-196-E2FB0,06/17/2009 06:59:37 PM,,Sale,,,,400687252768,4147...3953,07/2011,Y:08111C0531297238:YYYX:400687252768:,80.0
825077,D80AF279-4A399F75-397-E2FB0,06/17/2009 06:59:17 PM,,Sale,,,,400687252630,3715...1003,05/2012,Y:1406150531297098:NNNX:400687252630:,40.0
825077,D80AF279-4A399CBD-466-E2FB0,06/17/2009 06:47:41 PM,,Sale,,,,400687248518,3723...1005,09/2010,Y:1639440531292931:YYYX:400687248518:,150.0
825077,D80AF279-4A398F1F-504-E2FB0,06/17/2009 05:49:35 PM,,Sale,,,,400687229235,6011...1626,03/2013,Y:0178350531273270:YYYS:400687229235:,80.0
825077,D80AF279-4A398ED0-745-E2FB0,06/17/2009 05:48:17 PM,,Sale,,,,400687228781,3717...2018,04/2012,Y:1294760531272809:YYYX:400687228781:,290.0
825077,D80AF279-4A397F2C-776-E2FB0,06/17/2009 04:41:33 PM,,Sale,,,,400687204990,4843...2935,05/2011,Y:0262970531248584:YYYX:400687204990:,80.0
825077,D80AF279-4A3972BC-656-E2FB0,06/17/2009 03:48:28 PM,,Sale,,,,400687183662,4465...1475,03/2012,Y:01754B0531227000:YYYX:400687183662:,110.0
825077,D80AF279-4A396B82-196-E2FB0,06/17/2009 03:17:38 PM,,Sale,,,,400687170882,4843...8926,03/2011,Y:0131720531214072:YYYX:400687170882:,61.0
825077,D80AF279-4A396A40-254-E2FB0,06/17/2009 03:12:16 PM,,Sale,,,,400687168618,4843...8926,03/2011,Y:0122840531211787:YYYX:400687168618:,60.0
825077,D80AF279-4A39682D-613-E2FB0,06/17/2009 03:03:25 PM,,Sale,,,,400687164745,4843...7374,06/2011,Y:0107950531207865:YYYX:400687164745:,160.0
825077,D80AF279-4A396650-783-E2FB0,06/17/2009 02:55:29 PM,,Sale,,,,400687161126,4843...7374,06/2011,Y:0094800531204205:YYYX:400687161126:,60.0
825077,D80AF279-4A3953FF-067-E2FB0,06/17/2009 01:37:19 PM,,Sale,,,,400687124714,5466...6794,08/2009,Y:80192Z0531167243:YYYP:400687124714:,40.0
825077,D80AF279-4A3949F4-897-E2FB0,06/17/2009 12:54:28 PM,,Sale,,,,400687103500,5490...2201,06/2012,Y:05540B0531145744:YYYP:400687103500:,60.0
825077,D80AF279-4A394806-652-E2FB0,06/17/2009 12:46:14 PM,,Sale,,,,400687099419,5466...1880,04/2013,Y:55211Z0531141602:YYYP:400687099419:,60.0
825077,D80AF279-4A3945C6-112-E2FB0,06/17/2009 12:36:38 PM,,Sale,,,,400687094828,3711...4010,10/2011,Y:1871330531136954:YYYX:400687094828:,100.0
825077,D80AF279-4A39445D-898-E2FB0,06/17/2009 12:30:38 PM,,Sale,,,,400687091920,5466...2138,04/2010,Y:0350060531134012:YYYP:400687091920:,100.0
825077,D80AF279-4A393D01-841-E2FB0,06/17/2009 11:59:13 AM,,Sale,,,,400687077081,5466...1428,11/2010,Y:09078Z0531118960:YYYP:400687077081:,10.0
825077,D80AF279-4A3936DC-364-E2FB0,06/17/2009 11:33:00 AM,,Sale,,,,400687065274,4266...5777,03/2012,Y:09036C0531107010:YYYX:400687065274:,60.0
825077,D80AF279-4A39344B-066-E2FB0,06/17/2009 11:22:03 AM,,Sale,,,,400687059948,4843...5794,10/2011,Y:0789600531101622:YYYX:400687059948:,60.0
825077,D80AF279-4A392F32-286-E2FB0,06/17/2009 11:00:18 AM,,Sale,,,,400687049873,5424...0011,06/2012,Y:56877B0531091439:YYYP:400687049873:,60.0
825077,D80AF279-4A392937-798-E2FB0,06/17/2009 10:34:48 AM,,Sale,,,,400687039042,5466...9642,07/2011,Y:03465Z0531080487:YYYP:400687039042:,60.0
825077,D80AF279-4A391C81-122-E2FB0,06/17/2009 09:40:33 AM,,Sale,,,,400687014873,5491...5019,12/2012,Y:72262B0531055997:YYYP:400687014873:,85.0
825077,D80AF279-4A391B74-067-E2FB0,06/17/2009 09:36:04 AM,,Sale,,,,400687013320,3772...1007,07/2010,Y:1039020531054411:YYYX:400687013320:,60.0
825077,D80AF279-4A391B6E-531-E2FB0,06/17/2009 09:35:58 AM,,Sale,,,,400687013291,5466...5359,10/2010,Y:69497Z0531054382:YYYP:400687013291:,60.0
825077,D80AF279-4A391925-473-E2FB0,06/17/2009 09:26:13 AM,,Sale,,,,400687009600,3723...1019,10/2009,Y:1099530531050641:YYYX:400687009600:,70.0
825077,D80AF279-4A3917F0-587-E2FB0,06/17/2009 09:21:04 AM,,Sale,,,,400687007593,4843...5151,05/2011,Y:0606540531048599:YYYX:400687007593:,70.0
825077,D80AF279-4A391731-964-E2FB0,06/17/2009 09:17:54 AM,,Sale,,,,400687006407,4207...4424,10/2013,Y:0517120531047391:YYYX:400687006407:,60.0
825077,D80AF279-4A3911F2-384-E2FB0,06/17/2009 08:55:30 AM,,Sale,,,,400686997524,4388...4211,06/2012,Y:05944C0531038361:YYYX:400686997524:,80.0
825077,D80AF279-4A3909B5-517-E2FB0,06/17/2009 08:20:21 AM,,Sale,,,,400686982731,5466...7600,08/2010,Y:51813Z0531023367:YYYP:400686982731:,60.0
825077,D80AF279-4A390447-349-E2FB0,06/17/2009 07:57:11 AM,,Sale,,,,400686972123,4388...2973,01/2012,Y:01359D0531012627:YYYX:400686972123:,130.0
825077,D80AF279-4A39032E-058-E2FB0,06/17/2009 07:52:30 AM,,Sale,,,,400686970170,6011...3035,06/2013,Y:0176390531010641:YYYS:400686970170:,200.0
825077,D80AF279-4A38FD9D-927-E2FB0,06/17/2009 07:28:46 AM,,Sale,,,,400686960123,4397...1107,11/2010,Y:05385C0531000465:YYYX:400686960123:,70.0
825077,D80AF279-4A38F8FE-172-E2FB0,06/17/2009 07:09:02 AM,,Sale,,,,400686952173,6011...6704,06/2012,Y:0176370530992439:YYYS:400686952173:,100.0
825077,D80AF279-4A38F5E5-224-E2FB0,06/17/2009 06:55:49 AM,,Sale,,,,400686947248,3772...1005,02/2012,Y:1029710530987465:YYYX:400686947248:,160.0
825077,D80AF279-4A38EF82-644-E2FB0,06/17/2009 06:28:34 AM,,Sale,,,,400686937958,3737...1000,08/2011,Y:1264490530978060:NNNX:400686937958:,60.0
825077,D80AF279-4A38EC16-585-E2FB0,06/17/2009 06:13:59 AM,,Sale,,,,400686933426,4339...2798,04/2011,Y:0076390530973280:YYYX:400686933426:,170.0
825077,D80AF279-4A38D2A5-143-E2FB0,06/17/2009 04:25:25 AM,,Sale,,,,400686911419,3772...1004,02/2010,Y:1837130530951035:YYYX:400686911419:,130.0
825077,D80AF279-4A38B2F5-503-E2FB0,06/17/2009 02:10:13 AM,,Sale,,,,400686888368,4020...8550,05/2010,Y:0410130530927093:YYYX:400686888368:,100.0
825077,D80AF279-4A389478-307-E2FB0,06/17/2009 12:00:08 AM,,Sale,,,,400686866076,5490...8927,01/2012,Y:00502B0530903073:YYYP:400686866076:,150.0
825077,D80AF279-4A387C35-379-E2FB0,06/16/2009 10:16:37 PM,,Sale,,,,400686854692,5466...8986,06/2010,Y:84102Z0530891285:YYYP:400686854692:,70.0
825077,D80AF279-4A3876BC-362-E2FB0,06/16/2009 09:53:16 PM,,Sale,,,,400686848449,6011...6173,05/2013,Y:0172320530884880:YYYS:400686848449:,240.0
825077,D80AF279-4A38757D-645-E2FB0,06/16/2009 09:47:57 PM,,Sale,,,,400686847770,4147...0551,12/2011,Y:02740C0530884175:YYYX:400686847770:,30.0
825077,D80AF279-4A38756B-960-E2FB0,06/16/2009 09:47:40 PM,,Sale,,,,400686847729,3725...1006,07/2012,Y:1251890530884132:YYYX:400686847729:,90.0
825077,D80AF279-4A3872FF-400-E2FB0,06/16/2009 09:37:19 PM,,Sale,,,,400686846632,3713...1002,12/2009,Y:1623440530882990:YYYX:400686846632:,80.0
825077,D80AF279-4A386AF9-122-E2FB0,06/16/2009 09:03:05 PM,,Sale,,,,400686841379,3713...1004,05/2012,Y:1055770530877569:YYYX:400686841379:,60.0
825077,D80AF279-4A3867D3-975-E1A12,06/16/2009 08:49:40 PM,,Sale,,,,400686839095,5449...9516,05/2010,Y:6940620530875204:YYYP:400686839095:,120.0
825077,D80AF279-4A3863C3-691-E1A12,06/16/2009 08:32:19 PM,,Sale,,,,400686836187,6011...4942,03/2013,Y:0162850530872166:YYYS:400686836187:,60.0
825077,D80AF279-4A385F55-071-E1A12,06/16/2009 08:13:25 PM,,Sale,,,,400686832736,4312...6421,05/2012,Y:0976600530868604:YYYX:400686832736:,70.0
825077,D80AF279-4A385DF9-282-E1A12,06/16/2009 08:07:37 PM,,Sale,,,,400686831680,5466...6466,01/2011,Y:11076Z0530867518:YYYP:400686831680:,60.0
825077,D80AF279-4A385C2F-563-E1A12,06/16/2009 07:59:59 PM,,Sale,,,,400686830215,3721...2012,09/2012,Y:1659860530866017:YYYX:400686830215:,360.0
825077,D80AF279-4A3857F1-183-E1A12,06/16/2009 07:41:53 PM,,Sale,,,,400686826501,4417...2006,02/2012,Y:04607B0530862208:YYYX:400686826501:,70.0
825077,D80AF279-4A385720-424-E1A12,06/16/2009 07:38:24 PM,,Sale,,,,400686825799,5466...6803,09/2012,Y:44887P0530861489:YYYP:400686825799:,130.0
825077,D80AF279-4A3855ED-819-E1A12,06/16/2009 07:33:17 PM,,Sale,,,,400686824505,4313...5585,08/2011,Y:03535C0530860167:YYYX:400686824505:,60.0
825077,D80AF279-4A38508F-712-E1A12,06/16/2009 07:10:23 PM,,Sale,,,,400686818234,4640...3043,07/2011,Y:00731B0530853758:YYYX:400686818234:,80.0
825077,D80AF279-4A385021-802-E1A12,06/16/2009 07:08:33 PM,,Sale,,,,400686817719,4147...5630,06/2011,Y:05025C0530853237:YYYX:400686817719:,70.0
825077,D80AF279-4A384E85-171-E1A12,06/16/2009 07:01:41 PM,,Sale,,,,400686815550,3713...2009,02/2012,Y:1990740530851040:YYYX:400686815550:,10.0
825077,D80AF279-4A384DC9-418-E1A12,06/16/2009 06:58:33 PM,,Sale,,,,400686814552,5466...4551,09/2009,Y:0558430530850028:YYYP:400686814552:,60.0
825077,D80AF279-4A384AD6-910-E1A12,06/16/2009 06:45:58 PM,,Sale,,,,400686810415,4080...0657,11/2010,Y:0066260530845819:YYYX:400686810415:,70.0
825077,D80AF279-4A384AA0-182-E1A12,06/16/2009 06:45:04 PM,,Sale,,,,400686810121,5490...8454,03/2011,Y:04549B0530845522:YYYP:400686810121:,200.0
825077,D80AF279-4A384A70-787-E1A12,06/16/2009 06:44:16 PM,,Sale,,,,400686809882,3723...1000,11/2011,Y:1651340530845277:YYYX:400686809882:,220.0
825077,D80AF279-4A384A1A-144-E1A12,06/16/2009 06:42:50 PM,,Sale,,,,400686809463,6011...3069,12/2013,Y:0161350530844847:YYYS:400686809463:,120.0
825077,D80AF279-4A38488A-086-E1A12,06/16/2009 06:36:10 PM,,Sale,,,,400686807332,4640...0171,10/2010,Y:08312B0530842668:YYYX:400686807332:,200.0
825077,D80AF279-4A38487D-434-E1A12,06/16/2009 06:35:57 PM,,Sale,,,,400686807270,4707...6360,05/2011,Y:0662910530842603:YYYX:400686807270:,80.0
825077,D80AF279-4A3841CB-878-E1A12,06/16/2009 06:07:23 PM,,Sale,,,,400686798134,5466...4236,03/2012,Y:0057360530833283:YYYP:400686798134:,240.0
825077,D80AF279-4A383BB4-869-E1A12,06/16/2009 05:41:24 PM,,Sale,,,,400686789598,6011...5717,10/2013,Y:0166050530824539:YYYS:400686789598:,80.0
825077,D80AF279-4A383596-599-E1A12,06/16/2009 05:15:18 PM,,Sale,,,,400686781451,6011...2152,04/2013,Y:0163970530816275:YYYS:400686781451:,80.0
825077,D80AF279-4A38317B-549-E1A12,06/16/2009 04:57:47 PM,,Sale,,,,400686775650,4888...2205,11/2011,Y:05577B0530810335:YYYX:400686775650:,60.0
825077,D80AF279-4A382FF5-984-E1A12,06/16/2009 04:51:18 PM,,Sale,,,,400686773451,3739...2011,09/2010,Y:1460430530808096:YYYX:400686773451:,60.0
825077,D80AF279-4A382FF5-457-E1A12,06/16/2009 04:51:17 PM,,Sale,,,,400686773445,3712...1000,02/2012,Y:1547350530808089:YYYX:400686773445:,70.0
825077,D80AF279-4A382BA4-268-E1A12,06/16/2009 04:32:52 PM,,Sale,,,,400686767197,4147...8270,10/2011,Y:07582C0530801709:YYYX:400686767197:,180.0
825077,D80AF279-4A382758-590-E1A12,06/16/2009 04:14:32 PM,,Sale,,,,400686760555,4147...0119,02/2011,Y:01637C0530794980:YYYX:400686760555:,220.0
825077,D80AF279-4A3825FA-837-E1A12,06/16/2009 04:08:43 PM,,Sale,,,,400686758415,4147...5109,03/2010,Y:01628C0530792818:YYYX:400686758415:,70.0
825077,D80AF279-4A381B31-306-E1A12,06/16/2009 03:22:41 PM,,Sale,,,,400686740325,6011...5978,03/2013,Y:0164200530774505:YYYS:400686740325:,80.0
825077,D80AF279-4A381527-460-E1A12,06/16/2009 02:56:55 PM,,Sale,,,,400686730459,5410...9219,06/2012,Y:29255B0530764537:YYYP:400686730459:,320.0
825077,D80AF279-4A381209-323-E1A12,06/16/2009 02:43:37 PM,,Sale,,,,400686725221,4313...2271,05/2012,Y:04536C0530759236:YYYX:400686725221:,100.0
825077,D80AF279-4A380BB3-545-E1A12,06/16/2009 02:16:35 PM,,Sale,,,,400686713782,5401...1333,06/2011,Y:09081B0530747648:YYYP:400686713782:,70.0
825077,D80AF279-4A380A51-031-E1A12,06/16/2009 02:10:41 PM,,Sale,,,,400686711323,4640...7361,09/2011,Y:01245B0530745166:YYYX:400686711323:,60.0
825077,D80AF279-4A38053B-749-E1A12,06/16/2009 01:48:59 PM,,Sale,,,,400686701712,4121...1562,02/2010,Y:05779B0530735394:NYZX:400686701712:,60.0
825077,D80AF279-4A38043E-375-E1A12,06/16/2009 01:44:46 PM,,Sale,,,,400686699750,3723...1012,02/2012,Y:1665100530733409:YYYX:400686699750:,70.0
825077,D80AF279-4A3803C1-640-E1A12,06/16/2009 01:42:41 PM,,Sale,,,,400686698839,5178...7829,05/2012,Y:07236B0530732487:YYYP:400686698839:,110.0
825077,D80AF279-4A380151-328-E1A12,06/16/2009 01:30:54 PM,,Sale,,,,400686693957,5410...6418,01/2010,Y:28616B0530727537:YYYP:400686693957:,230.0
825077,D80AF279-4A38001A-823-E1A12,06/16/2009 01:25:44 PM,,Sale,,,,400686691590,4228...9231,12/2009,Y:0323340530725139:YYYX:400686691590:,80.0
825077,D80AF279-4A37FF7D-990-E1A12,06/16/2009 01:23:07 PM,,Sale,,,,400686690412,5424...7624,05/2011,Y:03258B0530723943:YYYP:400686690412:,60.0
825077,D80AF279-4A37FEE1-219-E1A12,06/16/2009 01:20:30 PM,,Sale,,,,400686689047,3715...2019,03/2012,Y:1205260530722552:YYYX:400686689047:,140.0
825077,D80AF279-4A37FE4D-396-E1A12,06/16/2009 01:18:02 PM,,Sale,,,,400686687749,5410...6011,03/2011,Y:13287B0530721237:YYYP:400686687749:,85.0
825077,D80AF279-4A37F9E3-458-E1A12,06/16/2009 12:59:12 PM,,Sale,,,,400686678773,5466...6803,09/2012,Y:76402P0530712141:YYYP:400686678773:,120.0
825077,D80AF279-4A37F8E6-371-E1A12,06/16/2009 12:54:59 PM,,Sale,,,,400686676701,3713...1024,05/2011,Y:1828130530710037:YYYX:400686676701:,60.0
825077,D80AF279-4A37F748-711-E1A12,06/16/2009 12:48:05 PM,,Sale,,,,400686673431,3713...1024,05/2011,Y:1630170530706719:YYYX:400686673431:,60.0
825077,D80AF279-4A37F3BC-584-E1A12,06/16/2009 12:32:57 PM,,Sale,,,,400686666769,6011...6433,05/2013,Y:0165380530699977:YYYS:400686666769:,70.0
825077,D80AF279-4A37F207-123-E1A12,06/16/2009 12:25:40 PM,,Sale,,,,400686663528,5424...7607,05/2011,Y:83073B0530696688:YYYP:400686663528:,120.0
825077,D80AF279-4A37F197-230-E1A12,06/16/2009 12:23:48 PM,,Sale,,,,400686662738,4465...1211,06/2012,Y:01657B0530695890:YYYX:400686662738:,70.0
825077,D80AF279-4A37F107-669-E1A12,06/16/2009 12:21:24 PM,,Sale,,,,400686661477,3772...1001,07/2017,Y:1233860530694608:YYYX:400686661477:,60.0
825077,D80AF279-4A37F017-009-E1A12,06/16/2009 12:17:24 PM,,Sale,,,,400686659543,4294...2315,08/2011,Y:0630210530692653:YNAX:400686659543:,100.0
825077,D80AF279-4A37EEF5-629-E1A12,06/16/2009 12:12:35 PM,,Sale,,,,400686657372,5466...8022,12/2012,Y:22780Z0530690454:YYYP:400686657372:,100.0
825077,D80AF279-4A37EBA3-444-E1A12,06/16/2009 11:58:24 AM,,Sale,,,,400686650978,3713...6009,07/2012,Y:1271090530683954:YYYX:400686650978:,60.0
825077,D80AF279-4A37EA0A-000-E1A12,06/16/2009 11:51:36 AM,,Sale,,,,400686647801,4744...0258,02/2010,Y:1252390530680734:YYYX:400686647801:,80.0
825077,D80AF279-4A37E9CD-998-E1A12,06/16/2009 11:50:35 AM,,Sale,,,,400686647328,5424...4582,11/2010,Y:38783B0530680253:YYYP:400686647328:,80.0
825077,D80AF279-4A37E68A-517-E1A12,06/16/2009 11:36:39 AM,,Sale,,,,400686640772,4843...9971,06/2011,Y:0578740530673636:YYYX:400686640772:,100.0
825077,D80AF279-4A37E492-116-E1A12,06/16/2009 11:28:15 AM,,Sale,,,,400686636844,5121...1615,07/2010,Y:01626Z0530669661:YYYP:400686636844:,160.0
825077,D80AF279-4A37E367-142-E1A12,06/16/2009 11:23:16 AM,,Sale,,,,400686634582,5523...0168,03/2012,Y:5756410530667365:YYYP:400686634582:,70.0
825077,D80AF279-4A37E2F0-484-E1A12,06/16/2009 11:21:17 AM,,Sale,,,,400686633720,5466...2785,06/2010,Y:94856Z0530666494:YYYP:400686633720:,60.0
825077,D80AF279-4A37E2C3-384-E1A12,06/16/2009 11:20:32 AM,,Sale,,,,400686633396,4147...3448,05/2012,Y:04677C0530666164:YYYX:400686633396:,60.0
825077,D80AF279-4A37DEDA-026-E1A12,06/16/2009 11:03:51 AM,,Sale,,,,400686625888,4266...5437,06/2010,Y:05437C0530658554:YYYX:400686625888:,80.0
825077,D80AF279-4A37DE2E-085-E1A12,06/16/2009 11:00:59 AM,,Sale,,,,400686624640,5200...5678,11/2010,Y:00523Z0530657289:YYYP:400686624640:,130.0
825077,D80AF279-4A37DDE3-901-E1A12,06/16/2009 10:59:45 AM,,Sale,,,,400686624055,6011...5040,06/2015,Y:0169250530656700:YYYS:400686624055:,120.0
825077,D80AF279-4A37DC9B-047-E1A12,06/16/2009 10:54:16 AM,,Sale,,,,400686621677,6011...3757,05/2013,Y:0161610530654286:YYYS:400686621677:,100.0
825077,D80AF279-4A37D9AC-824-E1A12,06/16/2009 10:41:46 AM,,Sale,,,,400686615983,3728...3005,05/2010,Y:1421590530648514:YYYX:400686615983:,110.0
825077,D80AF279-4A37D940-696-E1A12,06/16/2009 10:39:57 AM,,Sale,,,,400686614774,4003...8863,01/2011,Y:03611B0530647295:YYYX:400686614774:,360.0
825077,D80AF279-4A37D557-361-E1A12,06/16/2009 10:23:16 AM,,Sale,,,,400686607089,5149...9238,01/2010,Y:6440030530639502:YYYP:400686607089:,60.0
825077,D80AF279-4A37D34D-817-E1A12,06/16/2009 10:14:35 AM,,Sale,,,,400686603428,4640...9023,10/2009,Y:06767B0530635787:YYYX:400686603428:,70.0
825077,D80AF279-4A37D251-032-E1A12,06/16/2009 10:10:22 AM,,Sale,,,,400686601719,5588...0759,04/2011,Y:0458930530634053:YYYP:400686601719:,80.0
825077,D80AF279-4A37CF80-199-E1A12,06/16/2009 09:58:21 AM,,Sale,,,,400686596258,5178...2852,05/2012,Y:08310B0530628526:YYYP:400686596258:,60.0
825077,D80AF279-4A37CE9F-364-E1A12,06/16/2009 09:54:36 AM,,Sale,,,,400686594579,6011...0572,09/2009,Y:0160500530626827:YYYS:400686594579:,60.0
825077,D80AF279-4A37CCDB-201-E1A12,06/16/2009 09:47:04 AM,,Sale,,,,400686591377,3713...2009,02/2012,Y:1219290530623580:YYYX:400686591377:,60.0
825077,D80AF279-4A37CB57-761-E1A12,06/16/2009 09:40:36 AM,,Sale,,,,400686588563,5413...3118,10/2009,Y:0451340530620730:YYYP:400686588563:,260.0
825077,D80AF279-4A37CA3B-516-E1A12,06/16/2009 09:35:52 AM,,Sale,,,,400686586663,5424...2507,04/2011,Y:03756B0530618793:YYYP:400686586663:,60.0
825077,D80AF279-4A37C848-017-E1A12,06/16/2009 09:27:33 AM,,Sale,,,,400686583003,3715...2003,02/2012,Y:1629700530615077:YYYX:400686583003:,120.0
825077,D80AF279-4A37C712-815-E1A12,06/16/2009 09:22:24 AM,,Sale,,,,400686580877,5466...2394,09/2010,Y:55869Z0530612910:YYYP:400686580877:,70.0
825077,D80AF279-4A37C1C4-073-E1A12,06/16/2009 08:59:45 AM,,Sale,,,,400686571099,3725...1002,02/2013,Y:1638200530602989:YYYX:400686571099:,60.0
825077,D80AF279-4A37C16F-460-E1A12,06/16/2009 08:58:20 AM,,Sale,,,,400686570485,5466...6302,07/2010,Y:76552Z0530602359:YYYP:400686570485:,60.0
825077,D80AF279-4A37C008-798-E1A12,06/16/2009 08:52:22 AM,,Sale,,,,400686568120,3772...1008,09/2010,Y:1620800530599938:YYYX:400686568120:,70.0
825077,D80AF279-4A37BE1B-879-E1A12,06/16/2009 08:44:09 AM,,Sale,,,,400686564722,5424...8487,02/2011,Y:71256B0530596498:YYYP:400686564722:,60.0
825077,D80AF279-4A37BD9E-631-E1A12,06/16/2009 08:42:03 AM,,Sale,,,,400686563823,4266...2689,05/2011,Y:09832C0530595587:YYYX:400686563823:,70.0
825077,D80AF279-4A37BC58-158-E1A12,06/16/2009 08:36:37 AM,,Sale,,,,400686561425,4399...4740,12/2010,Y:0061600530593166:YYYX:400686561425:,120.0
825077,D80AF279-4A37BB54-004-E1A12,06/16/2009 08:32:17 AM,,Sale,,,,400686559699,4313...8762,02/2010,Y:0353400530591403:YYYX:400686559699:,70.0
825077,D80AF279-4A37BB0C-345-E1A12,06/16/2009 08:31:05 AM,,Sale,,,,400686559174,5520...3493,06/2010,Y:01665B0530590870:YYYP:400686559174:,120.0
825077,D80AF279-4A37BA97-698-E1A12,06/16/2009 08:29:08 AM,,Sale,,,,400686558318,4227...5054,01/2012,Y:00984B0530590011:YYYX:400686558318:,60.0
825077,D80AF279-4A37BA80-988-E1A12,06/16/2009 08:28:46 AM,,Sale,,,,400686558139,4147...1437,04/2011,Y:00289C0530589829:YYYX:400686558139:,330.0
825077,D80AF279-4A37B7A3-011-E1A12,06/16/2009 08:16:32 AM,,Sale,,,,400686552908,4037...7779,09/2011,Y:01617B0530584530:YYYX:400686552908:,130.0
825077,D80AF279-4A37B753-171-E1A12,06/16/2009 08:15:12 AM,,Sale,,,,400686552295,3723...4001,04/2012,Y:1975740530583913:YYYX:400686552295:,160.0
825077,D80AF279-4A37B61A-370-E1A12,06/16/2009 08:09:59 AM,,Sale,,,,400686549917,4388...5905,08/2011,Y:03690C0530581509:YYYX:400686549917:,100.0
825077,D80AF279-4A37B5A5-832-E1A12,06/16/2009 08:08:03 AM,,Sale,,,,400686548999,4147...5230,04/2011,Y:25666C0530580576:YYYX:400686548999:,60.0
825077,D80AF279-4A37B579-723-E1A12,06/16/2009 08:07:18 AM,,Sale,,,,400686548696,4843...2582,03/2011,Y:0276760530580271:YYYX:400686548696:,90.0
825077,D80AF279-4A37B54C-619-E1A12,06/16/2009 08:06:33 AM,,Sale,,,,400686548337,5466...2269,02/2012,Y:02729Z0530579906:YYYP:400686548337:,50.0
825077,D80AF279-4A37B4C6-648-E1A12,06/16/2009 08:04:19 AM,,Sale,,,,400686547322,6011...2808,06/2013,Y:0163940530578876:YYYS:400686547322:,100.0
825077,D80AF279-4A37B3DB-617-E1A12,06/16/2009 08:00:24 AM,,Sale,,,,400686545475,4388...0785,07/2011,Y:04447C0530577016:YYYX:400686545475:,60.0
825077,D80AF279-4A37B3DA-567-E1A12,06/16/2009 08:00:23 AM,,Sale,,,,400686545467,4266...2042,09/2009,Y:04416C0530577008:YYYX:400686545467:,80.0
825077,D80AF279-4A37B394-872-E1A12,06/16/2009 07:59:14 AM,,Sale,,,,400686544945,5466...2269,02/2012,Y:01127Z0530576478:YYYP:400686544945:,40.0
825077,D80AF279-4A37B2E8-821-E1A12,06/16/2009 07:56:22 AM,,Sale,,,,400686543637,5466...8940,01/2011,Y:36086Z0530575153:YYYP:400686543637:,60.0
825077,D80AF279-4A37B2C0-108-E1A12,06/16/2009 07:55:41 AM,,Sale,,,,400686543334,3767...1005,08/2009,Y:1004860530574845:YYYX:400686543334:,90.0
825077,D80AF279-4A37B278-700-E1A12,06/16/2009 07:54:29 AM,,Sale,,,,400686542789,6011...6735,05/2010,Y:0160900530574294:YYYS:400686542789:,60.0
825077,D80AF279-4A37B150-618-E1A12,06/16/2009 07:49:33 AM,,Sale,,,,400686540678,4060...5886,06/2011,Y:0259810530572148:YYYX:400686540678:,60.0
825077,D80AF279-4A37B022-054-E1A12,06/16/2009 07:44:31 AM,,Sale,,,,400686538324,3713...1013,01/2011,Y:1099360530569761:YYYX:400686538324:,200.0
825077,D80AF279-4A37AFA0-407-E1A12,06/16/2009 07:42:21 AM,,Sale,,,,400686537352,4266...1410,01/2011,Y:00355B0530568773:YYYX:400686537352:,60.0
825077,D80AF279-4A37AF61-868-E1A12,06/16/2009 07:41:19 AM,,Sale,,,,400686536886,3715...2001,10/2011,Y:1849800530568302:YYYX:400686536886:,70.0
825077,D80AF279-4A37AF31-668-E1A12,06/16/2009 07:40:30 AM,,Sale,,,,400686536505,5424...3385,01/2011,Y:31708B0530567918:YYYP:400686536505:,100.0
825077,D80AF279-4A37AE41-036-E1A12,06/16/2009 07:36:30 AM,,Sale,,,,400686534622,4266...9186,12/2009,Y:02612B0530566013:YYYX:400686534622:,70.0
825077,D80AF279-4A37ADB5-533-E1A12,06/16/2009 07:34:10 AM,,Sale,,,,400686533555,4489...6012,06/2011,Y:8007250530564942:YYYX:400686533555:,90.0
825077,D80AF279-4A37ADAA-702-E1A12,06/16/2009 07:33:59 AM,,Sale,,,,400686533476,3743...7652,04/2011,Y:4211630530564862:YYYX:400686533476:,70.0
825077,D80AF279-4A37AC86-578-E1A12,06/16/2009 07:29:07 AM,,Sale,,,,400686531363,5466...8969,10/2011,Y:29626Z0530562719:YYYP:400686531363:,60.0
825077,D80AF279-4A37AC08-781-E1A12,06/16/2009 07:27:02 AM,,Sale,,,,400686530490,5466...1811,06/2012,Y:30629Z0530561831:YYYP:400686530490:,110.0
825077,D80AF279-4A37ABE9-306-E1A12,06/16/2009 07:26:30 AM,,Sale,,,,400686530270,3723...1015,01/2011,Y:1232360530561611:YYYX:400686530270:,180.0
825077,D80AF279-4A37ABA9-857-E1A12,06/16/2009 07:25:27 AM,,Sale,,,,400686529853,5490...2634,07/2011,Y:09516P0530561187:YYYP:400686529853:,80.0
825077,D80AF279-4A37A9D6-986-E1A12,06/16/2009 07:17:40 AM,,Sale,,,,400686526983,3727...2015,01/2010,Y:1027220530558276:YYYX:400686526983:,60.0
825077,D80AF279-4A37A968-892-E1A12,06/16/2009 07:15:50 AM,,Sale,,,,400686526272,3723...1005,02/2013,Y:1387110530557556:YYYX:400686526272:,120.0
825077,D80AF279-4A37A817-242-E1A12,06/16/2009 07:10:12 AM,,Sale,,,,400686524071,5466...6413,06/2010,Y:17882Z0530555318:YYYP:400686524071:,120.0
825077,D80AF279-4A37A7FC-350-E1A12,06/16/2009 07:09:45 AM,,Sale,,,,400686523907,5466...2711,04/2011,Y:99101Z0530555151:YYYP:400686523907:,70.0
825077,D80AF279-4A37A782-616-E1A12,06/16/2009 07:07:43 AM,,Sale,,,,400686523151,4465...5767,04/2012,Y:01631B0530554381:YYYX:400686523151:,140.0
825077,D80AF279-4A37A5AB-151-E1A12,06/16/2009 06:59:52 AM,,Sale,,,,400686520445,4802...3642,04/2010,Y:0344650530551631:YYYX:400686520445:,230.0
825077,D80AF279-4A37A586-268-E1A12,06/16/2009 06:59:15 AM,,Sale,,,,400686520222,3725...1004,08/2012,Y:1438720530551406:YYYX:400686520222:,60.0
825077,D80AF279-4A37A507-319-E1A12,06/16/2009 06:57:08 AM,,Sale,,,,400686519504,5491...0235,09/2010,Y:23227B0530550682:YYYP:400686519504:,120.0
825077,D80AF279-4A37A4AC-654-E1A12,06/16/2009 06:55:37 AM,,Sale,,,,400686518955,5369...1799,01/2012,Y:01042B0530550126:YYYP:400686518955:,60.0
825077,D80AF279-4A37A464-429-E1A12,06/16/2009 06:54:25 AM,,Sale,,,,400686518511,5121...2908,04/2010,Y:01695B0530549679:YYYP:400686518511:,70.0
825077,D80AF279-4A37A43E-185-E1A12,06/16/2009 06:53:47 AM,,Sale,,,,400686518291,5466...2787,11/2011,Y:0555090530549458:YYYP:400686518291:,80.0
825077,D80AF279-4A37A35B-992-E1A12,06/16/2009 06:50:01 AM,,Sale,,,,400686516888,4868...3357,09/2009,Y:03718B0530548048:YYYX:400686516888:,140.0
825077,D80AF279-4A37A316-297-E1A12,06/16/2009 06:48:51 AM,,Sale,,,,400686516476,3717...1000,09/2009,Y:1783760530547635:YYYX:400686516476:,80.0
825077,D80AF279-4A37A2DC-870-E1A12,06/16/2009 06:47:54 AM,,Sale,,,,400686516135,4147...3451,11/2010,Y:07526C0530547264:YYYX:400686516135:,80.0
825077,D80AF279-4A37A247-134-E1A12,06/16/2009 06:45:24 AM,,Sale,,,,400686515290,4868...3357,09/2009,Y:09415B0530546410:YYYX:400686515290:,70.0
825077,D80AF279-4A37A163-334-E1A12,06/16/2009 06:41:36 AM,,Sale,,,,400686514070,3713...1005,11/2011,Y:1031780530545176:YNAX:400686514070:,150.0
825077,D80AF279-4A37A127-568-E1A12,06/16/2009 06:40:36 AM,,Sale,,,,400686513733,5424...4555,07/2012,Y:61976B0530544836:YYYP:400686513733:,70.0
825077,D80AF279-4A379FBA-097-E1A12,06/16/2009 06:34:31 AM,,Sale,,,,400686511731,5466...2018,04/2010,Y:26635Z0530542812:YYYP:400686511731:,60.0
825077,D80AF279-4A379F7C-012-E1A12,06/16/2009 06:33:29 AM,,Sale,,,,400686511381,5178...2955,07/2012,Y:03549Z0530542460:YYYP:400686511381:,30.0
825077,D80AF279-4A379F76-944-E1A12,06/16/2009 06:33:24 AM,,Sale,,,,400686511348,3711...2005,10/2009,Y:1329360530542427:YYYX:400686511348:,180.0
825077,D80AF279-4A379F72-995-E1A12,06/16/2009 06:33:20 AM,,Sale,,,,400686511332,6011...6018,06/2013,Y:0169690530542411:YYYS:400686511332:,70.0
825077,D80AF279-4A379DCE-448-E1A12,06/16/2009 06:26:19 AM,,Sale,,,,400686508971,4147...4271,04/2011,Y:02261C0530540017:YYYX:400686508971:,130.0
825077,D80AF279-4A379D72-292-E1A12,06/16/2009 06:24:47 AM,,Sale,,,,400686508381,5178...2955,07/2012,Y:08298Z0530539419:YYYP:400686508381:,100.0
825077,D80AF279-4A379B42-071-E1A12,06/16/2009 06:15:27 AM,,Sale,,,,400686505443,4388...3134,11/2009,Y:09522C0530536432:YYYX:400686505443:,70.0
825077,D80AF279-4A379AEF-020-E1A12,06/16/2009 06:14:04 AM,,Sale,,,,400686505016,5178...2955,07/2012,Y:05799Z0530536001:YYYP:400686505016:,30.0
825077,D80AF279-4A379A5F-447-E1A12,06/16/2009 06:11:40 AM,,Sale,,,,400686504322,3767...1009,12/2013,Y:1425050530535295:YYYX:400686504322:,160.0
825077,D80AF279-4A379A4A-015-E1A12,06/16/2009 06:11:19 AM,,Sale,,,,400686504214,3725...4018,03/2012,Y:1274610530535186:YYYX:400686504214:,60.0
825077,D80AF279-4A379A39-017-E1A12,06/16/2009 06:11:02 AM,,Sale,,,,400686504136,4313...1706,10/2011,Y:01522B0530535105:YYYX:400686504136:,330.0
825077,D80AF279-4A379711-794-E1A12,06/16/2009 05:57:35 AM,,Sale,,,,400686499845,3713...4017,10/2012,Y:1617450530530776:YYYX:400686499845:,290.0
825077,D80AF279-4A37962D-650-E1A12,06/16/2009 05:53:46 AM,,Sale,,,,400686498926,3715...1003,03/2011,Y:1158080530529841:YYYX:400686498926:,60.0
825077,D80AF279-4A37945E-565-E1A12,06/16/2009 05:46:03 AM,,Sale,,,,400686497135,6011...2255,05/2013,Y:0163500530528012:YYYS:400686497135:,100.0
825077,D80AF279-4A3793F1-555-E1A12,06/16/2009 05:44:14 AM,,Sale,,,,400686496605,5466...2445,12/2009,Y:44182Z0530527478:YYYP:400686496605:,60.0
825077,D80AF279-4A379362-484-E1A12,06/16/2009 05:41:51 AM,,Sale,,,,400686495893,5490...2611,01/2012,Y:04530B0530526756:YYYP:400686495893:,60.0
825077,D80AF279-4A379299-441-E1A12,06/16/2009 05:38:30 AM,,Sale,,,,400686494903,5466...9859,08/2010,Y:71350Z0530525754:YYYP:400686494903:,60.0
825077,D80AF279-4A379166-962-E1A12,06/16/2009 05:33:24 AM,,Sale,,,,400686493622,3723...3026,03/2012,Y:1482500530524461:YYYX:400686493622:,150.0
825077,D80AF279-4A379131-519-E1A12,06/16/2009 05:32:30 AM,,Sale,,,,400686493418,5466...8078,07/2009,Y:0299820530524257:YYYP:400686493418:,70.0
825077,D80AF279-4A378F80-561-E1A12,06/16/2009 05:25:17 AM,,Sale,,,,400686491915,4388...3603,11/2009,Y:09238D0530522738:YYYX:400686491915:,80.0
825077,D80AF279-4A378E86-599-E1A12,06/16/2009 05:21:07 AM,,Sale,,,,400686490967,3743...8018,03/2011,Y:5863460530521784:YYYX:400686490967:,90.0
825077,D80AF279-4A378E07-123-E1A12,06/16/2009 05:19:00 AM,,Sale,,,,400686490515,4388...6342,05/2010,Y:00714C0530521331:YYYX:400686490515:,120.0
825077,D80AF279-4A378D25-877-E1A12,06/16/2009 05:15:15 AM,,Sale,,,,400686489711,6011...1931,02/2014,Y:0165620530520519:YYYS:400686489711:,70.0
825077,D80AF279-4A378B8B-394-E1A12,06/16/2009 05:08:24 AM,,Sale,,,,400686488208,5262...6567,04/2012,Y:3927940530519004:YYYP:400686488208:,70.0
825077,D80AF279-4A378B6D-619-E1A12,06/16/2009 05:07:54 AM,,Sale,,,,400686488123,4888...2934,01/2011,Y:00590B0530518918:YYYX:400686488123:,80.0
825077,D80AF279-4A378A79-562-E1A12,06/16/2009 05:03:50 AM,,Sale,,,,400686487366,4640...0099,07/2009,Y:05426B0530518154:YYYX:400686487366:,60.0
825077,D80AF279-4A3789EE-344-E1A12,06/16/2009 05:01:31 AM,,Sale,,,,400686486919,5466...1346,04/2012,Y:07622Z0530517697:YYYP:400686486919:,320.0
825077,D80AF279-4A378984-843-E1A12,06/16/2009 04:59:46 AM,,Sale,,,,400686486574,4226...2958,02/2010,Y:03284C0530517350:YYYX:400686486574:,70.0
825077,D80AF279-4A37874F-426-E1A12,06/16/2009 04:50:20 AM,,Sale,,,,400686485187,6011...5119,07/2013,Y:0163770530515947:YNAS:400686485187:,60.0
825077,D80AF279-4A3786E8-897-E1A12,06/16/2009 04:48:38 AM,,Sale,,,,400686484946,6011...0382,03/2013,Y:0165670530515705:YYYS:400686484946:,140.0
825077,D80AF279-4A378676-452-E1A12,06/16/2009 04:46:43 AM,,Sale,,,,400686484663,6011...9598,11/2013,Y:0169710530515424:YYYS:400686484663:,170.0
825077,D80AF279-4A3784BE-588-E1A12,06/16/2009 04:39:23 AM,,Sale,,,,400686483738,4305...0163,08/2009,Y:04508B0530514494:YYYX:400686483738:,70.0
825077,D80AF279-4A378428-080-E1A12,06/16/2009 04:36:53 AM,,Sale,,,,400686483392,4313...3763,08/2009,Y:0358090530514147:YYYX:400686483392:,160.0
825077,D80AF279-4A378345-986-E1A12,06/16/2009 04:33:07 AM,,Sale,,,,400686482755,5480...4566,07/2010,Y:0715370530513505:YYYP:400686482755:,120.0
825077,D80AF279-4A37820F-962-E1A12,06/16/2009 04:27:57 AM,,Sale,,,,400686481951,3722...2005,10/2012,Y:1821080530512696:YYYX:400686481951:,160.0
825077,D80AF279-4A3780AA-884-E1A12,06/16/2009 04:22:00 AM,,Sale,,,,400686481291,4060...5005,11/2009,Y:0100110530512031:YYYX:400686481291:,60.0
825077,D80AF279-4A378075-978-E1A12,06/16/2009 04:21:07 AM,,Sale,,,,400686481140,6011...4188,05/2013,Y:0162500530511880:YYYS:400686481140:,200.0
825077,D80AF279-4A378019-504-E1A12,06/16/2009 04:19:34 AM,,Sale,,,,400686480877,4266...8832,09/2010,Y:01743A0530511615:YYYX:400686480877:,80.0
825077,D80AF279-4A377FEB-604-E1A12,06/16/2009 04:18:48 AM,,Sale,,,,400686480778,3725...1009,07/2010,Y:1030890530511516:YYYX:400686480778:,70.0
825077,D80AF279-4A377E53-403-E1A12,06/16/2009 04:12:00 AM,,Sale,,,,400686479754,4266...8832,09/2010,Y:09724A0530510483:YYYX:400686479754:,80.0
825077,D80AF279-4A377DF5-155-E1A12,06/16/2009 04:10:26 AM,,Sale,,,,400686479538,6011...7221,03/2013,Y:0169300530510265:YYYS:400686479538:,150.0
825077,D80AF279-4A377C97-087-E1A12,06/16/2009 04:04:36 AM,,Sale,,,,400686478735,5401...4345,05/2010,Y:06796Z0530509461:YYYP:400686478735:,120.0
825077,D80AF279-4A377C95-715-E1A12,06/16/2009 04:04:34 AM,,Sale,,,,400686478728,4640...7697,01/2012,Y:06751A0530509454:YYYX:400686478728:,70.0
825077,D80AF279-4A3778DA-381-E1A12,06/16/2009 03:48:39 AM,,Sale,,,,400686476445,4266...8808,05/2011,Y:00094C0530507170:YYYX:400686476445:,100.0
825077,D80AF279-4A37779C-832-E1A12,06/16/2009 03:43:22 AM,,Sale,,,,400686475833,4636...1692,01/2011,Y:03366C0530506560:YYYX:400686475833:,70.0
825077,D80AF279-4A377623-525-E1A12,06/16/2009 03:37:04 AM,,Sale,,,,400686475138,4147...2666,02/2012,Y:04848C0530505859:NNNX:400686475138:,60.0
825077,D80AF279-4A377380-260-E1A12,06/16/2009 03:25:49 AM,,Sale,,,,400686473359,5466...4700,12/2010,Y:66417Z0530504081:YYYP:400686473359:,120.0
825077,D80AF279-4A377189-061-E1A12,06/16/2009 03:17:26 AM,,Sale,,,,400686471969,4888...3899,05/2010,Y:01581B0530502691:YYYX:400686471969:,120.0
825077,D80AF279-4A376227-544-E1A12,06/16/2009 02:11:49 AM,,Sale,,,,400686461985,3739...3015,10/2010,Y:1401880530492525:YYYX:400686461985:,120.0
825077,D80AF279-4A37528F-520-E1A12,06/16/2009 01:05:16 AM,,Sale,,,,400686439168,5179...4624,11/2010,Y:49913B0530467273:YYYP:400686439168:,120.0
825077,D80AF279-4A3749B8-825-E1A12,06/16/2009 12:27:34 AM,,Sale,,,,400686435585,4264...3733,03/2010,Y:02587C0530463614:YYYX:400686435585:,180.0
825077,D80AF279-4A3745B3-137-E1A12,06/16/2009 12:10:24 AM,,Sale,,,,400686433290,6011...4216,01/2014,Y:0169770530461291:YYYS:400686433290:,70.0
825077,D80AF279-4A373EA6-719-E1A12,06/15/2009 11:40:19 PM,,Sale,,,,400686428752,5424...2664,04/2010,Y:73894B0530456697:YYYP:400686428752:,60.0
825077,D80AF279-4A373CCC-384-E1A12,06/15/2009 11:32:25 PM,,Sale,,,,400686427662,4388...4839,07/2012,Y:00472D0530455591:YYYX:400686427662:,60.0
825077,D80AF279-4A373C78-639-E1A12,06/15/2009 11:31:01 PM,,Sale,,,,400686427450,3713...1019,04/2012,Y:1975790530455375:YYYX:400686427450:,60.0
825077,D80AF279-4A373BA9-315-E1A12,06/15/2009 11:27:34 PM,,Sale,,,,400686426960,5424...3214,02/2011,Y:33933B0530454884:YYYP:400686426960:,70.0
825077,D80AF279-4A3736AA-302-E1A12,06/15/2009 11:06:15 PM,,Sale,,,,400686423419,3772...1007,10/2009,Y:1672980530451276:YYYX:400686423419:,70.0
825077,D80AF279-4A373661-778-E1A12,06/15/2009 11:05:03 PM,,Sale,,,,400686423109,4266...3612,05/2011,Y:08792B0530450962:YYYX:400686423109:,60.0
825077,D80AF279-4A37338D-820-E1A12,06/15/2009 10:52:59 PM,,Sale,,,,400686421112,4266...3612,05/2011,Y:02664B0530448893:YYYX:400686421112:,60.0
825077,D80AF279-4A373291-747-E1A12,06/15/2009 10:48:46 PM,,Sale,,,,400686420482,6011...1567,04/2013,Y:0162730530448233:YYYS:400686420482:,90.0
825077,D80AF279-4A373281-606-E1A12,06/15/2009 10:48:30 PM,,Sale,,,,400686420431,5410...7816,04/2010,Y:60718B0530448174:NYZP:400686420431:,120.0
825077,D80AF279-4A3731BE-846-E1A12,06/15/2009 10:45:16 PM,,Sale,,,,400686419917,4640...3823,09/2010,Y:09173B0530447635:YYYX:400686419917:,20.0
825077,D80AF279-4A373093-009-E1A12,06/15/2009 10:40:16 PM,,Sale,,,,400686418449,4640...3823,09/2010,Y:04184B0530446116:YYYX:400686418449:,110.0
825077,D80AF279-4A373032-121-E1A12,06/15/2009 10:38:39 PM,,Sale,,,,400686418057,4217...6382,04/2012,Y:0224000530445705:YYYX:400686418057:,70.0
825077,D80AF279-4A372E97-020-E1A12,06/15/2009 10:31:48 PM,,Sale,,,,400686416981,3713...1008,11/2011,Y:1213090530444571:YYYX:400686416981:,70.0
825077,D80AF279-4A372E36-962-E1A12,06/15/2009 10:30:12 PM,,Sale,,,,400686416736,3772...1007,05/2013,Y:1464330530444313:YYYX:400686416736:,100.0
825077,D80AF279-4A3728B6-758-E1A12,06/15/2009 10:06:43 PM,,Sale,,,,400686412331,5424...3761,11/2009,Y:50115B0530439705:YYYP:400686412331:,50.0
825077,D80AF279-4A37285B-998-E1A12,06/15/2009 10:05:13 PM,,Sale,,,,400686411832,5401...1354,03/2011,Y:09097Z0530439193:YYYP:400686411832:,70.0
825077,D80AF279-4A372127-494-E1A12,06/15/2009 09:34:29 PM,,Sale,,,,400686407787,3723...3004,12/2011,Y:1032520530434999:NNNX:400686407787:,70.0
825077,D80AF279-4A371627-771-E0474,06/15/2009 08:47:33 PM,,Sale,,,,400686399725,4264...2195,07/2010,Y:04584B0530426677:YYYX:400686399725:,60.0
825077,D80AF279-4A3710B7-206-E0474,06/15/2009 08:24:20 PM,,Sale,,,,400686395244,6011...4418,11/2013,Y:0158100530422067:YYYS:400686395244:,70.0
825077,D80AF279-4A37109D-943-E0474,06/15/2009 08:23:55 PM,,Sale,,,,400686395149,6011...0630,04/2011,Y:0156980530421968:YYYS:400686395149:,120.0
825077,D80AF279-4A37102F-747-E0474,06/15/2009 08:22:05 PM,,Sale,,,,400686394883,5490...0127,08/2011,Y:02530Z0530421690:YYYP:400686394883:,120.0
825077,D80AF279-4A370EB2-683-E0474,06/15/2009 08:15:43 PM,,Sale,,,,400686393802,5490...0127,08/2011,Y:01575Z0530420552:YYYP:400686393802:,120.0
825077,D80AF279-4A370E4A-629-E0474,06/15/2009 08:13:59 PM,,Sale,,,,400686393516,5369...7600,06/2011,Y:05690B0530420258:YYYP:400686393516:,145.0
825077,D80AF279-4A370E0C-452-E0474,06/15/2009 08:12:57 PM,,Sale,,,,400686393321,5528...5705,03/2012,Y:0260090530420056:YYYP:400686393321:,80.0
825077,D80AF279-4A370B2B-472-E0474,06/15/2009 08:00:40 PM,,Sale,,,,,5149...9238,01/2010,NFRAUD,60.0
825077,D80AF279-4A370B1B-976-E0474,06/15/2009 08:00:25 PM,,Sale,,,,,5149...9238,01/2010,NFRAUD,60.0
825077,D80AF279-4A370AFB-794-E0474,06/15/2009 07:59:53 PM,,Sale,,,,400686390881,5149...9238,01/2010,Y:6117060530417523:YYYP:400686390881:,60.0
825077,D80AF279-4A370546-970-E0474,06/15/2009 07:35:32 PM,,Sale,,,,400686385529,5401...6991,01/2012,Y:09660B0530412002:YYYP:400686385529:,110.0
825077,D80AF279-4A3702CA-676-E0474,06/15/2009 07:24:55 PM,,Sale,,,,400686382579,5466...2153,04/2010,Y:87232Z0530408989:YYYP:400686382579:,180.0
825077,D80AF279-4A370131-901-E0474,06/15/2009 07:18:07 PM,,Sale,,,,400686380356,6011...2959,04/2014,Y:0152580530406728:YYYS:400686380356:,160.0
825077,D80AF279-4A3700E4-602-E0474,06/15/2009 07:16:49 PM,,Sale,,,,400686379938,3772...1000,10/2018,Y:1303960530406308:YYYX:400686379938:,60.0
825077,D80AF279-4A36FFF6-548-E0474,06/15/2009 07:12:51 PM,,Sale,,,,400686378564,5466...7962,10/2010,Y:40403Z0530404915:YYYP:400686378564:,70.0
825077,D80AF279-4A36FE9C-119-E0474,06/15/2009 07:07:05 PM,,Sale,,,,400686376793,3772...1000,10/2011,Y:1192800530403118:YYYX:400686376793:,60.0
825077,D80AF279-4A36FDEC-773-E0474,06/15/2009 07:04:10 PM,,Sale,,,,400686375839,4266...2689,05/2010,Y:05995C0530402148:YYYX:400686375839:,70.0
825077,D80AF279-4A36FD7C-219-E0474,06/15/2009 07:02:17 PM,,Sale,,,,400686375185,3772...1003,05/2013,Y:1208570530401485:YYYX:400686375185:,60.0
825077,D80AF279-4A36FD2A-139-E0474,06/15/2009 07:00:55 PM,,Sale,,,,400686374709,3727...2000,08/2009,Y:1602780530400992:YYYX:400686374709:,100.0
825077,D80AF279-4A36F65D-422-E0474,06/15/2009 06:31:54 PM,,Sale,,,,400686365205,3715...2006,10/2009,Y:1252400530391255:YYYX:400686365205:,180.0
825077,D80AF279-4A36F5A3-629-E0474,06/15/2009 06:28:48 PM,,Sale,,,,400686364231,5424...9532,03/2013,Y:54299B0530390255:YYYP:400686364231:,70.0
825077,D80AF279-4A36F4D4-021-E0474,06/15/2009 06:25:21 PM,,Sale,,,,400686363286,4266...2489,05/2011,Y:09331B0530389275:YYYX:400686363286:,90.0
825077,D80AF279-4A36F053-858-E0474,06/15/2009 06:06:09 PM,,Sale,,,,400686356841,5466...0385,09/2010,Y:48007Z0530382674:YYYP:400686356841:,200.0
825077,D80AF279-4A36EDEC-362-E0474,06/15/2009 05:55:53 PM,,Sale,,,,,5401...2931,05/2011,NFRAUD,130.0
825077,D80AF279-4A36EDEA-675-E0474,06/15/2009 05:55:51 PM,,Sale,,,,400686353049,5401...2931,05/2011,Y:01451T0530378789:YYYP:400686353049:,130.0
825077,D80AF279-4A36EA6A-405-E0474,06/15/2009 05:40:55 PM,,Sale,,,,400686348494,3715...2006,12/2009,Y:1278720530374145:YYYX:400686348494:,140.0
825077,D80AF279-4A36E77E-001-E0474,06/15/2009 05:28:28 PM,,Sale,,,,400686345048,6011...1919,05/2012,Y:0152820530370603:YYYS:400686345048:,70.0
825077,D80AF279-4A36E67F-095-E0474,06/15/2009 05:24:12 PM,,Sale,,,,400686343650,4888...0941,01/2011,Y:02553B0530369169:YYYX:400686343650:,70.0
825077,D80AF279-4A36DE34-922-E0474,06/15/2009 04:48:50 PM,,Sale,,,,400686331821,4266...5920,02/2011,Y:00401B0530357104:YYYX:400686331821:,200.0
825077,D80AF279-4A36DC43-536-E0474,06/15/2009 04:40:32 PM,,Sale,,,,400686328759,4266...8543,07/2010,Y:04682B0530353985:YYYX:400686328759:,80.0
825077,D80AF279-4A36D81F-120-E0474,06/15/2009 04:22:52 PM,,Sale,,,,400686322253,3772...1009,09/2012,Y:1288870530347394:YYYX:400686322253:,80.0
825077,D80AF279-4A36D0E8-868-E0474,06/15/2009 03:52:06 PM,,Sale,,,,400686309532,5466...1428,11/2010,Y:37768Z0530334492:YYYP:400686309532:,150.0
825077,D80AF279-4A36CEF6-219-E0474,06/15/2009 03:43:47 PM,,Sale,,,,,5401...6991,01/2012,NFRAUD,110.0
825077,D80AF279-4A36CED6-902-E0474,06/15/2009 03:43:16 PM,,Sale,,,,400686305981,5401...6991,01/2012,Y:03179B0530330883:YYYP:400686305981:,110.0
825077,D80AF279-4A36CB54-414-E0474,06/15/2009 03:28:17 PM,,Sale,,,,400686299799,6011...4891,02/2014,Y:0152180530324607:YYYS:400686299799:,60.0
825077,D80AF279-4A36C9ED-990-E0474,06/15/2009 03:22:19 PM,,Sale,,,,400686297460,5424...0587,10/2010,Y:39751B0530322207:YYYP:400686297460:,70.0
825077,D80AF279-4A36BBE4-757-E0474,06/15/2009 02:22:26 PM,,Sale,,,,400686266935,3725...1017,10/2010,Y:1752330530291306:YYYX:400686266935:,80.0
825077,D80AF279-4A36B0EF-645-E0474,06/15/2009 01:35:40 PM,,Sale,,,,400686242776,4417...8100,05/2011,Y:01125B0530266839:YYYX:400686242776:,60.0
825077,D80AF279-4A36AFB3-924-E0474,06/15/2009 01:30:25 PM,,Sale,,,,400686240241,4313...3758,03/2012,Y:03517C0530264272:YYYX:400686240241:,70.0
825077,D80AF279-4A36AF8C-833-E0474,06/15/2009 01:29:46 PM,,Sale,,,,400686239962,4707...3487,10/2009,Y:0325050530263989:YYYX:400686239962:,200.0
825077,D80AF279-4A36A4A6-208-E0474,06/15/2009 12:43:15 PM,,Sale,,,,400686216099,5466...0844,12/2010,Y:03288Z0530239800:YYYP:400686216099:,120.0
825077,D80AF279-4A369FFB-763-E0474,06/15/2009 12:23:21 PM,,Sale,,,,400686204324,4313...9632,10/2010,Y:02540A0530227880:YYYX:400686204324:,180.0
825077,D80AF279-4A369EF0-888-E0474,06/15/2009 12:18:54 PM,,Sale,,,,400686201374,5452...3636,05/2011,Y:0250770530224896:YYYP:400686201374:,60.0
825077,D80AF279-4A369EE4-746-E0474,06/15/2009 12:18:42 PM,,Sale,,,,400686201261,5490...5684,02/2011,Y:01595B0530224782:YYYP:400686201261:,60.0
825077,D80AF279-4A369EB3-229-E0474,06/15/2009 12:17:52 PM,,Sale,,,,400686200854,5452...2515,08/2011,Y:0159140530224372:YYYP:400686200854:,160.0
825077,D80AF279-4A369BCC-983-E0474,06/15/2009 12:05:30 PM,,Sale,,,,400686194763,4266...2207,03/2011,Y:09606C0530218190:YYYX:400686194763:,140.0
825077,D80AF279-4A369916-085-E0474,06/15/2009 11:53:55 AM,,Sale,,,,400686188988,5588...7638,02/2012,Y:0166770530212326:YYYP:400686188988:,60.0
825077,D80AF279-4A36981D-701-E0474,06/15/2009 11:49:46 AM,,Sale,,,,400686186956,5369...7894,12/2011,Y:03306B0530210256:YYYP:400686186956:,60.0
825077,D80AF279-4A369621-445-E0474,06/15/2009 11:41:18 AM,,Sale,,,,400686182930,4352...8594,07/2010,Y:0722250530206169:YYYX:400686182930:,60.0
825077,D80AF279-4A369507-656-E0474,06/15/2009 11:36:36 AM,,Sale,,,,400686180517,3723...7007,04/2012,Y:1878400530203716:YYYX:400686180517:,70.0
825077,D80AF279-4A3691D2-355-E0474,06/15/2009 11:22:55 AM,,Sale,,,,400686172094,5466...1249,02/2011,Y:61626Z0530195183:YYYP:400686172094:,60.0
825077,D80AF279-4A369174-777-E0474,06/15/2009 11:21:22 AM,,Sale,,,,400686171046,4888...0861,03/2012,Y:02529B0530194120:YYYX:400686171046:,70.0
825077,D80AF279-4A368761-784-E0474,06/15/2009 10:38:23 AM,,Sale,,,,400686147537,3725...3009,05/2012,Y:1777930530170298:YYYX:400686147537:,160.0
825077,D80AF279-4A36871B-012-E0474,06/15/2009 10:37:12 AM,,Sale,,,,400686147016,4226...3382,09/2010,Y:05069C0530169771:YYYX:400686147016:,80.0
825077,D80AF279-4A36857F-439-E0474,06/15/2009 10:30:20 AM,,Sale,,,,400686143788,6011...4430,04/2013,Y:0153620530166490:YYYS:400686143788:,130.0
825077,D80AF279-4A3684D0-009-E0474,06/15/2009 10:27:25 AM,,Sale,,,,400686142332,4147...8531,08/2009,Y:01515C0530165008:YYYX:400686142332:,10.0
825077,D80AF279-4A36844B-308-E0474,06/15/2009 10:25:12 AM,,Sale,,,,400686141237,4868...7848,12/2009,Y:09067B0530163902:YYYX:400686141237:,70.0
825077,D80AF279-4A3682DC-814-E0474,06/15/2009 10:19:06 AM,,Sale,,,,400686138335,4117...6367,02/2012,Y:1725080530160946:YYYX:400686138335:,70.0
825077,D80AF279-4A368267-726-E0474,06/15/2009 10:17:09 AM,,Sale,,,,400686137520,4843...6216,11/2009,Y:0269590530160123:YYYX:400686137520:,80.0
825077,D80AF279-4A368002-597-E0474,06/15/2009 10:06:55 AM,,Sale,,,,400686132503,3794...1000,07/2011,Y:1860450530155023:YYYX:400686132503:,210.0
825077,D80AF279-4A367FED-006-E0474,06/15/2009 10:06:34 AM,,Sale,,,,400686132330,5424...2839,02/2010,Y:50957B0530154848:YYYP:400686132330:,80.0
825077,D80AF279-4A367B6C-327-E0474,06/15/2009 09:47:21 AM,,Sale,,,,400686123299,6011...8921,06/2013,Y:0151650530145696:YYYS:400686123299:,70.0
825077,D80AF279-4A3677F2-170-E0474,06/15/2009 09:32:31 AM,,Sale,,,,400686115659,6011...6871,01/2014,Y:0159240530137934:YYYS:400686115659:,90.0
825077,D80AF279-4A3677C9-055-E0474,06/15/2009 09:31:50 AM,,Sale,,,,400686115213,3725...1002,10/2010,Y:1136690530137482:YYYX:400686115213:,160.0
825077,D80AF279-4A3676B6-601-E0474,06/15/2009 09:27:15 AM,,Sale,,,,400686113054,4060...3072,10/2011,Y:0185770530135294:YYYX:400686113054:,70.0
825077,D80AF279-4A3676A0-420-E0474,06/15/2009 09:26:53 AM,,Sale,,,,400686112907,6011...6871,01/2014,Y:0159890530135146:YYYS:400686112907:,170.0
825077,D80AF279-4A367609-529-E0474,06/15/2009 09:24:22 AM,,Sale,,,,400686111603,4718...8918,04/2010,Y:11515B0530133828:YYYX:400686111603:,80.0
825077,D80AF279-4A36742E-943-E0474,06/15/2009 09:16:28 AM,,Sale,,,,400686107897,5427...7368,07/2009,Y:0140050530130065:YYYP:400686107897:,120.0
825077,D80AF279-4A367380-082-E0474,06/15/2009 09:13:33 AM,,Sale,,,,400686106354,5427...7368,07/2009,Y:0129270530128486:YYYP:400686106354:,20.0
825077,D80AF279-4A36717D-247-E0474,06/15/2009 09:04:58 AM,,Sale,,,,400686102398,3713...1014,08/2011,Y:1643850530124466:YYYX:400686102398:,80.0
825077,D80AF279-4A367089-859-E0474,06/15/2009 09:00:55 AM,,Sale,,,,400686100516,5424...6300,04/2010,Y:59190B0530122562:YYYP:400686100516:,100.0
825077,D80AF279-4A366E29-371-E0474,06/15/2009 08:50:46 AM,,Sale,,,,400686095529,6011...5446,05/2013,Y:0153090530117497:YYYS:400686095529:,60.0
825077,D80AF279-4A366C5E-646-E0474,06/15/2009 08:43:07 AM,,Sale,,,,400686091735,5466...2520,03/2010,Y:62764Z0530113649:YYYP:400686091735:,280.0
825077,D80AF279-4A366A4C-409-E0474,06/15/2009 08:34:17 AM,,Sale,,,,400686087163,5582...7637,02/2011,Y:0622940530109037:YYYP:400686087163:,60.0
825077,D80AF279-4A3668A5-613-E0474,06/15/2009 08:27:14 AM,,Sale,,,,400686083510,5121...3933,06/2012,Y:01568B0530105330:YYYP:400686083510:,80.0
825077,D80AF279-4A3667B0-804-E0474,06/15/2009 08:23:10 AM,,Sale,,,,400686081390,4888...2705,02/2011,Y:02540B0530103180:YYYX:400686081390:,70.0
825077,D80AF279-4A366772-466-E0474,06/15/2009 08:22:07 AM,,Sale,,,,400686080842,4266...3439,04/2012,Y:09933B0530102628:YYYX:400686080842:,60.0
825077,D80AF279-4A36648F-974-E0474,06/15/2009 08:09:49 AM,,Sale,,,,400686074602,4465...3234,08/2010,Y:01505B0530096317:YYYX:400686074602:,120.0
825077,D80AF279-4A36635C-069-E0474,06/15/2009 08:04:41 AM,,Sale,,,,400686072139,4266...0746,01/2011,Y:08144C0530093824:YYYX:400686072139:,70.0
825077,D80AF279-4A3662D3-695-E0474,06/15/2009 08:02:24 AM,,Sale,,,,400686071101,5424...4927,08/2009,Y:00957B0530092761:YYYP:400686071101:,240.0
825077,D80AF279-4A366246-048-E0474,06/15/2009 08:00:03 AM,,Sale,,,,400686070014,5122...9831,05/2010,Y:03800Z0530091658:YYYP:400686070014:,60.0
825077,D80AF279-4A366116-913-E0474,06/15/2009 07:55:00 AM,,Sale,,,,400686067989,3772...1009,10/2011,Y:1367860530089616:YYYX:400686067989:,140.0
825077,D80AF279-4A36600E-254-E0474,06/15/2009 07:50:35 AM,,Sale,,,,400686066250,5466...9622,02/2011,Y:74275Z0530087850:YYYP:400686066250:,80.0
825077,D80AF279-4A365FF2-609-E0474,06/15/2009 07:50:07 AM,,Sale,,,,400686066071,4306...1458,02/2012,Y:0159260530087666:YYYX:400686066071:,60.0
825077,D80AF279-4A365FB1-934-E0474,06/15/2009 07:49:03 AM,,Sale,,,,400686065629,5200...0990,04/2011,Y:05500B0530087209:YYYP:400686065629:,60.0
825077,D80AF279-4A365E2D-774-E0474,06/15/2009 07:42:35 AM,,Sale,,,,400686062805,5424...2672,11/2014,Y:56664B0530084348:YYYP:400686062805:,60.0
825077,D80AF279-4A365E12-602-E0474,06/15/2009 07:42:07 AM,,Sale,,,,400686062638,3772...2002,09/2009,Y:1265770530084175:YYYX:400686062638:,80.0
825077,11587,06/15/2009 07:38:24 AM,,Sale,,,,400686061124,5522...5145,09/2009,Y:9051930530082634:YYYP:400686061124:,50.0
825077,D80AF279-4A365CA0-271-E0474,06/15/2009 07:35:57 AM,,Sale,,,,400686060201,5466...4278,09/2010,Y:37783Z0530081698:YYYP:400686060201:,50.0
825077,D80AF279-4A365C67-686-E0474,06/15/2009 07:35:00 AM,,Sale,,,,400686059846,5424...7238,03/2011,Y:93748B0530081337:YYYP:400686059846:,70.0
825077,D80AF279-4A365A28-729-E0474,06/15/2009 07:25:26 AM,,Sale,,,,400686055687,5424...4572,02/2011,Y:53525B0530076787:YYYP:400686055687:,70.0
825077,D80AF279-4A3659C5-265-E0474,06/15/2009 07:23:46 AM,,Sale,,,,400686054928,4388...2696,04/2011,Y:05298C0530075887:NYZX:400686054928:,110.0
825077,D80AF279-4A3657C1-007-E0474,06/15/2009 07:15:10 AM,,Sale,,,,400686051165,4388...4388,12/2009,Y:09012C0530071425:YYYX:400686051165:,100.0
825077,D80AF279-4A3657BA-323-E0474,06/15/2009 07:15:03 AM,,Sale,,,,400686051103,3723...2003,11/2010,Y:1847040530071352:YYYX:400686051103:,101.0
825077,D80AF279-4A3657AC-333-E0474,06/15/2009 07:14:49 AM,,Sale,,,,400686051003,3717...2008,02/2011,Y:1884550530071233:YYYX:400686051003:,60.0
825077,D80AF279-4A3656CD-179-E0474,06/15/2009 07:11:06 AM,,Sale,,,,400686049389,5403...6557,07/2009,Y:3416880530069320:YYYP:400686049389:,80.0
825077,D80AF279-4A36565F-275-E0474,06/15/2009 07:09:16 AM,,Sale,,,,400686048661,4388...4388,12/2009,Y:01201C0530068448:YYYX:400686048661:,20.0
825077,D80AF279-4A36552D-469-E0474,06/15/2009 07:04:10 AM,,Sale,,,,400686046522,4479...1826,12/2011,Y:0155660530066231:YYYX:400686046522:,60.0
825077,D80AF279-4A365515-143-E0474,06/15/2009 07:03:46 AM,,Sale,,,,400686046348,4266...3479,11/2010,Y:05310B0530066055:YYYX:400686046348:,80.0
825077,D80AF279-4A3654B9-308-E0474,06/15/2009 07:02:14 AM,,Sale,,,,400686045760,3725...1002,05/2010,Y:1726570530065463:YYYX:400686045760:,60.0
825077,D80AF279-4A3653A0-436-E0474,06/15/2009 06:57:33 AM,,Sale,,,,400686043801,4479...1826,12/2011,Y:0151130530063486:YYYX:400686043801:,60.0
825077,D80AF279-4A365226-833-E0474,06/15/2009 06:51:16 AM,,Sale,,,,400686041110,5401...1367,05/2011,Y:07185B0530060763:YYYP:400686041110:,70.0
825077,D80AF279-4A365123-665-E0474,06/15/2009 06:46:56 AM,,Sale,,,,400686039418,4121...9486,11/2011,Y:04592A0530059024:YYYX:400686039418:,280.0
825077,D80AF279-4A364DED-300-E0474,06/15/2009 06:33:14 AM,,Sale,,,,400686034784,6011...5522,06/2013,Y:0159520530054330:YYYS:400686034784:,130.0
825077,D80AF279-4A364DC1-616-E0474,06/15/2009 06:32:30 AM,,Sale,,,,400686034541,5424...5440,02/2010,Y:92214B0530054086:YYYP:400686034541:,60.0
825077,D80AF279-4A364D5B-561-E0474,06/15/2009 06:30:48 AM,,Sale,,,,400686034013,4313...9296,01/2012,Y:03521C0530053551:YYYX:400686034013:,120.0
825077,D80AF279-4A364CCF-516-E0474,06/15/2009 06:28:28 AM,,Sale,,,,400686033255,4264...3592,08/2009,Y:0259990530052783:YYYX:400686033255:,120.0
825077,D80AF279-4A3649F3-897-E0474,06/15/2009 06:16:17 AM,,Sale,,,,400686029322,6011...0668,06/2013,Y:0159560530048793:YYYS:400686029322:,140.0
825077,D80AF279-4A3648BA-134-E0474,06/15/2009 06:11:03 AM,,Sale,,,,400686027738,5522...5145,09/2011,Y:8051210530047189:YYYP:400686027738:,110.0
825077,D80AF279-4A36486B-523-E0474,06/15/2009 06:09:44 AM,,Sale,,,,400686027360,4266...8711,09/2009,Y:03247C0530046807:YYYX:400686027360:,140.0
825077,D80AF279-4A364720-236-E0474,06/15/2009 06:04:13 AM,,Sale,,,,400686025514,4266...5464,10/2011,Y:06113B0530044945:YYYX:400686025514:,105.0
825077,D80AF279-4A3646D9-169-E0474,06/15/2009 06:03:02 AM,,Sale,,,,400686025122,4417...4127,11/2009,Y:02788B0530044549:YYYX:400686025122:,80.0
825077,D80AF279-4A36080B-062-E0474,06/15/2009 01:35:04 AM,,Sale,,,,400685958994,4217...0492,07/2010,Y:0013620529975317:YYYX:400685958994:,210.0
825077,D80AF279-4A35EA7E-499-E0474,06/14/2009 11:28:59 PM,,Sale,,,,400685947561,5424...3761,11/2009,Y:74858B0529963605:YYYP:400685947561:,200.0
825077,D80AF279-4A35E8E0-211-E0474,06/14/2009 11:22:05 PM,,Sale,,,,400685946922,3717...1002,03/2011,Y:1755930529962930:YYYX:400685946922:,140.0
825077,D80AF279-4A35E841-859-E0474,06/14/2009 11:19:27 PM,,Sale,,,,400685946655,3717...1019,01/2013,Y:1317150529962650:YYYX:400685946655:,120.0
825077,D80AF279-4A35E62A-059-E0474,06/14/2009 11:10:31 PM,,Sale,,,,400685945920,4190...8147,12/2009,Y:10511D0529961855:YYYX:400685945920:,60.0
825077,D80AF279-4A35E23E-256-E0474,06/14/2009 10:53:47 PM,,Sale,,,,400685943505,4843...3884,06/2011,Y:0834430529959296:YYYX:400685943505:,70.0
825077,D80AF279-4A35DFF0-562-E0474,06/14/2009 10:43:57 PM,,Sale,,,,400685942559,5491...2351,11/2010,Y:T3747B0529958235:YYYP:400685942559:,60.0
825077,D80AF279-4A35DB5F-180-E0474,06/14/2009 10:24:28 PM,,Sale,,,,400685940433,3717...1000,09/2012,Y:1267970529955918:YYYX:400685940433:,100.0
825077,D80AF279-4A35DA48-310-E0474,06/14/2009 10:19:49 PM,,Sale,,,,400685939986,4147...0551,12/2011,Y:03384C0529955438:YYYX:400685939986:,60.0
825077,D80AF279-4A35DA30-164-E0474,06/14/2009 10:19:25 PM,,Sale,,,,400685939942,3717...1000,09/2012,Y:1210650529955389:YYYX:400685939942:,60.0
825077,D80AF279-4A35D92B-415-E0474,06/14/2009 10:15:04 PM,,Sale,,,,400685939358,3717...1012,03/2012,Y:1062480529954780:YYYX:400685939358:,60.0
825077,D80AF279-4A3594CA-581-DEED6,06/14/2009 05:23:19 PM,,Sale,,,,400685875460,5466...5134,01/2012,Y:12585Z0529888990:YYYP:400685875460:,120.0
825077,D80AF279-4A35948E-895-DEED6,06/14/2009 05:22:20 PM,,Sale,,,,400685875155,4217...3258,12/2010,Y:0172340529888677:YYYX:400685875155:,70.0
825077,D80AF279-4A3592B2-270-DEED6,06/14/2009 05:14:23 PM,,Sale,,,,400685872921,5466...6798,09/2011,Y:06402S0529886375:YYYP:400685872921:,90.0
825077,D80AF279-4A3592A5-319-DEED6,06/14/2009 05:14:10 PM,,Sale,,,,400685872868,5466...4278,09/2010,Y:94089Z0529886321:YYYP:400685872868:,30.0
825077,D80AF279-4A358671-599-DEED6,06/14/2009 04:22:06 PM,,Sale,,,,400685856508,4623...0645,12/2012,Y:81413D0529869546:YYYX:400685856508:,70.0
825077,D80AF279-4A358205-711-DEED6,06/14/2009 04:03:15 PM,,Sale,,,,400685850537,4128...5139,02/2013,Y:20772B0529863442:YYYX:400685850537:,150.0
825077,D80AF279-4A357572-876-DEED6,06/14/2009 03:09:36 PM,,Sale,,,,400685833764,3723...1016,02/2010,Y:1585920529846486:YYYX:400685833764:,110.0
825077,D80AF279-4A357407-053-DEED6,06/14/2009 03:03:32 PM,,Sale,,,,400685831984,3713...2002,02/2012,Y:1947140529844691:YYYX:400685831984:,60.0
825077,D80AF279-4A34F6DD-101-DEED6,06/14/2009 06:09:30 AM,,Sale,,,,400685703306,5466...9590,11/2011,Y:01582Z0529714853:YYYP:400685703306:,100.0
825077,D80AF279-4A32A0A3-814-DC39A,06/12/2009 11:37:05 AM,,Sale,,,,400685091943,4147...8531,08/2009,Y:01254C0529092894:NYZX:400685091943:,60.0
825077,D80AF279-4A329DDF-616-DC39A,06/12/2009 11:25:17 AM,,Sale,,,,400685086421,6011...0432,10/2012,Y:0125390529087292:YYYS:400685086421:,220.0
825077,D80AF279-4A3296E5-363-DC39A,06/12/2009 10:55:31 AM,,Sale,,,,400685072506,3743...8761,01/2011,Y:4674580529073161:YYYX:400685072506:,60.0
825077,11586,06/07/2009 12:11:57 PM,,Sale,,,,400682909724,4868...7848,12/2009,Y:09597B0526862147:YYYX:400682909724:,50.0
825077,11585,06/04/2009 08:41:18 AM,,Sale,,,,400681653177,4258...6160,08/2011,Y:0790700525578922:YYYX:400681653177:,50.0
825077,11584,06/02/2009 12:58:50 PM,,Sale,,,,400680843759,5466...2445,12/2009,Y:91743Z0524743215:YYYP:400680843759:,50.0
825077,11583,06/01/2009 08:22:16 AM,,Sale,,,,400680088402,5424...4927,08/2009,Y:34054B0523974261:YYYP:400680088402:,50.0

VisaTotal,21941.0
MasterCardTotal,19740.0
DiscoverTotal,6020.0
AmexTotal,12842.0
Total,60543.0,677 orders
