Store ID,Order #,Date,User ID,Type,PayerAuth,Invoice #,PO #,Trans ID,Card/Route Number,Exp. Date,Approval,Amount
825077,D80AF279-4B3BE487-934-1EBCA8,12/30/2009 03:38:48 PM,,Sale,,,,,5424...6838,01/2013,Y:68576B0613122953:YYYP:,30.0
825077,D80AF279-4B3B8510-522-1EBCA8,12/30/2009 08:51:28 AM,,Sale,,,,,5466...9566,03/2010,Y:88907Z0612941697:YYYP:,50.0
825077,D80AF279-4B3B80E9-887-1EBCA8,12/30/2009 08:33:45 AM,,Sale,,,,,4147...7464,03/2011,N:Declined:NNNX,30.0
825077,D80AF279-4B3B7F4D-291-1EBCA8,12/30/2009 08:26:54 AM,,Sale,,,,,4147...7464,03/2011,N:Declined:NNNX,30.0
825077,D80AF279-4B3B6B99-312-1EBCA8,12/30/2009 07:02:49 AM,,Sale,,,,,4256...5261,06/2012,Y:1405210612889383:YYYX:,30.0
825077,D80AF279-4B3AE686-430-1EBCA8,12/29/2009 09:35:02 PM,,Sale,,,,,4843...4425,02/2010,Y:0578170612785050:YYYX:,60.0
825077,D80AF279-4B3ABF4A-895-1EA70A,12/29/2009 06:47:39 PM,,Sale,,,,,5262...4076,04/2011,Y:9402070612756906:YYYP:,30.0
825077,D80AF279-4B3A75B6-196-1EA70A,12/29/2009 01:33:42 PM,,Sale,,,,,4147...5213,01/2012,Y:00288C0612651619:YYYX:,30.0
825077,D80AF279-4B3A6F0F-118-1EA70A,12/29/2009 01:05:19 PM,,Sale,,,,,3725...2001,07/2012,Y:1089400612638731:YYYX:,30.0
825077,D80AF279-4B3A4BA1-163-1EA70A,12/29/2009 10:34:10 AM,,Sale,,,,,4888...3296,01/2012,N:Declined:YYYX,30.0
825077,D80AF279-4B3A3D54-274-1EA70A,12/29/2009 09:33:08 AM,,Sale,,,,,4800...6791,04/2012,Y:03539A0612538581:YYYX:,60.0
825077,D80AF279-4B3A2ADB-354-1EA70A,12/29/2009 08:14:19 AM,,Sale,,,,,3772...2003,04/2010,Y:1610960612500671:YYYX:,60.0
825077,D80AF279-4B3A2880-225-1EA70A,12/29/2009 08:04:16 AM,,Sale,,,,,3772...2003,04/2010,Y:1809860612495769:YYYX:,30.0
825077,D80AF279-4B3967BB-436-1E916C,12/28/2009 06:21:47 PM,,Sale,,,,,4411...1664,09/2012,Y:0721210612332387:YYYX:,30.0
825077,D80AF279-4B396696-489-1E916C,12/28/2009 06:16:55 PM,,Sale,,,,,4388...1262,12/2012,Y:09653C0612331279:YYYX:,30.0
825077,D80AF279-4B394FE1-543-1E916C,12/28/2009 04:40:02 PM,,Sale,,,,,5200...0688,04/2011,Y:0004000612301696:YYYP:,300.0
825077,D80AF279-4B391E3A-541-1E916C,12/28/2009 01:08:11 PM,,Sale,,,,,4226...6105,10/2012,Y:04335C0612217872:YYYX:,30.0
825077,D80AF279-4B38FBF0-676-1E916C,12/28/2009 10:41:52 AM,,Sale,,,,,4843...3632,09/2011,Y:0574020612147229:YYYX:,60.0
825077,D80AF279-4B38F9E0-621-1E916C,12/28/2009 10:33:05 AM,,Sale,,,,,4843...4425,02/2010,N:Declined:YYYX,60.0
825077,D80AF279-4B38C90C-076-1E916C,12/28/2009 07:04:44 AM,,Sale,,,,,4843...4425,02/2010,N:Declined:YYYX,60.0
825077,D80AF279-4B38C5D5-659-1E916C,12/28/2009 06:51:01 AM,,Sale,,,,,5121...7421,11/2012,Y:02805Z0612035979:YYYP:,30.0
825077,D80AF279-4B38C4F6-654-1E916C,12/28/2009 06:47:18 AM,,Sale,,,,,5309...7876,01/2010,Y:67971B0612034792:YYYP:,60.0
825077,D80AF279-4B3826D8-766-1E7BCE,12/27/2009 07:32:40 PM,,Sale,,,,,5466...2472,02/2011,Y:07537Z0611910788:YYYP:,30.0
825077,D80AF279-4B380676-633-1E7BCE,12/27/2009 05:14:30 PM,,Sale,,,,,4266...1083,12/2012,Y:02921C0611883453:YYYX:,30.0
825077,D80AF279-4B37FA42-043-1E7BCE,12/27/2009 04:22:26 PM,,Sale,,,,,4266...2723,12/2011,Y:06798B0611871206:YYYX:,60.0
825077,D80AF279-4B37C873-405-1E7BCE,12/27/2009 12:49:55 PM,,Sale,,,,,4427...7510,01/2010,Y:0649150611823394:NNNX:,30.0
825077,D80AF279-4B3633E6-165-1E6630,12/26/2009 08:03:50 AM,,Sale,,,,,4388...7642,09/2011,Y:00511C0611513030:YYYX:,60.0
825077,D80AF279-4B3624CD-303-1E6630,12/26/2009 06:59:25 AM,,Sale,,,,,3772...1007,09/2010,Y:1519700611502388:NNNX:,30.0
825077,D80AF279-4B352B22-890-1E5092,12/25/2009 01:14:10 PM,,Sale,,,,,4050...6032,11/2010,Y:3585510611384928:NNNX:,50.0
825077,D80AF279-4B3511FC-427-1E5092,12/25/2009 11:26:53 AM,,Sale,,,,,5403...7577,01/2010,Y:9143660611373147:YYYP:,170.0
825077,D80AF279-4B341F51-184-1E3AF4,12/24/2009 06:11:29 PM,,Sale,,,,,4843...6458,06/2011,Y:0377070611258050:YYYX:,30.0
825077,D80AF279-4B323FCF-494-1E2556,12/23/2009 08:05:36 AM,,Sale,,,,,6011...5985,06/2013,Y:0235730610742216:YYYS:,60.0
825077,D80AF279-4B3162AB-167-1E0FB8,12/22/2009 04:22:03 PM,,Sale,,,,,3713...1002,03/2012,Y:1909510610548618:YYYX:,60.0
825077,D80AF279-4B3112BD-124-1E0FB8,12/22/2009 10:41:01 AM,,Sale,,,,,3746...4296,07/2011,Y:3954050610415553:YYYX:,60.0
825077,D80AF279-4B305C9E-455-1E0FB8,12/21/2009 09:43:59 PM,,Sale,,,,,3772...1008,12/2013,Y:1861010610206836:YYYX:,50.0
825077,D80AF279-4B2FE65B-700-1DFA1A,12/21/2009 01:19:23 PM,,Sale,,,,,5466...6180,01/2010,Y:79380Z0610052245:YYYP:,60.0
825077,D80AF279-4B2FB65E-259-1DFA1A,12/21/2009 09:54:38 AM,,Sale,,,,,4266...7754,06/2011,Y:03161B0609940841:YYYX:,30.0
825077,D80AF279-4B2FA865-740-1DFA1A,12/21/2009 08:55:02 AM,,Sale,,,,,5424...1402,04/2010,Y:40445B0609906560:YYYP:,30.0
825077,D80AF279-4B2F9CAB-141-1DFA1A,12/21/2009 08:04:59 AM,,Sale,,,,,4266...1905,06/2010,Y:05008B0609874408:YNAX:,30.0
825077,D80AF279-4B2E90BE-360-1DE47C,12/20/2009 01:01:50 PM,,Sale,,,,,6011...2761,10/2014,Y:0201460609618076:YYYS:,60.0
825077,D80AF279-4B2E56B8-890-1DE47C,12/20/2009 08:54:17 AM,,Sale,,,,,4388...8734,01/2012,Y:02528C0609565298:YYYX:,30.0
825077,D80AF279-4B2A4E6C-997-1DA3A2,12/17/2009 07:29:49 AM,,Sale,,,,,3725...1005,12/2010,Y:1296610608395721:YYYX:,60.0
825077,D80AF279-4B29723C-352-1D8E04,12/16/2009 03:50:20 PM,,Sale,,,,,4266...8347,07/2011,Y:00608C0608179302:YYYX:,30.0
825077,D80AF279-4B297235-383-1D8E04,12/16/2009 03:50:13 PM,,Sale,,,,,3712...3005,04/2012,Y:1632440608179269:YYYX:,60.0
825077,D80AF279-4B2958F6-699-1D8E04,12/16/2009 02:02:30 PM,,Sale,,,,,4291...4889,01/2011,Y:3264070608137266:YYYX:,30.0
825077,D80AF279-4B29580E-603-1D8E04,12/16/2009 01:58:39 PM,,Sale,,,,,4291...4889,01/2011,Y:3263940608135626:YYYX:,50.0
825077,D80AF279-4B290C71-322-1D8E04,12/16/2009 08:36:01 AM,,Sale,,,,,3723...1006,09/2011,Y:1078700607975697:YYYX:,30.0
825077,D80AF279-4B2909ED-495-1D8E04,12/16/2009 08:25:18 AM,,Sale,,,,,3712...1007,06/2011,Y:1492640607969867:YYYX:,60.0
825077,D80AF279-4B28ECA9-653-1D8E04,12/16/2009 06:20:26 AM,,Sale,,,,,3772...1006,03/2010,Y:1983310607905917:YYYX:,60.0
825077,D80AF279-4B285215-142-1D7866,12/15/2009 07:20:53 PM,,Sale,,,,,4888...1115,07/2010,Y:02509A0607769274:YYYX:,60.0
825077,D80AF279-4B284D90-756-1D7866,12/15/2009 07:01:37 PM,,Sale,,,,,5178...7498,07/2012,Y:04074B0607763773:YYYP:,60.0
825077,D80AF279-4B28438C-706-1D7866,12/15/2009 06:18:52 PM,,Sale,,,,,3713...1006,10/2013,Y:1569110607750003:YYYX:,50.0
825077,D80AF279-4B2824B1-613-1D7866,12/15/2009 04:07:14 PM,,Sale,,,,,4843...0227,11/2010,Y:0206320607700903:YYYX:,120.0
825077,D80AF279-4B281F9E-255-1D7866,12/15/2009 03:45:34 PM,,Sale,,,,,5424...8175,06/2012,Y:51644B0607692246:YYYP:,60.0
825077,D80AF279-4B2807E8-798-1D7866,12/15/2009 02:04:25 PM,,Sale,,,,,3712...1007,06/2011,N:Declined:YYYX,60.0
825077,D80AF279-4B27C74F-047-1D7866,12/15/2009 09:28:47 AM,,Sale,,,,,3725...2018,08/2012,Y:1045100607486066:YYYX:,30.0
825077,D80AF279-4B258B03-555-1D4D2A,12/13/2009 04:47:00 PM,,Sale,,,,,3713...1003,12/2013,Y:1061480606681840:YYYX:,30.0
825077,D80AF279-4B251C18-644-1D4D2A,12/13/2009 08:53:44 AM,,Sale,,,,,4867...7651,01/2012,Y:0453110606555434:YYYX:,70.0
825077,D80AF279-4B23B114-828-1D378C,12/12/2009 07:04:53 AM,,Sale,,,,,4640...0099,08/2012,Y:03610C0606230087:NNNX:,60.0
825077,D80AF279-4B22A250-756-1D21EE,12/11/2009 11:49:36 AM,,Sale,,,,,6011...4379,06/2013,Y:0112490605933415:YYYS:,30.0
825077,D80AF279-4B22870E-145-1D21EE,12/11/2009 09:53:18 AM,,Sale,,,,,4060...7904,11/2012,Y:0853120605872873:YYYX:,60.0
825077,D80AF279-4B2280F1-537-1D21EE,12/11/2009 09:27:14 AM,,Sale,,,,,4388...6603,04/2010,Y:01429C0605859238:YYYX:,120.0
825077,D80AF279-4B2161AC-964-1D0C50,12/10/2009 01:01:33 PM,,Sale,,,,,3725...1002,06/2010,Y:1195880605483857:NYZX:,30.0
825077,D80AF279-4B201F80-444-1CF6B2,12/09/2009 02:06:57 PM,,Sale,,,,,6011...6326,09/2014,Y:0095670605029674:YYYS:,110.0
825077,D80AF279-4B1EF821-223-1CE114,12/08/2009 05:06:41 PM,,Sale,,,,,4266...6718,04/2010,Y:09243B0604626618:YYYX:,60.0
825077,D80AF279-4B1ED067-653-1CE114,12/08/2009 02:17:12 PM,,Sale,,,,,4312...9705,06/2012,Y:0136320604561124:YYYX:,60.0
825077,D80AF279-4B1DAE84-617-1CCB76,12/07/2009 05:40:21 PM,,Sale,,,,,5490...0127,08/2011,Y:04500Z0604144423:YYYP:,130.0
825077,D80AF279-4B1D9C7B-736-1CCB76,12/07/2009 04:23:24 PM,,Sale,,,,,5178...5167,12/2010,Y:09719Z0604117515:YYYP:,30.0
825077,D80AF279-4B1D79E2-294-1CCB76,12/07/2009 01:55:46 PM,,Sale,,,,,5452...0353,07/2011,Y:05552S0604052024:YYYP:,30.0
825077,D80AF279-4B1C8F40-601-1CCB76,12/06/2009 09:14:41 PM,,Sale,,,,,6011...6564,10/2014,Y:0075900603697609:YYYS:,60.0
825077,11623,12/06/2009 04:44:13 PM,,Sale,,,,,5466...1154,06/2012,N:Declined:NNNP,50.0
825077,11622,12/06/2009 06:01:39 AM,,Sale,,,,,5466...1788,06/2010,N:Declined:NNNP,50.0
825077,11621,12/06/2009 02:09:58 AM,,Sale,,,,,5466...1382,06/2010,Y:57004P0603415010:NNNP:,50.0
825077,11620,12/06/2009 02:08:35 AM,,Sale,,,,,4537...7078,09/2010,N:Declined:XXGN,50.0
825077,D80AF279-4B1B2CB9-583-1CA03A,12/05/2009 08:02:02 PM,,Sale,,,,,3723...2009,06/2011,Y:1111060603366236:YYYX:,30.0
825077,D80AF279-4B1A74D9-478-1CA03A,12/05/2009 06:57:29 AM,,Sale,,,,,5466...1585,09/2010,Y:76636Z0603146198:YYYP:,120.0
825077,D80AF279-4B1891D3-372-1C74FE,12/03/2009 08:36:35 PM,,Sale,,,,,4640...3887,07/2011,Y:09072B0602533299:YYYX:,60.0
825077,D80AF279-4B1882CC-911-1C74FE,12/03/2009 07:32:29 PM,,Sale,,,,,4060...9865,05/2011,Y:0283800602520428:NYZX:,60.0
825077,D80AF279-4B10A36B-797-1BF34A,11/27/2009 08:13:32 PM,,Sale,,,,,3712...2004,05/2013,Y:1571100599655132:YYYX:,50.0
825077,D80AF279-4B018EE1-295-1B0580,11/16/2009 09:41:53 AM,,Sale,,,,,3772...1014,04/2011,NFRAUD,50.0
825077,D80AF279-4B018E77-446-1B0580,11/16/2009 09:40:08 AM,,Sale,,,,,3772...1014,04/2011,Y:1602420595178453:YYYX:,50.0
825077,D80AF279-4B00A46E-437-1AEFE2,11/15/2009 05:01:34 PM,,Sale,,,,,4147...0485,06/2012,Y:00518D0594904802:YYYX:,50.0
825077,D80AF279-4AFF0A5E-493-1ADA44,11/14/2009 11:51:59 AM,,Sale,,,,,4307...5109,08/2011,Y:0550700594548126:YYYX:,1500.0
825077,D80AF279-4A3D4D91-127-E708A,10/28/2009 10:31:33 AM,825077,Return,,,,,5466...1472,07/2010,Y:61296Z0587771907:YYYP:,60.0
825077,D80AF279-4AE1B3BC-189-18FEB0,10/23/2009 06:46:36 AM,,Sale,,,,,6011...8022,08/2014,Y:0234360585824846:YYYS:,50.0
825077,D80AF279-4ABED93F-191-16B706,09/26/2009 08:17:19 PM,,Sale,,,,,4388...8842,06/2010,Y:01593C0574819903:YYYX:,40.0
825077,D80AF279-4ABE47A3-776-16B706,09/26/2009 09:56:04 AM,,Sale,,,,,4266...8632,08/2012,Y:08134B0574649667:YYYX:,250.0
825077,D80AF279-4ABD4923-682-16A168,09/25/2009 03:50:12 PM,,Sale,,,,,4613...0369,12/2011,Y:0032610574426201:YYYX:,25.0
825077,D80AF279-4AB3C349-728-160A16,09/18/2009 10:28:41 AM,,Sale,,,,,4264...7030,01/2012,Y:02582A0571457164:YYYX:,500.0
825077,D80AF279-4A36CED6-902-E0474,09/12/2009 09:08:11 PM,825077,Return,,,,100653060041,5401...6991,01/2012,Y:0569064376:    :100653060041:,110.0
825077,D80AF279-4AA316B1-120-14F110,09/05/2009 06:56:01 PM,,Sale,,,,,4063...0900,06/2011,Y:5881640566195683:YYYX:,50.0
825077,D80AF279-4AA2D591-723-14F110,09/05/2009 02:18:10 PM,,Sale,,,,,4266...4794,10/2009,Y:04304C0566108362:YYYX:,50.0
825077,11614,09/03/2009 10:21:27 AM,825077,Return,,,,100652654519,5418...0149,09/2011,Y:0565184764:    :100652654519:,50.0
825077,D80AF279-4A9F487F-557-14C5D4,09/02/2009 09:39:27 PM,,Sale,,,,,4313...6770,02/2011,Y:03598C0564983861:YYYX:,250.0
825077,D80AF279-4A9F43F7-379-14C5D4,09/02/2009 09:20:07 PM,,Sale,,,,,4190...8008,07/2012,Y:32200C0564980982:YYYX:,250.0
825077,D80AF279-4A9F23FB-277-14B036,09/02/2009 07:03:39 PM,,Sale,,,,,3717...1002,05/2010,Y:1296390564951875:YYYX:,500.0

VisaTotal,4485.0
MasterCardTotal,1050.0
DiscoverTotal,370.0
AmexTotal,1360.0
Total,7265.0,96 orders
