Store ID,Order #,Date,User ID,Type,PayerAuth,Invoice #,PO #,Trans ID,Card/Route Number,Exp. Date,Approval,Amount
825077,D80AF279-4ABED93F-191-16B706,9/26/2009 20:17,,Sale,,,,,4388...8842,Jun-10,Y:01593C0574819903:YYYX:,40
825077,D80AF279-4ABE47A3-776-16B706,9/26/2009 9:56,,Sale,,,,,4266...8632,Aug-12,Y:08134B0574649667:YYYX:,250
825077,D80AF279-4ABD4923-682-16A168,9/25/2009 15:50,,Sale,,,,,4613...0369,Dec-11,Y:0032610574426201:YYYX:,25
825077,D80AF279-4AB3C349-728-160A16,9/18/2009 10:28,,Sale,,,,,4264...7030,Jan-12,Y:02582A0571457164:YYYX:,500
825077,D80AF279-4A36CED6-902-E0474,9/12/2009 21:08,825077,Return,,,,1.00653E+11,5401...6991,Jan-12,Y:0569064376:    :100653060041:,110
825077,D80AF279-4AA316B1-120-14F110,9/5/2009 18:56,,Sale,,,,,4063...0900,Jun-11,Y:5881640566195683:YYYX:,50
825077,D80AF279-4AA2D591-723-14F110,9/5/2009 14:18,,Sale,,,,,4266...4794,Oct-09,Y:04304C0566108362:YYYX:,50
825077,11614,9/3/2009 10:21,825077,Return,,,,1.00653E+11,5418...0149,Sep-11,Y:0565184764:    :100652654519:,50
825077,D80AF279-4A9F487F-557-14C5D4,9/2/2009 21:39,,Sale,,,,,4313...6770,Feb-11,Y:03598C0564983861:YYYX:,250
825077,D80AF279-4A9F43F7-379-14C5D4,9/2/2009 21:20,,Sale,,,,,4190...8008,Jul-12,Y:32200C0564980982:YYYX:,250
825077,D80AF279-4A9F23FB-277-14B036,9/2/2009 19:03,,Sale,,,,,3717...1002,May-10,Y:1296390564951875:YYYX:,500
825077,11619,8/26/2009 15:49,,Sale,,,,,3713...1011,Dec-09,Y:2433160561675496:YYYP:,100
825077,11618,8/26/2009 10:27,,Sale,,,,,4003...1756,Nov-12,Y:02022B0561532768:YYYX:,50
825077,D80AF279-4A909420-655-13C26C,8/22/2009 17:58,,Sale,,,,,6011...8886,May-13,Y:0221520560005525:YYY :,40
825077,D80AF279-4A8CCC64-366-139730,8/19/2009 21:09,,Sale,,,,,5424...6175,Apr-10,Y:36350B0558808413:YYY :,100
825077,D80AF279-4A8C5DDE-223-138192,8/19/2009 13:17,,Sale,,,,,3712...3002,Jun-11,Y:1887340558649859:YYY :,50
825077,D80AF279-4A3E9BBE-718-E8628,8/19/2009 5:36,825077,Return,,,,4.00696E+11,4266...3601,May-12,Y:0558454196:    :400696013721:,120
825077,D80AF279-4A88AD66-135-1340B8,8/16/2009 18:07,,Sale,,,,,4843...6824,Jun-11,Y:0806880557355565:YYY :,50
825077,D80AF279-4A8797EC-931-1340B8,8/15/2009 22:23,,Sale,,,,,4388...8842,Jun-10,Y:00725C0557068530:YYY :,10
825077,11617,8/15/2009 11:23,,Sale,,,,,4313...2783,Feb-12,Y:02535C0556871166:YYYX:,350
825077,11616,8/15/2009 9:22,,Sale,,,,,5424...6417,Feb-10,Y:44303B0556836541:YYYM:,50
825077,11615,8/14/2009 11:28,,Sale,,,,,5418...0149,Sep-11,Y:05271Z0556464457:YYYP:,50
825077,11614,8/7/2009 11:51,,Sale,,,,4.00694E+11,5418...0149,Sep-11,Y:04794Z0553444770:YYYP:400693671405:,50
825077,11613,8/7/2009 9:40,,Sale,,,,4.00694E+11,4313...3718,Dec-11,Y:04507C0553382925:YYYX:400693628833:,200
825077,11612,8/7/2009 4:07,,Sale,,,,4.00694E+11,4147...5596,Apr-12,Y:01541C0553271548:YYYM:400693550195:,125
825077,11611,8/3/2009 13:39,,Sale,,,,4.00692E+11,4326...7558,Feb-11,Y:1933990551613803:NNNX:400692469940:,50
825077,11610,8/1/2009 21:43,,Sale,,,,4.00692E+11,4147...4232,Oct-09,Y:0453120550916680:YYYX:400692012400:,50
825077,D80AF279-4A72FA34-136-11E6D8,7/31/2009 7:05,,Sale,,,,4.00691E+11,5466...8022,Dec-12,Y:56405Z0549970920:YYYP:400691339163:,10
825077,D80AF279-4A37338D-820-E1A12,7/30/2009 11:03,825077,Return,,,,4.00691E+11,4266...3612,May-11,Y:0549614235:    :400691101225:,60
825077,D80AF279-4A71912E-922-11D13A,7/30/2009 5:25,,Sale,,,,4.00691E+11,5410...6011,Mar-11,Y:04260B0549482773:YYYP:400691008291:,70
825077,11609,7/29/2009 14:08,,Sale,,,,4.00691E+11,5121...9102,Apr-12,Y:02979B0549260296:YYYP:400690866430:,25
825077,11608,7/28/2009 19:27,,Sale,,,,4.00691E+11,4404...5281,Jul-10,Y:0055110548925566:YYYX:400690630908:,50
825077,11607,7/25/2009 14:02,,Sale,,,,4.0069E+11,3713...1018,Jul-11,Y:2521270547525516:YYYP:400689775160:,50
825077,D80AF279-4A37F9E3-458-E1A12,7/24/2009 13:52,825077,Return,,,,4.0069E+11,5466...6803,Sep-12,Y:0547171140:    :400689562805:,120
825077,11606,7/24/2009 7:19,,Sale,,,,4.00689E+11,4266...5581,Mar-10,Y:07305B0546968591:YYYX:400689421085:,25
825077,D80AF279-4A67A96B-809-11244A,7/22/2009 17:06,,Sale,,,,4.00689E+11,4888...3899,May-10,Y:00552B0546314906:YYYX:400688990255:,10
825077,11605,7/16/2009 6:16,,Sale,,,,1.00652E+11,4640...0171,Oct-10,Y:09273B0543434405:YYYX:100651578868:,50
825077,11604,7/15/2009 17:26,,Sale,,,,1.00651E+11,3715...2000,Mar-12,Y:1241010543263748:YYYX:100651460176:,50
825077,11603,7/15/2009 7:45,,Sale,,,,1.00651E+11,4291...4144,Oct-10,Y:6345410542989902:YYYX:100651274569:,50
825077,D80AF279-4A5D305E-292-10775A,7/14/2009 18:26,,Sale,,,,1.00651E+11,4147...6613,Jul-11,Y:09652C0542792744:YYYX:100651131963:,70
825077,D80AF279-4A3E72AB-632-E8628,7/11/2009 19:30,825077,Return,,,,1.0065E+11,5466...9858,Sep-10,Y:0541519137:    :100650317551:,80
825077,11602,7/10/2009 18:18,,Sale,,,,1.0065E+11,4867...4753,Oct-11,Y:0618210541165549:YYYX:100650114017:,10
825077,11601,7/10/2009 6:17,,Sale,,,,1.0065E+11,3725...3015,Jan-12,Y:1238840540846597:YYYX:100649903818:,50
825077,D80AF279-4A56B7F9-180-100B44,7/9/2009 20:39,,Sale,,,,1.0065E+11,5466...2542,Feb-12,N:Declined:YYYP,60
825077,D80AF279-4A56724B-521-100B44,7/9/2009 15:42,,Sale,,,,1.0065E+11,5466...2542,Feb-12,N:Declined:YYYP,60
825077,D80AF279-4A556819-828-FF5A6,7/8/2009 20:46,,Sale,,,,1.00649E+11,4820...1397,Feb-10,Y:00845A0540238327:YYYX:100649471816:,60
825077,D80AF279-4A5556EF-249-FF5A6,7/8/2009 19:33,,Sale,,,,1.00649E+11,5183...4591,Jan-10,Y:09587Z0540219736:YYYP:100649459373:,60
825077,D80AF279-4A55545E-095-FF5A6,7/8/2009 19:22,,Sale,,,,1.00649E+11,3713...1004,Apr-12,Y:1848250540216636:YYYX:100649457428:,80
825077,D80AF279-4A554F25-710-FF5A6,7/8/2009 19:00,,Sale,,,,1.00649E+11,5424...2887,Jan-13,Y:24938B0540208418:YYYP:100649452044:,60
825077,D80AF279-4A54B8B2-772-FF5A6,7/8/2009 8:18,,Sale,,,,1.00649E+11,4147...3714,Nov-11,Y:04359C0539899319:YYYX:100649245567:,10
825077,D80AF279-4A5404C0-448-FE008,7/7/2009 19:30,,Sale,,,,,5466...5266,Feb-11,NFRAUD,80
825077,D80AF279-4A540496-993-FE008,7/7/2009 19:29,,Sale,,,,1.00649E+11,5466...5266,Feb-11,Y:95356P0539680555:YYYP:100649075490:,80
825077,D80AF279-4A52B164-026-FCA6A,7/6/2009 19:22,,Sale,,,,1.00649E+11,5466...0126,Aug-12,Y:88734Z0539212138:YYYP:100648763160:,50
825077,11600,7/6/2009 11:55,,Sale,,,,1.00649E+11,6011...3757,May-13,Y:0068640539013304:YYYS:100648653602:,50
825077,11599,7/6/2009 11:51,,Sale,,,,1.00649E+11,6011...6953,May-13,N:Declined:XXRP,50
825077,D80AF279-4A52074C-415-FCA6A,7/6/2009 7:16,,Sale,,,,1.00649E+11,4417...2709,Feb-12,Y:09372C0538873758:YYYX:100648558190:,60
825077,D80AF279-4A5175DA-033-FB4CC,7/5/2009 20:56,,Sale,,,,1.00648E+11,3723...1015,Apr-11,Y:1224240538749564:YYYX:100648473313:,30
825077,D80AF279-4A3C17EA-139-E5AEC,7/5/2009 19:48,825077,Return,,,,1.00648E+11,5466...6229,Jun-12,Y:0538738178:    :100648467846:,60
825077,D80AF279-4A4D49A0-616-F73F2,7/2/2009 16:58,,Sale,,,,1.00648E+11,5466...6466,Jan-11,Y:14641Z0537814428:YYYP:100647962605:,30
825077,D80AF279-4A4D48FF-139-F73F2,7/2/2009 16:55,,Sale,,,,1.00648E+11,5466...6466,Jan-11,Y:52220Z0537813531:YYYP:100647962169:,20
825077,D80AF279-4A4D0D74-205-F73F2,7/2/2009 12:41,,Sale,,,,1.00648E+11,5424...5749,Nov-11,Y:60733B0537699422:YYYP:100647896150:,60
825077,D80AF279-4A4CE334-226-F73F2,7/2/2009 9:41,,Sale,,,,1.00648E+11,4266...3144,Jul-12,Y:03757A0537611011:YYYX:100647833294:,60
825077,D80AF279-4A4BFADB-093-F5E54,7/1/2009 17:10,,Sale,,,,1.00648E+11,5413...5864,Sep-09,Y:0059320537358187:YYYP:100647657247:,100
825077,D80AF279-4A4AD291-336-F48B6,6/30/2009 20:05,,Sale,,,,1.00647E+11,4147...3586,Feb-11,Y:45643C0536708640:YYYX:100647128535:,60
825077,D80AF279-4A4AC84E-452-F48B6,6/30/2009 19:22,,Sale,,,,1.00647E+11,6011...9751,Nov-14,Y:0308220536696541:YYYS:100647116701:,60
825077,D80AF279-4A4AB439-397-F48B6,6/30/2009 17:56,,Sale,,,,1.00647E+11,4843...9925,Jun-11,Y:0345390536661109:YYYX:100647081805:,60
825077,11598,6/30/2009 15:04,,Sale,,,,1.00647E+11,3713...5006,Oct-11,Y:1949500536584715:YYYX:100647006678:,50
825077,D80AF279-4A4A75E8-236-F48B6,6/30/2009 13:30,,Sale,,,,1.00647E+11,5491...0479,Oct-10,Y:19065B0536535773:YYYP:100646958721:,120
825077,11597,6/30/2009 13:17,,Sale,,,,1.00647E+11,5401...1354,Mar-11,Y:02426Z0536528089:YYYP:100646951220:,50
825077,D80AF279-4A377E53-403-E1A12,6/30/2009 9:25,825077,Return,,,,1.00647E+11,4266...8832,Sep-10,Y:0536405748:    :100646831452:,80
825077,D80AF279-4A4A1CAB-751-F48B6,6/30/2009 7:09,,Sale,,,,1.00647E+11,6011...4561,Aug-13,Y:0307920536343853:YYYS:100646770555:,50
825077,D80AF279-4A4A1019-685-F48B6,6/30/2009 6:16,,Sale,,,,1.00647E+11,5523...5052,Sep-10,Y:2115420536324788:YYYP:100646751827:,90
825077,11596,6/30/2009 6:10,,Sale,,,,1.00647E+11,5490...6859,Feb-12,Y:01509Z0536322944:YYYP:100646750005:,250
825077,D80AF279-4A4A0B96-298-F48B6,6/30/2009 5:56,,Sale,,,,1.00647E+11,3713...1014,Oct-11,Y:1710550536317888:YYYX:100646745067:,60
825077,D80AF279-4A49A1FE-898-F48B6,6/29/2009 22:26,,Sale,,,,1.00647E+11,5466...1368,Jul-11,Y:03148Z0536227436:YYYP:100646658287:,60
825077,D80AF279-4A497060-468-F3318,6/29/2009 18:54,,Sale,,,,1.00647E+11,3715...2005,May-15,Y:1827670536177607:YYYX:100646609770:,70
825077,D80AF279-4A494CBD-942-F3318,6/29/2009 16:22,,Sale,,,,1.00647E+11,5491...0479,Oct-10,Y:65026B0536118968:YYYP:100646552209:,90
825077,D80AF279-4A4946DF-228-F3318,6/29/2009 15:57,,Sale,,,,1.00647E+11,5491...0479,Oct-10,Y:41655B0536107678:YYYP:100646541121:,30
825077,D80AF279-4A4939B9-302-F3318,6/29/2009 15:01,,Sale,,,,1.00647E+11,3725...1018,May-12,Y:1355840536081261:YYYX:100646515104:,50
825077,D80AF279-4A491070-948-F3318,6/29/2009 12:05,,Sale,,,,1.00646E+11,4888...2088,Jun-12,Y:00557B0535990746:YYYX:100646426232:,50
825077,D80AF279-4A490E57-265-F3318,6/29/2009 11:56,,Sale,,,,1.00646E+11,4888...2088,Jun-12,Y:05562B0535985806:YYYX:100646421389:,30
825077,D80AF279-4A490BF4-635-F3318,6/29/2009 11:46,,Sale,,,,1.00646E+11,4060...2756,Jan-11,Y:0568370535980767:YYYX:100646416430:,80
825077,D80AF279-4A48DD08-265-F3318,6/29/2009 8:26,,Sale,,,,1.00646E+11,5369...7704,Jan-12,Y:08051B0535883129:YYYP:100646320669:,60
825077,D80AF279-4A483002-393-F1D7A,6/28/2009 20:07,,Sale,,,,1.00646E+11,5466...3553,Feb-11,Y:41965Z0535731524:YYYP:100646176450:,140
825077,11595,6/28/2009 17:19,,Sale,,,,1.00646E+11,5410...6418,Jan-10,Y:55819B0535678462:YYYP:100646124308:,100
825077,D80AF279-4A47CA8C-448-F1D7A,6/28/2009 12:54,,Sale,,,,1.00646E+11,4636...9882,Jan-11,Y:03618C0535583156:YYYX:100646029885:,120
825077,D80AF279-4A478FEF-342-F1D7A,6/28/2009 8:44,,Sale,,,,1.00646E+11,6011...8813,Apr-13,Y:0286180535516412:YYYS:100645963762:,100
825077,D80AF279-4A46B150-056-F07DC,6/27/2009 16:54,,Sale,,,,1.00646E+11,4388...1482,Mar-10,Y:03714C0535337593:YYYX:100645789560:,60
825077,D80AF279-4A466C91-807-F07DC,6/27/2009 12:01,,Sale,,,,1.00646E+11,4843...7158,Jun-11,Y:0154520535243983:YYYX:100645696731:,160
825077,D80AF279-4A4640E0-599-F07DC,6/27/2009 8:55,,Sale,,,,1.00646E+11,4266...3206,Aug-10,Y:05412B0535188670:YYYX:100645642092:,10
825077,D80AF279-4A45994B-260-F07DC,6/26/2009 21:00,,Sale,,,,1.00646E+11,5451...7661,Apr-12,Y:T004910535072997:YYYP:100645530053:,50
825077,D80AF279-4A45983A-296-EF23E,6/26/2009 20:55,,Sale,,,,1.00646E+11,5451...7661,Apr-12,Y:T091620535072333:YYYP:100645529402:,10
825077,11594,6/26/2009 13:38,,Sale,,,,1.00645E+11,3713...2004,Apr-11,Y:1476490534916093:YYYX:100645375312:,101
825077,D80AF279-4A44FB02-309-EF23E,6/26/2009 9:44,,Sale,,,,1.00645E+11,4411...0972,Feb-11,Y:0144120534807578:YYYX:100645268561:,60
825077,D80AF279-4A44E85C-172-EF23E,6/26/2009 8:25,,Sale,,,,1.00645E+11,3772...1000,Feb-12,Y:1515750534771175:YYYX:100645232604:,100
825077,11593,6/26/2009 7:21,,Sale,,,,1.00645E+11,4636...3457,Feb-11,Y:03764C0534743666:YYYX:100645205460:,50
825077,D80AF279-4A443F42-211-EDCA0,6/25/2009 20:23,,Sale,,,,1.00645E+11,5466...2930,Sep-12,Y:96751P0534614669:YYYP:100645080747:,100
825077,D80AF279-4A443E88-788-EDCA0,6/25/2009 20:20,,Sale,,,,1.00645E+11,4266...6148,Oct-11,Y:01238B0534614069:YYYX:100645080150:,60
825077,D80AF279-4A442FF5-729-EDCA0,6/25/2009 19:18,,Sale,,,,1.00645E+11,4306...9135,Jul-11,Y:0259170534600582:YYYX:100645066989:,60
825077,D80AF279-4A442806-191-EDCA0,6/25/2009 18:44,,Sale,,,,1.00645E+11,4388...9155,Sep-09,Y:03180C0534591150:YYYX:100645057726:,120
825077,D80AF279-4A43C7F3-555-EDCA0,6/25/2009 11:54,,Sale,,,,1.00645E+11,4264...7946,May-12,Y:05540B0534433897:YYYX:100644903340:,140
825077,D80AF279-4A43BDCF-979-EDCA0,6/25/2009 11:11,,Sale,,,,1.00645E+11,3767...2014,Jul-12,Y:1557050534414623:YYYX:100644884463:,60
825077,D80AF279-4A43B85B-135-EDCA0,6/25/2009 10:48,,Sale,,,,1.00645E+11,5424...7604,Feb-11,Y:17012B0534404643:YYYP:100644874678:,190
825077,D80AF279-4A43A070-011-EDCA0,6/25/2009 9:06,,Sale,,,,1.00645E+11,5401...5697,Jan-10,Y:00560Z0534359740:YYYP:100644830404:,100
825077,D80AF279-4A439788-892-EDCA0,6/25/2009 8:28,,Sale,,,,1.00645E+11,4417...4332,Jun-11,Y:04293A0534343025:YYYX:100644813966:,60
825077,D80AF279-4A43901B-914-EDCA0,6/25/2009 7:56,,Sale,,,,1.00645E+11,4559...2150,Jul-09,Y:08859A0534329597:YYYX:100644800808:,100
825077,D80AF279-4A438D3C-974-EDCA0,6/25/2009 7:44,,Sale,,,,1.00645E+11,5466...8939,Jul-11,Y:37378P0534324138:YYYP:100644795424:,60
825077,D80AF279-4A438312-940-EDCA0,6/25/2009 7:00,,Sale,,,,1.00645E+11,6011...7439,Mar-13,Y:0256940534307434:YYYS:100644779016:,80
825077,D80AF279-4A4307FA-047-EDCA0,6/24/2009 22:15,,Sale,,,,1.00645E+11,4147...1755,May-12,Y:06143C0534209935:YYYX:100644685615:,150
825077,D80AF279-4A430397-319-EDCA0,6/24/2009 21:56,,Sale,,,,1.00645E+11,5140...9675,Dec-10,Y:09678B0534205501:YYYP:100644681354:,100
825077,D80AF279-4A42EBA2-151-EC702,6/24/2009 20:14,,Sale,,,,1.00645E+11,4266...5551,Dec-11,Y:03278A0534189168:YYYX:100644665672:,80
825077,D80AF279-4A42DDD3-407-EC702,6/24/2009 19:15,,Sale,,,,1.00645E+11,5466...4675,May-11,Y:81376Z0534174818:YYYP:100644651680:,180
825077,D80AF279-4A42DCA4-314-EC702,6/24/2009 19:10,,Sale,,,,1.00645E+11,6011...3886,Jul-13,Y:0244580534173271:YYYS:100644650154:,60
825077,D80AF279-4A42CDDC-060-EC702,6/24/2009 18:07,,Sale,,,,1.00645E+11,3723...1008,Sep-11,Y:1347000534151532:YYYX:100644628775:,100
825077,D80AF279-4A42C9AF-896-EC702,6/24/2009 17:49,,Sale,,,,1.00645E+11,6011...7582,Jan-14,Y:0249830534145263:YYYS:100644622610:,60
825077,D80AF279-4A42C4CD-088-EC702,6/24/2009 17:29,,Sale,,,,1.00645E+11,5466...8239,Apr-11,Y:96918Z0534138494:YYYP:100644615968:,60
825077,D80AF279-4A42C2D0-077-EC702,6/24/2009 17:20,,Sale,,,,1.00645E+11,5401...7006,Dec-10,Y:00987B0534136248:YYYP:100644613752:,150
825077,D80AF279-4A42B939-791-EC702,6/24/2009 16:39,,Sale,,,,1.00645E+11,4313...9532,Nov-11,Y:03598C0534123169:YYYX:100644600920:,60
825077,D80AF279-4A426361-066-EC702,6/24/2009 10:33,,Sale,,,,1.00644E+11,4623...0779,Sep-10,Y:21423B0533969403:YYYX:100644449932:,120
825077,D80AF279-4A424D91-698-EC702,6/24/2009 9:00,,Sale,,,,1.00644E+11,4117...1398,Nov-12,Y:1105080533930001:YYYX:100644411207:,80
825077,D80AF279-4A424296-459-EC702,6/24/2009 8:13,,Sale,,,,1.00644E+11,4387...2820,Aug-09,Y:0244050533910126:YYYX:100644391662:,60
825077,D80AF279-4A42400A-176-EC702,6/24/2009 8:02,,Sale,,,,1.00644E+11,4888...6600,Oct-09,N:Declined:YYYX,80
825077,11592,6/24/2009 7:42,,Sale,,,,1.00644E+11,4388...6342,May-10,Y:09020C0533897533:YYYX:100644379242:,50
825077,D80AF279-4A4238EC-258-EC702,6/24/2009 7:32,,Sale,,,,1.00644E+11,4264...9051,May-11,Y:03520B0533893029:YYYX:100644374838:,80
825077,D80AF279-4A4225E9-487-EC702,6/24/2009 6:11,,Sale,,,,1.00644E+11,5490...3326,Aug-11,Y:01512Z0533865228:YYYP:100644347507:,80
825077,D80AF279-4A421447-751-EC702,6/24/2009 4:55,,Sale,,,,1.00644E+11,4037...8205,Sep-11,Y:60425B0533850388:YYYX:100644332864:,80
825077,D80AF279-4A41F28A-282-EC702,6/24/2009 2:31,,Sale,,,,1.00644E+11,4744...5032,Jul-11,Y:1032190533832198:YYYX:100644314771:,60
825077,D80AF279-4A41C461-526-EC702,6/23/2009 23:14,,Sale,,,,1.00644E+11,5466...0724,Mar-10,Y:79655Z0533781094:YYYP:100644266773:,60
825077,D80AF279-4A41B324-214-EC702,6/23/2009 22:01,,Sale,,,,1.00644E+11,4313...6619,Dec-09,N:Declined:YYYX,80
825077,D80AF279-4A41AE07-524-EC702,6/23/2009 21:39,,Sale,,,,1.00644E+11,4313...6619,Dec-09,N:Declined:YYYX,80
825077,D80AF279-4A41AD12-340-EC702,6/23/2009 21:35,,Sale,,,,1.00644E+11,4313...6619,Dec-09,N:Declined:YYYX,80
825077,D80AF279-4A419981-594-EB164,6/23/2009 20:12,,Sale,,,,1.00644E+11,4313...6619,Dec-09,N:Declined:YYYX,80
825077,D80AF279-4A41964C-798-EB164,6/23/2009 19:58,,Sale,,,,1.00644E+11,4246...1384,Jun-12,Y:0464160533748363:YYYX:100644235285:,120
825077,D80AF279-4A4188DC-927-EB164,6/23/2009 19:01,,Sale,,,,1.00644E+11,4003...0405,Feb-12,Y:01801B0533732983:YYYX:100644220214:,180
825077,11591,6/23/2009 18:39,,Sale,,,,1.00644E+11,3715...2004,Jan-12,Y:2828470533725252:NNNP:100644212607:,100
825077,D80AF279-4A41813A-721-EB164,6/23/2009 18:28,,Sale,,,,1.00644E+11,5466...4469,Mar-11,Y:62931Z0533720920:YYYP:100644208359:,60
825077,D80AF279-4A414109-667-EB164,6/23/2009 13:54,,Sale,,,,1.00644E+11,4313...6619,Dec-09,N:Declined:YYYX,80
825077,D80AF279-4A413E09-572-EB164,6/23/2009 13:41,,Sale,,,,1.00644E+11,6011...5300,Sep-13,Y:0233970533609087:YYYS:100644098390:,60
825077,D80AF279-4A411766-672-EB164,6/23/2009 10:56,,Sale,,,,1.00644E+11,5417...5996,Aug-09,Y:09671Z0533528334:YYYP:100644019131:,70
825077,D80AF279-4A4108BC-138-EB164,6/23/2009 9:54,,Sale,,,,1.00644E+11,5401...4197,Feb-11,Y:02630B0533501335:YYYP:100643992523:,60
825077,D80AF279-4A40F815-709-EB164,6/23/2009 8:43,,Sale,,,,1.00644E+11,5466...8784,Jun-10,Y:75576Z0533471796:YYYP:100643963550:,70
825077,D80AF279-4A40E96F-937-EB164,6/23/2009 7:40,,Sale,,,,1.00644E+11,3725...3005,Jul-11,Y:1405100533444489:YYYX:100643936586:,70
825077,D80AF279-4A40CCFA-679-EB164,6/23/2009 5:39,,Sale,,,,1.00644E+11,5466...5538,Sep-10,Y:54111Z0533405306:YYYP:100643898061:,70
825077,D80AF279-4A40BE09-894-EB164,6/23/2009 4:35,,Sale,,,,1.00644E+11,3772...2006,Oct-09,Y:1808540533395026:YYYX:100643887897:,60
825077,D80AF279-4A4059C0-546-EB164,6/22/2009 21:27,,Sale,,,,1.00644E+11,5524...5204,Apr-11,Y:02366S0533315058:YYYP:100643811508:,240
825077,D80AF279-4A404D79-654-E9BC6,6/22/2009 20:35,,Sale,,,,1.00644E+11,4313...6473,Oct-11,Y:03554C0533303565:YYYX:100643800217:,70
825077,D80AF279-4A4041A1-534-E9BC6,6/22/2009 19:44,,Sale,,,,1.00644E+11,4313...0153,Jan-12,Y:04541C0533291765:YYYX:100643788654:,110
825077,D80AF279-4A403B82-373-E9BC6,6/22/2009 19:18,,Sale,,,,1.00644E+11,6011...2959,Apr-14,Y:0225300533283363:YYYS:100643780364:,60
825077,D80AF279-4A401325-660-E9BC6,6/22/2009 16:26,,Sale,,,,1.00644E+11,5452...8377,May-11,Y:0256740533219971:YYYP:100643717947:,60
825077,D80AF279-4A40110D-342-E9BC6,6/22/2009 16:17,,Sale,,,,1.00644E+11,4037...7491,Feb-11,Y:81227A0533216111:YYYX:100643714139:,60
825077,D80AF279-4A400EF4-233-E9BC6,6/22/2009 16:08,,Sale,,,,1.00644E+11,4117...9017,Feb-12,Y:1102890533212291:YYYX:100643710378:,70
825077,D80AF279-4A400013-700-E9BC6,6/22/2009 15:05,,Sale,,,,1.00644E+11,5401...7892,May-11,Y:05247B0533182420:YYYP:100643680854:,70
825077,D80AF279-4A3FFAC6-806-E9BC6,6/22/2009 14:42,,Sale,,,,1.00644E+11,5466...4251,Mar-10,Y:69458P0533171578:YYYP:100643670119:,330
825077,D80AF279-4A36FDEC-773-E0474,6/22/2009 12:52,825077,Return,,,,1.00644E+11,4266...2689,May-10,Y:0533119722:    :100643619022:,70
825077,D80AF279-4A3FCD7E-565-E9BC6,6/22/2009 11:29,,Sale,,,,1.00644E+11,5466...2652,Jul-10,Y:01555Z0533075794:YYYP:100643575647:,150
825077,D80AF279-4A3FCA0E-991-E9BC6,6/22/2009 11:14,,Sale,,,,1.00644E+11,3723...1016,Oct-11,Y:1429920533067970:YYYX:100643567948:,100
825077,D80AF279-4A3FB5D3-271-E9BC6,6/22/2009 9:48,,Sale,,,,1.00644E+11,3712...2019,Jun-12,Y:1683820533019852:YYYX:100643520542:,120
825077,D80AF279-4A3FB09E-408-E9BC6,6/22/2009 9:26,,Sale,,,,1.00644E+11,6011...4083,May-13,Y:0224440533008540:YYYS:100643509394:,60
825077,D80AF279-4A3FA368-876-E9BC6,6/22/2009 8:29,,Sale,,,,1.00643E+11,4226...0323,Aug-11,Y:08348B0532981251:YYYX:100643482473:,60
825077,D80AF279-4A3F9998-238-E9BC6,6/22/2009 7:47,,Sale,,,,1.00643E+11,5407...5871,Feb-10,Y:02592Z0532962829:YYYP:100643464322:,60
825077,D80AF279-4A3F9375-678-E9BC6,6/22/2009 7:21,,Sale,,,,1.00643E+11,5424...9831,May-11,Y:83742B0532950510:YYYP:100643453224:,70
825077,D80AF279-4A36BBE4-757-E0474,6/22/2009 6:15,825077,Return,,,,1.00643E+11,3725...1017,Oct-10,Y:0532924500:    :100643428153:,80
825077,D80AF279-4A3F1666-993-E9BC6,6/21/2009 22:28,,Sale,,,,1.00643E+11,5466...1191,Apr-12,Y:04224Z0532838580:YYYP:100643346088:,60
825077,D80AF279-4A3F0C78-697-E9BC6,6/21/2009 21:45,,Sale,,,,1.00643E+11,5466...5995,Jul-09,Y:8385070532829947:YYYP:100643337743:,60
825077,D80AF279-4A3F0C28-284-E9BC6,6/21/2009 21:44,,Sale,,,,1.00643E+11,3723...1004,Jan-13,Y:1068940532829729:YYYX:100643337531:,100
825077,D80AF279-4A3F0192-831-E8628,6/21/2009 20:59,,Sale,,,,1.00643E+11,3723...1006,Feb-12,Y:1218130532819847:YYYX:100643327923:,100
825077,D80AF279-4A3EF1F3-580-E8628,6/21/2009 19:52,,Sale,,,,1.00643E+11,5424...8763,Aug-10,Y:08966B0532807466:YYYP:100643315852:,120
825077,D80AF279-4A3EEF81-827-E8628,6/21/2009 19:42,,Sale,,,,1.00643E+11,5424...8763,Aug-10,Y:69105B0532805116:YYYP:100643313548:,120
825077,D80AF279-4A3EED23-913-E8628,6/21/2009 19:32,,Sale,,,,1.00643E+11,3725...2005,Aug-12,Y:1431940532802779:YYYX:100643311265:,140
825077,D80AF279-4A3EEB05-265-E8628,6/21/2009 19:23,,Sale,,,,1.00643E+11,5120...8951,Oct-11,Y:82306B0532800597:NYZP:100643309141:,60
825077,D80AF279-4A3EE717-168-E8628,6/21/2009 19:06,,Sale,,,,1.00643E+11,5401...4106,Jul-11,Y:08471B0532795545:YYYP:100643304236:,60
825077,D80AF279-4A3EE41D-906-E8628,6/21/2009 18:53,,Sale,,,,1.00643E+11,4640...7548,Jul-11,Y:00032B0532791486:YYYX:100643300289:,100
825077,D80AF279-4A3EE119-949-E8628,6/21/2009 18:40,,Sale,,,,1.00643E+11,5401...4106,Jul-11,Y:01273B0532787553:YYYP:100643296467:,60
825077,D80AF279-4A3EDCD5-143-E8628,6/21/2009 18:22,,Sale,,,,1.00643E+11,4313...2783,Feb-12,Y:02526C0532782034:YYYX:100643291096:,370
825077,11590,6/21/2009 17:35,,Sale,,,,1.00643E+11,5401...2931,May-11,Y:05781T0532766567:YYYP:100643275907:,100
825077,D80AF279-4A3EBF5F-454-E8628,6/21/2009 16:16,,Sale,,,,1.00643E+11,3723...1004,Sep-10,Y:1648450532740511:YYYX:100643250277:,70
825077,D80AF279-4A3EAE3A-472-E8628,6/21/2009 15:03,,Sale,,,,1.00643E+11,4266...9251,Nov-11,Y:00172B0532717258:YYYX:100643227313:,60
825077,D80AF279-4A3E9BBE-718-E8628,6/21/2009 13:44,,Sale,,,,1.00643E+11,4266...3601,May-12,Y:03418B0532691859:YYYX:100643202166:,260
825077,D80AF279-4A3E9356-056-E8628,6/21/2009 13:08,,Sale,,,,1.00643E+11,4147...1251,Apr-12,Y:05642C0532681536:YYYX:100643191952:,60
825077,D80AF279-4A3E8A89-160-E8628,6/21/2009 12:31,,Sale,,,,1.00643E+11,4843...4213,Apr-11,Y:0625300532670725:YYYX:100643181243:,120
825077,D80AF279-4A3E7C11-551-E8628,6/21/2009 11:29,,Sale,,,,1.00643E+11,6011...1599,Jan-13,Y:0211730532653752:YYYS:100643164529:,120
825077,D80AF279-4A3E7B16-146-E8628,6/21/2009 11:25,,Sale,,,,1.00643E+11,5588...4808,Jan-12,Y:4653100532652732:YYYP:100643163521:,120
825077,D80AF279-4A3E78CF-510-E8628,6/21/2009 11:15,,Sale,,,,1.00643E+11,5409...4525,Jul-09,Y:8327300532650296:YYYP:100643161111:,200
825077,D80AF279-4A3E7404-288-E8628,6/21/2009 10:55,,Sale,,,,1.00643E+11,4037...3055,Oct-10,Y:21125B0532645211:YYYX:100643156088:,100
825077,D80AF279-4A3E73BA-593-E8628,6/21/2009 10:54,,Sale,,,,1.00643E+11,5466...9858,Sep-10,Y:29461Z0532644871:YYYP:100643155753:,80
825077,D80AF279-4A3E72AB-632-E8628,6/21/2009 10:49,,Sale,,,,1.00643E+11,5466...9858,Sep-10,Y:92730Z0532643692:YYYP:100643154591:,80
825077,D80AF279-4A3E6FC5-392-E8628,6/21/2009 10:37,,Sale,,,,1.00643E+11,3713...5004,Apr-12,Y:1511910532640299:YYYX:100643151237:,200
825077,D80AF279-4A3E5C3C-214-E8628,6/21/2009 9:13,,Sale,,,,1.00643E+11,5528...4107,Apr-10,Y:7922210532621062:YYYP:100643132328:,110
825077,D80AF279-4A3E581B-346-E8628,6/21/2009 8:56,,Sale,,,,1.00643E+11,5438...5424,Nov-10,Y:7825570532617671:YYYP:100643129002:,50
825077,D80AF279-4A3E578F-806-E8628,6/21/2009 8:53,,Sale,,,,1.00643E+11,5438...5424,Nov-10,Y:7822900532617237:YYYP:100643128571:,10
825077,D80AF279-4A3E52F3-105-E8628,6/21/2009 8:34,,Sale,,,,1.00643E+11,3715...1002,Oct-09,Y:1866290532612955:YYYX:100643124357:,70
825077,D80AF279-4A3E4C53-440-E8628,6/21/2009 8:05,,Sale,,,,1.00643E+11,3725...1017,Oct-12,Y:1752330532607744:YYYX:100643119219:,80
825077,D80AF279-4A3E3587-040-E8628,6/21/2009 6:28,,Sale,,,,1.00643E+11,4388...3958,Jan-12,Y:05207D0532573028:YYYX:100643087396:,120
825077,D80AF279-4A3DB2D1-142-E8628,6/20/2009 21:10,,Sale,,,,1.00643E+11,3713...1009,Jul-12,Y:1628860532532029:YYYX:100643047048:,60
825077,D80AF279-4A3DA84B-706-E708A,6/20/2009 20:26,,Sale,,,,1.00643E+11,4094...4003,Jan-11,Y:0020620532522971:YYYX:100643038063:,60
825077,D80AF279-4A3DA569-467-E708A,6/20/2009 20:13,,Sale,,,,,3715...3000,Jan-12,NFRAUD,70
825077,D80AF279-4A3DA567-395-E708A,6/20/2009 20:13,,Sale,,,,1.00643E+11,3715...3000,Jan-12,Y:1270890532520454:YYYX:100643035573:,70
825077,D80AF279-4A3DA507-869-E708A,6/20/2009 20:12,,Sale,,,,1.00643E+11,5369...9181,Jan-11,Y:06248P0532520131:YYYP:100643035253:,70
825077,D80AF279-4A3DA36A-701-E708A,6/20/2009 20:05,,Sale,,,,1.00643E+11,3715...3000,Jan-12,Y:1610750532518656:YYYX:100643033795:,60
825077,D80AF279-4A3DA144-626-E708A,6/20/2009 19:56,,Sale,,,,1.00643E+11,4313...9296,Jan-12,Y:05554C0532516428:YYYX:100643031598:,60
825077,D80AF279-4A3D9E95-318-E708A,6/20/2009 19:44,,Sale,,,,1.00643E+11,5466...6890,Dec-12,Y:77132P0532513573:YYYP:100643028774:,80
825077,D80AF279-4A3D9DC5-187-E708A,6/20/2009 19:41,,Sale,,,,1.00643E+11,5466...6890,Dec-12,Y:18154P0532512702:YYYP:100643027911:,130
825077,D80AF279-4A3D8BF1-635-E708A,6/20/2009 18:25,,Sale,,,,1.00643E+11,5490...9910,Feb-12,Y:02553Z0532490319:YYYP:100643005704:,130
825077,D80AF279-4A3D5FA6-917-E708A,6/20/2009 15:16,,Sale,,,,1.00643E+11,5466...1472,Jul-10,Y:96772Z0532425755:YYYP:100642941648:,60
825077,D80AF279-4A3D5E8A-405-E708A,6/20/2009 15:11,,Sale,,,,1.00643E+11,3715...1006,Dec-10,Y:1841490532424047:YYYX:100642939956:,20
825077,D80AF279-4A3D53D1-370-E708A,6/20/2009 14:25,,Sale,,,,1.00643E+11,4802...4946,Jul-09,Y:0609250532408830:YYYX:100642924860:,190
825077,D80AF279-4A3D4D91-127-E708A,6/20/2009 13:58,,Sale,,,,1.00643E+11,5466...1472,Jul-10,Y:61296Z0532399441:YYYP:100642915530:,60
825077,D80AF279-4A3D3F45-236-E708A,6/20/2009 12:57,,Sale,,,,1.00643E+11,5424...6517,Aug-12,Y:86502B0532378965:YYYP:100642895275:,60
825077,D80AF279-4A3D2C1D-423-E708A,6/20/2009 11:36,,Sale,,,,1.00643E+11,5401...0167,May-12,Y:08420Z0532353131:YYYP:100642869664:,80
825077,D80AF279-4A3D2C00-409-E708A,6/20/2009 11:35,,Sale,,,,1.00643E+11,5424...2543,Sep-09,Y:13773B0532352985:YYYP:100642869519:,60
825077,D80AF279-4A3D1B6B-722-E708A,6/20/2009 10:24,,Sale,,,,1.00643E+11,4327...9601,Apr-11,Y:03792A0532330904:NYZX:100642847764:,70
825077,D80AF279-4A3D1830-670-E708A,6/20/2009 10:11,,Sale,,,,1.00643E+11,5121...4241,Apr-10,Y:02053B0532326251:YYYP:100642843158:,60
825077,D80AF279-4A3D1169-366-E708A,6/20/2009 9:42,,Sale,,,,1.00643E+11,4512...0658,Apr-10,Y:0200840532316828:YYYX:100642833816:,60
825077,D80AF279-4A3D10F0-796-E708A,6/20/2009 9:40,,Sale,,,,1.00643E+11,3772...1017,Apr-12,Y:1864450532316214:YYYX:100642833210:,60
825077,D80AF279-4A3D04E8-191-E708A,6/20/2009 8:48,,Sale,,,,1.00643E+11,4294...1703,Apr-12,Y:0202190532299888:YYYX:100642817054:,60
825077,D80AF279-4A3D03F3-005-E708A,6/20/2009 8:44,,Sale,,,,1.00643E+11,5452...0849,Jan-12,Y:0454550532298622:YYYP:100642815803:,60
825077,D80AF279-4A3D0141-651-E708A,6/20/2009 8:33,,Sale,,,,1.00643E+11,4266...1634,Apr-10,Y:09670C0532294874:YYYX:100642812098:,70
825077,D80AF279-4A3CF9AC-355-E708A,6/20/2009 8:01,,Sale,,,,1.00643E+11,6011...1599,Jan-13,Y:0206850532284855:YYYS:100642802155:,60
825077,D80AF279-4A3CF3DA-612-E708A,6/20/2009 7:36,,Sale,,,,1.00643E+11,6011...7357,Apr-11,Y:0209580532277414:YYYS:100642794775:,160
825077,D80AF279-4A3CE97E-876-E708A,6/20/2009 6:51,,Sale,,,,1.00643E+11,5490...3245,Jun-11,Y:05513B0532266020:YYYP:100642783467:,70
825077,D80AF279-4A3CDCF0-401-E708A,6/20/2009 5:58,,Sale,,,,1.00643E+11,5491...1053,Nov-10,Y:04769P0532254000:YYYP:100642771574:,80
825077,D80AF279-4A3C937B-237-E708A,6/20/2009 0:44,,Sale,,,,1.00643E+11,6011...1204,Jul-09,Y:0200540532197913:YYYS:100642718114:,140
825077,D80AF279-4A3653A0-436-E0474,6/19/2009 21:04,825077,Return,,,,4.00688E+11,4479...1826,Dec-11,Y:0532164343:    :400688099834:,60
825077,D80AF279-4A3C5218-296-E5AEC,6/19/2009 20:06,,Sale,,,,4.00688E+11,3715...1003,Jul-12,Y:1996730532155404:YYYX:400688091056:,180
825077,D80AF279-4A3C51CD-243-E5AEC,6/19/2009 20:04,,Sale,,,,4.00688E+11,4147...7154,Aug-11,Y:03371C0532155178:YYYX:400688090835:,140
825077,D80AF279-4A3C511D-500-E5AEC,6/19/2009 20:01,,Sale,,,,4.00688E+11,6011...7083,Nov-12,Y:0199140532154626:YYYS:400688090283:,60
825077,D80AF279-4A3C5114-166-E5AEC,6/19/2009 20:01,,Sale,,,,4.00688E+11,4266...0242,May-12,Y:04224B0532154589:YYYX:400688090246:,180
825077,D80AF279-4A3C5100-523-E5AEC,6/19/2009 20:01,,Sale,,,,4.00688E+11,5401...1091,Nov-10,Y:03625T0532154512:YYYP:400688090169:,60
825077,D80AF279-4A3C5066-735-E5AEC,6/19/2009 19:58,,Sale,,,,,5401...1091,Nov-10,NFRAUD,60
825077,D80AF279-4A3C5045-856-E5AEC,6/19/2009 19:58,,Sale,,,,4.00688E+11,5401...1091,Nov-10,Y:04424T0532153964:YYYP:400688089631:,60
825077,D80AF279-4A3C46B4-758-E5AEC,6/19/2009 19:17,,Sale,,,,4.00688E+11,4266...7288,Oct-11,Y:01767C0532144779:YYYX:400688080551:,100
825077,D80AF279-4A3C3464-533-E5AEC,6/19/2009 17:59,,Sale,,,,4.00688E+11,5424...5663,Oct-10,Y:74597B0532120441:YYYP:400688056434:,80
825077,D80AF279-4A3C24F7-024-E5AEC,6/19/2009 16:53,,Sale,,,,4.00688E+11,4311...9453,Feb-10,Y:01990B0532100335:YYYX:400688036565:,50
825077,D80AF279-4A3C1892-231-E5AEC,6/19/2009 16:00,,Sale,,,,4.00688E+11,5466...6229,Jun-13,Y:48112Z0532081503:YYYP:400688018132:,60
825077,D80AF279-4A3C17EA-139-E5AEC,6/19/2009 15:57,,Sale,,,,4.00688E+11,5466...6229,Jun-12,Y:73444Z0532080452:YYYP:400688017094:,60
825077,D80AF279-4A3BF6B5-554-E5AEC,6/19/2009 13:36,,Sale,,,,4.00688E+11,4037...6379,Sep-11,Y:51916B0532024138:YYYX:400687961611:,60
825077,D80AF279-4A3BF210-800-E5AEC,6/19/2009 13:16,,Sale,,,,4.00688E+11,3713...2008,Aug-12,Y:1658960532014884:YYYX:400687952541:,200
825077,D80AF279-4A3BE9BB-819-E5AEC,6/19/2009 12:40,,Sale,,,,4.00688E+11,4802...1175,Apr-12,Y:0130030531997800:YYYX:400687935781:,60
825077,D80AF279-4A3BD81E-528-E5AEC,6/19/2009 11:25,,Sale,,,,4.00688E+11,4266...7821,Feb-11,Y:06066B0531961943:YYYX:400687900570:,60
825077,D80AF279-4A3BCD35-400-E5AEC,6/19/2009 10:39,,Sale,,,,4.00688E+11,5424...0451,Dec-10,Y:32826B0531941208:NYZP:400687880162:,50
825077,D80AF279-4A3BC9D3-889-E5AEC,6/19/2009 10:24,,Sale,,,,4.00688E+11,5466...0128,Jun-11,Y:42535Z0531935143:YYYP:400687874203:,80
825077,D80AF279-4A3BC2A2-169-E5AEC,6/19/2009 9:53,,Sale,,,,4.00688E+11,3725...1007,Nov-12,Y:1752980531918682:YYYX:400687857939:,100
825077,D80AF279-4A3BBE3E-779-E5AEC,6/19/2009 9:35,,Sale,,,,4.00688E+11,4417...3847,Oct-09,Y:05343C0531911114:YYYX:400687850476:,70
825077,D80AF279-4A3BBDC1-127-E5AEC,6/19/2009 9:33,,Sale,,,,4.00688E+11,5369...8810,Jan-11,Y:09179P0531910136:YYYP:400687849509:,60
825077,D80AF279-4A3BAF28-977-E5AEC,6/19/2009 8:30,,Sale,,,,4.00688E+11,5122...7756,Feb-10,Y:01523Z0531882149:YYYP:400687821903:,50
825077,D80AF279-4A3B95A5-476-E5AEC,6/19/2009 6:41,,Sale,,,,4.00688E+11,6011...1985,Apr-13,Y:0192340531837704:NNNS:400687778030:,70
825077,D80AF279-4A3B9236-316-E5AEC,6/19/2009 6:27,,Sale,,,,4.00688E+11,3743...7776,Dec-11,Y:7852710531833110:YYYX:400687773496:,70
825077,D80AF279-4A3B88F2-894-E5AEC,6/19/2009 5:47,,Sale,,,,4.00688E+11,4266...4851,Jul-10,Y:02443B0531821245:YYYX:400687761780:,150
825077,D80AF279-4A3B848E-626-E5AEC,6/19/2009 5:29,,Sale,,,,4.00688E+11,5466...8508,Dec-11,Y:08134P0531816332:YYYP:400687756908:,60
825077,D80AF279-4A3B7C5C-775-E5AEC,6/19/2009 4:54,,Sale,,,,4.00688E+11,5538...0533,Apr-11,Y:1253420531809688:YYYP:400687750345:,80
825077,D80AF279-4A3B7AE3-889-E5AEC,6/19/2009 4:47,,Sale,,,,4.00688E+11,5538...1505,May-13,Y:1745710531808956:YYYP:400687749622:,120
825077,D80AF279-4A3B49C0-926-E5AEC,6/19/2009 1:18,,Sale,,,,4.00688E+11,4266...3206,Aug-10,Y:04295B0531766167:YYYX:400687709394:,60
825077,D80AF279-4A3B240E-435-E5AEC,6/18/2009 22:37,,Sale,,,,4.00688E+11,6011...1985,Apr-13,Y:0191410531751188:YYYS:400687694913:,50
825077,D80AF279-4A3B230B-173-E5AEC,6/18/2009 22:32,,Sale,,,,4.00688E+11,6011...1985,Apr-13,Y:0197360531750770:YYYS:400687694520:,20
825077,D80AF279-4A3B15C3-769-E5AEC,6/18/2009 21:36,,Sale,,,,4.00688E+11,3712...3013,Jun-10,Y:1880810531742472:YYYX:400687688477:,120
825077,D80AF279-4A3B0A68-683-E454E,6/18/2009 20:47,,Sale,,,,4.00688E+11,5490...5726,May-10,Y:04570Z0531734761:YYYP:400687680940:,60
825077,D80AF279-4A3AFF11-849-E454E,6/18/2009 19:59,,Sale,,,,4.00688E+11,4264...6726,Mar-10,Y:05590B0531726677:YYYX:400687673025:,60
825077,D80AF279-4A3AFDED-699-E454E,6/18/2009 19:54,,Sale,,,,4.00688E+11,3723...2003,Mar-11,Y:1011430531725727:YYYX:400687672098:,60
825077,D80AF279-4A3AFA3F-637-E454E,6/18/2009 19:38,,Sale,,,,4.00688E+11,5313...5757,Dec-10,Y:1281830531722505:YYYP:400687668948:,60
825077,D80AF279-4A3AF907-725-E454E,6/18/2009 19:33,,Sale,,,,4.00688E+11,5452...4725,Aug-11,Y:0353480531721417:YYYP:400687667890:,60
825077,D80AF279-4A3AF78C-631-E454E,6/18/2009 19:27,,Sale,,,,4.00688E+11,4313...1968,Mar-10,Y:02579A0531720036:YYYX:400687666545:,60
825077,D80AF279-4A3AF491-226-E454E,6/18/2009 19:14,,Sale,,,,,4704...1508,Oct-09,NFRAUD,160
825077,D80AF279-4A3AF48D-733-E454E,6/18/2009 19:14,,Sale,,,,4.00688E+11,4704...1508,Oct-09,Y:0181350531717061:YYYX:400687663624:,160
825077,D80AF279-4A3AF07C-294-E454E,6/18/2009 18:57,,Sale,,,,4.00688E+11,5188...6717,Apr-10,Y:01503P0531712011:YYYP:400687658655:,210
825077,D80AF279-4A3AED6F-856-E454E,6/18/2009 18:44,,Sale,,,,4.00688E+11,4843...7521,May-11,Y:0669840531708009:YYYX:400687654724:,60
825077,D80AF279-4A3AEBBB-711-E454E,6/18/2009 18:36,,Sale,,,,4.00688E+11,5466...0106,Jun-10,Y:37270Z0531705250:YYYP:400687652005:,120
825077,D80AF279-4A3AE2E4-545-E454E,6/18/2009 17:59,,Sale,,,,4.00688E+11,4417...7229,May-11,Y:07509C0531694590:YYYX:400687641558:,60
825077,D80AF279-4A3AE10E-472-E454E,6/18/2009 17:51,,Sale,,,,4.00688E+11,5424...2732,Apr-12,Y:30632B0531692168:YYYP:400687639170:,80
825077,D80AF279-4A3ABAF3-863-E454E,6/18/2009 15:08,,Sale,,,,4.00688E+11,4417...4788,Mar-12,Y:05578B0531637915:YYYX:400687585840:,80
825077,D80AF279-4A3AB740-166-E454E,6/18/2009 14:53,,Sale,,,,4.00688E+11,3725...3009,Sep-11,Y:1218070531631856:YYYX:400687579873:,70
825077,D80AF279-4A3AACA1-916-E454E,6/18/2009 14:07,,Sale,,,,4.00688E+11,4465...6599,Oct-09,Y:01825B0531613969:YYYX:400687562220:,60
825077,D80AF279-4A3AAC99-566-E454E,6/18/2009 14:07,,Sale,,,,4.00688E+11,6011...4874,May-13,Y:0183330531613916:YYYS:400687562169:,220
825077,D80AF279-4A3AA8AD-710-E454E,6/18/2009 13:50,,Sale,,,,4.00688E+11,3772...1003,May-11,Y:1990700531607074:YYYX:400687555424:,140
825077,11589,6/18/2009 12:50,,Sale,,,,4.00688E+11,4147...8653,Jan-11,Y:75136C0531580430:YYYX:400687529112:,50
825077,D80AF279-4A3A820C-041-E454E,6/18/2009 11:06,,Sale,,,,4.00687E+11,4756...9345,Apr-12,Y:01833A0531535569:NYZX:400687484878:,50
825077,D80AF279-4A3A79AC-939-E454E,6/18/2009 10:30,,Sale,,,,4.00687E+11,4756...9345,Apr-12,Y:01810A0531521996:NYZX:400687471491:,20
825077,D80AF279-4A3A7929-805-E454E,6/18/2009 10:28,,Sale,,,,4.00687E+11,5401...0986,Jan-10,Y:04313B0531521173:YYYP:400687470676:,60
825077,D80AF279-4A3A70B7-274-E454E,6/18/2009 9:52,,Sale,,,,4.00687E+11,4843...7132,Jul-10,Y:0898540531505533:YYYX:400687455211:,70
825077,D80AF279-4A3A6934-684-E454E,6/18/2009 9:20,,Sale,,,,4.00687E+11,4305...9563,Jul-11,Y:00162B0531493199:YYYX:400687443065:,10
825077,11588,6/18/2009 9:18,,Sale,,,,4.00687E+11,4425...9290,Nov-11,Y:01809B0531492432:YYYX:400687442307:,50
825077,D80AF279-4A3A6308-814-E454E,6/18/2009 8:53,,Sale,,,,4.00687E+11,4305...9563,Jul-11,Y:00372B0531482176:YYYX:400687432183:,60
825077,D80AF279-4A3A5C80-743-E454E,6/18/2009 8:25,,Sale,,,,4.00687E+11,4312...3481,Aug-10,Y:06446B0531471099:YYYX:400687421265:,80
825077,D80AF279-4A3A554E-949-E454E,6/18/2009 7:55,,Sale,,,,4.00687E+11,4388...8842,Jun-10,Y:05355C0531459196:NNNX:400687409507:,50
825077,D80AF279-4A3A5219-494-E454E,6/18/2009 7:41,,Sale,,,,4.00687E+11,4313...5358,Aug-11,Y:04513C0531453715:YYYX:400687404105:,60
825077,D80AF279-4A3A44A5-742-E454E,6/18/2009 6:44,,Sale,,,,4.00687E+11,4417...4788,Mar-12,Y:02198B0531434171:YYYX:400687384908:,80
825077,D80AF279-4A3A410B-169-E454E,6/18/2009 6:28,,Sale,,,,4.00687E+11,4147...3714,Nov-11,Y:05350C0531429528:YYYX:400687380326:,80
825077,D80AF279-4A3A35A3-523-E454E,6/18/2009 5:40,,Sale,,,,4.00687E+11,3723...2000,Jan-11,Y:1436630531417351:YYYX:400687368303:,60
825077,D80AF279-4A3A10FC-866-E454E,6/18/2009 3:03,,Sale,,,,4.00687E+11,6011...8058,May-13,Y:0187710531396400:YYYS:400687347580:,70
825077,D80AF279-4A39DD26-436-E454E,6/17/2009 23:22,,Sale,,,,4.00687E+11,5401...6717,Jul-11,Y:02528Z0531351572:YYYP:400687305656:,60
825077,D80AF279-4A39D8DA-432-E454E,6/17/2009 23:04,,Sale,,,,4.00687E+11,5401...6717,Jul-11,Y:00540Z0531348115:YYYP:400687302290:,280
825077,D80AF279-4A39D217-782-E454E,6/17/2009 22:35,,Sale,,,,4.00687E+11,3712...1018,Mar-13,Y:1754500531343942:YYYX:400687298335:,140
825077,D80AF279-4A39D18C-376-E454E,6/17/2009 22:33,,Sale,,,,4.00687E+11,4843...3570,Jul-11,Y:0496710531343662:YYYX:400687298078:,160
825077,D80AF279-4A39C6D8-760-E454E,6/17/2009 21:47,,Sale,,,,4.00687E+11,5466...9748,Apr-11,Y:42868Z0531335265:YYYP:400687289938:,140
825077,D80AF279-4A39C494-857-E454E,6/17/2009 21:37,,Sale,,,,4.00687E+11,3727...1000,Sep-09,Y:1699900531333778:YYYX:400687288496:,60
825077,D80AF279-4A39C28A-778-E454E,6/17/2009 21:28,,Sale,,,,4.00687E+11,4266...5617,Apr-10,Y:05775B0531332384:YYYX:400687287152:,70
825077,D80AF279-4A39C1A2-090-E454E,6/17/2009 21:25,,Sale,,,,4.00687E+11,6011...7240,Apr-13,Y:0187520531331764:YYYS:400687286556:,140
825077,D80AF279-4A39C09A-554-E454E,6/17/2009 21:20,,Sale,,,,4.00687E+11,6011...9965,Jun-13,Y:0186120531330904:YYYS:400687285724:,70
825077,D80AF279-4A39B4D9-548-E2FB0,6/17/2009 20:30,,Sale,,,,4.00687E+11,3715...1014,Dec-10,Y:1054650531320117:YYYX:400687275183:,180
825077,D80AF279-4A39A07A-447-E2FB0,6/17/2009 19:03,,Sale,,,,4.00687E+11,3715...1003,May-12,Y:1801770531298620:NNNX:400687254135:,140
825077,D80AF279-4A399F89-196-E2FB0,6/17/2009 18:59,,Sale,,,,4.00687E+11,4147...3953,Jul-11,Y:08111C0531297238:YYYX:400687252768:,80
825077,D80AF279-4A399F75-397-E2FB0,6/17/2009 18:59,,Sale,,,,4.00687E+11,3715...1003,May-12,Y:1406150531297098:NNNX:400687252630:,40
825077,D80AF279-4A399CBD-466-E2FB0,6/17/2009 18:47,,Sale,,,,4.00687E+11,3723...1005,Sep-10,Y:1639440531292931:YYYX:400687248518:,150
825077,D80AF279-4A398F1F-504-E2FB0,6/17/2009 17:49,,Sale,,,,4.00687E+11,6011...1626,Mar-13,Y:0178350531273270:YYYS:400687229235:,80
825077,D80AF279-4A398ED0-745-E2FB0,6/17/2009 17:48,,Sale,,,,4.00687E+11,3717...2018,Apr-12,Y:1294760531272809:YYYX:400687228781:,290
825077,D80AF279-4A397F2C-776-E2FB0,6/17/2009 16:41,,Sale,,,,4.00687E+11,4843...2935,May-11,Y:0262970531248584:YYYX:400687204990:,80
825077,D80AF279-4A3972BC-656-E2FB0,6/17/2009 15:48,,Sale,,,,4.00687E+11,4465...1475,Mar-12,Y:01754B0531227000:YYYX:400687183662:,110
825077,D80AF279-4A396B82-196-E2FB0,6/17/2009 15:17,,Sale,,,,4.00687E+11,4843...8926,Mar-11,Y:0131720531214072:YYYX:400687170882:,61
825077,D80AF279-4A396A40-254-E2FB0,6/17/2009 15:12,,Sale,,,,4.00687E+11,4843...8926,Mar-11,Y:0122840531211787:YYYX:400687168618:,60
825077,D80AF279-4A39682D-613-E2FB0,6/17/2009 15:03,,Sale,,,,4.00687E+11,4843...7374,Jun-11,Y:0107950531207865:YYYX:400687164745:,160
825077,D80AF279-4A396650-783-E2FB0,6/17/2009 14:55,,Sale,,,,4.00687E+11,4843...7374,Jun-11,Y:0094800531204205:YYYX:400687161126:,60
825077,D80AF279-4A3953FF-067-E2FB0,6/17/2009 13:37,,Sale,,,,4.00687E+11,5466...6794,Aug-09,Y:80192Z0531167243:YYYP:400687124714:,40
825077,D80AF279-4A3949F4-897-E2FB0,6/17/2009 12:54,,Sale,,,,4.00687E+11,5490...2201,Jun-12,Y:05540B0531145744:YYYP:400687103500:,60
825077,D80AF279-4A394806-652-E2FB0,6/17/2009 12:46,,Sale,,,,4.00687E+11,5466...1880,Apr-13,Y:55211Z0531141602:YYYP:400687099419:,60
825077,D80AF279-4A3945C6-112-E2FB0,6/17/2009 12:36,,Sale,,,,4.00687E+11,3711...4010,Oct-11,Y:1871330531136954:YYYX:400687094828:,100
825077,D80AF279-4A39445D-898-E2FB0,6/17/2009 12:30,,Sale,,,,4.00687E+11,5466...2138,Apr-10,Y:0350060531134012:YYYP:400687091920:,100
825077,D80AF279-4A393D01-841-E2FB0,6/17/2009 11:59,,Sale,,,,4.00687E+11,5466...1428,Nov-10,Y:09078Z0531118960:YYYP:400687077081:,10
825077,D80AF279-4A3936DC-364-E2FB0,6/17/2009 11:33,,Sale,,,,4.00687E+11,4266...5777,Mar-12,Y:09036C0531107010:YYYX:400687065274:,60
825077,D80AF279-4A39344B-066-E2FB0,6/17/2009 11:22,,Sale,,,,4.00687E+11,4843...5794,Oct-11,Y:0789600531101622:YYYX:400687059948:,60
825077,D80AF279-4A392F32-286-E2FB0,6/17/2009 11:00,,Sale,,,,4.00687E+11,5424...0011,Jun-12,Y:56877B0531091439:YYYP:400687049873:,60
825077,D80AF279-4A392937-798-E2FB0,6/17/2009 10:34,,Sale,,,,4.00687E+11,5466...9642,Jul-11,Y:03465Z0531080487:YYYP:400687039042:,60
825077,D80AF279-4A391C81-122-E2FB0,6/17/2009 9:40,,Sale,,,,4.00687E+11,5491...5019,Dec-12,Y:72262B0531055997:YYYP:400687014873:,85
825077,D80AF279-4A391B74-067-E2FB0,6/17/2009 9:36,,Sale,,,,4.00687E+11,3772...1007,Jul-10,Y:1039020531054411:YYYX:400687013320:,60
825077,D80AF279-4A391B6E-531-E2FB0,6/17/2009 9:35,,Sale,,,,4.00687E+11,5466...5359,Oct-10,Y:69497Z0531054382:YYYP:400687013291:,60
825077,D80AF279-4A391925-473-E2FB0,6/17/2009 9:26,,Sale,,,,4.00687E+11,3723...1019,Oct-09,Y:1099530531050641:YYYX:400687009600:,70
825077,D80AF279-4A3917F0-587-E2FB0,6/17/2009 9:21,,Sale,,,,4.00687E+11,4843...5151,May-11,Y:0606540531048599:YYYX:400687007593:,70
825077,D80AF279-4A391731-964-E2FB0,6/17/2009 9:17,,Sale,,,,4.00687E+11,4207...4424,Oct-13,Y:0517120531047391:YYYX:400687006407:,60
825077,D80AF279-4A3911F2-384-E2FB0,6/17/2009 8:55,,Sale,,,,4.00687E+11,4388...4211,Jun-12,Y:05944C0531038361:YYYX:400686997524:,80
825077,D80AF279-4A3909B5-517-E2FB0,6/17/2009 8:20,,Sale,,,,4.00687E+11,5466...7600,Aug-10,Y:51813Z0531023367:YYYP:400686982731:,60
825077,D80AF279-4A390447-349-E2FB0,6/17/2009 7:57,,Sale,,,,4.00687E+11,4388...2973,Jan-12,Y:01359D0531012627:YYYX:400686972123:,130
825077,D80AF279-4A39032E-058-E2FB0,6/17/2009 7:52,,Sale,,,,4.00687E+11,6011...3035,Jun-13,Y:0176390531010641:YYYS:400686970170:,200
825077,D80AF279-4A38FD9D-927-E2FB0,6/17/2009 7:28,,Sale,,,,4.00687E+11,4397...1107,Nov-10,Y:05385C0531000465:YYYX:400686960123:,70
825077,D80AF279-4A38F8FE-172-E2FB0,6/17/2009 7:09,,Sale,,,,4.00687E+11,6011...6704,Jun-12,Y:0176370530992439:YYYS:400686952173:,100
825077,D80AF279-4A38F5E5-224-E2FB0,6/17/2009 6:55,,Sale,,,,4.00687E+11,3772...1005,Feb-12,Y:1029710530987465:YYYX:400686947248:,160
825077,D80AF279-4A38EF82-644-E2FB0,6/17/2009 6:28,,Sale,,,,4.00687E+11,3737...1000,Aug-11,Y:1264490530978060:NNNX:400686937958:,60
825077,D80AF279-4A38EC16-585-E2FB0,6/17/2009 6:13,,Sale,,,,4.00687E+11,4339...2798,Apr-11,Y:0076390530973280:YYYX:400686933426:,170
825077,D80AF279-4A38D2A5-143-E2FB0,6/17/2009 4:25,,Sale,,,,4.00687E+11,3772...1004,Feb-10,Y:1837130530951035:YYYX:400686911419:,130
825077,D80AF279-4A38B2F5-503-E2FB0,6/17/2009 2:10,,Sale,,,,4.00687E+11,4020...8550,May-10,Y:0410130530927093:YYYX:400686888368:,100
825077,D80AF279-4A389478-307-E2FB0,6/17/2009 0:00,,Sale,,,,4.00687E+11,5490...8927,Jan-12,Y:00502B0530903073:YYYP:400686866076:,150
825077,D80AF279-4A387C35-379-E2FB0,6/16/2009 22:16,,Sale,,,,4.00687E+11,5466...8986,Jun-10,Y:84102Z0530891285:YYYP:400686854692:,70
825077,D80AF279-4A3876BC-362-E2FB0,6/16/2009 21:53,,Sale,,,,4.00687E+11,6011...6173,May-13,Y:0172320530884880:YYYS:400686848449:,240
825077,D80AF279-4A38757D-645-E2FB0,6/16/2009 21:47,,Sale,,,,4.00687E+11,4147...0551,Dec-11,Y:02740C0530884175:YYYX:400686847770:,30
825077,D80AF279-4A38756B-960-E2FB0,6/16/2009 21:47,,Sale,,,,4.00687E+11,3725...1006,Jul-12,Y:1251890530884132:YYYX:400686847729:,90
825077,D80AF279-4A3872FF-400-E2FB0,6/16/2009 21:37,,Sale,,,,4.00687E+11,3713...1002,Dec-09,Y:1623440530882990:YYYX:400686846632:,80
825077,D80AF279-4A386AF9-122-E2FB0,6/16/2009 21:03,,Sale,,,,4.00687E+11,3713...1004,May-12,Y:1055770530877569:YYYX:400686841379:,60
825077,D80AF279-4A3867D3-975-E1A12,6/16/2009 20:49,,Sale,,,,4.00687E+11,5449...9516,May-10,Y:6940620530875204:YYYP:400686839095:,120
825077,D80AF279-4A3863C3-691-E1A12,6/16/2009 20:32,,Sale,,,,4.00687E+11,6011...4942,Mar-13,Y:0162850530872166:YYYS:400686836187:,60
825077,D80AF279-4A385F55-071-E1A12,6/16/2009 20:13,,Sale,,,,4.00687E+11,4312...6421,May-12,Y:0976600530868604:YYYX:400686832736:,70
825077,D80AF279-4A385DF9-282-E1A12,6/16/2009 20:07,,Sale,,,,4.00687E+11,5466...6466,Jan-11,Y:11076Z0530867518:YYYP:400686831680:,60
825077,D80AF279-4A385C2F-563-E1A12,6/16/2009 19:59,,Sale,,,,4.00687E+11,3721...2012,Sep-12,Y:1659860530866017:YYYX:400686830215:,360
825077,D80AF279-4A3857F1-183-E1A12,6/16/2009 19:41,,Sale,,,,4.00687E+11,4417...2006,Feb-12,Y:04607B0530862208:YYYX:400686826501:,70
825077,D80AF279-4A385720-424-E1A12,6/16/2009 19:38,,Sale,,,,4.00687E+11,5466...6803,Sep-12,Y:44887P0530861489:YYYP:400686825799:,130
825077,D80AF279-4A3855ED-819-E1A12,6/16/2009 19:33,,Sale,,,,4.00687E+11,4313...5585,Aug-11,Y:03535C0530860167:YYYX:400686824505:,60
825077,D80AF279-4A38508F-712-E1A12,6/16/2009 19:10,,Sale,,,,4.00687E+11,4640...3043,Jul-11,Y:00731B0530853758:YYYX:400686818234:,80
825077,D80AF279-4A385021-802-E1A12,6/16/2009 19:08,,Sale,,,,4.00687E+11,4147...5630,Jun-11,Y:05025C0530853237:YYYX:400686817719:,70
825077,D80AF279-4A384E85-171-E1A12,6/16/2009 19:01,,Sale,,,,4.00687E+11,3713...2009,Feb-12,Y:1990740530851040:YYYX:400686815550:,10
825077,D80AF279-4A384DC9-418-E1A12,6/16/2009 18:58,,Sale,,,,4.00687E+11,5466...4551,Sep-09,Y:0558430530850028:YYYP:400686814552:,60
825077,D80AF279-4A384AD6-910-E1A12,6/16/2009 18:45,,Sale,,,,4.00687E+11,4080...0657,Nov-10,Y:0066260530845819:YYYX:400686810415:,70
825077,D80AF279-4A384AA0-182-E1A12,6/16/2009 18:45,,Sale,,,,4.00687E+11,5490...8454,Mar-11,Y:04549B0530845522:YYYP:400686810121:,200
825077,D80AF279-4A384A70-787-E1A12,6/16/2009 18:44,,Sale,,,,4.00687E+11,3723...1000,Nov-11,Y:1651340530845277:YYYX:400686809882:,220
825077,D80AF279-4A384A1A-144-E1A12,6/16/2009 18:42,,Sale,,,,4.00687E+11,6011...3069,Dec-13,Y:0161350530844847:YYYS:400686809463:,120
825077,D80AF279-4A38488A-086-E1A12,6/16/2009 18:36,,Sale,,,,4.00687E+11,4640...0171,Oct-10,Y:08312B0530842668:YYYX:400686807332:,200
825077,D80AF279-4A38487D-434-E1A12,6/16/2009 18:35,,Sale,,,,4.00687E+11,4707...6360,May-11,Y:0662910530842603:YYYX:400686807270:,80
825077,D80AF279-4A3841CB-878-E1A12,6/16/2009 18:07,,Sale,,,,4.00687E+11,5466...4236,Mar-12,Y:0057360530833283:YYYP:400686798134:,240
825077,D80AF279-4A383BB4-869-E1A12,6/16/2009 17:41,,Sale,,,,4.00687E+11,6011...5717,Oct-13,Y:0166050530824539:YYYS:400686789598:,80
825077,D80AF279-4A383596-599-E1A12,6/16/2009 17:15,,Sale,,,,4.00687E+11,6011...2152,Apr-13,Y:0163970530816275:YYYS:400686781451:,80
825077,D80AF279-4A38317B-549-E1A12,6/16/2009 16:57,,Sale,,,,4.00687E+11,4888...2205,Nov-11,Y:05577B0530810335:YYYX:400686775650:,60
825077,D80AF279-4A382FF5-984-E1A12,6/16/2009 16:51,,Sale,,,,4.00687E+11,3739...2011,Sep-10,Y:1460430530808096:YYYX:400686773451:,60
825077,D80AF279-4A382FF5-457-E1A12,6/16/2009 16:51,,Sale,,,,4.00687E+11,3712...1000,Feb-12,Y:1547350530808089:YYYX:400686773445:,70
825077,D80AF279-4A382BA4-268-E1A12,6/16/2009 16:32,,Sale,,,,4.00687E+11,4147...8270,Oct-11,Y:07582C0530801709:YYYX:400686767197:,180
825077,D80AF279-4A382758-590-E1A12,6/16/2009 16:14,,Sale,,,,4.00687E+11,4147...0119,Feb-11,Y:01637C0530794980:YYYX:400686760555:,220
825077,D80AF279-4A3825FA-837-E1A12,6/16/2009 16:08,,Sale,,,,4.00687E+11,4147...5109,Mar-10,Y:01628C0530792818:YYYX:400686758415:,70
825077,D80AF279-4A381B31-306-E1A12,6/16/2009 15:22,,Sale,,,,4.00687E+11,6011...5978,Mar-13,Y:0164200530774505:YYYS:400686740325:,80
825077,D80AF279-4A381527-460-E1A12,6/16/2009 14:56,,Sale,,,,4.00687E+11,5410...9219,Jun-12,Y:29255B0530764537:YYYP:400686730459:,320
825077,D80AF279-4A381209-323-E1A12,6/16/2009 14:43,,Sale,,,,4.00687E+11,4313...2271,May-12,Y:04536C0530759236:YYYX:400686725221:,100
825077,D80AF279-4A380BB3-545-E1A12,6/16/2009 14:16,,Sale,,,,4.00687E+11,5401...1333,Jun-11,Y:09081B0530747648:YYYP:400686713782:,70
825077,D80AF279-4A380A51-031-E1A12,6/16/2009 14:10,,Sale,,,,4.00687E+11,4640...7361,Sep-11,Y:01245B0530745166:YYYX:400686711323:,60
825077,D80AF279-4A38053B-749-E1A12,6/16/2009 13:48,,Sale,,,,4.00687E+11,4121...1562,Feb-10,Y:05779B0530735394:NYZX:400686701712:,60
825077,D80AF279-4A38043E-375-E1A12,6/16/2009 13:44,,Sale,,,,4.00687E+11,3723...1012,Feb-12,Y:1665100530733409:YYYX:400686699750:,70
825077,D80AF279-4A3803C1-640-E1A12,6/16/2009 13:42,,Sale,,,,4.00687E+11,5178...7829,May-12,Y:07236B0530732487:YYYP:400686698839:,110
825077,D80AF279-4A380151-328-E1A12,6/16/2009 13:30,,Sale,,,,4.00687E+11,5410...6418,Jan-10,Y:28616B0530727537:YYYP:400686693957:,230
825077,D80AF279-4A38001A-823-E1A12,6/16/2009 13:25,,Sale,,,,4.00687E+11,4228...9231,Dec-09,Y:0323340530725139:YYYX:400686691590:,80
825077,D80AF279-4A37FF7D-990-E1A12,6/16/2009 13:23,,Sale,,,,4.00687E+11,5424...7624,May-11,Y:03258B0530723943:YYYP:400686690412:,60
825077,D80AF279-4A37FEE1-219-E1A12,6/16/2009 13:20,,Sale,,,,4.00687E+11,3715...2019,Mar-12,Y:1205260530722552:YYYX:400686689047:,140
825077,D80AF279-4A37FE4D-396-E1A12,6/16/2009 13:18,,Sale,,,,4.00687E+11,5410...6011,Mar-11,Y:13287B0530721237:YYYP:400686687749:,85
825077,D80AF279-4A37F9E3-458-E1A12,6/16/2009 12:59,,Sale,,,,4.00687E+11,5466...6803,Sep-12,Y:76402P0530712141:YYYP:400686678773:,120
825077,D80AF279-4A37F8E6-371-E1A12,6/16/2009 12:54,,Sale,,,,4.00687E+11,3713...1024,May-11,Y:1828130530710037:YYYX:400686676701:,60
825077,D80AF279-4A37F748-711-E1A12,6/16/2009 12:48,,Sale,,,,4.00687E+11,3713...1024,May-11,Y:1630170530706719:YYYX:400686673431:,60
825077,D80AF279-4A37F3BC-584-E1A12,6/16/2009 12:32,,Sale,,,,4.00687E+11,6011...6433,May-13,Y:0165380530699977:YYYS:400686666769:,70
825077,D80AF279-4A37F207-123-E1A12,6/16/2009 12:25,,Sale,,,,4.00687E+11,5424...7607,May-11,Y:83073B0530696688:YYYP:400686663528:,120
825077,D80AF279-4A37F197-230-E1A12,6/16/2009 12:23,,Sale,,,,4.00687E+11,4465...1211,Jun-12,Y:01657B0530695890:YYYX:400686662738:,70
825077,D80AF279-4A37F107-669-E1A12,6/16/2009 12:21,,Sale,,,,4.00687E+11,3772...1001,Jul-17,Y:1233860530694608:YYYX:400686661477:,60
825077,D80AF279-4A37F017-009-E1A12,6/16/2009 12:17,,Sale,,,,4.00687E+11,4294...2315,Aug-11,Y:0630210530692653:YNAX:400686659543:,100
825077,D80AF279-4A37EEF5-629-E1A12,6/16/2009 12:12,,Sale,,,,4.00687E+11,5466...8022,Dec-12,Y:22780Z0530690454:YYYP:400686657372:,100
825077,D80AF279-4A37EBA3-444-E1A12,6/16/2009 11:58,,Sale,,,,4.00687E+11,3713...6009,Jul-12,Y:1271090530683954:YYYX:400686650978:,60
825077,D80AF279-4A37EA0A-000-E1A12,6/16/2009 11:51,,Sale,,,,4.00687E+11,4744...0258,Feb-10,Y:1252390530680734:YYYX:400686647801:,80
825077,D80AF279-4A37E9CD-998-E1A12,6/16/2009 11:50,,Sale,,,,4.00687E+11,5424...4582,Nov-10,Y:38783B0530680253:YYYP:400686647328:,80
825077,D80AF279-4A37E68A-517-E1A12,6/16/2009 11:36,,Sale,,,,4.00687E+11,4843...9971,Jun-11,Y:0578740530673636:YYYX:400686640772:,100
825077,D80AF279-4A37E492-116-E1A12,6/16/2009 11:28,,Sale,,,,4.00687E+11,5121...1615,Jul-10,Y:01626Z0530669661:YYYP:400686636844:,160
825077,D80AF279-4A37E367-142-E1A12,6/16/2009 11:23,,Sale,,,,4.00687E+11,5523...0168,Mar-12,Y:5756410530667365:YYYP:400686634582:,70
825077,D80AF279-4A37E2F0-484-E1A12,6/16/2009 11:21,,Sale,,,,4.00687E+11,5466...2785,Jun-10,Y:94856Z0530666494:YYYP:400686633720:,60
825077,D80AF279-4A37E2C3-384-E1A12,6/16/2009 11:20,,Sale,,,,4.00687E+11,4147...3448,May-12,Y:04677C0530666164:YYYX:400686633396:,60
825077,D80AF279-4A37DEDA-026-E1A12,6/16/2009 11:03,,Sale,,,,4.00687E+11,4266...5437,Jun-10,Y:05437C0530658554:YYYX:400686625888:,80
825077,D80AF279-4A37DE2E-085-E1A12,6/16/2009 11:00,,Sale,,,,4.00687E+11,5200...5678,Nov-10,Y:00523Z0530657289:YYYP:400686624640:,130
825077,D80AF279-4A37DDE3-901-E1A12,6/16/2009 10:59,,Sale,,,,4.00687E+11,6011...5040,Jun-15,Y:0169250530656700:YYYS:400686624055:,120
825077,D80AF279-4A37DC9B-047-E1A12,6/16/2009 10:54,,Sale,,,,4.00687E+11,6011...3757,May-13,Y:0161610530654286:YYYS:400686621677:,100
825077,D80AF279-4A37D9AC-824-E1A12,6/16/2009 10:41,,Sale,,,,4.00687E+11,3728...3005,May-10,Y:1421590530648514:YYYX:400686615983:,110
825077,D80AF279-4A37D940-696-E1A12,6/16/2009 10:39,,Sale,,,,4.00687E+11,4003...8863,Jan-11,Y:03611B0530647295:YYYX:400686614774:,360
825077,D80AF279-4A37D557-361-E1A12,6/16/2009 10:23,,Sale,,,,4.00687E+11,5149...9238,Jan-10,Y:6440030530639502:YYYP:400686607089:,60
825077,D80AF279-4A37D34D-817-E1A12,6/16/2009 10:14,,Sale,,,,4.00687E+11,4640...9023,Oct-09,Y:06767B0530635787:YYYX:400686603428:,70
825077,D80AF279-4A37D251-032-E1A12,6/16/2009 10:10,,Sale,,,,4.00687E+11,5588...0759,Apr-11,Y:0458930530634053:YYYP:400686601719:,80
825077,D80AF279-4A37CF80-199-E1A12,6/16/2009 9:58,,Sale,,,,4.00687E+11,5178...2852,May-12,Y:08310B0530628526:YYYP:400686596258:,60
825077,D80AF279-4A37CE9F-364-E1A12,6/16/2009 9:54,,Sale,,,,4.00687E+11,6011...0572,Sep-09,Y:0160500530626827:YYYS:400686594579:,60
825077,D80AF279-4A37CCDB-201-E1A12,6/16/2009 9:47,,Sale,,,,4.00687E+11,3713...2009,Feb-12,Y:1219290530623580:YYYX:400686591377:,60
825077,D80AF279-4A37CB57-761-E1A12,6/16/2009 9:40,,Sale,,,,4.00687E+11,5413...3118,Oct-09,Y:0451340530620730:YYYP:400686588563:,260
825077,D80AF279-4A37CA3B-516-E1A12,6/16/2009 9:35,,Sale,,,,4.00687E+11,5424...2507,Apr-11,Y:03756B0530618793:YYYP:400686586663:,60
825077,D80AF279-4A37C848-017-E1A12,6/16/2009 9:27,,Sale,,,,4.00687E+11,3715...2003,Feb-12,Y:1629700530615077:YYYX:400686583003:,120
825077,D80AF279-4A37C712-815-E1A12,6/16/2009 9:22,,Sale,,,,4.00687E+11,5466...2394,Sep-10,Y:55869Z0530612910:YYYP:400686580877:,70
825077,D80AF279-4A37C1C4-073-E1A12,6/16/2009 8:59,,Sale,,,,4.00687E+11,3725...1002,Feb-13,Y:1638200530602989:YYYX:400686571099:,60
825077,D80AF279-4A37C16F-460-E1A12,6/16/2009 8:58,,Sale,,,,4.00687E+11,5466...6302,Jul-10,Y:76552Z0530602359:YYYP:400686570485:,60
825077,D80AF279-4A37C008-798-E1A12,6/16/2009 8:52,,Sale,,,,4.00687E+11,3772...1008,Sep-10,Y:1620800530599938:YYYX:400686568120:,70
825077,D80AF279-4A37BE1B-879-E1A12,6/16/2009 8:44,,Sale,,,,4.00687E+11,5424...8487,Feb-11,Y:71256B0530596498:YYYP:400686564722:,60
825077,D80AF279-4A37BD9E-631-E1A12,6/16/2009 8:42,,Sale,,,,4.00687E+11,4266...2689,May-11,Y:09832C0530595587:YYYX:400686563823:,70
825077,D80AF279-4A37BC58-158-E1A12,6/16/2009 8:36,,Sale,,,,4.00687E+11,4399...4740,Dec-10,Y:0061600530593166:YYYX:400686561425:,120
825077,D80AF279-4A37BB54-004-E1A12,6/16/2009 8:32,,Sale,,,,4.00687E+11,4313...8762,Feb-10,Y:0353400530591403:YYYX:400686559699:,70
825077,D80AF279-4A37BB0C-345-E1A12,6/16/2009 8:31,,Sale,,,,4.00687E+11,5520...3493,Jun-10,Y:01665B0530590870:YYYP:400686559174:,120
825077,D80AF279-4A37BA97-698-E1A12,6/16/2009 8:29,,Sale,,,,4.00687E+11,4227...5054,Jan-12,Y:00984B0530590011:YYYX:400686558318:,60
825077,D80AF279-4A37BA80-988-E1A12,6/16/2009 8:28,,Sale,,,,4.00687E+11,4147...1437,Apr-11,Y:00289C0530589829:YYYX:400686558139:,330
825077,D80AF279-4A37B7A3-011-E1A12,6/16/2009 8:16,,Sale,,,,4.00687E+11,4037...7779,Sep-11,Y:01617B0530584530:YYYX:400686552908:,130
825077,D80AF279-4A37B753-171-E1A12,6/16/2009 8:15,,Sale,,,,4.00687E+11,3723...4001,Apr-12,Y:1975740530583913:YYYX:400686552295:,160
825077,D80AF279-4A37B61A-370-E1A12,6/16/2009 8:09,,Sale,,,,4.00687E+11,4388...5905,Aug-11,Y:03690C0530581509:YYYX:400686549917:,100
825077,D80AF279-4A37B5A5-832-E1A12,6/16/2009 8:08,,Sale,,,,4.00687E+11,4147...5230,Apr-11,Y:25666C0530580576:YYYX:400686548999:,60
825077,D80AF279-4A37B579-723-E1A12,6/16/2009 8:07,,Sale,,,,4.00687E+11,4843...2582,Mar-11,Y:0276760530580271:YYYX:400686548696:,90
825077,D80AF279-4A37B54C-619-E1A12,6/16/2009 8:06,,Sale,,,,4.00687E+11,5466...2269,Feb-12,Y:02729Z0530579906:YYYP:400686548337:,50
825077,D80AF279-4A37B4C6-648-E1A12,6/16/2009 8:04,,Sale,,,,4.00687E+11,6011...2808,Jun-13,Y:0163940530578876:YYYS:400686547322:,100
825077,D80AF279-4A37B3DB-617-E1A12,6/16/2009 8:00,,Sale,,,,4.00687E+11,4388...0785,Jul-11,Y:04447C0530577016:YYYX:400686545475:,60
825077,D80AF279-4A37B3DA-567-E1A12,6/16/2009 8:00,,Sale,,,,4.00687E+11,4266...2042,Sep-09,Y:04416C0530577008:YYYX:400686545467:,80
825077,D80AF279-4A37B394-872-E1A12,6/16/2009 7:59,,Sale,,,,4.00687E+11,5466...2269,Feb-12,Y:01127Z0530576478:YYYP:400686544945:,40
825077,D80AF279-4A37B2E8-821-E1A12,6/16/2009 7:56,,Sale,,,,4.00687E+11,5466...8940,Jan-11,Y:36086Z0530575153:YYYP:400686543637:,60
825077,D80AF279-4A37B2C0-108-E1A12,6/16/2009 7:55,,Sale,,,,4.00687E+11,3767...1005,Aug-09,Y:1004860530574845:YYYX:400686543334:,90
825077,D80AF279-4A37B278-700-E1A12,6/16/2009 7:54,,Sale,,,,4.00687E+11,6011...6735,May-10,Y:0160900530574294:YYYS:400686542789:,60
825077,D80AF279-4A37B150-618-E1A12,6/16/2009 7:49,,Sale,,,,4.00687E+11,4060...5886,Jun-11,Y:0259810530572148:YYYX:400686540678:,60
825077,D80AF279-4A37B022-054-E1A12,6/16/2009 7:44,,Sale,,,,4.00687E+11,3713...1013,Jan-11,Y:1099360530569761:YYYX:400686538324:,200
825077,D80AF279-4A37AFA0-407-E1A12,6/16/2009 7:42,,Sale,,,,4.00687E+11,4266...1410,Jan-11,Y:00355B0530568773:YYYX:400686537352:,60
825077,D80AF279-4A37AF61-868-E1A12,6/16/2009 7:41,,Sale,,,,4.00687E+11,3715...2001,Oct-11,Y:1849800530568302:YYYX:400686536886:,70
825077,D80AF279-4A37AF31-668-E1A12,6/16/2009 7:40,,Sale,,,,4.00687E+11,5424...3385,Jan-11,Y:31708B0530567918:YYYP:400686536505:,100
825077,D80AF279-4A37AE41-036-E1A12,6/16/2009 7:36,,Sale,,,,4.00687E+11,4266...9186,Dec-09,Y:02612B0530566013:YYYX:400686534622:,70
825077,D80AF279-4A37ADB5-533-E1A12,6/16/2009 7:34,,Sale,,,,4.00687E+11,4489...6012,Jun-11,Y:8007250530564942:YYYX:400686533555:,90
825077,D80AF279-4A37ADAA-702-E1A12,6/16/2009 7:33,,Sale,,,,4.00687E+11,3743...7652,Apr-11,Y:4211630530564862:YYYX:400686533476:,70
825077,D80AF279-4A37AC86-578-E1A12,6/16/2009 7:29,,Sale,,,,4.00687E+11,5466...8969,Oct-11,Y:29626Z0530562719:YYYP:400686531363:,60
825077,D80AF279-4A37AC08-781-E1A12,6/16/2009 7:27,,Sale,,,,4.00687E+11,5466...1811,Jun-12,Y:30629Z0530561831:YYYP:400686530490:,110
825077,D80AF279-4A37ABE9-306-E1A12,6/16/2009 7:26,,Sale,,,,4.00687E+11,3723...1015,Jan-11,Y:1232360530561611:YYYX:400686530270:,180
825077,D80AF279-4A37ABA9-857-E1A12,6/16/2009 7:25,,Sale,,,,4.00687E+11,5490...2634,Jul-11,Y:09516P0530561187:YYYP:400686529853:,80
825077,D80AF279-4A37A9D6-986-E1A12,6/16/2009 7:17,,Sale,,,,4.00687E+11,3727...2015,Jan-10,Y:1027220530558276:YYYX:400686526983:,60
825077,D80AF279-4A37A968-892-E1A12,6/16/2009 7:15,,Sale,,,,4.00687E+11,3723...1005,Feb-13,Y:1387110530557556:YYYX:400686526272:,120
825077,D80AF279-4A37A817-242-E1A12,6/16/2009 7:10,,Sale,,,,4.00687E+11,5466...6413,Jun-10,Y:17882Z0530555318:YYYP:400686524071:,120
825077,D80AF279-4A37A7FC-350-E1A12,6/16/2009 7:09,,Sale,,,,4.00687E+11,5466...2711,Apr-11,Y:99101Z0530555151:YYYP:400686523907:,70
825077,D80AF279-4A37A782-616-E1A12,6/16/2009 7:07,,Sale,,,,4.00687E+11,4465...5767,Apr-12,Y:01631B0530554381:YYYX:400686523151:,140
825077,D80AF279-4A37A5AB-151-E1A12,6/16/2009 6:59,,Sale,,,,4.00687E+11,4802...3642,Apr-10,Y:0344650530551631:YYYX:400686520445:,230
825077,D80AF279-4A37A586-268-E1A12,6/16/2009 6:59,,Sale,,,,4.00687E+11,3725...1004,Aug-12,Y:1438720530551406:YYYX:400686520222:,60
825077,D80AF279-4A37A507-319-E1A12,6/16/2009 6:57,,Sale,,,,4.00687E+11,5491...0235,Sep-10,Y:23227B0530550682:YYYP:400686519504:,120
825077,D80AF279-4A37A4AC-654-E1A12,6/16/2009 6:55,,Sale,,,,4.00687E+11,5369...1799,Jan-12,Y:01042B0530550126:YYYP:400686518955:,60
825077,D80AF279-4A37A464-429-E1A12,6/16/2009 6:54,,Sale,,,,4.00687E+11,5121...2908,Apr-10,Y:01695B0530549679:YYYP:400686518511:,70
825077,D80AF279-4A37A43E-185-E1A12,6/16/2009 6:53,,Sale,,,,4.00687E+11,5466...2787,Nov-11,Y:0555090530549458:YYYP:400686518291:,80
825077,D80AF279-4A37A35B-992-E1A12,6/16/2009 6:50,,Sale,,,,4.00687E+11,4868...3357,Sep-09,Y:03718B0530548048:YYYX:400686516888:,140
825077,D80AF279-4A37A316-297-E1A12,6/16/2009 6:48,,Sale,,,,4.00687E+11,3717...1000,Sep-09,Y:1783760530547635:YYYX:400686516476:,80
825077,D80AF279-4A37A2DC-870-E1A12,6/16/2009 6:47,,Sale,,,,4.00687E+11,4147...3451,Nov-10,Y:07526C0530547264:YYYX:400686516135:,80
825077,D80AF279-4A37A247-134-E1A12,6/16/2009 6:45,,Sale,,,,4.00687E+11,4868...3357,Sep-09,Y:09415B0530546410:YYYX:400686515290:,70
825077,D80AF279-4A37A163-334-E1A12,6/16/2009 6:41,,Sale,,,,4.00687E+11,3713...1005,Nov-11,Y:1031780530545176:YNAX:400686514070:,150
825077,D80AF279-4A37A127-568-E1A12,6/16/2009 6:40,,Sale,,,,4.00687E+11,5424...4555,Jul-12,Y:61976B0530544836:YYYP:400686513733:,70
825077,D80AF279-4A379FBA-097-E1A12,6/16/2009 6:34,,Sale,,,,4.00687E+11,5466...2018,Apr-10,Y:26635Z0530542812:YYYP:400686511731:,60
825077,D80AF279-4A379F7C-012-E1A12,6/16/2009 6:33,,Sale,,,,4.00687E+11,5178...2955,Jul-12,Y:03549Z0530542460:YYYP:400686511381:,30
825077,D80AF279-4A379F76-944-E1A12,6/16/2009 6:33,,Sale,,,,4.00687E+11,3711...2005,Oct-09,Y:1329360530542427:YYYX:400686511348:,180
825077,D80AF279-4A379F72-995-E1A12,6/16/2009 6:33,,Sale,,,,4.00687E+11,6011...6018,Jun-13,Y:0169690530542411:YYYS:400686511332:,70
825077,D80AF279-4A379DCE-448-E1A12,6/16/2009 6:26,,Sale,,,,4.00687E+11,4147...4271,Apr-11,Y:02261C0530540017:YYYX:400686508971:,130
825077,D80AF279-4A379D72-292-E1A12,6/16/2009 6:24,,Sale,,,,4.00687E+11,5178...2955,Jul-12,Y:08298Z0530539419:YYYP:400686508381:,100
825077,D80AF279-4A379B42-071-E1A12,6/16/2009 6:15,,Sale,,,,4.00687E+11,4388...3134,Nov-09,Y:09522C0530536432:YYYX:400686505443:,70
825077,D80AF279-4A379AEF-020-E1A12,6/16/2009 6:14,,Sale,,,,4.00687E+11,5178...2955,Jul-12,Y:05799Z0530536001:YYYP:400686505016:,30
825077,D80AF279-4A379A5F-447-E1A12,6/16/2009 6:11,,Sale,,,,4.00687E+11,3767...1009,Dec-13,Y:1425050530535295:YYYX:400686504322:,160
825077,D80AF279-4A379A4A-015-E1A12,6/16/2009 6:11,,Sale,,,,4.00687E+11,3725...4018,Mar-12,Y:1274610530535186:YYYX:400686504214:,60
825077,D80AF279-4A379A39-017-E1A12,6/16/2009 6:11,,Sale,,,,4.00687E+11,4313...1706,Oct-11,Y:01522B0530535105:YYYX:400686504136:,330
825077,D80AF279-4A379711-794-E1A12,6/16/2009 5:57,,Sale,,,,4.00686E+11,3713...4017,Oct-12,Y:1617450530530776:YYYX:400686499845:,290
825077,D80AF279-4A37962D-650-E1A12,6/16/2009 5:53,,Sale,,,,4.00686E+11,3715...1003,Mar-11,Y:1158080530529841:YYYX:400686498926:,60
825077,D80AF279-4A37945E-565-E1A12,6/16/2009 5:46,,Sale,,,,4.00686E+11,6011...2255,May-13,Y:0163500530528012:YYYS:400686497135:,100
825077,D80AF279-4A3793F1-555-E1A12,6/16/2009 5:44,,Sale,,,,4.00686E+11,5466...2445,Dec-09,Y:44182Z0530527478:YYYP:400686496605:,60
825077,D80AF279-4A379362-484-E1A12,6/16/2009 5:41,,Sale,,,,4.00686E+11,5490...2611,Jan-12,Y:04530B0530526756:YYYP:400686495893:,60
825077,D80AF279-4A379299-441-E1A12,6/16/2009 5:38,,Sale,,,,4.00686E+11,5466...9859,Aug-10,Y:71350Z0530525754:YYYP:400686494903:,60
825077,D80AF279-4A379166-962-E1A12,6/16/2009 5:33,,Sale,,,,4.00686E+11,3723...3026,Mar-12,Y:1482500530524461:YYYX:400686493622:,150
825077,D80AF279-4A379131-519-E1A12,6/16/2009 5:32,,Sale,,,,4.00686E+11,5466...8078,Jul-09,Y:0299820530524257:YYYP:400686493418:,70
825077,D80AF279-4A378F80-561-E1A12,6/16/2009 5:25,,Sale,,,,4.00686E+11,4388...3603,Nov-09,Y:09238D0530522738:YYYX:400686491915:,80
825077,D80AF279-4A378E86-599-E1A12,6/16/2009 5:21,,Sale,,,,4.00686E+11,3743...8018,Mar-11,Y:5863460530521784:YYYX:400686490967:,90
825077,D80AF279-4A378E07-123-E1A12,6/16/2009 5:19,,Sale,,,,4.00686E+11,4388...6342,May-10,Y:00714C0530521331:YYYX:400686490515:,120
825077,D80AF279-4A378D25-877-E1A12,6/16/2009 5:15,,Sale,,,,4.00686E+11,6011...1931,Feb-14,Y:0165620530520519:YYYS:400686489711:,70
825077,D80AF279-4A378B8B-394-E1A12,6/16/2009 5:08,,Sale,,,,4.00686E+11,5262...6567,Apr-12,Y:3927940530519004:YYYP:400686488208:,70
825077,D80AF279-4A378B6D-619-E1A12,6/16/2009 5:07,,Sale,,,,4.00686E+11,4888...2934,Jan-11,Y:00590B0530518918:YYYX:400686488123:,80
825077,D80AF279-4A378A79-562-E1A12,6/16/2009 5:03,,Sale,,,,4.00686E+11,4640...0099,Jul-09,Y:05426B0530518154:YYYX:400686487366:,60
825077,D80AF279-4A3789EE-344-E1A12,6/16/2009 5:01,,Sale,,,,4.00686E+11,5466...1346,Apr-12,Y:07622Z0530517697:YYYP:400686486919:,320
825077,D80AF279-4A378984-843-E1A12,6/16/2009 4:59,,Sale,,,,4.00686E+11,4226...2958,Feb-10,Y:03284C0530517350:YYYX:400686486574:,70
825077,D80AF279-4A37874F-426-E1A12,6/16/2009 4:50,,Sale,,,,4.00686E+11,6011...5119,Jul-13,Y:0163770530515947:YNAS:400686485187:,60
825077,D80AF279-4A3786E8-897-E1A12,6/16/2009 4:48,,Sale,,,,4.00686E+11,6011...0382,Mar-13,Y:0165670530515705:YYYS:400686484946:,140
825077,D80AF279-4A378676-452-E1A12,6/16/2009 4:46,,Sale,,,,4.00686E+11,6011...9598,Nov-13,Y:0169710530515424:YYYS:400686484663:,170
825077,D80AF279-4A3784BE-588-E1A12,6/16/2009 4:39,,Sale,,,,4.00686E+11,4305...0163,Aug-09,Y:04508B0530514494:YYYX:400686483738:,70
825077,D80AF279-4A378428-080-E1A12,6/16/2009 4:36,,Sale,,,,4.00686E+11,4313...3763,Aug-09,Y:0358090530514147:YYYX:400686483392:,160
825077,D80AF279-4A378345-986-E1A12,6/16/2009 4:33,,Sale,,,,4.00686E+11,5480...4566,Jul-10,Y:0715370530513505:YYYP:400686482755:,120
825077,D80AF279-4A37820F-962-E1A12,6/16/2009 4:27,,Sale,,,,4.00686E+11,3722...2005,Oct-12,Y:1821080530512696:YYYX:400686481951:,160
825077,D80AF279-4A3780AA-884-E1A12,6/16/2009 4:22,,Sale,,,,4.00686E+11,4060...5005,Nov-09,Y:0100110530512031:YYYX:400686481291:,60
825077,D80AF279-4A378075-978-E1A12,6/16/2009 4:21,,Sale,,,,4.00686E+11,6011...4188,May-13,Y:0162500530511880:YYYS:400686481140:,200
825077,D80AF279-4A378019-504-E1A12,6/16/2009 4:19,,Sale,,,,4.00686E+11,4266...8832,Sep-10,Y:01743A0530511615:YYYX:400686480877:,80
825077,D80AF279-4A377FEB-604-E1A12,6/16/2009 4:18,,Sale,,,,4.00686E+11,3725...1009,Jul-10,Y:1030890530511516:YYYX:400686480778:,70
825077,D80AF279-4A377E53-403-E1A12,6/16/2009 4:12,,Sale,,,,4.00686E+11,4266...8832,Sep-10,Y:09724A0530510483:YYYX:400686479754:,80
825077,D80AF279-4A377DF5-155-E1A12,6/16/2009 4:10,,Sale,,,,4.00686E+11,6011...7221,Mar-13,Y:0169300530510265:YYYS:400686479538:,150
825077,D80AF279-4A377C97-087-E1A12,6/16/2009 4:04,,Sale,,,,4.00686E+11,5401...4345,May-10,Y:06796Z0530509461:YYYP:400686478735:,120
825077,D80AF279-4A377C95-715-E1A12,6/16/2009 4:04,,Sale,,,,4.00686E+11,4640...7697,Jan-12,Y:06751A0530509454:YYYX:400686478728:,70
825077,D80AF279-4A3778DA-381-E1A12,6/16/2009 3:48,,Sale,,,,4.00686E+11,4266...8808,May-11,Y:00094C0530507170:YYYX:400686476445:,100
825077,D80AF279-4A37779C-832-E1A12,6/16/2009 3:43,,Sale,,,,4.00686E+11,4636...1692,Jan-11,Y:03366C0530506560:YYYX:400686475833:,70
825077,D80AF279-4A377623-525-E1A12,6/16/2009 3:37,,Sale,,,,4.00686E+11,4147...2666,Feb-12,Y:04848C0530505859:NNNX:400686475138:,60
825077,D80AF279-4A377380-260-E1A12,6/16/2009 3:25,,Sale,,,,4.00686E+11,5466...4700,Dec-10,Y:66417Z0530504081:YYYP:400686473359:,120
825077,D80AF279-4A377189-061-E1A12,6/16/2009 3:17,,Sale,,,,4.00686E+11,4888...3899,May-10,Y:01581B0530502691:YYYX:400686471969:,120
825077,D80AF279-4A376227-544-E1A12,6/16/2009 2:11,,Sale,,,,4.00686E+11,3739...3015,Oct-10,Y:1401880530492525:YYYX:400686461985:,120
825077,D80AF279-4A37528F-520-E1A12,6/16/2009 1:05,,Sale,,,,4.00686E+11,5179...4624,Nov-10,Y:49913B0530467273:YYYP:400686439168:,120
825077,D80AF279-4A3749B8-825-E1A12,6/16/2009 0:27,,Sale,,,,4.00686E+11,4264...3733,Mar-10,Y:02587C0530463614:YYYX:400686435585:,180
825077,D80AF279-4A3745B3-137-E1A12,6/16/2009 0:10,,Sale,,,,4.00686E+11,6011...4216,Jan-14,Y:0169770530461291:YYYS:400686433290:,70
825077,D80AF279-4A373EA6-719-E1A12,6/15/2009 23:40,,Sale,,,,4.00686E+11,5424...2664,Apr-10,Y:73894B0530456697:YYYP:400686428752:,60
825077,D80AF279-4A373CCC-384-E1A12,6/15/2009 23:32,,Sale,,,,4.00686E+11,4388...4839,Jul-12,Y:00472D0530455591:YYYX:400686427662:,60
825077,D80AF279-4A373C78-639-E1A12,6/15/2009 23:31,,Sale,,,,4.00686E+11,3713...1019,Apr-12,Y:1975790530455375:YYYX:400686427450:,60
825077,D80AF279-4A373BA9-315-E1A12,6/15/2009 23:27,,Sale,,,,4.00686E+11,5424...3214,Feb-11,Y:33933B0530454884:YYYP:400686426960:,70
825077,D80AF279-4A3736AA-302-E1A12,6/15/2009 23:06,,Sale,,,,4.00686E+11,3772...1007,Oct-09,Y:1672980530451276:YYYX:400686423419:,70
825077,D80AF279-4A373661-778-E1A12,6/15/2009 23:05,,Sale,,,,4.00686E+11,4266...3612,May-11,Y:08792B0530450962:YYYX:400686423109:,60
825077,D80AF279-4A37338D-820-E1A12,6/15/2009 22:52,,Sale,,,,4.00686E+11,4266...3612,May-11,Y:02664B0530448893:YYYX:400686421112:,60
825077,D80AF279-4A373291-747-E1A12,6/15/2009 22:48,,Sale,,,,4.00686E+11,6011...1567,Apr-13,Y:0162730530448233:YYYS:400686420482:,90
825077,D80AF279-4A373281-606-E1A12,6/15/2009 22:48,,Sale,,,,4.00686E+11,5410...7816,Apr-10,Y:60718B0530448174:NYZP:400686420431:,120
825077,D80AF279-4A3731BE-846-E1A12,6/15/2009 22:45,,Sale,,,,4.00686E+11,4640...3823,Sep-10,Y:09173B0530447635:YYYX:400686419917:,20
825077,D80AF279-4A373093-009-E1A12,6/15/2009 22:40,,Sale,,,,4.00686E+11,4640...3823,Sep-10,Y:04184B0530446116:YYYX:400686418449:,110
825077,D80AF279-4A373032-121-E1A12,6/15/2009 22:38,,Sale,,,,4.00686E+11,4217...6382,Apr-12,Y:0224000530445705:YYYX:400686418057:,70
825077,D80AF279-4A372E97-020-E1A12,6/15/2009 22:31,,Sale,,,,4.00686E+11,3713...1008,Nov-11,Y:1213090530444571:YYYX:400686416981:,70
825077,D80AF279-4A372E36-962-E1A12,6/15/2009 22:30,,Sale,,,,4.00686E+11,3772...1007,May-13,Y:1464330530444313:YYYX:400686416736:,100
825077,D80AF279-4A3728B6-758-E1A12,6/15/2009 22:06,,Sale,,,,4.00686E+11,5424...3761,Nov-09,Y:50115B0530439705:YYYP:400686412331:,50
825077,D80AF279-4A37285B-998-E1A12,6/15/2009 22:05,,Sale,,,,4.00686E+11,5401...1354,Mar-11,Y:09097Z0530439193:YYYP:400686411832:,70
825077,D80AF279-4A372127-494-E1A12,6/15/2009 21:34,,Sale,,,,4.00686E+11,3723...3004,Dec-11,Y:1032520530434999:NNNX:400686407787:,70
825077,D80AF279-4A371627-771-E0474,6/15/2009 20:47,,Sale,,,,4.00686E+11,4264...2195,Jul-10,Y:04584B0530426677:YYYX:400686399725:,60
825077,D80AF279-4A3710B7-206-E0474,6/15/2009 20:24,,Sale,,,,4.00686E+11,6011...4418,Nov-13,Y:0158100530422067:YYYS:400686395244:,70
825077,D80AF279-4A37109D-943-E0474,6/15/2009 20:23,,Sale,,,,4.00686E+11,6011...0630,Apr-11,Y:0156980530421968:YYYS:400686395149:,120
825077,D80AF279-4A37102F-747-E0474,6/15/2009 20:22,,Sale,,,,4.00686E+11,5490...0127,Aug-11,Y:02530Z0530421690:YYYP:400686394883:,120
825077,D80AF279-4A370EB2-683-E0474,6/15/2009 20:15,,Sale,,,,4.00686E+11,5490...0127,Aug-11,Y:01575Z0530420552:YYYP:400686393802:,120
825077,D80AF279-4A370E4A-629-E0474,6/15/2009 20:13,,Sale,,,,4.00686E+11,5369...7600,Jun-11,Y:05690B0530420258:YYYP:400686393516:,145
825077,D80AF279-4A370E0C-452-E0474,6/15/2009 20:12,,Sale,,,,4.00686E+11,5528...5705,Mar-12,Y:0260090530420056:YYYP:400686393321:,80
825077,D80AF279-4A370B2B-472-E0474,6/15/2009 20:00,,Sale,,,,,5149...9238,Jan-10,NFRAUD,60
825077,D80AF279-4A370B1B-976-E0474,6/15/2009 20:00,,Sale,,,,,5149...9238,Jan-10,NFRAUD,60
825077,D80AF279-4A370AFB-794-E0474,6/15/2009 19:59,,Sale,,,,4.00686E+11,5149...9238,Jan-10,Y:6117060530417523:YYYP:400686390881:,60
825077,D80AF279-4A370546-970-E0474,6/15/2009 19:35,,Sale,,,,4.00686E+11,5401...6991,Jan-12,Y:09660B0530412002:YYYP:400686385529:,110
825077,D80AF279-4A3702CA-676-E0474,6/15/2009 19:24,,Sale,,,,4.00686E+11,5466...2153,Apr-10,Y:87232Z0530408989:YYYP:400686382579:,180
825077,D80AF279-4A370131-901-E0474,6/15/2009 19:18,,Sale,,,,4.00686E+11,6011...2959,Apr-14,Y:0152580530406728:YYYS:400686380356:,160
825077,D80AF279-4A3700E4-602-E0474,6/15/2009 19:16,,Sale,,,,4.00686E+11,3772...1000,Oct-18,Y:1303960530406308:YYYX:400686379938:,60
825077,D80AF279-4A36FFF6-548-E0474,6/15/2009 19:12,,Sale,,,,4.00686E+11,5466...7962,Oct-10,Y:40403Z0530404915:YYYP:400686378564:,70
825077,D80AF279-4A36FE9C-119-E0474,6/15/2009 19:07,,Sale,,,,4.00686E+11,3772...1000,Oct-11,Y:1192800530403118:YYYX:400686376793:,60
825077,D80AF279-4A36FDEC-773-E0474,6/15/2009 19:04,,Sale,,,,4.00686E+11,4266...2689,May-10,Y:05995C0530402148:YYYX:400686375839:,70
825077,D80AF279-4A36FD7C-219-E0474,6/15/2009 19:02,,Sale,,,,4.00686E+11,3772...1003,May-13,Y:1208570530401485:YYYX:400686375185:,60
825077,D80AF279-4A36FD2A-139-E0474,6/15/2009 19:00,,Sale,,,,4.00686E+11,3727...2000,Aug-09,Y:1602780530400992:YYYX:400686374709:,100
825077,D80AF279-4A36F65D-422-E0474,6/15/2009 18:31,,Sale,,,,4.00686E+11,3715...2006,Oct-09,Y:1252400530391255:YYYX:400686365205:,180
825077,D80AF279-4A36F5A3-629-E0474,6/15/2009 18:28,,Sale,,,,4.00686E+11,5424...9532,Mar-13,Y:54299B0530390255:YYYP:400686364231:,70
825077,D80AF279-4A36F4D4-021-E0474,6/15/2009 18:25,,Sale,,,,4.00686E+11,4266...2489,May-11,Y:09331B0530389275:YYYX:400686363286:,90
825077,D80AF279-4A36F053-858-E0474,6/15/2009 18:06,,Sale,,,,4.00686E+11,5466...0385,Sep-10,Y:48007Z0530382674:YYYP:400686356841:,200
825077,D80AF279-4A36EDEC-362-E0474,6/15/2009 17:55,,Sale,,,,,5401...2931,May-11,NFRAUD,130
825077,D80AF279-4A36EDEA-675-E0474,6/15/2009 17:55,,Sale,,,,4.00686E+11,5401...2931,May-11,Y:01451T0530378789:YYYP:400686353049:,130
825077,D80AF279-4A36EA6A-405-E0474,6/15/2009 17:40,,Sale,,,,4.00686E+11,3715...2006,Dec-09,Y:1278720530374145:YYYX:400686348494:,140
825077,D80AF279-4A36E77E-001-E0474,6/15/2009 17:28,,Sale,,,,4.00686E+11,6011...1919,May-12,Y:0152820530370603:YYYS:400686345048:,70
825077,D80AF279-4A36E67F-095-E0474,6/15/2009 17:24,,Sale,,,,4.00686E+11,4888...0941,Jan-11,Y:02553B0530369169:YYYX:400686343650:,70
825077,D80AF279-4A36DE34-922-E0474,6/15/2009 16:48,,Sale,,,,4.00686E+11,4266...5920,Feb-11,Y:00401B0530357104:YYYX:400686331821:,200
825077,D80AF279-4A36DC43-536-E0474,6/15/2009 16:40,,Sale,,,,4.00686E+11,4266...8543,Jul-10,Y:04682B0530353985:YYYX:400686328759:,80
825077,D80AF279-4A36D81F-120-E0474,6/15/2009 16:22,,Sale,,,,4.00686E+11,3772...1009,Sep-12,Y:1288870530347394:YYYX:400686322253:,80
825077,D80AF279-4A36D0E8-868-E0474,6/15/2009 15:52,,Sale,,,,4.00686E+11,5466...1428,Nov-10,Y:37768Z0530334492:YYYP:400686309532:,150
825077,D80AF279-4A36CEF6-219-E0474,6/15/2009 15:43,,Sale,,,,,5401...6991,Jan-12,NFRAUD,110
825077,D80AF279-4A36CED6-902-E0474,6/15/2009 15:43,,Sale,,,,4.00686E+11,5401...6991,Jan-12,Y:03179B0530330883:YYYP:400686305981:,110
825077,D80AF279-4A36CB54-414-E0474,6/15/2009 15:28,,Sale,,,,4.00686E+11,6011...4891,Feb-14,Y:0152180530324607:YYYS:400686299799:,60
825077,D80AF279-4A36C9ED-990-E0474,6/15/2009 15:22,,Sale,,,,4.00686E+11,5424...0587,Oct-10,Y:39751B0530322207:YYYP:400686297460:,70
825077,D80AF279-4A36BBE4-757-E0474,6/15/2009 14:22,,Sale,,,,4.00686E+11,3725...1017,Oct-10,Y:1752330530291306:YYYX:400686266935:,80
825077,D80AF279-4A36B0EF-645-E0474,6/15/2009 13:35,,Sale,,,,4.00686E+11,4417...8100,May-11,Y:01125B0530266839:YYYX:400686242776:,60
825077,D80AF279-4A36AFB3-924-E0474,6/15/2009 13:30,,Sale,,,,4.00686E+11,4313...3758,Mar-12,Y:03517C0530264272:YYYX:400686240241:,70
825077,D80AF279-4A36AF8C-833-E0474,6/15/2009 13:29,,Sale,,,,4.00686E+11,4707...3487,Oct-09,Y:0325050530263989:YYYX:400686239962:,200
825077,D80AF279-4A36A4A6-208-E0474,6/15/2009 12:43,,Sale,,,,4.00686E+11,5466...0844,Dec-10,Y:03288Z0530239800:YYYP:400686216099:,120
825077,D80AF279-4A369FFB-763-E0474,6/15/2009 12:23,,Sale,,,,4.00686E+11,4313...9632,Oct-10,Y:02540A0530227880:YYYX:400686204324:,180
825077,D80AF279-4A369EF0-888-E0474,6/15/2009 12:18,,Sale,,,,4.00686E+11,5452...3636,May-11,Y:0250770530224896:YYYP:400686201374:,60
825077,D80AF279-4A369EE4-746-E0474,6/15/2009 12:18,,Sale,,,,4.00686E+11,5490...5684,Feb-11,Y:01595B0530224782:YYYP:400686201261:,60
825077,D80AF279-4A369EB3-229-E0474,6/15/2009 12:17,,Sale,,,,4.00686E+11,5452...2515,Aug-11,Y:0159140530224372:YYYP:400686200854:,160
825077,D80AF279-4A369BCC-983-E0474,6/15/2009 12:05,,Sale,,,,4.00686E+11,4266...2207,Mar-11,Y:09606C0530218190:YYYX:400686194763:,140
825077,D80AF279-4A369916-085-E0474,6/15/2009 11:53,,Sale,,,,4.00686E+11,5588...7638,Feb-12,Y:0166770530212326:YYYP:400686188988:,60
825077,D80AF279-4A36981D-701-E0474,6/15/2009 11:49,,Sale,,,,4.00686E+11,5369...7894,Dec-11,Y:03306B0530210256:YYYP:400686186956:,60
825077,D80AF279-4A369621-445-E0474,6/15/2009 11:41,,Sale,,,,4.00686E+11,4352...8594,Jul-10,Y:0722250530206169:YYYX:400686182930:,60
825077,D80AF279-4A369507-656-E0474,6/15/2009 11:36,,Sale,,,,4.00686E+11,3723...7007,Apr-12,Y:1878400530203716:YYYX:400686180517:,70
825077,D80AF279-4A3691D2-355-E0474,6/15/2009 11:22,,Sale,,,,4.00686E+11,5466...1249,Feb-11,Y:61626Z0530195183:YYYP:400686172094:,60
825077,D80AF279-4A369174-777-E0474,6/15/2009 11:21,,Sale,,,,4.00686E+11,4888...0861,Mar-12,Y:02529B0530194120:YYYX:400686171046:,70
825077,D80AF279-4A368761-784-E0474,6/15/2009 10:38,,Sale,,,,4.00686E+11,3725...3009,May-12,Y:1777930530170298:YYYX:400686147537:,160
825077,D80AF279-4A36871B-012-E0474,6/15/2009 10:37,,Sale,,,,4.00686E+11,4226...3382,Sep-10,Y:05069C0530169771:YYYX:400686147016:,80
825077,D80AF279-4A36857F-439-E0474,6/15/2009 10:30,,Sale,,,,4.00686E+11,6011...4430,Apr-13,Y:0153620530166490:YYYS:400686143788:,130
825077,D80AF279-4A3684D0-009-E0474,6/15/2009 10:27,,Sale,,,,4.00686E+11,4147...8531,Aug-09,Y:01515C0530165008:YYYX:400686142332:,10
825077,D80AF279-4A36844B-308-E0474,6/15/2009 10:25,,Sale,,,,4.00686E+11,4868...7848,Dec-09,Y:09067B0530163902:YYYX:400686141237:,70
825077,D80AF279-4A3682DC-814-E0474,6/15/2009 10:19,,Sale,,,,4.00686E+11,4117...6367,Feb-12,Y:1725080530160946:YYYX:400686138335:,70
825077,D80AF279-4A368267-726-E0474,6/15/2009 10:17,,Sale,,,,4.00686E+11,4843...6216,Nov-09,Y:0269590530160123:YYYX:400686137520:,80
825077,D80AF279-4A368002-597-E0474,6/15/2009 10:06,,Sale,,,,4.00686E+11,3794...1000,Jul-11,Y:1860450530155023:YYYX:400686132503:,210
825077,D80AF279-4A367FED-006-E0474,6/15/2009 10:06,,Sale,,,,4.00686E+11,5424...2839,Feb-10,Y:50957B0530154848:YYYP:400686132330:,80
825077,D80AF279-4A367B6C-327-E0474,6/15/2009 9:47,,Sale,,,,4.00686E+11,6011...8921,Jun-13,Y:0151650530145696:YYYS:400686123299:,70
825077,D80AF279-4A3677F2-170-E0474,6/15/2009 9:32,,Sale,,,,4.00686E+11,6011...6871,Jan-14,Y:0159240530137934:YYYS:400686115659:,90
825077,D80AF279-4A3677C9-055-E0474,6/15/2009 9:31,,Sale,,,,4.00686E+11,3725...1002,Oct-10,Y:1136690530137482:YYYX:400686115213:,160
825077,D80AF279-4A3676B6-601-E0474,6/15/2009 9:27,,Sale,,,,4.00686E+11,4060...3072,Oct-11,Y:0185770530135294:YYYX:400686113054:,70
825077,D80AF279-4A3676A0-420-E0474,6/15/2009 9:26,,Sale,,,,4.00686E+11,6011...6871,Jan-14,Y:0159890530135146:YYYS:400686112907:,170
825077,D80AF279-4A367609-529-E0474,6/15/2009 9:24,,Sale,,,,4.00686E+11,4718...8918,Apr-10,Y:11515B0530133828:YYYX:400686111603:,80
825077,D80AF279-4A36742E-943-E0474,6/15/2009 9:16,,Sale,,,,4.00686E+11,5427...7368,Jul-09,Y:0140050530130065:YYYP:400686107897:,120
825077,D80AF279-4A367380-082-E0474,6/15/2009 9:13,,Sale,,,,4.00686E+11,5427...7368,Jul-09,Y:0129270530128486:YYYP:400686106354:,20
825077,D80AF279-4A36717D-247-E0474,6/15/2009 9:04,,Sale,,,,4.00686E+11,3713...1014,Aug-11,Y:1643850530124466:YYYX:400686102398:,80
825077,D80AF279-4A367089-859-E0474,6/15/2009 9:00,,Sale,,,,4.00686E+11,5424...6300,Apr-10,Y:59190B0530122562:YYYP:400686100516:,100
825077,D80AF279-4A366E29-371-E0474,6/15/2009 8:50,,Sale,,,,4.00686E+11,6011...5446,May-13,Y:0153090530117497:YYYS:400686095529:,60
825077,D80AF279-4A366C5E-646-E0474,6/15/2009 8:43,,Sale,,,,4.00686E+11,5466...2520,Mar-10,Y:62764Z0530113649:YYYP:400686091735:,280
825077,D80AF279-4A366A4C-409-E0474,6/15/2009 8:34,,Sale,,,,4.00686E+11,5582...7637,Feb-11,Y:0622940530109037:YYYP:400686087163:,60
825077,D80AF279-4A3668A5-613-E0474,6/15/2009 8:27,,Sale,,,,4.00686E+11,5121...3933,Jun-12,Y:01568B0530105330:YYYP:400686083510:,80
825077,D80AF279-4A3667B0-804-E0474,6/15/2009 8:23,,Sale,,,,4.00686E+11,4888...2705,Feb-11,Y:02540B0530103180:YYYX:400686081390:,70
825077,D80AF279-4A366772-466-E0474,6/15/2009 8:22,,Sale,,,,4.00686E+11,4266...3439,Apr-12,Y:09933B0530102628:YYYX:400686080842:,60
825077,D80AF279-4A36648F-974-E0474,6/15/2009 8:09,,Sale,,,,4.00686E+11,4465...3234,Aug-10,Y:01505B0530096317:YYYX:400686074602:,120
825077,D80AF279-4A36635C-069-E0474,6/15/2009 8:04,,Sale,,,,4.00686E+11,4266...0746,Jan-11,Y:08144C0530093824:YYYX:400686072139:,70
825077,D80AF279-4A3662D3-695-E0474,6/15/2009 8:02,,Sale,,,,4.00686E+11,5424...4927,Aug-09,Y:00957B0530092761:YYYP:400686071101:,240
825077,D80AF279-4A366246-048-E0474,6/15/2009 8:00,,Sale,,,,4.00686E+11,5122...9831,May-10,Y:03800Z0530091658:YYYP:400686070014:,60
825077,D80AF279-4A366116-913-E0474,6/15/2009 7:55,,Sale,,,,4.00686E+11,3772...1009,Oct-11,Y:1367860530089616:YYYX:400686067989:,140
825077,D80AF279-4A36600E-254-E0474,6/15/2009 7:50,,Sale,,,,4.00686E+11,5466...9622,Feb-11,Y:74275Z0530087850:YYYP:400686066250:,80
825077,D80AF279-4A365FF2-609-E0474,6/15/2009 7:50,,Sale,,,,4.00686E+11,4306...1458,Feb-12,Y:0159260530087666:YYYX:400686066071:,60
825077,D80AF279-4A365FB1-934-E0474,6/15/2009 7:49,,Sale,,,,4.00686E+11,5200...0990,Apr-11,Y:05500B0530087209:YYYP:400686065629:,60
825077,D80AF279-4A365E2D-774-E0474,6/15/2009 7:42,,Sale,,,,4.00686E+11,5424...2672,Nov-14,Y:56664B0530084348:YYYP:400686062805:,60
825077,D80AF279-4A365E12-602-E0474,6/15/2009 7:42,,Sale,,,,4.00686E+11,3772...2002,Sep-09,Y:1265770530084175:YYYX:400686062638:,80
825077,11587,6/15/2009 7:38,,Sale,,,,4.00686E+11,5522...5145,Sep-09,Y:9051930530082634:YYYP:400686061124:,50
825077,D80AF279-4A365CA0-271-E0474,6/15/2009 7:35,,Sale,,,,4.00686E+11,5466...4278,Sep-10,Y:37783Z0530081698:YYYP:400686060201:,50
825077,D80AF279-4A365C67-686-E0474,6/15/2009 7:35,,Sale,,,,4.00686E+11,5424...7238,Mar-11,Y:93748B0530081337:YYYP:400686059846:,70
825077,D80AF279-4A365A28-729-E0474,6/15/2009 7:25,,Sale,,,,4.00686E+11,5424...4572,Feb-11,Y:53525B0530076787:YYYP:400686055687:,70
825077,D80AF279-4A3659C5-265-E0474,6/15/2009 7:23,,Sale,,,,4.00686E+11,4388...2696,Apr-11,Y:05298C0530075887:NYZX:400686054928:,110
825077,D80AF279-4A3657C1-007-E0474,6/15/2009 7:15,,Sale,,,,4.00686E+11,4388...4388,Dec-09,Y:09012C0530071425:YYYX:400686051165:,100
825077,D80AF279-4A3657BA-323-E0474,6/15/2009 7:15,,Sale,,,,4.00686E+11,3723...2003,Nov-10,Y:1847040530071352:YYYX:400686051103:,101
825077,D80AF279-4A3657AC-333-E0474,6/15/2009 7:14,,Sale,,,,4.00686E+11,3717...2008,Feb-11,Y:1884550530071233:YYYX:400686051003:,60
825077,D80AF279-4A3656CD-179-E0474,6/15/2009 7:11,,Sale,,,,4.00686E+11,5403...6557,Jul-09,Y:3416880530069320:YYYP:400686049389:,80
825077,D80AF279-4A36565F-275-E0474,6/15/2009 7:09,,Sale,,,,4.00686E+11,4388...4388,Dec-09,Y:01201C0530068448:YYYX:400686048661:,20
825077,D80AF279-4A36552D-469-E0474,6/15/2009 7:04,,Sale,,,,4.00686E+11,4479...1826,Dec-11,Y:0155660530066231:YYYX:400686046522:,60
825077,D80AF279-4A365515-143-E0474,6/15/2009 7:03,,Sale,,,,4.00686E+11,4266...3479,Nov-10,Y:05310B0530066055:YYYX:400686046348:,80
825077,D80AF279-4A3654B9-308-E0474,6/15/2009 7:02,,Sale,,,,4.00686E+11,3725...1002,May-10,Y:1726570530065463:YYYX:400686045760:,60
825077,D80AF279-4A3653A0-436-E0474,6/15/2009 6:57,,Sale,,,,4.00686E+11,4479...1826,Dec-11,Y:0151130530063486:YYYX:400686043801:,60
825077,D80AF279-4A365226-833-E0474,6/15/2009 6:51,,Sale,,,,4.00686E+11,5401...1367,May-11,Y:07185B0530060763:YYYP:400686041110:,70
825077,D80AF279-4A365123-665-E0474,6/15/2009 6:46,,Sale,,,,4.00686E+11,4121...9486,Nov-11,Y:04592A0530059024:YYYX:400686039418:,280
825077,D80AF279-4A364DED-300-E0474,6/15/2009 6:33,,Sale,,,,4.00686E+11,6011...5522,Jun-13,Y:0159520530054330:YYYS:400686034784:,130
825077,D80AF279-4A364DC1-616-E0474,6/15/2009 6:32,,Sale,,,,4.00686E+11,5424...5440,Feb-10,Y:92214B0530054086:YYYP:400686034541:,60
825077,D80AF279-4A364D5B-561-E0474,6/15/2009 6:30,,Sale,,,,4.00686E+11,4313...9296,Jan-12,Y:03521C0530053551:YYYX:400686034013:,120
825077,D80AF279-4A364CCF-516-E0474,6/15/2009 6:28,,Sale,,,,4.00686E+11,4264...3592,Aug-09,Y:0259990530052783:YYYX:400686033255:,120
825077,D80AF279-4A3649F3-897-E0474,6/15/2009 6:16,,Sale,,,,4.00686E+11,6011...0668,Jun-13,Y:0159560530048793:YYYS:400686029322:,140
825077,D80AF279-4A3648BA-134-E0474,6/15/2009 6:11,,Sale,,,,4.00686E+11,5522...5145,Sep-11,Y:8051210530047189:YYYP:400686027738:,110
825077,D80AF279-4A36486B-523-E0474,6/15/2009 6:09,,Sale,,,,4.00686E+11,4266...8711,Sep-09,Y:03247C0530046807:YYYX:400686027360:,140
825077,D80AF279-4A364720-236-E0474,6/15/2009 6:04,,Sale,,,,4.00686E+11,4266...5464,Oct-11,Y:06113B0530044945:YYYX:400686025514:,105
825077,D80AF279-4A3646D9-169-E0474,6/15/2009 6:03,,Sale,,,,4.00686E+11,4417...4127,Nov-09,Y:02788B0530044549:YYYX:400686025122:,80
825077,D80AF279-4A36080B-062-E0474,6/15/2009 1:35,,Sale,,,,4.00686E+11,4217...0492,Jul-10,Y:0013620529975317:YYYX:400685958994:,210
825077,D80AF279-4A35EA7E-499-E0474,6/14/2009 23:28,,Sale,,,,4.00686E+11,5424...3761,Nov-09,Y:74858B0529963605:YYYP:400685947561:,200
825077,D80AF279-4A35E8E0-211-E0474,6/14/2009 23:22,,Sale,,,,4.00686E+11,3717...1002,Mar-11,Y:1755930529962930:YYYX:400685946922:,140
825077,D80AF279-4A35E841-859-E0474,6/14/2009 23:19,,Sale,,,,4.00686E+11,3717...1019,Jan-13,Y:1317150529962650:YYYX:400685946655:,120
825077,D80AF279-4A35E62A-059-E0474,6/14/2009 23:10,,Sale,,,,4.00686E+11,4190...8147,Dec-09,Y:10511D0529961855:YYYX:400685945920:,60
825077,D80AF279-4A35E23E-256-E0474,6/14/2009 22:53,,Sale,,,,4.00686E+11,4843...3884,Jun-11,Y:0834430529959296:YYYX:400685943505:,70
825077,D80AF279-4A35DFF0-562-E0474,6/14/2009 22:43,,Sale,,,,4.00686E+11,5491...2351,Nov-10,Y:T3747B0529958235:YYYP:400685942559:,60
825077,D80AF279-4A35DB5F-180-E0474,6/14/2009 22:24,,Sale,,,,4.00686E+11,3717...1000,Sep-12,Y:1267970529955918:YYYX:400685940433:,100
825077,D80AF279-4A35DA48-310-E0474,6/14/2009 22:19,,Sale,,,,4.00686E+11,4147...0551,Dec-11,Y:03384C0529955438:YYYX:400685939986:,60
825077,D80AF279-4A35DA30-164-E0474,6/14/2009 22:19,,Sale,,,,4.00686E+11,3717...1000,Sep-12,Y:1210650529955389:YYYX:400685939942:,60
825077,D80AF279-4A35D92B-415-E0474,6/14/2009 22:15,,Sale,,,,4.00686E+11,3717...1012,Mar-12,Y:1062480529954780:YYYX:400685939358:,60
825077,D80AF279-4A3594CA-581-DEED6,6/14/2009 17:23,,Sale,,,,4.00686E+11,5466...5134,Jan-12,Y:12585Z0529888990:YYYP:400685875460:,120
825077,D80AF279-4A35948E-895-DEED6,6/14/2009 17:22,,Sale,,,,4.00686E+11,4217...3258,Dec-10,Y:0172340529888677:YYYX:400685875155:,70
825077,D80AF279-4A3592B2-270-DEED6,6/14/2009 17:14,,Sale,,,,4.00686E+11,5466...6798,Sep-11,Y:06402S0529886375:YYYP:400685872921:,90
825077,D80AF279-4A3592A5-319-DEED6,6/14/2009 17:14,,Sale,,,,4.00686E+11,5466...4278,Sep-10,Y:94089Z0529886321:YYYP:400685872868:,30
825077,D80AF279-4A358671-599-DEED6,6/14/2009 16:22,,Sale,,,,4.00686E+11,4623...0645,Dec-12,Y:81413D0529869546:YYYX:400685856508:,70
825077,D80AF279-4A358205-711-DEED6,6/14/2009 16:03,,Sale,,,,4.00686E+11,4128...5139,Feb-13,Y:20772B0529863442:YYYX:400685850537:,150
825077,D80AF279-4A357572-876-DEED6,6/14/2009 15:09,,Sale,,,,4.00686E+11,3723...1016,Feb-10,Y:1585920529846486:YYYX:400685833764:,110
825077,D80AF279-4A357407-053-DEED6,6/14/2009 15:03,,Sale,,,,4.00686E+11,3713...2002,Feb-12,Y:1947140529844691:YYYX:400685831984:,60
825077,D80AF279-4A34F6DD-101-DEED6,6/14/2009 6:09,,Sale,,,,4.00686E+11,5466...9590,Nov-11,Y:01582Z0529714853:YYYP:400685703306:,100
825077,D80AF279-4A32A0A3-814-DC39A,6/12/2009 11:37,,Sale,,,,4.00685E+11,4147...8531,Aug-09,Y:01254C0529092894:NYZX:400685091943:,60
825077,D80AF279-4A329DDF-616-DC39A,6/12/2009 11:25,,Sale,,,,4.00685E+11,6011...0432,Oct-12,Y:0125390529087292:YYYS:400685086421:,220
825077,D80AF279-4A3296E5-363-DC39A,6/12/2009 10:55,,Sale,,,,4.00685E+11,3743...8761,Jan-11,Y:4674580529073161:YYYX:400685072506:,60
825077,11586,6/7/2009 12:11,,Sale,,,,4.00683E+11,4868...7848,Dec-09,Y:09597B0526862147:YYYX:400682909724:,50
825077,11585,6/4/2009 8:41,,Sale,,,,4.00682E+11,4258...6160,Aug-11,Y:0790700525578922:YYYX:400681653177:,50
825077,11584,6/2/2009 12:58,,Sale,,,,4.00681E+11,5466...2445,Dec-09,Y:91743Z0524743215:YYYP:400680843759:,50
825077,11583,6/1/2009 8:22,,Sale,,,,4.0068E+11,5424...4927,Aug-09,Y:34054B0523974261:YYYP:400680088402:,50
,,,,,,,,,,,,
VisaTotal,21941,,,,,,,,,,,
MasterCardTotal,19740,,,,,,,,,,,
DiscoverTotal,6020,,,,,,,,,,,
AmexTotal,12842,,,,,,,,,,,
Total,60543,677 orders,,,,,,,,,,
