Acct Number,Acct Desc,Date,Description,Symbol,Type,Quantity,Price,Net Amount,Comm,Acct Type,DateSort,HistoryID,Withholding,TranID,NF_Quantity,NF_Price,NF_Net Amount,NF_Comm,AssetType
,,,,,,,,,,,,,,,,,,,
901720070,North South (scholarships),1/4/2010,ISHARES MSCI EMERGING MKTS DIVIDEND REINVEST 1.906 @42.5599,EEM,TRN,1.906,42.5599,-81.11,0,Cash,20100104,279976686,0,709,1.906,42.5599,-81.11,0,Stock
901720070,North South (scholarships),1/4/2010,POWERSHARES QQQ DIVIDEND REINVEST .426 @46.42,QQQQ,TRN,0.426,46.42,-19.77,0,Cash,20100104,279976688,0,709,0.426,46.42,-19.77,0,Stock
1901720070,North South (scholarships),1/4/2010,ISHARES MSCI EMERGING MKTS ORDINARY DIVIDEND PAID 81.11 FOR 251.214 SHARES ON PAYABLE DATE 12/31/2009 AND RECORD DATE 12/24/2009,EEM,DIV,0,0,81.11,0,Cash,20100104,279976685,0,488,0,0,81.11,0,Stock
901720070,North South (scholarships),1/4/2010,POWERSHARES QQQ ORDINARY DIVIDEND PAID 19.77 FOR 254.832 SHARES ON PAYABLE DATE 12/31/2009 AND RECORD DATE 12/22/2009,QQQQ,DIV,0,0,19.77,0,Cash,20100104,279976687,0,488,0,0,19.77,0,Stock
901720070,North South (scholarships),1/7/2010,ISHARES MSCI EMERGING MKTS DIVIDEND REINVEST .071 @42.65949,EEM,TRN,0.071,42.6595,-3.02,0,Cash,20100107,283850837,0,709,0.071,42.65949,-3.02,0,Stock
901720070,North South (scholarships),1/7/2010,ISHARES MSCI EMERGING MKTS ORDINARY DIVIDEND PAID 3.02 FOR 251.214 SHARES ON PAYABLE DATE 01/06/2010 AND RECORD DATE 12/31/2009,EEM,DIV,0,0,3.02,0,Cash,20100107,283850836,0,488,0,0,3.02,0,Stock
901720070,North South (scholarships),1/27/2010,MANAGERS FREMONT BOND FUND DIVIDEND REINVEST 2.041 @10.55,MBDFX,TRN,2.041,10.55,-21.53,0,Cash,20100127,287342734,0,709,2.041,10.55,-21.53,0,Mutual Fund
901720070,North South (scholarships),1/27/2010,MANAGERS FREMONT BOND FUND ORDINARY DIVIDEND PAID 21.53 FOR 982.365 SHARES ON PAYABLE DATE 01/26/2010 AND RECORD DATE 12/29/2009,MBDFX,DIV,0,0,21.53,0,Cash,20100127,287342733,0,488,0,0,21.53,0,Mutual Fund
901720070,North South (scholarships),1/29/2010,FREE BALANCE INTEREST ADJUSTMENT PAID 1.84 FOR  SHARES ON PAYABLE DATE 01/29/2010 AND RECORD DATE 01/29/2010,,DIV,0,0,1.84,0,Cash,20100129,287947014,0,466,0,0,1.84,0,
901720070,North South (scholarships),2/9/2010,TD BANK USA CHECKING Check #:147,,TRN,0,0,-250,0,Cash,20100209,291044458,0,447,0,0,-250,0,
901720070,North South (scholarships),2/24/2010,MANAGERS FREMONT BOND FUND ORDINARY DIVIDEND PAID 18.31 FOR 984.099 SHARES ON PAYABLE DATE 02/23/2010 AND RECORD DATE 01/27/2010,MBDFX,DIV,0,0,18.31,0,Cash,20100224,292943063,0,488,0,0,18.31,0,Mutual Fund
901720070,North South (scholarships),2/24/2010,MANAGERS FREMONT BOND FUND DIVIDEND REINVEST 1.734 @10.56,MBDFX,TRN,1.734,10.56,-18.31,0,Cash,20100224,292943064,0,709,1.734,10.56,-18.31,0,Mutual Fund
901720070,North South (scholarships),2/26/2010,FREE BALANCE INTEREST ADJUSTMENT PAID 1.65 FOR  SHARES ON PAYABLE DATE 02/26/2010 AND RECORD DATE 02/26/2010,,DIV,0,0,1.65,0,Cash,20100226,293463088,0,466,0,0,1.65,0,
901720070,North South (scholarships),3/4/2010,TD BANK USA CHECKING Check #:148,,TRN,0,0,"-1,500.00",0,Cash,20100304,295665371,0,447,0,0,-1500,0,
901720070,North South (scholarships),3/23/2010,VANGUARD SPECIALIZED PORTFOL HLTH CARE PTFL DIVIDEND REINVEST .042 @124.25,VGHCX,TRN,0.042,124.25,-5.21,0,Cash,20100323,299281870,0,709,0.042,124.25,-5.21,0,Mutual Fund
901720070,North South (scholarships),3/23/2010,VANGUARD SPECIALIZED PORTFOL HLTH CARE PTFL LONG TERM GAIN DISTRIBUTION PAID 73.47 FOR 62.691 SHARES ON PAYABLE DATE 03/23/2010 AND RECORD DATE 03/19/2010,VGHCX,DIV,0,0,73.47,0,Cash,20100323,299281871,0,472,0,0,73.47,0,Mutual Fund
901720070,North South (scholarships),3/23/2010,VANGUARD SPECIALIZED PORTFOL HLTH CARE PTFL DIVIDEND REINVEST .002 @124.25,VGHCX,TRN,0.002,124.25,-0.31,0,Cash,20100323,299281868,0,709,0.002,124.25,-0.31,0,Mutual Fund
901720070,North South (scholarships),3/23/2010,VANGUARD SPECIALIZED PORTFOL HLTH CARE PTFL ORDINARY DIVIDEND PAID 5.21 FOR 62.098 SHARES ON PAYABLE DATE 03/23/2010 AND RECORD DATE 03/19/2010,VGHCX,DIV,0,0,5.21,0,Cash,20100323,299281869,0,488,0,0,5.21,0,Mutual Fund
901720070,North South (scholarships),3/23/2010,VANGUARD SPECIALIZED PORTFOL HLTH CARE PTFL DIVIDEND REINVEST .591 @124.25,VGHCX,TRN,0.591,124.25,-73.47,0,Cash,20100323,299281872,0,709,0.591,124.25,-73.47,0,Mutual Fund
901720070,North South (scholarships),3/23/2010,VANGUARD SPECIALIZED PORTFOL HLTH CARE PTFL SHORT TERM CAPITAL GAINS PAID .31 FOR 62.1 SHARES ON PAYABLE DATE 03/23/2010 AND RECORD DATE 03/19/2010,VGHCX,DIV,0,0,0.31,0,Cash,20100323,299281867,0,475,0,0,0.31,0,Mutual Fund
901720070,North South (scholarships),3/24/2010,FDIC INSURED DEPOSIT ACCOUNT  IDA12 NOT COVERED BY SIPC MONEY MARKET PURCHASE,IDA12,TRD,"41,533.60",0,0,0,Cash,20100324,299502969,0,743,41533.6,0,0,0,Money Market
901720070,North South (scholarships),3/24/2010,PURCHASE FDIC INSURED DEPOSIT ACCOUNT    FOR 41533.6,,TRD,0,0,"-41,533.60",0,Cash,20100324,299502968,0,741,0,0,-41533.6,0,
901720070,North South (scholarships),3/29/2010,DODGE & COX INCOME FD COM ORDINARY DIVIDEND PAID 126.59 FOR 800.869 SHARES ON PAYABLE DATE 03/29/2010 AND RECORD DATE 03/25/2010,DODIX,DIV,0,0,126.59,0,Cash,20100329,300277010,0,488,0,0,126.59,0,Mutual Fund
901720070,North South (scholarships),3/29/2010,MANAGERS FREMONT BOND FUND ORDINARY DIVIDEND PAID 22.85 FOR 986.257 SHARES ON PAYABLE DATE 03/26/2010 AND RECORD DATE 02/24/2010,MBDFX,DIV,0,0,22.85,0,Cash,20100329,300277014,0,488,0,0,22.85,0,Mutual Fund
901720070,North South (scholarships),3/29/2010,DODGE & COX INCOME FD COM DIVIDEND REINVEST 9.686 @13.07,DODIX,TRN,9.686,13.07,-126.59,0,Cash,20100329,300277011,0,709,9.686,13.07,-126.59,0,Mutual Fund
901720070,North South (scholarships),3/29/2010,DODGE & COX BALANCED FD COM ORDINARY DIVIDEND PAID 64.85 FOR 163.088 SHARES ON PAYABLE DATE 03/29/2010 AND RECORD DATE 03/25/2010,DODBX,DIV,0,0,64.85,0,Cash,20100329,300277012,0,488,0,0,64.85,0,Mutual Fund
901720070,North South (scholarships),3/29/2010,MANAGERS FREMONT BOND FUND DIVIDEND REINVEST 2.158 @10.59,MBDFX,TRN,2.158,10.59,-22.85,0,Cash,20100329,300277015,0,709,2.158,10.59,-22.85,0,Mutual Fund
901720070,North South (scholarships),3/29/2010,DODGE & COX BALANCED FD COM DIVIDEND REINVEST .97 @66.86,DODBX,TRN,0.97,66.86,-64.85,0,Cash,20100329,300277013,0,709,0.97,66.86,-64.85,0,Mutual Fund
901720070,North South (scholarships),3/30/2010,VANGUARD/WELLINGTON FD INC COM DIVIDEND REINVEST 2.748 @29.75,VWELX,TRN,2.748,29.75,-81.76,0,Cash,20100330,300595175,0,709,2.748,29.75,-81.76,0,Mutual Fund
901720070,North South (scholarships),3/30/2010,VANGUARD INFLATION PROTECTED SEC FD DIVIDEND REINVEST 4.584 @12.46,VIPSX,TRN,4.584,12.46,-57.12,0,Cash,20100330,300595177,0,709,4.584,12.46,-57.12,0,Mutual Fund
901720070,North South (scholarships),3/30/2010,VANGUARD/WELLINGTON FD INC COM ORDINARY DIVIDEND PAID 81.76 FOR 433.04 SHARES ON PAYABLE DATE 03/30/2010 AND RECORD DATE 03/26/2010,VWELX,DIV,0,0,81.76,0,Cash,20100330,300595174,0,488,0,0,81.76,0,Mutual Fund
901720070,North South (scholarships),3/30/2010,VANGUARD INFLATION PROTECTED SEC FD ORDINARY DIVIDEND PAID 57.12 FOR 820.534 SHARES ON PAYABLE DATE 03/30/2010 AND RECORD DATE 03/26/2010,VIPSX,DIV,0,0,57.12,0,Cash,20100330,300595176,0,488,0,0,57.12,0,Mutual Fund
901720070,North South (scholarships),3/31/2010,FDIC INSURED DEPOSIT ACCOUNT  IDA12 NOT COVERED BY SIPC MONEY MARKET INTEREST,IDA12,DIV,0.91,0,0,0,Cash,20100331,301221072,0,740,0.91,0,0,0,Money Market
901720070,North South (scholarships),4/1/2010,VANGUARD INFLATION PROTECTED SEC FD DIVIDEND REINVEST 4.584 @12.46,VIPSX,TRN,4.584,12.46,57.12,0,Cash,20100401,302510808,0,709,4.584,12.46,57.12,0,Mutual Fund
901720070,North South (scholarships),4/1/2010,VANGUARD INFLATION PROTECTED SEC FD ORDINARY DIVIDEND PAID 57.12 FOR -815.95 SHARES ON PAYABLE DATE 03/30/2010 AND RECORD DATE 03/26/2010,VIPSX,DIV,0,0,-57.12,0,Cash,20100401,302510807,0,488,0,0,-57.12,0,Mutual Fund
901720070,North South (scholarships),4/1/2010,VANGUARD/WELLINGTON FD INC COM DIVIDEND REINVEST 2.748 @29.75,VWELX,TRN,2.748,29.75,81.76,0,Cash,20100401,302510810,0,709,2.748,29.75,81.76,0,Mutual Fund
901720070,North South (scholarships),4/1/2010,VANGUARD/WELLINGTON FD INC COM ORDINARY DIVIDEND PAID 81.76 FOR -430.292 SHARES ON PAYABLE DATE 03/30/2010 AND RECORD DATE 03/26/2010,VWELX,DIV,0,0,-81.76,0,Cash,20100401,302510809,0,488,0,0,-81.76,0,Mutual Fund
901720070,North South (scholarships),4/5/2010,VANGUARD INFLATION PROTECTED SEC FD DIVIDEND REINVEST 4.257 @12.46,VIPSX,TRN,4.257,12.46,-53.04,0,Cash,20100405,303642373,0,709,4.257,12.46,-53.04,0,Mutual Fund
901720070,North South (scholarships),4/5/2010,VANGUARD/WELLINGTON FD INC COM DIVIDEND REINVEST 2.763 @29.75,VWELX,TRN,2.763,29.75,-82.19,0,Cash,20100405,303642375,0,709,2.763,29.75,-82.19,0,Mutual Fund
901720070,North South (scholarships),4/5/2010,VANGUARD INFLATION PROTECTED SEC FD ORDINARY DIVIDEND PAID 53.04 FOR 820.207 SHARES ON PAYABLE DATE 03/30/2010 AND RECORD DATE 03/26/2010,VIPSX,DIV,0,0,53.04,0,Cash,20100405,303642372,0,488,0,0,53.04,0,Mutual Fund
901720070,North South (scholarships),4/5/2010,VANGUARD/WELLINGTON FD INC COM ORDINARY DIVIDEND PAID 82.19 FOR 433.055 SHARES ON PAYABLE DATE 03/30/2010 AND RECORD DATE 03/26/2010,VWELX,DIV,0,0,82.19,0,Cash,20100405,303642374,0,488,0,0,82.19,0,Mutual Fund
901720070,North South (scholarships),4/28/2010,MANAGERS FREMONT BOND FUND ORDINARY DIVIDEND PAID 20.83 FOR 988.204 SHARES ON PAYABLE DATE 04/27/2010 AND RECORD DATE 03/27/2010,MBDFX,DIV,0,0,20.83,0,Cash,20100428,308696477,0,488,0,0,20.83,0,Mutual Fund
901720070,North South (scholarships),4/28/2010,MANAGERS FREMONT BOND FUND DIVIDEND REINVEST 1.947 @10.7,MBDFX,TRN,1.947,10.7,-20.83,0,Cash,20100428,308696478,0,709,1.947,10.7,-20.83,0,Mutual Fund
901720070,North South (scholarships),4/30/2010,FDIC INSURED DEPOSIT ACCOUNT  IDA12 NOT COVERED BY SIPC MONEY MARKET INTEREST,IDA12,DIV,3.41,0,0,0,Cash,20100430,309323615,0,740,3.41,0,0,0,Money Market
901720070,North South (scholarships),5/3/2010,POWERSHARES QQQ DIVIDEND REINVEST .262 @50.0599,QQQQ,TRN,0.262,50.0599,-13.14,0,Cash,20100503,310201011,0,709,0.262,50.0599,-13.14,0,Stock
901720070,North South (scholarships),5/3/2010,POWERSHARES QQQ ORDINARY DIVIDEND PAID 13.14 FOR 255.258 SHARES ON PAYABLE DATE 04/30/2010 AND RECORD DATE 03/23/2010,QQQQ,DIV,0,0,13.14,0,Cash,20100503,310201010,0,488,0,0,13.14,0,Stock
901720070,North South (scholarships),5/26/2010,MANAGERS FREMONT BOND FUND ORDINARY DIVIDEND PAID 18.76 FOR 989.954 SHARES ON PAYABLE DATE 05/25/2010 AND RECORD DATE 04/28/2010,MBDFX,DIV,0,0,18.76,0,Cash,20100526,315370190,0,488,0,0,18.76,0,Mutual Fund
901720070,North South (scholarships),5/26/2010,MANAGERS FREMONT BOND FUND DIVIDEND REINVEST 1.75 @10.72,MBDFX,TRN,1.75,10.72,-18.76,0,Cash,20100526,315370191,0,709,1.75,10.72,-18.76,0,Mutual Fund
901720070,North South (scholarships),5/28/2010,FDIC INSURED DEPOSIT ACCOUNT  IDA12 NOT COVERED BY SIPC MONEY MARKET INTEREST,IDA12,DIV,3.53,0,0,0,Cash,20100528,315964787,0,740,3.53,0,0,0,Money Market
901720070,North South (scholarships),6/28/2010,DODGE & COX BALANCED FD COM DIVIDEND REINVEST 1.046 @62.39,DODBX,TRN,1.046,62.39,-65.24,0,Cash,20100628,322923151,0,709,1.046,62.39,-65.24,0,Mutual Fund
901720070,North South (scholarships),6/28/2010,DODGE & COX INCOME FD COM DIVIDEND REINVEST 9.744 @13.15,DODIX,TRN,9.744,13.15,-128.14,0,Cash,20100628,322923153,0,709,9.744,13.15,-128.14,0,Mutual Fund
901720070,North South (scholarships),6/28/2010,MANAGERS FREMONT BOND FUND DIVIDEND REINVEST 2.169 @10.82,MBDFX,TRN,2.169,10.82,-23.47,0,Cash,20100628,322923149,0,709,2.169,10.82,-23.47,0,Mutual Fund
901720070,North South (scholarships),6/28/2010,SOUND SHORE FD INC COM DIVIDEND REINVEST 1.073 @26.9,SSHFX,TRN,1.073,26.9,-28.87,0,Cash,20100628,322923155,0,709,1.073,26.9,-28.87,0,Mutual Fund
901720070,North South (scholarships),6/28/2010,DODGE & COX INCOME FD COM ORDINARY DIVIDEND PAID 128.14 FOR 810.613 SHARES ON PAYABLE DATE 06/28/2010 AND RECORD DATE 06/24/2010,DODIX,DIV,0,0,128.14,0,Cash,20100628,322923152,0,488,0,0,128.14,0,Mutual Fund
901720070,North South (scholarships),6/28/2010,MANAGERS FREMONT BOND FUND ORDINARY DIVIDEND PAID 23.47 FOR 992.123 SHARES ON PAYABLE DATE 06/25/2010 AND RECORD DATE 05/26/2010,MBDFX,DIV,0,0,23.47,0,Cash,20100628,322923148,0,488,0,0,23.47,0,Mutual Fund
901720070,North South (scholarships),6/28/2010,SOUND SHORE FD INC COM ORDINARY DIVIDEND PAID 28.87 FOR 217.09 SHARES ON PAYABLE DATE 06/24/2010 AND RECORD DATE 06/23/2010,SSHFX,DIV,0,0,28.87,0,Cash,20100628,322923154,0,488,0,0,28.87,0,Mutual Fund
901720070,North South (scholarships),6/28/2010,DODGE & COX BALANCED FD COM ORDINARY DIVIDEND PAID 65.24 FOR 164.134 SHARES ON PAYABLE DATE 06/28/2010 AND RECORD DATE 06/24/2010,DODBX,DIV,0,0,65.24,0,Cash,20100628,322923150,0,488,0,0,65.24,0,Mutual Fund
901720070,North South (scholarships),6/29/2010,VANGUARD/WELLINGTON FD INC COM DIVIDEND REINVEST 3.544 @28.1,VWELX,TRN,3.544,28.1,-99.6,0,Cash,20100629,323245173,0,709,3.544,28.1,-99.6,0,Mutual Fund
901720070,North South (scholarships),6/29/2010,VANGUARD INFLATION PROTECTED SEC FD DIVIDEND REINVEST 3.101 @12.96,VIPSX,TRN,3.101,12.96,-40.19,0,Cash,20100629,323245175,0,709,3.101,12.96,-40.19,0,Mutual Fund
901720070,North South (scholarships),6/29/2010,VANGUARD/WELLINGTON FD INC COM ORDINARY DIVIDEND PAID 99.6 FOR 436.599 SHARES ON PAYABLE DATE 06/29/2010 AND RECORD DATE 06/25/2010,VWELX,DIV,0,0,99.6,0,Cash,20100629,323245172,0,488,0,0,99.6,0,Mutual Fund
901720070,North South (scholarships),6/29/2010,VANGUARD INFLATION PROTECTED SEC FD ORDINARY DIVIDEND PAID 40.19 FOR 823.308 SHARES ON PAYABLE DATE 06/29/2010 AND RECORD DATE 06/25/2010,VIPSX,DIV,0,0,40.19,0,Cash,20100629,323245174,0,488,0,0,40.19,0,Mutual Fund
901720070,North South (scholarships),6/30/2010,ISHARES MSCI EMERGING MKTS ORDINARY DIVIDEND PAID 66.24 FOR 253.191 SHARES ON PAYABLE DATE 06/29/2010 AND RECORD DATE 06/25/2010,EEM,DIV,0,0,66.24,0,Cash,20100630,323990363,0,488,0,0,66.24,0,Stock
901720070,North South (scholarships),6/30/2010,ISHARES MSCI EMERGING MKTS DIVIDEND REINVEST 1.745 @37.9699,EEM,TRN,1.745,37.9699,-66.24,0,Cash,20100630,323990364,0,709,1.745,37.9699,-66.24,0,Stock
901720070,North South (scholarships),6/30/2010,FDIC INSURED DEPOSIT ACCOUNT  IDA12 NOT COVERED BY SIPC MONEY MARKET INTEREST,IDA12,DIV,3.41,0,0,0,Cash,20100630,323990365,0,740,3.41,0,0,0,Money Market
901720070,North South (scholarships),7/28/2010,MANAGERS FREMONT BOND FUND DIVIDEND REINVEST 2.203 @10.91,MBDFX,TRN,2.203,10.91,-24.03,0,Cash,20100728,331419775,0,709,2.203,10.91,-24.03,0,Mutual Fund
901720070,North South (scholarships),7/28/2010,MANAGERS FREMONT BOND FUND ORDINARY DIVIDEND PAID 24.03 FOR 994.326 SHARES ON PAYABLE DATE 07/27/2010 AND RECORD DATE 06/26/2010,MBDFX,DIV,0,0,24.03,0,Cash,20100728,331419774,0,488,0,0,24.03,0,Mutual Fund
901720070,North South (scholarships),7/30/2010,FDIC INSURED DEPOSIT ACCOUNT  IDA12 NOT COVERED BY SIPC MONEY MARKET INTEREST,IDA12,DIV,0.35,0,0,0,Cash,20100730,331989184,0,740,0.35,0,0,0,Money Market
901720070,North South (scholarships),8/2/2010,POWERSHARES QQQ DIVIDEND REINVEST .49 @46.5999,QQQQ,TRN,0.49,46.5999,-22.82,0,Cash,20100802,332824005,0,709,0.49,46.5999,-22.82,0,Stock
901720070,North South (scholarships),8/2/2010,POWERSHARES QQQ ORDINARY DIVIDEND PAID 22.82 FOR 255.52 SHARES ON PAYABLE DATE 07/30/2010 AND RECORD DATE 06/22/2010,QQQQ,DIV,0,0,22.82,0,Cash,20100802,332824004,0,488,0,0,22.82,0,Stock
901720070,North South (scholarships),8/4/2010,TD BANK USA CHECKING Check #:150,,TRN,0,0,"-2,250.00",0,Cash,20100804,334113209,0,447,0,0,-2250,0,
901720070,North South (scholarships),8/5/2010,REDEMPTION FDIC INSURED DEPOSIT ACCOUNT    FOR 2250,,TRD,0,0,"2,250.00",0,Cash,20100805,334402308,0,742,0,0,2250,0,
901720070,North South (scholarships),8/5/2010,FDIC INSURED DEPOSIT ACCOUNT  IDA12 NOT COVERED BY SIPC MONEY MARKET REDEMPTION,IDA12,TRD,"-2,250.00",0,0,0,Cash,20100805,334402309,0,744,-2250,0,0,0,Money Market
901720070,North South (scholarships),8/10/2010,TD BANK USA CHECKING Check #:149,,TRN,0,0,"-1,000.00",0,Cash,20100810,335179477,0,447,0,0,-1000,0,
901720070,North South (scholarships),8/11/2010,FDIC INSURED DEPOSIT ACCOUNT  IDA12 NOT COVERED BY SIPC MONEY MARKET REDEMPTION,IDA12,TRD,"-1,000.00",0,0,0,Cash,20100811,335375360,0,744,-1000,0,0,0,Money Market
901720070,North South (scholarships),8/11/2010,REDEMPTION FDIC INSURED DEPOSIT ACCOUNT    FOR 1000,,TRD,0,0,"1,000.00",0,Cash,20100811,335375359,0,742,0,0,1000,0,
901720070,North South (scholarships),8/27/2010,MANAGERS FREMONT BOND FUND ORDINARY DIVIDEND PAID 23 FOR 996.394 SHARES ON PAYABLE DATE 08/26/2010 AND RECORD DATE 07/28/2010,MBDFX,DIV,0,0,23,0,Cash,20100827,337669640,0,488,0,0,23,0,Mutual Fund
901720070,North South (scholarships),8/27/2010,MANAGERS FREMONT BOND FUND DIVIDEND REINVEST 2.068 @11.12,MBDFX,TRN,2.068,11.12,-23,0,Cash,20100827,337669641,0,709,2.068,11.12,-23,0,Mutual Fund
901720070,North South (scholarships),8/31/2010,FDIC INSURED DEPOSIT ACCOUNT  IDA12 NOT COVERED BY SIPC MONEY MARKET INTEREST,IDA12,DIV,0.33,0,0,0,Cash,20100831,338153804,0,740,0.33,0,0,0,Money Market
901720070,North South (scholarships),9/2/2010,TD BANK USA CHECKING Check #:151,,TRN,0,0,"-2,250.00",0,Cash,20100902,339871083,0,447,0,0,-2250,0,
901720070,North South (scholarships),9/3/2010,REDEMPTION FDIC INSURED DEPOSIT ACCOUNT    FOR 2250,,TRD,0,0,"2,250.00",0,Cash,20100903,340254485,0,742,0,0,2250,0,
901720070,North South (scholarships),9/3/2010,FDIC INSURED DEPOSIT ACCOUNT  IDA12 NOT COVERED BY SIPC MONEY MARKET REDEMPTION,IDA12,TRD,"-2,250.00",0,0,0,Cash,20100903,340254486,0,744,-2250,0,0,0,Money Market
901720070,North South (scholarships),9/17/2010,TD BANK USA CHECKING Check #:152,,TRN,0,0,-500,0,Cash,20100917,343410604,0,447,0,0,-500,0,
901720070,North South (scholarships),9/20/2010,FDIC INSURED DEPOSIT ACCOUNT  IDA12 NOT COVERED BY SIPC MONEY MARKET REDEMPTION,IDA12,TRD,-500,0,0,0,Cash,20100920,343666866,0,744,-500,0,0,0,Money Market
901720070,North South (scholarships),9/20/2010,REDEMPTION FDIC INSURED DEPOSIT ACCOUNT    FOR 500,,TRD,0,0,500,0,Cash,20100920,343666865,0,742,0,0,500,0,
901720070,North South (scholarships),9/28/2010,VANGUARD/WELLINGTON FD INC COM ORDINARY DIVIDEND PAID 91.69 FOR 439.692 SHARES ON PAYABLE DATE 09/28/2010 AND RECORD DATE 09/24/2010,VWELX,DIV,0,0,91.69,0,Cash,20100928,345246787,0,488,0,0,91.69,0,Mutual Fund
901720070,North South (scholarships),9/28/2010,DODGE & COX INCOME FD COM ORDINARY DIVIDEND PAID 129.7 FOR 820.321 SHARES ON PAYABLE DATE 09/28/2010 AND RECORD DATE 09/24/2010,DODIX,DIV,0,0,129.7,0,Cash,20100928,345246779,0,488,0,0,129.7,0,Mutual Fund
901720070,North South (scholarships),9/28/2010,MANAGERS FREMONT BOND FUND ORDINARY DIVIDEND PAID 24.2 FOR 998.561 SHARES ON PAYABLE DATE 09/27/2010 AND RECORD DATE 08/27/2010,MBDFX,DIV,0,0,24.2,0,Cash,20100928,345246781,0,488,0,0,24.2,0,Mutual Fund
901720070,North South (scholarships),9/28/2010,VANGUARD INFLATION PROTECTED SEC FD ORDINARY DIVIDEND PAID 27.17 FOR 825.354 SHARES ON PAYABLE DATE 09/28/2010 AND RECORD DATE 09/24/2010,VIPSX,DIV,0,0,27.17,0,Cash,20100928,345246785,0,488,0,0,27.17,0,Mutual Fund
901720070,North South (scholarships),9/28/2010,VANGUARD/WELLINGTON FD INC COM DIVIDEND REINVEST 3.093 @29.64,VWELX,TRN,3.093,29.64,-91.69,0,Cash,20100928,345246788,0,709,3.093,29.64,-91.69,0,Mutual Fund
901720070,North South (scholarships),9/28/2010,DODGE & COX BALANCED FD COM DIVIDEND REINVEST .96 @64.96,DODBX,TRN,0.96,64.96,-62.37,0,Cash,20100928,345246784,0,709,0.96,64.96,-62.37,0,Mutual Fund
901720070,North South (scholarships),9/28/2010,VANGUARD INFLATION PROTECTED SEC FD DIVIDEND REINVEST 2.046 @13.28,VIPSX,TRN,2.046,13.28,-27.17,0,Cash,20100928,345246786,0,709,2.046,13.28,-27.17,0,Mutual Fund
901720070,North South (scholarships),9/28/2010,MANAGERS FREMONT BOND FUND DIVIDEND REINVEST 2.167 @11.17,MBDFX,TRN,2.167,11.17,-24.2,0,Cash,20100928,345246782,0,709,2.167,11.17,-24.2,0,Mutual Fund
901720070,North South (scholarships),9/28/2010,DODGE & COX BALANCED FD COM ORDINARY DIVIDEND PAID 62.37 FOR 165.094 SHARES ON PAYABLE DATE 09/28/2010 AND RECORD DATE 09/24/2010,DODBX,DIV,0,0,62.37,0,Cash,20100928,345246783,0,488,0,0,62.37,0,Mutual Fund
901720070,North South (scholarships),9/28/2010,DODGE & COX INCOME FD COM DIVIDEND REINVEST 9.708 @13.36,DODIX,TRN,9.708,13.36,-129.7,0,Cash,20100928,345246780,0,709,9.708,13.36,-129.7,0,Mutual Fund
901720070,North South (scholarships),9/30/2010,FDIC INSURED DEPOSIT ACCOUNT  IDA12 NOT COVERED BY SIPC MONEY MARKET INTEREST,IDA12,DIV,0.3,0,0,0,Cash,20100930,346214529,0,740,0.3,0,0,0,Money Market
901720070,North South (scholarships),10/14/2010,TD BANK USA CHECKING Check #:153,,TRN,0,0,-250,0,Cash,20101014,351462407,0,447,0,0,-250,0,
901720070,North South (scholarships),10/15/2010,FDIC INSURED DEPOSIT ACCOUNT  IDA12 NOT COVERED BY SIPC MONEY MARKET REDEMPTION,IDA12,TRD,-250,0,0,0,Cash,20101015,351747940,0,744,-250,0,0,0,Money Market
901720070,North South (scholarships),10/15/2010,REDEMPTION FDIC INSURED DEPOSIT ACCOUNT    FOR 250,,TRD,0,0,250,0,Cash,20101015,351747939,0,742,0,0,250,0,
901720070,North South (scholarships),10/27/2010,MANAGERS FREMONT BOND FUND ORDINARY DIVIDEND PAID 22.99 FOR 1000.612 SHARES ON PAYABLE DATE 10/26/2010 AND RECORD DATE 09/28/2010,MBDFX,DIV,0,0,22.99,0,Cash,20101027,353660673,0,488,0,0,22.99,0,Mutual Fund
901720070,North South (scholarships),10/27/2010,MANAGERS FREMONT BOND FUND DIVIDEND REINVEST 2.051 @11.21,MBDFX,TRN,2.051,11.21,-22.99,0,Cash,20101027,353660674,0,709,2.051,11.21,-22.99,0,Mutual Fund
901720070,North South (scholarships),10/29/2010,FDIC INSURED DEPOSIT ACCOUNT  IDA12 NOT COVERED BY SIPC MONEY MARKET INTEREST,IDA12,DIV,0.3,0,0,0,Cash,20101029,354237823,0,740,0.3,0,0,0,Money Market
901720070,North South (scholarships),11/1/2010,POWERSHARES QQQ DIVIDEND REINVEST .546 @52.2699,QQQQ,TRN,0.546,52.2699,-28.56,0,Cash,20101101,355095566,0,709,0.546,52.2699,-28.56,0,Stock
901720070,North South (scholarships),11/1/2010,POWERSHARES QQQ ORDINARY DIVIDEND PAID 28.56 FOR 256.01 SHARES ON PAYABLE DATE 10/29/2010 AND RECORD DATE 09/21/2010,QQQQ,DIV,0,0,28.56,0,Cash,20101101,355095565,0,488,0,0,28.56,0,Stock
901720070,North South (scholarships),11/4/2010,TD BANK USA CHECKING Check #:154,,TRN,0,0,"-2,000.00",0,Cash,20101104,356757716,0,447,0,0,-2000,0,
901720070,North South (scholarships),11/5/2010,FDIC INSURED DEPOSIT ACCOUNT  IDA12 NOT COVERED BY SIPC MONEY MARKET REDEMPTION,IDA12,TRD,"-2,000.00",0,0,0,Cash,20101105,356968404,0,744,-2000,0,0,0,Money Market
901720070,North South (scholarships),11/5/2010,REDEMPTION FDIC INSURED DEPOSIT ACCOUNT    FOR 2000,,TRD,0,0,"2,000.00",0,Cash,20101105,356968403,0,742,0,0,2000,0,
901720070,North South (scholarships),11/26/2010,MANAGERS FREMONT BOND FUND ORDINARY DIVIDEND PAID 24.52 FOR 1002.829 SHARES ON PAYABLE DATE 11/24/2010 AND RECORD DATE 10/27/2010,MBDFX,DIV,0,0,24.52,0,Cash,20101126,360415859,0,488,0,0,24.52,0,Mutual Fund
901720070,North South (scholarships),11/26/2010,MANAGERS FREMONT BOND FUND DIVIDEND REINVEST 2.217 @11.06,MBDFX,TRN,2.217,11.06,-24.52,0,Cash,20101126,360415860,0,709,2.217,11.06,-24.52,0,Mutual Fund
901720070,North South (scholarships),11/30/2010,FDIC INSURED DEPOSIT ACCOUNT  IDA12 NOT COVERED BY SIPC MONEY MARKET INTEREST,IDA12,DIV,0.28,0,0,0,Cash,20101130,361002116,0,740,0.28,0,0,0,Money Market
901720070,North South (scholarships),12/10/2010,ROYCE LOW PRICED STOCK SERVICE CL LONG TERM GAIN DISTRIBUTION PAID 61.42 FOR 450.606 SHARES ON PAYABLE DATE 12/09/2010 AND RECORD DATE 12/08/2010,RYLPX,DIV,0,0,61.42,0,Cash,20101210,365728589,0,472,0,0,61.42,0,Mutual Fund
901720070,North South (scholarships),12/10/2010,ROYCE LOW PRICED STOCK SERVICE CL ORDINARY DIVIDEND PAID 31.62 FOR 447.155 SHARES ON PAYABLE DATE 12/09/2010 AND RECORD DATE 12/08/2010,RYLPX,DIV,0,0,31.62,0,Cash,20101210,365728587,0,488,0,0,31.62,0,Mutual Fund
901720070,North South (scholarships),12/10/2010,ROYCE LOW PRICED STOCK SERVICE CL DIVIDEND REINVEST 3.451 @17.8,RYLPX,TRN,3.451,17.8,-61.42,0,Cash,20101210,365728590,0,709,3.451,17.8,-61.42,0,Mutual Fund
901720070,North South (scholarships),12/10/2010,ROYCE LOW PRICED STOCK SERVICE CL DIVIDEND REINVEST 1.776 @17.8,RYLPX,TRN,1.776,17.8,-31.62,0,Cash,20101210,365728588,0,709,1.776,17.8,-31.62,0,Mutual Fund
901720070,North South (scholarships),12/17/2010,VANGUARD SPECIALIZED PORTFOL HLTH CARE PTFL DIVIDEND REINVEST .048 @122.64,VGHCX,TRN,0.048,122.64,-5.83,0,Cash,20101217,368900859,0,709,0.048,122.64,-5.83,0,Mutual Fund
901720070,North South (scholarships),12/17/2010,OAKMARK FDS EQUITY & INCOME FD ORDINARY DIVIDEND PAID 115.55 FOR 518.464 SHARES ON PAYABLE DATE 12/16/2010 AND RECORD DATE 12/15/2010,OAKBX,DIV,0,0,115.55,0,Cash,20101217,368900856,0,488,0,0,115.55,0,Mutual Fund
901720070,North South (scholarships),12/17/2010,VANGUARD SPECIALIZED PORTFOL HLTH CARE PTFL ORDINARY DIVIDEND PAID 120.55 FOR 63.674 SHARES ON PAYABLE DATE 12/17/2010 AND RECORD DATE 12/15/2010,VGHCX,DIV,0,0,120.55,0,Cash,20101217,368900854,0,488,0,0,120.55,0,Mutual Fund
901720070,North South (scholarships),12/17/2010,VANGUARD SPECIALIZED PORTFOL HLTH CARE PTFL SHORT TERM CAPITAL GAINS PAID 5.83 FOR 63.722 SHARES ON PAYABLE DATE 12/17/2010 AND RECORD DATE 12/15/2010,VGHCX,DIV,0,0,5.83,0,Cash,20101217,368900858,0,475,0,0,5.83,0,Mutual Fund
901720070,North South (scholarships),12/17/2010,VANGUARD SPECIALIZED PORTFOL HLTH CARE PTFL LONG TERM GAIN DISTRIBUTION PAID 120.43 FOR 64.704 SHARES ON PAYABLE DATE 12/17/2010 AND RECORD DATE 12/15/2010,VGHCX,DIV,0,0,120.43,0,Cash,20101217,368900852,0,472,0,0,120.43,0,Mutual Fund
901720070,North South (scholarships),12/17/2010,VANGUARD SPECIALIZED PORTFOL HLTH CARE PTFL DIVIDEND REINVEST .983 @122.64,VGHCX,TRN,0.983,122.64,-120.55,0,Cash,20101217,368900855,0,709,0.983,122.64,-120.55,0,Mutual Fund
901720070,North South (scholarships),12/17/2010,OAKMARK FDS EQUITY & INCOME FD DIVIDEND REINVEST 4.205 @27.48,OAKBX,TRN,4.205,27.48,-115.55,0,Cash,20101217,368900857,0,709,4.205,27.48,-115.55,0,Mutual Fund
901720070,North South (scholarships),12/17/2010,VANGUARD SPECIALIZED PORTFOL HLTH CARE PTFL DIVIDEND REINVEST .982 @122.64,VGHCX,TRN,0.982,122.64,-120.43,0,Cash,20101217,368900853,0,709,0.982,122.64,-120.43,0,Mutual Fund
901720070,North South (scholarships),12/21/2010,JANUS PERKINS MID CP VL INV T ORDINARY DIVIDEND PAID 57.64 FOR 362.824 SHARES ON PAYABLE DATE 12/20/2010 AND RECORD DATE 12/17/2010,JMCVX,DIV,0,0,57.64,0,Cash,20101221,370242504,0,488,0,0,57.64,0,Mutual Fund
901720070,North South (scholarships),12/21/2010,JANUS PERKINS MID CP VL INV T DIVIDEND REINVEST 2.588 @22.27,JMCVX,TRN,2.588,22.27,-57.64,0,Cash,20101221,370242505,0,709,2.588,22.27,-57.64,0,Mutual Fund
901720070,North South (scholarships),12/22/2010,DODGE & COX FUNDS INCOME FUND ORDINARY DIVIDEND PAID 135.35 FOR 830.583 SHARES ON PAYABLE DATE 12/22/2010 AND RECORD DATE 12/20/2010,DODIX,DIV,0,0,135.35,0,Cash,20101222,370684143,0,488,0,0,135.35,0,Mutual Fund
901720070,North South (scholarships),12/22/2010,DODGE & COX FUNDS BALANCED FUND ORDINARY DIVIDEND PAID 56.13 FOR 165.894 SHARES ON PAYABLE DATE 12/22/2010 AND RECORD DATE 12/20/2010,DODBX,DIV,0,0,56.13,0,Cash,20101222,370684145,0,488,0,0,56.13,0,Mutual Fund
901720070,North South (scholarships),12/22/2010,DODGE & COX FUNDS BALANCED FUND DIVIDEND REINVEST .8 @70.13,DODBX,TRN,0.8,70.13,-56.13,0,Cash,20101222,370684146,0,709,0.8,70.13,-56.13,0,Mutual Fund
901720070,North South (scholarships),12/22/2010,DODGE & COX FUNDS INCOME FUND DIVIDEND REINVEST 10.262 @13.19,DODIX,TRN,10.262,13.19,-135.35,0,Cash,20101222,370684144,0,709,10.262,13.19,-135.35,0,Mutual Fund
901720070,North South (scholarships),12/29/2010,VANGUARD/WELLINGTON FD INC COM DIVIDEND REINVEST 3.125 @30.95,VWELX,TRN,3.125,30.95,-96.73,0,Cash,20101229,372324387,0,709,3.125,30.95,-96.73,0,Mutual Fund
901720070,North South (scholarships),12/29/2010,VANGUARD INFLATION PROTECTED SEC FD DIVIDEND REINVEST 10.919 @12.85,VIPSX,TRN,10.919,12.85,-140.31,0,Cash,20101229,372324385,0,709,10.919,12.85,-140.31,0,Mutual Fund
901720070,North South (scholarships),12/29/2010,MANAGERS FREMONT BOND FUND DIVIDEND REINVEST 7.986 @10.29,MBDFX,TRN,7.986,10.29,-82.18,0,Cash,20101229,372324381,0,709,7.986,10.29,-82.18,0,Mutual Fund
901720070,North South (scholarships),12/29/2010,MANAGERS FREMONT BOND FUND DIVIDEND REINVEST 32.199 @10.29,MBDFX,TRN,32.199,10.29,-331.33,0,Cash,20101229,372324383,0,709,32.199,10.29,-331.33,0,Mutual Fund
901720070,North South (scholarships),12/29/2010,MANAGERS FREMONT BOND FUND LONG TERM GAIN DISTRIBUTION PAID 159.75 FOR 1058.539 SHARES ON PAYABLE DATE 12/29/2010 AND RECORD DATE 12/27/2010,MBDFX,DIV,0,0,159.75,0,Cash,20101229,372324378,0,472,0,0,159.75,0,Mutual Fund
901720070,North South (scholarships),12/29/2010,VANGUARD/WELLINGTON FD INC COM ORDINARY DIVIDEND PAID 96.73 FOR 442.817 SHARES ON PAYABLE DATE 12/29/2010 AND RECORD DATE 12/27/2010,VWELX,DIV,0,0,96.73,0,Cash,20101229,372324386,0,488,0,0,96.73,0,Mutual Fund
901720070,North South (scholarships),12/29/2010,VANGUARD INFLATION PROTECTED SEC FD ORDINARY DIVIDEND PAID 140.31 FOR 836.273 SHARES ON PAYABLE DATE 12/29/2010 AND RECORD DATE 12/27/2010,VIPSX,DIV,0,0,140.31,0,Cash,20101229,372324384,0,488,0,0,140.31,0,Mutual Fund
901720070,North South (scholarships),12/29/2010,MANAGERS FREMONT BOND FUND SHORT TERM CAPITAL GAINS PAID 331.33 FOR 1043.014 SHARES ON PAYABLE DATE 12/29/2010 AND RECORD DATE 12/27/2010,MBDFX,DIV,0,0,331.33,0,Cash,20101229,372324382,0,475,0,0,331.33,0,Mutual Fund
901720070,North South (scholarships),12/29/2010,MANAGERS FREMONT BOND FUND ORDINARY DIVIDEND PAID 82.18 FOR 1010.815 SHARES ON PAYABLE DATE 12/28/2010 AND RECORD DATE 11/25/2010,MBDFX,DIV,0,0,82.18,0,Cash,20101229,372324380,0,488,0,0,82.18,0,Mutual Fund
901720070,North South (scholarships),12/29/2010,MANAGERS FREMONT BOND FUND DIVIDEND REINVEST 15.525 @10.29,MBDFX,TRN,15.525,10.29,-159.75,0,Cash,20101229,372324379,0,709,15.525,10.29,-159.75,0,Mutual Fund
901720070,North South (scholarships),12/30/2010,VANGUARD ENERGY INDEX ORDINARY DIVIDEND PAID 274.01 FOR 219.736 SHARES ON PAYABLE DATE 12/29/2010 AND RECORD DATE 12/27/2010,VDE,DIV,0,0,274.01,0,Cash,20101230,373228962,0,488,0,0,274.01,0,Stock
901720070,North South (scholarships),12/30/2010,VANGUARD ENERGY INDEX DIVIDEND REINVEST 2.756 @99.4399,VDE,TRN,2.756,99.4399,-274.01,0,Cash,20101230,373228963,0,709,2.756,99.4399,-274.01,0,Stock
901720070,North South (scholarships),12/31/2010,ISHARES MSCI EMERGING MKTS ORDINARY DIVIDEND PAID 91.63 FOR 254.936 SHARES ON PAYABLE DATE 12/30/2010 AND RECORD DATE 12/23/2010,EEM,DIV,0,0,91.63,0,Cash,20101231,375473627,0,488,0,0,91.63,0,Stock
901720070,North South (scholarships),12/31/2010,ISHARES MSCI EMERGING MKTS DIVIDEND REINVEST 1.925 @47.60996,EEM,TRN,1.925,47.61,-91.63,0,Cash,20101231,375473628,0,709,1.925,47.60996,-91.63,0,Stock
901720070,North South (scholarships),12/31/2010,FDIC INSURED DEPOSIT ACCOUNT  IDA12 NOT COVERED BY SIPC MONEY MARKET INTEREST,IDA12,DIV,0.28,0,0,0,Cash,20101231,375473629,0,740,0.28,0,0,0,Money Market
901720070,North South (scholarships),1/3/2011,POWERSHARES QQQ DIVIDEND REINVEST .501 @55.4299,QQQQ,TRN,0.501,55.4299,-27.79,0,Cash,20110103,375955142,0,709,0.501,55.4299,-27.79,0,Stock
901720070,North South (scholarships),1/3/2011,POWERSHARES QQQ ORDINARY DIVIDEND PAID 27.79 FOR 256.556 SHARES ON PAYABLE DATE 12/31/2010 AND RECORD DATE 12/21/2010,QQQQ,DIV,0,0,27.79,0,Cash,20110103,375955141,0,488,0,0,27.79,0,Stock
901720070,North South (scholarships),1/4/2011,SOUND SHORE FD INC COM ORDINARY DIVIDEND PAID 15.06 FOR 217.564 SHARES ON PAYABLE DATE 12/30/2010 AND RECORD DATE 12/29/2010,SSHFX,DIV,0,0,15.06,0,Cash,20110104,377301819,0,488,0,0,15.06,0,Mutual Fund
901720070,North South (scholarships),1/4/2011,SOUND SHORE FD INC COM DIVIDEND REINVEST .474 @31.78,SSHFX,TRN,0.474,31.78,-15.06,0,Cash,20110104,377301820,0,709,0.474,31.78,-15.06,0,Mutual Fund
901720070,North South (scholarships),1/6/2011,ISHARES MSCI EMERGING MKTS ORDINARY DIVIDEND PAID 6.45 FOR 256.861 SHARES ON PAYABLE DATE 01/05/2011 AND RECORD DATE 12/31/2010,EEM,DIV,0,0,6.45,0,Cash,20110106,378854156,0,488,0,0,6.45,0,Stock
901720070,North South (scholarships),1/6/2011,ISHARES MSCI EMERGING MKTS DIVIDEND REINVEST .135 @47.9299,EEM,TRN,0.135,47.9299,-6.45,0,Cash,20110106,378854157,0,709,0.135,47.9299,-6.45,0,Stock
901720070,North South (scholarships),1/10/2011,TD BANK USA CHECKING Check #:156,,TRN,0,0,"-2,000.00",0,Cash,20110110,379548096,0,447,0,0,-2000,0,
901720070,North South (scholarships),1/11/2011,FDIC INSURED DEPOSIT ACCOUNT  IDA12 NOT COVERED BY SIPC MONEY MARKET REDEMPTION,IDA12,TRD,"-2,000.00",0,0,0,Cash,20110111,379878852,0,744,-2000,0,0,0,Money Market
901720070,North South (scholarships),1/11/2011,REDEMPTION FDIC INSURED DEPOSIT ACCOUNT    FOR 2000,,TRD,0,0,"2,000.00",0,Cash,20110111,379878851,0,742,0,0,2000,0,
901720070,North South (scholarships),1/14/2011,TD BANK USA CHECKING Check #:157,,TRN,0,0,"-1,000.00",0,Cash,20110114,380815033,0,447,0,0,-1000,0,
901720070,North South (scholarships),1/18/2011,FDIC INSURED DEPOSIT ACCOUNT  IDA12 NOT COVERED BY SIPC MONEY MARKET REDEMPTION,IDA12,TRD,"-1,000.00",0,0,0,Cash,20110118,381150621,0,744,-1000,0,0,0,Money Market
901720070,North South (scholarships),1/18/2011,REDEMPTION FDIC INSURED DEPOSIT ACCOUNT    FOR 1000,,TRD,0,0,"1,000.00",0,Cash,20110118,381150620,0,742,0,0,1000,0,
901720070,North South (scholarships),1/24/2011,TD BANK USA CHECKING Check #:155,,TRN,0,0,-250,0,Cash,20110124,382668863,0,447,0,0,-250,0,
901720070,North South (scholarships),1/25/2011,REDEMPTION FDIC INSURED DEPOSIT ACCOUNT    FOR 250,,TRD,0,0,250,0,Cash,20110125,382940304,0,742,0,0,250,0,
901720070,North South (scholarships),1/25/2011,FDIC INSURED DEPOSIT ACCOUNT  IDA12 NOT COVERED BY SIPC MONEY MARKET REDEMPTION,IDA12,TRD,-250,0,0,0,Cash,20110125,382940305,0,744,-250,0,0,0,Money Market
901720070,North South (scholarships),1/27/2011,MANAGERS FREMONT BOND FUND ORDINARY DIVIDEND PAID 26.38 FOR 1061.076 SHARES ON PAYABLE DATE 01/26/2011 AND RECORD DATE 12/29/2010,MBDFX,DIV,0,0,26.38,0,Cash,20110127,383529517,0,488,0,0,26.38,0,Mutual Fund
901720070,North South (scholarships),1/27/2011,MANAGERS FREMONT BOND FUND DIVIDEND REINVEST 2.537 @10.4,MBDFX,TRN,2.537,10.4,-26.38,0,Cash,20110127,383529518,0,709,2.537,10.4,-26.38,0,Mutual Fund
901720070,North South (scholarships),1/31/2011,FDIC INSURED DEPOSIT ACCOUNT  IDA12 NOT COVERED BY SIPC MONEY MARKET INTEREST,IDA12,DIV,0.27,0,0,0,Cash,20110131,384730894,0,740,0.27,0,0,0,Money Market
901720070,North South (scholarships),2/24/2011,MANAGERS FREMONT BOND FUND DIVIDEND REINVEST 2.383 @10.4,MBDFX,TRN,2.383,10.4,-24.78,0,Cash,20110224,390732183,0,709,2.383,10.4,-24.78,0,Mutual Fund
901720070,North South (scholarships),2/24/2011,MANAGERS FREMONT BOND FUND ORDINARY DIVIDEND PAID 24.78 FOR 1063.459 SHARES ON PAYABLE DATE 02/23/2011 AND RECORD DATE 01/27/2011,MBDFX,DIV,0,0,24.78,0,Cash,20110224,390732182,0,488,0,0,24.78,0,Mutual Fund
901720070,North South (scholarships),2/28/2011,FDIC INSURED DEPOSIT ACCOUNT  IDA12 NOT COVERED BY SIPC MONEY MARKET INTEREST,IDA12,DIV,0.23,0,0,0,Cash,20110228,391410135,0,740,0.23,0,0,0,Money Market
901720070,North South (scholarships),3/23/2011,VANGUARD SPECIALIZED PORTFOL HLTH CARE PTFL SHORT TERM CAPITAL GAINS PAID 5.31 FOR 64.811 SHARES ON PAYABLE DATE 03/23/2011 AND RECORD DATE 03/21/2011,VGHCX,DIV,0,0,5.31,0,Cash,20110323,398546251,0,475,0,0,5.31,0,Mutual Fund
901720070,North South (scholarships),3/23/2011,VANGUARD SPECIALIZED PORTFOL HLTH CARE PTFL LONG TERM GAIN DISTRIBUTION PAID 47.88 FOR 65.191 SHARES ON PAYABLE DATE 03/23/2011 AND RECORD DATE 03/21/2011,VGHCX,DIV,0,0,47.88,0,Cash,20110323,398546255,0,472,0,0,47.88,0,Mutual Fund
901720070,North South (scholarships),3/23/2011,VANGUARD SPECIALIZED PORTFOL HLTH CARE PTFL ORDINARY DIVIDEND PAID 8.22 FOR 64.769 SHARES ON PAYABLE DATE 03/23/2011 AND RECORD DATE 03/21/2011,VGHCX,DIV,0,0,8.22,0,Cash,20110323,398546253,0,488,0,0,8.22,0,Mutual Fund
901720070,North South (scholarships),3/23/2011,VANGUARD SPECIALIZED PORTFOL HLTH CARE PTFL DIVIDEND REINVEST .042 @125.97,VGHCX,TRN,0.042,125.97,-5.31,0,Cash,20110323,398546252,0,709,0.042,125.97,-5.31,0,Mutual Fund
901720070,North South (scholarships),3/23/2011,VANGUARD SPECIALIZED PORTFOL HLTH CARE PTFL DIVIDEND REINVEST .38 @125.97,VGHCX,TRN,0.38,125.97,-47.88,0,Cash,20110323,398546256,0,709,0.38,125.97,-47.88,0,Mutual Fund
901720070,North South (scholarships),3/23/2011,VANGUARD SPECIALIZED PORTFOL HLTH CARE PTFL DIVIDEND REINVEST .065 @125.97,VGHCX,TRN,0.065,125.97,-8.22,0,Cash,20110323,398546254,0,709,0.065,125.97,-8.22,0,Mutual Fund
901720070,North South (scholarships),3/29/2011,DODGE & COX FUNDS BALANCED FUND ORDINARY DIVIDEND PAID 61.38 FOR 166.737 SHARES ON PAYABLE DATE 03/29/2011 AND RECORD DATE 03/25/2011,DODBX,DIV,0,0,61.38,0,Cash,20110329,399910654,0,488,0,0,61.38,0,Mutual Fund
901720070,North South (scholarships),3/29/2011,MANAGERS FREMONT BOND FUND ORDINARY DIVIDEND PAID 29.76 FOR 1066.31 SHARES ON PAYABLE DATE 03/28/2011 AND RECORD DATE 02/24/2011,MBDFX,DIV,0,0,29.76,0,Cash,20110329,399910656,0,488,0,0,29.76,0,Mutual Fund
901720070,North South (scholarships),3/29/2011,DODGE & COX FUNDS BALANCED FUND DIVIDEND REINVEST .843 @72.83,DODBX,TRN,0.843,72.83,-61.38,0,Cash,20110329,399910655,0,709,0.843,72.83,-61.38,0,Mutual Fund
901720070,North South (scholarships),3/29/2011,MANAGERS FREMONT BOND FUND DIVIDEND REINVEST 2.851 @10.44,MBDFX,TRN,2.851,10.44,-29.76,0,Cash,20110329,399910657,0,709,2.851,10.44,-29.76,0,Mutual Fund
901720070,North South (scholarships),3/29/2011,DODGE & COX FUNDS INCOME FUND DIVIDEND REINVEST 8.769 @13.26,DODIX,TRN,8.769,13.26,-116.28,0,Cash,20110329,399910653,0,709,8.769,13.26,-116.28,0,Mutual Fund
901720070,North South (scholarships),3/29/2011,DODGE & COX FUNDS INCOME FUND ORDINARY DIVIDEND PAID 116.28 FOR 839.352 SHARES ON PAYABLE DATE 03/29/2011 AND RECORD DATE 03/25/2011,DODIX,DIV,0,0,116.28,0,Cash,20110329,399910652,0,488,0,0,116.28,0,Mutual Fund
901720070,North South (scholarships),3/31/2011,VANGUARD/WELLINGTON FD INC COM DIVIDEND REINVEST 2.788 @32.24,VWELX,TRN,2.788,32.24,-89.89,0,Cash,20110331,402388530,0,709,2.788,32.24,-89.89,0,Mutual Fund
901720070,North South (scholarships),3/31/2011,FDIC INSURED DEPOSIT ACCOUNT  IDA12 NOT COVERED BY SIPC MONEY MARKET INTEREST,IDA12,DIV,0.26,0,0,0,Cash,20110331,402388531,0,740,0.26,0,0,0,Money Market
901720070,North South (scholarships),3/31/2011,VANGUARD INFLATION PROTECTED SEC FD DIVIDEND REINVEST 5.084 @13.16,VIPSX,TRN,5.084,13.16,-66.9,0,Cash,20110331,402388528,0,709,5.084,13.16,-66.9,0,Mutual Fund
901720070,North South (scholarships),3/31/2011,VANGUARD/WELLINGTON FD INC COM ORDINARY DIVIDEND PAID 89.89 FOR 445.605 SHARES ON PAYABLE DATE 03/31/2011 AND RECORD DATE 03/29/2011,VWELX,DIV,0,0,89.89,0,Cash,20110331,402388529,0,488,0,0,89.89,0,Mutual Fund
901720070,North South (scholarships),3/31/2011,VANGUARD INFLATION PROTECTED SEC FD ORDINARY DIVIDEND PAID 66.9 FOR 841.357 SHARES ON PAYABLE DATE 03/31/2011 AND RECORD DATE 03/29/2011,VIPSX,DIV,0,0,66.9,0,Cash,20110331,402388527,0,488,0,0,66.9,0,Mutual Fund
901720070,North South (scholarships),4/13/2011,TD BANK USA CHECKING Check #:158,,TRN,0,0,"-1,000.00",0,Cash,20110413,407729748,0,447,0,0,-1000,0,
901720070,North South (scholarships),4/14/2011,FDIC INSURED DEPOSIT ACCOUNT  IDA12 NOT COVERED BY SIPC MONEY MARKET REDEMPTION,IDA12,TRD,"-1,000.00",0,0,0,Cash,20110414,407965733,0,744,-1000,0,0,0,Money Market
901720070,North South (scholarships),4/14/2011,REDEMPTION FDIC INSURED DEPOSIT ACCOUNT    FOR 1000,,TRD,0,0,"1,000.00",0,Cash,20110414,407965732,0,742,0,0,1000,0,
901720070,North South (scholarships),4/27/2011,MANAGERS FREMONT BOND FUND ORDINARY DIVIDEND PAID 26.6 FOR 1068.824 SHARES ON PAYABLE DATE 04/26/2011 AND RECORD DATE 03/29/2011,MBDFX,DIV,0,0,26.6,0,Cash,20110427,410490489,0,488,0,0,26.6,0,Mutual Fund
901720070,North South (scholarships),4/27/2011,MANAGERS FREMONT BOND FUND DIVIDEND REINVEST 2.514 @10.58,MBDFX,TRN,2.514,10.58,-26.6,0,Cash,20110427,410490490,0,709,2.514,10.58,-26.6,0,Mutual Fund
901720070,North South (scholarships),4/29/2011,FDIC INSURED DEPOSIT ACCOUNT  IDA12 NOT COVERED BY SIPC MONEY MARKET INTEREST,IDA12,DIV,0.24,0,0,0,Cash,20110429,411214837,0,740,0.24,0,0,0,Money Market
901720070,North South (scholarships),5/2/2011,POWERSHARES QQQ DIVIDEND REINVEST .335 @58.959,QQQ,TRN,0.335,58.959,-19.76,0,Cash,20110502,412290301,0,709,0.335,58.959,-19.76,0,Stock
901720070,North South (scholarships),5/2/2011,POWERSHARES QQQ ORDINARY DIVIDEND PAID 19.76 FOR 257.057 SHARES ON PAYABLE DATE 04/29/2011 AND RECORD DATE 03/22/2011,QQQ,DIV,0,0,19.76,0,Cash,20110502,412290300,0,488,0,0,19.76,0,Stock
901720070,North South (scholarships),5/26/2011,MANAGERS FREMONT BOND FUND ORDINARY DIVIDEND PAID 23.45 FOR 1071.034 SHARES ON PAYABLE DATE 05/25/2011 AND RECORD DATE 04/27/2011,MBDFX,DIV,0,0,23.45,0,Cash,20110526,418610928,0,488,0,0,23.45,0,Mutual Fund
901720070,North South (scholarships),5/26/2011,MANAGERS FREMONT BOND FUND DIVIDEND REINVEST 2.21 @10.61,MBDFX,TRN,2.21,10.61,-23.45,0,Cash,20110526,418610929,0,709,2.21,10.61,-23.45,0,Mutual Fund
901720070,North South (scholarships),5/31/2011,FDIC INSURED DEPOSIT ACCOUNT  IDA12 NOT COVERED BY SIPC MONEY MARKET INTEREST,IDA12,DIV,0.25,0,0,0,Cash,20110531,419235055,0,740,0.25,0,0,0,Money Market
901720070,North South (scholarships),6/24/2011,SOUND SHORE FD INC COM ORDINARY DIVIDEND PAID 29.92 FOR 218.501 SHARES ON PAYABLE DATE 06/23/2011 AND RECORD DATE 06/22/2011,SSHFX,DIV,0,0,29.92,0,Cash,20110624,427566178,0,488,0,0,29.92,0,Mutual Fund
901720070,North South (scholarships),6/24/2011,SOUND SHORE FD INC COM DIVIDEND REINVEST .937 @31.93,SSHFX,TRN,0.937,31.93,-29.92,0,Cash,20110624,427566179,0,709,0.937,31.93,-29.92,0,Mutual Fund
901720070,North South (scholarships),6/28/2011,MANAGERS FREMONT BOND FUND DIVIDEND REINVEST 2.574 @10.6,MBDFX,TRN,2.574,10.6,-27.28,0,Cash,20110628,428383568,0,709,2.574,10.6,-27.28,0,Mutual Fund
901720070,North South (scholarships),6/28/2011,DODGE & COX FUNDS BALANCED FUND DIVIDEND REINVEST .979 @71.52,DODBX,TRN,0.979,71.52,-70.03,0,Cash,20110628,428383566,0,709,0.979,71.52,-70.03,0,Mutual Fund
901720070,North South (scholarships),6/28/2011,DODGE & COX FUNDS INCOME FUND DIVIDEND REINVEST 8.456 @13.4,DODIX,TRN,8.456,13.4,-113.31,0,Cash,20110628,428383564,0,709,8.456,13.4,-113.31,0,Mutual Fund
901720070,North South (scholarships),6/28/2011,MANAGERS FREMONT BOND FUND ORDINARY DIVIDEND PAID 27.28 FOR 1073.608 SHARES ON PAYABLE DATE 06/27/2011 AND RECORD DATE 05/26/2011,MBDFX,DIV,0,0,27.28,0,Cash,20110628,428383567,0,488,0,0,27.28,0,Mutual Fund
901720070,North South (scholarships),6/28/2011,DODGE & COX FUNDS BALANCED FUND ORDINARY DIVIDEND PAID 70.03 FOR 167.716 SHARES ON PAYABLE DATE 06/28/2011 AND RECORD DATE 06/24/2011,DODBX,DIV,0,0,70.03,0,Cash,20110628,428383565,0,488,0,0,70.03,0,Mutual Fund
901720070,North South (scholarships),6/28/2011,DODGE & COX FUNDS INCOME FUND ORDINARY DIVIDEND PAID 113.31 FOR 847.808 SHARES ON PAYABLE DATE 06/28/2011 AND RECORD DATE 06/24/2011,DODIX,DIV,0,0,113.31,0,Cash,20110628,428383563,0,488,0,0,113.31,0,Mutual Fund
901720070,North South (scholarships),6/29/2011,ISHARES MSCI EMERGING MKTS ORDINARY DIVIDEND PAID 118.45 FOR 256.996 SHARES ON PAYABLE DATE 06/28/2011 AND RECORD DATE 06/24/2011,EEM,DIV,0,0,118.45,0,Cash,20110629,428951143,0,488,0,0,118.45,0,Stock
901720070,North South (scholarships),6/29/2011,ISHARES MSCI EMERGING MKTS DIVIDEND REINVEST 2.535 @46.729,EEM,TRN,2.535,46.729,-118.45,0,Cash,20110629,428951144,0,709,2.535,46.729,-118.45,0,Stock
901720070,North South (scholarships),6/30/2011,FDIC INSURED DEPOSIT ACCOUNT  IDA12 NOT COVERED BY SIPC MONEY MARKET INTEREST,IDA12,DIV,0.24,0,0,0,Cash,20110630,431018901,0,740,0.24,0,0,0,Money Market
901720070,North South (scholarships),6/30/2011,VANGUARD/WELLINGTON FD INC COM ORDINARY DIVIDEND PAID 108.28 FOR 448.988 SHARES ON PAYABLE DATE 06/30/2011 AND RECORD DATE 06/28/2011,VWELX,DIV,0,0,108.28,0,Cash,20110630,431018897,0,488,0,0,108.28,0,Mutual Fund
901720070,North South (scholarships),6/30/2011,VANGUARD INFLATION PROTECTED SEC FD DIVIDEND REINVEST 11.769 @13.44,VIPSX,TRN,11.769,13.44,-158.18,0,Cash,20110630,431018900,0,709,11.769,13.44,-158.18,0,Mutual Fund
901720070,North South (scholarships),6/30/2011,VANGUARD INFLATION PROTECTED SEC FD ORDINARY DIVIDEND PAID 158.18 FOR 853.126 SHARES ON PAYABLE DATE 06/30/2011 AND RECORD DATE 06/28/2011,VIPSX,DIV,0,0,158.18,0,Cash,20110630,431018899,0,488,0,0,158.18,0,Mutual Fund
901720070,North South (scholarships),6/30/2011,VANGUARD/WELLINGTON FD INC COM DIVIDEND REINVEST 3.383 @32.01,VWELX,TRN,3.383,32.01,-108.28,0,Cash,20110630,431018898,0,709,3.383,32.01,-108.28,0,Mutual Fund
