Acct Number,Acct Desc,Date,Description,Symbol,Type,Quantity,Price,Net Amount,Comm,Acct Type,DateSort,HistoryID,Withholding,TranID,NF_Quantity,NF_Price,NF_Net Amount,NF_Comm,AssetType
,,,,,,,,,,,,,,,,,,,
901720070,North South (scholarships),5/2/2011,POWERSHARES QQQ ORDINARY DIVIDEND PAID 19.76 FOR 257.057 SHARES ON PAYABLE DATE 04/29/2011 AND RECORD DATE 03/22/2011,QQQ,DIV,0,0,19.76,0,Cash,20110502,412290300,0,488,0,0,19.76,0,Stock
901720070,North South (scholarships),5/2/2011,POWERSHARES QQQ DIVIDEND REINVEST .335 @58.959,QQQ,TRN,0.335,58.959,-19.76,0,Cash,20110502,412290301,0,709,0.335,58.959,-19.76,0,Stock
901720070,North South (scholarships),5/26/2011,MANAGERS FREMONT BOND FUND ORDINARY DIVIDEND PAID 23.45 FOR 1071.034 SHARES ON PAYABLE DATE 05/25/2011 AND RECORD DATE 04/27/2011,MBDFX,DIV,0,0,23.45,0,Cash,20110526,418610928,0,488,0,0,23.45,0,Mutual Fund
901720070,North South (scholarships),5/26/2011,MANAGERS FREMONT BOND FUND DIVIDEND REINVEST 2.21 @10.61,MBDFX,TRN,2.21,10.61,-23.45,0,Cash,20110526,418610929,0,709,2.21,10.61,-23.45,0,Mutual Fund
901720070,North South (scholarships),5/31/2011,FDIC INSURED DEPOSIT ACCOUNT  IDA12 NOT COVERED BY SIPC MONEY MARKET INTEREST,IDA12,DIV,0.25,0,0,0,Cash,20110531,419235055,0,740,0.25,0,0,0,Money Market
901720070,North South (scholarships),6/24/2011,SOUND SHORE FD INC COM ORDINARY DIVIDEND PAID 29.92 FOR 218.501 SHARES ON PAYABLE DATE 06/23/2011 AND RECORD DATE 06/22/2011,SSHFX,DIV,0,0,29.92,0,Cash,20110624,427566178,0,488,0,0,29.92,0,Mutual Fund
901720070,North South (scholarships),6/24/2011,SOUND SHORE FD INC COM DIVIDEND REINVEST .937 @31.93,SSHFX,TRN,0.937,31.93,-29.92,0,Cash,20110624,427566179,0,709,0.937,31.93,-29.92,0,Mutual Fund
901720070,North South (scholarships),6/28/2011,DODGE & COX FUNDS INCOME FUND ORDINARY DIVIDEND PAID 113.31 FOR 847.808 SHARES ON PAYABLE DATE 06/28/2011 AND RECORD DATE 06/24/2011,DODIX,DIV,0,0,113.31,0,Cash,20110628,428383563,0,488,0,0,113.31,0,Mutual Fund
901720070,North South (scholarships),6/28/2011,DODGE & COX FUNDS INCOME FUND DIVIDEND REINVEST 8.456 @13.4,DODIX,TRN,8.456,13.4,-113.31,0,Cash,20110628,428383564,0,709,8.456,13.4,-113.31,0,Mutual Fund
901720070,North South (scholarships),6/28/2011,DODGE & COX FUNDS BALANCED FUND ORDINARY DIVIDEND PAID 70.03 FOR 167.716 SHARES ON PAYABLE DATE 06/28/2011 AND RECORD DATE 06/24/2011,DODBX,DIV,0,0,70.03,0,Cash,20110628,428383565,0,488,0,0,70.03,0,Mutual Fund
901720070,North South (scholarships),6/28/2011,DODGE & COX FUNDS BALANCED FUND DIVIDEND REINVEST .979 @71.52,DODBX,TRN,0.979,71.52,-70.03,0,Cash,20110628,428383566,0,709,0.979,71.52,-70.03,0,Mutual Fund
901720070,North South (scholarships),6/28/2011,MANAGERS FREMONT BOND FUND ORDINARY DIVIDEND PAID 27.28 FOR 1073.608 SHARES ON PAYABLE DATE 06/27/2011 AND RECORD DATE 05/26/2011,MBDFX,DIV,0,0,27.28,0,Cash,20110628,428383567,0,488,0,0,27.28,0,Mutual Fund
901720070,North South (scholarships),6/28/2011,MANAGERS FREMONT BOND FUND DIVIDEND REINVEST 2.574 @10.6,MBDFX,TRN,2.574,10.6,-27.28,0,Cash,20110628,428383568,0,709,2.574,10.6,-27.28,0,Mutual Fund
901720070,North South (scholarships),6/29/2011,ISHARES MSCI EMERGING MKTS ORDINARY DIVIDEND PAID 118.45 FOR 256.996 SHARES ON PAYABLE DATE 06/28/2011 AND RECORD DATE 06/24/2011,EEM,DIV,0,0,118.45,0,Cash,20110629,428951143,0,488,0,0,118.45,0,Stock
901720070,North South (scholarships),6/29/2011,ISHARES MSCI EMERGING MKTS DIVIDEND REINVEST 2.535 @46.729,EEM,TRN,2.535,46.729,-118.45,0,Cash,20110629,428951144,0,709,2.535,46.729,-118.45,0,Stock
901720070,North South (scholarships),6/30/2011,VANGUARD/WELLINGTON FD INC COM ORDINARY DIVIDEND PAID 108.28 FOR 448.988 SHARES ON PAYABLE DATE 06/30/2011 AND RECORD DATE 06/28/2011,VWELX,DIV,0,0,108.28,0,Cash,20110630,431018897,0,488,0,0,108.28,0,Mutual Fund
901720070,North South (scholarships),6/30/2011,VANGUARD/WELLINGTON FD INC COM DIVIDEND REINVEST 3.383 @32.01,VWELX,TRN,3.383,32.01,-108.28,0,Cash,20110630,431018898,0,709,3.383,32.01,-108.28,0,Mutual Fund
901720070,North South (scholarships),6/30/2011,VANGUARD INFLATION PROTECTED SEC FD ORDINARY DIVIDEND PAID 158.18 FOR 853.126 SHARES ON PAYABLE DATE 06/30/2011 AND RECORD DATE 06/28/2011,VIPSX,DIV,0,0,158.18,0,Cash,20110630,431018899,0,488,0,0,158.18,0,Mutual Fund
901720070,North South (scholarships),6/30/2011,VANGUARD INFLATION PROTECTED SEC FD DIVIDEND REINVEST 11.769 @13.44,VIPSX,TRN,11.769,13.44,-158.18,0,Cash,20110630,431018900,0,709,11.769,13.44,-158.18,0,Mutual Fund
901720070,North South (scholarships),6/30/2011,FDIC INSURED DEPOSIT ACCOUNT  IDA12 NOT COVERED BY SIPC MONEY MARKET INTEREST,IDA12,DIV,0.24,0,0,0,Cash,20110630,431018901,0,740,0.24,0,0,0,Money Market
901720070,North South (scholarships),7/27/2011,MANAGERS FREMONT BOND FUND ORDINARY DIVIDEND PAID 24.77 FOR 1075.934 SHARES ON PAYABLE DATE 07/26/2011 AND RECORD DATE 06/28/2011,MBDFX,DIV,0,0,24.77,0,Cash,20110727,439559814,0,488,0,0,24.77,0,Mutual Fund
901720070,North South (scholarships),7/27/2011,MANAGERS FREMONT BOND FUND DIVIDEND REINVEST 2.326 @10.65,MBDFX,TRN,2.326,10.65,-24.77,0,Cash,20110727,439559815,0,709,2.326,10.65,-24.77,0,Mutual Fund
901720070,North South (scholarships),7/29/2011,FDIC INSURED DEPOSIT ACCOUNT  IDA12 NOT COVERED BY SIPC MONEY MARKET INTEREST,IDA12,DIV,0.25,0,0,0,Cash,20110729,440320045,0,740,0.25,0,0,0,Money Market
901720070,North South (scholarships),8/1/2011,POWERSHARES QQQ ORDINARY DIVIDEND PAID 31.09 FOR 257.392 SHARES ON PAYABLE DATE 07/29/2011 AND RECORD DATE 06/21/2011,QQQ,DIV,0,0,31.09,0,Cash,20110801,441478652,0,488,0,0,31.09,0,Stock
901720070,North South (scholarships),8/1/2011,POWERSHARES QQQ DIVIDEND REINVEST .544 @57.1798,QQQ,TRN,0.544,57.1798,-31.09,0,Cash,20110801,441478653,0,709,0.544,57.1798,-31.09,0,Stock
901720070,North South (scholarships),8/29/2011,MANAGERS FREMONT BOND FUND ORDINARY DIVIDEND PAID 26.49 FOR 1078.435 SHARES ON PAYABLE DATE 08/26/2011 AND RECORD DATE 07/27/2011,MBDFX,DIV,0,0,26.49,0,Cash,20110829,450195088,0,488,0,0,26.49,0,Mutual Fund
901720070,North South (scholarships),8/29/2011,MANAGERS FREMONT BOND FUND DIVIDEND REINVEST 2.501 @10.59,MBDFX,TRN,2.501,10.59,-26.49,0,Cash,20110829,450195089,0,709,2.501,10.59,-26.49,0,Mutual Fund
901720070,North South (scholarships),8/31/2011,FDIC INSURED DEPOSIT ACCOUNT  IDA12 NOT COVERED BY SIPC MONEY MARKET INTEREST,IDA12,DIV,0.25,0,0,0,Cash,20110831,451474320,0,740,0.25,0,0,0,Money Market
901720070,North South (scholarships),9/2/2011,TD BANK USA CHECKING Check #:159,,TRN,0,0,"-1,000.00",0,Cash,20110902,453194883,0,447,0,0,-1000,0,
901720070,North South (scholarships),9/6/2011,REDEMPTION FDIC INSURED DEPOSIT ACCOUNT    FOR 1000,,TRD,0,0,"1,000.00",0,Cash,20110906,453783195,0,742,0,0,1000,0,
901720070,North South (scholarships),9/6/2011,FDIC INSURED DEPOSIT ACCOUNT  IDA12 NOT COVERED BY SIPC MONEY MARKET REDEMPTION,IDA12,TRD,"-1,000.00",0,0,0,Cash,20110906,453783196,0,744,-1000,0,0,0,Money Market
901720070,North South (scholarships),9/7/2011,TD BANK USA CHECKING Check #:160,,TRN,0,0,"-1,250.00",0,Cash,20110907,454209904,0,447,0,0,-1250,0,
901720070,North South (scholarships),9/8/2011,REDEMPTION FDIC INSURED DEPOSIT ACCOUNT    FOR 1250,,TRD,0,0,"1,250.00",0,Cash,20110908,454599439,0,742,0,0,1250,0,
901720070,North South (scholarships),9/8/2011,FDIC INSURED DEPOSIT ACCOUNT  IDA12 NOT COVERED BY SIPC MONEY MARKET REDEMPTION,IDA12,TRD,"-1,250.00",0,0,0,Cash,20110908,454599440,0,744,-1250,0,0,0,Money Market
901720070,North South (scholarships),9/28/2011,MANAGERS FREMONT BOND FUND ORDINARY DIVIDEND PAID 26.46 FOR 1080.967 SHARES ON PAYABLE DATE 09/27/2011 AND RECORD DATE 08/27/2011,MBDFX,DIV,0,0,26.46,0,Cash,20110928,461196333,0,488,0,0,26.46,0,Mutual Fund
901720070,North South (scholarships),9/28/2011,MANAGERS FREMONT BOND FUND DIVIDEND REINVEST 2.532 @10.45,MBDFX,TRN,2.532,10.45,-26.46,0,Cash,20110928,461196334,0,709,2.532,10.45,-26.46,0,Mutual Fund
901720070,North South (scholarships),9/28/2011,DODGE & COX FUNDS INCOME FUND ORDINARY DIVIDEND PAID 114.45 FOR 856.459 SHARES ON PAYABLE DATE 09/27/2011 AND RECORD DATE 09/26/2011,DODIX,DIV,0,0,114.45,0,Cash,20110928,461196335,0,488,0,0,114.45,0,Mutual Fund
901720070,North South (scholarships),9/28/2011,DODGE & COX FUNDS INCOME FUND DIVIDEND REINVEST 8.651 @13.23,DODIX,TRN,8.651,13.23,-114.45,0,Cash,20110928,461196336,0,709,8.651,13.23,-114.45,0,Mutual Fund
901720070,North South (scholarships),9/28/2011,DODGE & COX FUNDS BALANCED FUND ORDINARY DIVIDEND PAID 70.44 FOR 168.809 SHARES ON PAYABLE DATE 09/27/2011 AND RECORD DATE 09/26/2011,DODBX,DIV,0,0,70.44,0,Cash,20110928,461196337,0,488,0,0,70.44,0,Mutual Fund
901720070,North South (scholarships),9/28/2011,DODGE & COX FUNDS BALANCED FUND DIVIDEND REINVEST 1.093 @64.45,DODBX,TRN,1.093,64.45,-70.44,0,Cash,20110928,461196338,0,709,1.093,64.45,-70.44,0,Mutual Fund
901720070,North South (scholarships),9/30/2011,VANGUARD/WELLINGTON FD INC COM ORDINARY DIVIDEND PAID 106.86 FOR 452.597 SHARES ON PAYABLE DATE 09/29/2011 AND RECORD DATE 09/28/2011,VWELX,DIV,0,0,106.86,0,Cash,20110930,464193193,0,488,0,0,106.86,0,Mutual Fund
901720070,North South (scholarships),9/30/2011,VANGUARD/WELLINGTON FD INC COM DIVIDEND REINVEST 3.609 @29.61,VWELX,TRN,3.609,29.61,-106.86,0,Cash,20110930,464193194,0,709,3.609,29.61,-106.86,0,Mutual Fund
901720070,North South (scholarships),9/30/2011,VANGUARD INFLATION PROTECTED SEC FD ORDINARY DIVIDEND PAID 75.93 FOR 858.557 SHARES ON PAYABLE DATE 09/29/2011 AND RECORD DATE 09/28/2011,VIPSX,DIV,0,0,75.93,0,Cash,20110930,464193195,0,488,0,0,75.93,0,Mutual Fund
901720070,North South (scholarships),9/30/2011,VANGUARD INFLATION PROTECTED SEC FD DIVIDEND REINVEST 5.431 @13.98,VIPSX,TRN,5.431,13.98,-75.93,0,Cash,20110930,464193196,0,709,5.431,13.98,-75.93,0,Mutual Fund
901720070,North South (scholarships),9/30/2011,FDIC INSURED DEPOSIT ACCOUNT  IDA12 NOT COVERED BY SIPC MONEY MARKET INTEREST,IDA12,DIV,0.22,0,0,0,Cash,20110930,464193197,0,740,0.22,0,0,0,Money Market
901720070,North South (scholarships),10/11/2011,TD BANK USA CHECKING Check #:161,,TRN,0,0,"-1,000.00",0,Cash,20111011,469232612,0,447,0,0,-1000,0,
901720070,North South (scholarships),10/12/2011,REDEMPTION FDIC INSURED DEPOSIT ACCOUNT    FOR 1000,,TRD,0,0,"1,000.00",0,Cash,20111012,469856375,0,742,0,0,1000,0,
901720070,North South (scholarships),10/12/2011,FDIC INSURED DEPOSIT ACCOUNT  IDA12 NOT COVERED BY SIPC MONEY MARKET REDEMPTION,IDA12,TRD,"-1,000.00",0,0,0,Cash,20111012,469856376,0,744,-1000,0,0,0,Money Market
901720070,North South (scholarships),10/27/2011,MANAGERS FREMONT BOND FUND ORDINARY DIVIDEND PAID 28.4 FOR 1083.685 SHARES ON PAYABLE DATE 10/26/2011 AND RECORD DATE 10/26/2011,MBDFX,DIV,0,0,28.4,0,Cash,20111027,474013191,0,488,0,0,28.4,0,Mutual Fund
901720070,North South (scholarships),10/27/2011,MANAGERS FREMONT BOND FUND DIVIDEND REINVEST 2.718 @10.45,MBDFX,TRN,2.718,10.45,-28.4,0,Cash,20111027,474013192,0,709,2.718,10.45,-28.4,0,Mutual Fund
901720070,North South (scholarships),10/31/2011,FDIC INSURED DEPOSIT ACCOUNT  IDA12 NOT COVERED BY SIPC MONEY MARKET INTEREST,IDA12,DIV,0.22,0,0,0,Cash,20111031,475848785,0,740,0.22,0,0,0,Money Market
901720070,North South (scholarships),11/1/2011,POWERSHARES QQQ ORDINARY DIVIDEND PAID 26.91 FOR 257.936 SHARES ON PAYABLE DATE 10/31/2011 AND RECORD DATE 09/20/2011,QQQ,DIV,0,0,26.91,0,Cash,20111101,477199772,0,488,0,0,26.91,0,Stock
901720070,North South (scholarships),11/1/2011,POWERSHARES QQQ DIVIDEND REINVEST .477 @56.4499,QQQ,TRN,0.477,56.4499,-26.91,0,Cash,20111101,477199773,0,709,0.477,56.4499,-26.91,0,Stock
901720070,North South (scholarships),11/28/2011,MANAGERS FREMONT BOND FUND ORDINARY DIVIDEND PAID 28.43 FOR 1086.411 SHARES ON PAYABLE DATE 11/25/2011 AND RECORD DATE 11/25/2011,MBDFX,DIV,0,0,28.43,0,Cash,20111128,483686288,0,488,0,0,28.43,0,Mutual Fund
901720070,North South (scholarships),11/28/2011,MANAGERS FREMONT BOND FUND DIVIDEND REINVEST 2.726 @10.43,MBDFX,TRN,2.726,10.43,-28.43,0,Cash,20111128,483686289,0,709,2.726,10.43,-28.43,0,Mutual Fund
901720070,North South (scholarships),11/30/2011,FDIC INSURED DEPOSIT ACCOUNT  IDA12 NOT COVERED BY SIPC MONEY MARKET INTEREST,IDA12,DIV,0.21,0,0,0,Cash,20111130,485145259,0,740,0.21,0,0,0,Money Market
901720070,North South (scholarships),12/9/2011,ROYCE LOW PRICED STOCK SERVICE CL SHORT TERM CAPITAL GAINS PAID 3.92 FOR 453.908 SHARES ON PAYABLE DATE 12/08/2011 AND RECORD DATE 12/07/2011,RYLPX,DIV,0,0,3.92,0,Cash,20111209,490534455,0,475,0,0,3.92,0,Mutual Fund
901720070,North South (scholarships),12/9/2011,ROYCE LOW PRICED STOCK SERVICE CL DIVIDEND REINVEST .273 @14.37,RYLPX,TRN,0.273,14.37,-3.92,0,Cash,20111209,490534456,0,709,0.273,14.37,-3.92,0,Mutual Fund
901720070,North South (scholarships),12/9/2011,ROYCE LOW PRICED STOCK SERVICE CL LONG TERM GAIN DISTRIBUTION PAID 534.82 FOR 491.126 SHARES ON PAYABLE DATE 12/08/2011 AND RECORD DATE 12/07/2011,RYLPX,DIV,0,0,534.82,0,Cash,20111209,490534457,0,472,0,0,534.82,0,Mutual Fund
901720070,North South (scholarships),12/9/2011,ROYCE LOW PRICED STOCK SERVICE CL DIVIDEND REINVEST 37.218 @14.37,RYLPX,TRN,37.218,14.37,-534.82,0,Cash,20111209,490534458,0,709,37.218,14.37,-534.82,0,Mutual Fund
901720070,North South (scholarships),12/9/2011,ROYCE LOW PRICED STOCK SERVICE CL ORDINARY DIVIDEND PAID 43.53 FOR 453.635 SHARES ON PAYABLE DATE 12/08/2011 AND RECORD DATE 12/07/2011,RYLPX,DIV,0,0,43.53,0,Cash,20111209,490534459,0,488,0,0,43.53,0,Mutual Fund
901720070,North South (scholarships),12/9/2011,ROYCE LOW PRICED STOCK SERVICE CL DIVIDEND REINVEST 3.029 @14.37,RYLPX,TRN,3.029,14.37,-43.53,0,Cash,20111209,490534460,0,709,3.029,14.37,-43.53,0,Mutual Fund
901720070,North South (scholarships),12/12/2011,TD BANK USA CHECKING Check #:162,,TRN,0,0,-250,0,Cash,20111212,491301580,0,447,0,0,-250,0,
901720070,North South (scholarships),12/13/2011,REDEMPTION FDIC INSURED DEPOSIT ACCOUNT    FOR 250,,TRD,0,0,250,0,Cash,20111213,491972802,0,742,0,0,250,0,
901720070,North South (scholarships),12/13/2011,FDIC INSURED DEPOSIT ACCOUNT  IDA12 NOT COVERED BY SIPC MONEY MARKET REDEMPTION,IDA12,TRD,-250,0,0,0,Cash,20111213,491972803,0,744,-250,0,0,0,Money Market
901720070,North South (scholarships),12/16/2011,OAKMARK FDS EQUITY & INCOME FD LONG TERM GAIN DISTRIBUTION PAID 243.94 FOR 535.1 SHARES ON PAYABLE DATE 12/15/2011 AND RECORD DATE 12/14/2011,OAKBX,DIV,0,0,243.94,0,Cash,20111216,496247719,0,472,0,0,243.94,0,Mutual Fund
901720070,North South (scholarships),12/16/2011,OAKMARK FDS EQUITY & INCOME FD DIVIDEND REINVEST 9.254 @26.36,OAKBX,TRN,9.254,26.36,-243.94,0,Cash,20111216,496247720,0,709,9.254,26.36,-243.94,0,Mutual Fund
901720070,North South (scholarships),12/16/2011,OAKMARK FDS EQUITY & INCOME FD ORDINARY DIVIDEND PAID 194.58 FOR 525.846 SHARES ON PAYABLE DATE 12/15/2011 AND RECORD DATE 12/14/2011,OAKBX,DIV,0,0,194.58,0,Cash,20111216,496247721,0,488,0,0,194.58,0,Mutual Fund
901720070,North South (scholarships),12/16/2011,OAKMARK FDS EQUITY & INCOME FD DIVIDEND REINVEST 7.382 @26.36,OAKBX,TRN,7.382,26.36,-194.58,0,Cash,20111216,496247722,0,709,7.382,26.36,-194.58,0,Mutual Fund
901720070,North South (scholarships),12/19/2011,VANGUARD SPECIALIZED PORTFOL HLTH CARE PTFL LONG TERM GAIN DISTRIBUTION PAID 256.2 FOR 68.568 SHARES ON PAYABLE DATE 12/19/2011 AND RECORD DATE 12/15/2011,VGHCX,DIV,0,0,256.2,0,Cash,20111219,497238625,0,472,0,0,256.2,0,Mutual Fund
901720070,North South (scholarships),12/19/2011,VANGUARD SPECIALIZED PORTFOL HLTH CARE PTFL DIVIDEND REINVEST 2.051 @124.89,VGHCX,TRN,2.051,124.89,-256.2,0,Cash,20111219,497238626,0,709,2.051,124.89,-256.2,0,Mutual Fund
901720070,North South (scholarships),12/19/2011,VANGUARD SPECIALIZED PORTFOL HLTH CARE PTFL ORDINARY DIVIDEND PAID 137.55 FOR 66.292 SHARES ON PAYABLE DATE 12/19/2011 AND RECORD DATE 12/15/2011,VGHCX,DIV,0,0,137.55,0,Cash,20111219,497238627,0,488,0,0,137.55,0,Mutual Fund
901720070,North South (scholarships),12/19/2011,VANGUARD SPECIALIZED PORTFOL HLTH CARE PTFL DIVIDEND REINVEST 1.101 @124.89,VGHCX,TRN,1.101,124.89,-137.55,0,Cash,20111219,497238628,0,709,1.101,124.89,-137.55,0,Mutual Fund
901720070,North South (scholarships),12/19/2011,VANGUARD SPECIALIZED PORTFOL HLTH CARE PTFL SHORT TERM CAPITAL GAINS PAID 28.1 FOR 66.517 SHARES ON PAYABLE DATE 12/19/2011 AND RECORD DATE 12/15/2011,VGHCX,DIV,0,0,28.1,0,Cash,20111219,497238629,0,475,0,0,28.1,0,Mutual Fund
901720070,North South (scholarships),12/19/2011,VANGUARD SPECIALIZED PORTFOL HLTH CARE PTFL DIVIDEND REINVEST .225 @124.89,VGHCX,TRN,0.225,124.89,-28.1,0,Cash,20111219,497238630,0,709,0.225,124.89,-28.1,0,Mutual Fund
901720070,North South (scholarships),12/21/2011,DODGE & COX FUNDS BALANCED FUND ORDINARY DIVIDEND PAID 69.21 FOR 169.848 SHARES ON PAYABLE DATE 12/21/2011 AND RECORD DATE 12/19/2011,DODBX,DIV,0,0,69.21,0,Cash,20111221,498356781,0,488,0,0,69.21,0,Mutual Fund
901720070,North South (scholarships),12/21/2011,DODGE & COX FUNDS BALANCED FUND DIVIDEND REINVEST 1.039 @66.62,DODBX,TRN,1.039,66.62,-69.21,0,Cash,20111221,498356782,0,709,1.039,66.62,-69.21,0,Mutual Fund
901720070,North South (scholarships),12/21/2011,DODGE & COX FUNDS INCOME FUND ORDINARY DIVIDEND PAID 120.76 FOR 865.573 SHARES ON PAYABLE DATE 12/21/2011 AND RECORD DATE 12/19/2011,DODIX,DIV,0,0,120.76,0,Cash,20111221,498356783,0,488,0,0,120.76,0,Mutual Fund
901720070,North South (scholarships),12/21/2011,DODGE & COX FUNDS INCOME FUND DIVIDEND REINVEST 9.114 @13.25,DODIX,TRN,9.114,13.25,-120.76,0,Cash,20111221,498356784,0,709,9.114,13.25,-120.76,0,Mutual Fund
901720070,North South (scholarships),12/21/2011,PURCHASE FDIC INSURED DEPOSIT ACCOUNT    FOR 189.97,,TRD,0,0,-189.97,0,Cash,20111221,498356785,0,741,0,0,-189.97,0,
901720070,North South (scholarships),12/21/2011,FDIC INSURED DEPOSIT ACCOUNT  IDA12 NOT COVERED BY SIPC MONEY MARKET PURCHASE,IDA12,TRD,189.97,0,0,0,Cash,20111221,498356786,0,743,189.97,0,0,0,Money Market
901720070,North South (scholarships),12/22/2011,REDEMPTION FDIC INSURED DEPOSIT ACCOUNT    FOR 189.97,,TRD,0,0,189.97,0,Cash,20111222,499144871,0,742,0,0,189.97,0,
901720070,North South (scholarships),12/22/2011,FDIC INSURED DEPOSIT ACCOUNT  IDA12 NOT COVERED BY SIPC MONEY MARKET REDEMPTION,IDA12,TRD,-189.97,0,0,0,Cash,20111222,499144872,0,744,-189.97,0,0,0,Money Market
901720070,North South (scholarships),12/23/2011,JANUS PERKINS MID CP VL INV T SHORT TERM CAPITAL GAINS PAID 51.42 FOR 368.469 SHARES ON PAYABLE DATE 12/22/2011 AND RECORD DATE 12/21/2011,JMCVX,DIV,0,0,51.42,0,Cash,20111223,499834162,0,475,0,0,51.42,0,Mutual Fund
901720070,North South (scholarships),12/23/2011,JANUS PERKINS MID CP VL INV T DIVIDEND REINVEST 2.544 @20.21,JMCVX,TRN,2.544,20.21,-51.42,0,Cash,20111223,499834163,0,709,2.544,20.21,-51.42,0,Mutual Fund
901720070,North South (scholarships),12/23/2011,JANUS PERKINS MID CP VL INV T LONG TERM GAIN DISTRIBUTION PAID 541.02 FOR 395.239 SHARES ON PAYABLE DATE 12/22/2011 AND RECORD DATE 12/21/2011,JMCVX,DIV,0,0,541.02,0,Cash,20111223,499834164,0,472,0,0,541.02,0,Mutual Fund
901720070,North South (scholarships),12/23/2011,JANUS PERKINS MID CP VL INV T DIVIDEND REINVEST 26.77 @20.21,JMCVX,TRN,26.77,20.21,-541.02,0,Cash,20111223,499834165,0,709,26.77,20.21,-541.02,0,Mutual Fund
901720070,North South (scholarships),12/23/2011,JANUS PERKINS MID CP VL INV T ORDINARY DIVIDEND PAID 62.68 FOR 365.925 SHARES ON PAYABLE DATE 12/22/2011 AND RECORD DATE 12/21/2011,JMCVX,DIV,0,0,62.68,0,Cash,20111223,499834166,0,488,0,0,62.68,0,Mutual Fund
901720070,North South (scholarships),12/23/2011,JANUS PERKINS MID CP VL INV T DIVIDEND REINVEST 3.101 @20.21,JMCVX,TRN,3.101,20.21,-62.68,0,Cash,20111223,499834167,0,709,3.101,20.21,-62.68,0,Mutual Fund
901720070,North South (scholarships),12/28/2011,VANGUARD/WELLINGTON FD INC COM ORDINARY DIVIDEND PAID 117.68 FOR 456.352 SHARES ON PAYABLE DATE 12/28/2011 AND RECORD DATE 12/23/2011,VWELX,DIV,0,0,117.68,0,Cash,20111228,501006918,0,488,0,0,117.68,0,Mutual Fund
901720070,North South (scholarships),12/28/2011,VANGUARD/WELLINGTON FD INC COM DIVIDEND REINVEST 3.755 @31.34,VWELX,TRN,3.755,31.34,-117.68,0,Cash,20111228,501006919,0,709,3.755,31.34,-117.68,0,Mutual Fund
901720070,North South (scholarships),12/28/2011,VANGUARD INFLATION PROTECTED SEC FD LONG TERM GAIN DISTRIBUTION PAID 15.45 FOR 872.459 SHARES ON PAYABLE DATE 12/28/2011 AND RECORD DATE 12/23/2011,VIPSX,DIV,0,0,15.45,0,Cash,20111228,501006920,0,472,0,0,15.45,0,Mutual Fund
901720070,North South (scholarships),12/28/2011,VANGUARD INFLATION PROTECTED SEC FD DIVIDEND REINVEST 1.097 @14.08,VIPSX,TRN,1.097,14.08,-15.45,0,Cash,20111228,501006921,0,709,1.097,14.08,-15.45,0,Mutual Fund
901720070,North South (scholarships),12/28/2011,MANAGERS FREMONT BOND FUND ORDINARY DIVIDEND PAID 105.4 FOR 1096.497 SHARES ON PAYABLE DATE 12/27/2011 AND RECORD DATE 12/27/2011,MBDFX,DIV,0,0,105.4,0,Cash,20111228,501006922,0,488,0,0,105.4,0,Mutual Fund
901720070,North South (scholarships),12/28/2011,MANAGERS FREMONT BOND FUND DIVIDEND REINVEST 10.086 @10.45,MBDFX,TRN,10.086,10.45,-105.4,0,Cash,20111228,501006923,0,709,10.086,10.45,-105.4,0,Mutual Fund
901720070,North South (scholarships),12/28/2011,VANGUARD INFLATION PROTECTED SEC FD ORDINARY DIVIDEND PAID 180.3 FOR 871.362 SHARES ON PAYABLE DATE 12/28/2011 AND RECORD DATE 12/23/2011,VIPSX,DIV,0,0,180.3,0,Cash,20111228,501006924,0,488,0,0,180.3,0,Mutual Fund
901720070,North South (scholarships),12/28/2011,VANGUARD INFLATION PROTECTED SEC FD DIVIDEND REINVEST 12.805 @14.08,VIPSX,TRN,12.805,14.08,-180.3,0,Cash,20111228,501006925,0,709,12.805,14.08,-180.3,0,Mutual Fund
901720070,North South (scholarships),12/29/2011,VANGUARD ENERGY INDEX ORDINARY DIVIDEND PAID 359.99 FOR 222.492 SHARES ON PAYABLE DATE 12/28/2011 AND RECORD DATE 12/23/2011,VDE,DIV,0,0,359.99,0,Cash,20111229,501933987,0,488,0,0,359.99,0,Stock
901720070,North South (scholarships),12/29/2011,VANGUARD ENERGY INDEX DIVIDEND REINVEST 3.583 @100.479,VDE,TRN,3.583,100.479,-359.99,0,Cash,20111229,501933988,0,709,3.583,100.479,-359.99,0,Stock
901720070,North South (scholarships),12/30/2011,SOUND SHORE FD INC COM ORDINARY DIVIDEND PAID 42.98 FOR 219.953 SHARES ON PAYABLE DATE 12/30/2011 AND RECORD DATE 12/28/2011,SSHFX,DIV,0,0,42.98,0,Cash,20111230,505376504,0,488,0,0,42.98,0,Mutual Fund
901720070,North South (scholarships),12/30/2011,SOUND SHORE FD INC COM DIVIDEND REINVEST 1.452 @29.61,SSHFX,TRN,1.452,29.61,-42.98,0,Cash,20111230,505376505,0,709,1.452,29.61,-42.98,0,Mutual Fund
901720070,North South (scholarships),12/30/2011,ISHARES MSCI EMERGING MKTS ORDINARY DIVIDEND PAID 90.05 FOR 259.531 SHARES ON PAYABLE DATE 12/29/2011 AND RECORD DATE 12/22/2011,EEM,DIV,0,0,90.05,0,Cash,20111230,505376506,0,488,0,0,90.05,0,Stock
901720070,North South (scholarships),12/30/2011,ISHARES MSCI EMERGING MKTS DIVIDEND REINVEST 2.366 @38.059,EEM,TRN,2.366,38.059,-90.05,0,Cash,20111230,505376507,0,709,2.366,38.059,-90.05,0,Stock
901720070,North South (scholarships),12/30/2011,FDIC INSURED DEPOSIT ACCOUNT  IDA12 NOT COVERED BY SIPC MONEY MARKET INTEREST,IDA12,DIV,0.22,0,0,0,Cash,20111230,505376508,0,740,0.22,0,0,0,Money Market
901720070,North South (scholarships),1/3/2012,POWERSHARES QQQ ORDINARY DIVIDEND PAID 41.48 FOR 258.413 SHARES ON PAYABLE DATE 12/30/2011 AND RECORD DATE 12/20/2011,QQQ,DIV,0,0,41.48,0,Cash,20120103,508124349,0,488,0,0,41.48,0,Stock
901720070,North South (scholarships),1/3/2012,POWERSHARES QQQ DIVIDEND REINVEST .729 @56.879,QQQ,TRN,0.729,56.879,-41.48,0,Cash,20120103,508124350,0,709,0.729,56.879,-41.48,0,Stock
901720070,North South (scholarships),1/5/2012,TD BANK USA CHECKING Check #:163,,TRN,0,0,-600,0,Cash,20120105,509644631,0,447,0,0,-600,0,
901720070,North South (scholarships),1/6/2012,REDEMPTION FDIC INSURED DEPOSIT ACCOUNT    FOR 600,,TRD,0,0,600,0,Cash,20120106,510114258,0,742,0,0,600,0,
901720070,North South (scholarships),1/6/2012,FDIC INSURED DEPOSIT ACCOUNT  IDA12 NOT COVERED BY SIPC MONEY MARKET REDEMPTION,IDA12,TRD,-600,0,0,0,Cash,20120106,510114259,0,744,-600,0,0,0,Money Market
901720070,North South (scholarships),1/13/2012,TD BANK USA CHECKING Check #:164,,TRN,0,0,-250,0,Cash,20120113,512566911,0,447,0,0,-250,0,
901720070,North South (scholarships),1/17/2012,REDEMPTION FDIC INSURED DEPOSIT ACCOUNT    FOR 250,,TRD,0,0,250,0,Cash,20120117,513016429,0,742,0,0,250,0,
901720070,North South (scholarships),1/17/2012,FDIC INSURED DEPOSIT ACCOUNT  IDA12 NOT COVERED BY SIPC MONEY MARKET REDEMPTION,IDA12,TRD,-250,0,0,0,Cash,20120117,513016430,0,744,-250,0,0,0,Money Market
901720070,North South (scholarships),1/27/2012,MANAGERS FREMONT BOND FUND ORDINARY DIVIDEND PAID 28.59 FOR 1099.182 SHARES ON PAYABLE DATE 01/26/2012 AND RECORD DATE 01/26/2012,MBDFX,DIV,0,0,28.59,0,Cash,20120127,516517364,0,488,0,0,28.59,0,Mutual Fund
901720070,North South (scholarships),1/27/2012,MANAGERS FREMONT BOND FUND DIVIDEND REINVEST 2.685 @10.65,MBDFX,TRN,2.685,10.65,-28.59,0,Cash,20120127,516517365,0,709,2.685,10.65,-28.59,0,Mutual Fund
901720070,North South (scholarships),1/31/2012,TD BANK USA CHECKING Check #:165,,TRN,0,0,"-1,000.00",0,Cash,20120131,518186570,0,447,0,0,-1000,0,
901720070,North South (scholarships),1/31/2012,FDIC INSURED DEPOSIT ACCOUNT  IDA12 NOT COVERED BY SIPC MONEY MARKET INTEREST,IDA12,DIV,0.21,0,0,0,Cash,20120131,518186571,0,740,0.21,0,0,0,Money Market
901720070,North South (scholarships),2/1/2012,REDEMPTION FDIC INSURED DEPOSIT ACCOUNT    FOR 1000,,TRD,0,0,"1,000.00",0,Cash,20120201,520235723,0,742,0,0,1000,0,
901720070,North South (scholarships),2/1/2012,FDIC INSURED DEPOSIT ACCOUNT  IDA12 NOT COVERED BY SIPC MONEY MARKET REDEMPTION,IDA12,TRD,"-1,000.00",0,0,0,Cash,20120201,520235724,0,744,-1000,0,0,0,Money Market
901720070,North South (scholarships),2/27/2012,MANAGERS FREMONT BOND FUND ORDINARY DIVIDEND PAID 27.26 FOR 1101.732 SHARES ON PAYABLE DATE 02/24/2012 AND RECORD DATE 02/24/2012,MBDFX,DIV,0,0,27.26,0,Cash,20120227,526674020,0,488,0,0,27.26,0,Mutual Fund
901720070,North South (scholarships),2/27/2012,MANAGERS FREMONT BOND FUND DIVIDEND REINVEST 2.55 @10.69,MBDFX,TRN,2.55,10.69,-27.26,0,Cash,20120227,526674021,0,709,2.55,10.69,-27.26,0,Mutual Fund
901720070,North South (scholarships),2/29/2012,FDIC INSURED DEPOSIT ACCOUNT  IDA12 NOT COVERED BY SIPC MONEY MARKET INTEREST,IDA12,DIV,0.19,0,0,0,Cash,20120229,527385696,0,740,0.19,0,0,0,Money Market
901720070,North South (scholarships),3/22/2012,VANGUARD SPECIALIZED PORTFOL HLTH CARE PTFL LONG TERM GAIN DISTRIBUTION PAID 3.7 FOR 68.643 SHARES ON PAYABLE DATE 03/22/2012 AND RECORD DATE 03/20/2012,VGHCX,DIV,0,0,3.7,0,Cash,20120322,535861773,0,472,0,0,3.7,0,Mutual Fund
901720070,North South (scholarships),3/22/2012,VANGUARD SPECIALIZED PORTFOL HLTH CARE PTFL DIVIDEND REINVEST .027 @135.81,VGHCX,TRN,0.027,135.81,-3.7,0,Cash,20120322,535861774,0,709,0.027,135.81,-3.7,0,Mutual Fund
901720070,North South (scholarships),3/22/2012,VANGUARD SPECIALIZED PORTFOL HLTH CARE PTFL ORDINARY DIVIDEND PAID 6.58 FOR 68.616 SHARES ON PAYABLE DATE 03/22/2012 AND RECORD DATE 03/20/2012,VGHCX,DIV,0,0,6.58,0,Cash,20120322,535861775,0,488,0,0,6.58,0,Mutual Fund
901720070,North South (scholarships),3/22/2012,VANGUARD SPECIALIZED PORTFOL HLTH CARE PTFL DIVIDEND REINVEST .048 @135.81,VGHCX,TRN,0.048,135.81,-6.58,0,Cash,20120322,535861776,0,709,0.048,135.81,-6.58,0,Mutual Fund
901720070,North South (scholarships),3/28/2012,DODGE & COX FUNDS INCOME FUND ORDINARY DIVIDEND PAID 116.85 FOR 874.184 SHARES ON PAYABLE DATE 03/28/2012 AND RECORD DATE 03/26/2012,DODIX,DIV,0,0,116.85,0,Cash,20120328,537525515,0,488,0,0,116.85,0,Mutual Fund
901720070,North South (scholarships),3/28/2012,DODGE & COX FUNDS INCOME FUND DIVIDEND REINVEST 8.611 @13.57,DODIX,TRN,8.611,13.57,-116.85,0,Cash,20120328,537525516,0,709,8.611,13.57,-116.85,0,Mutual Fund
901720070,North South (scholarships),3/28/2012,DODGE & COX FUNDS BALANCED FUND ORDINARY DIVIDEND PAID 74.73 FOR 170.849 SHARES ON PAYABLE DATE 03/28/2012 AND RECORD DATE 03/26/2012,DODBX,DIV,0,0,74.73,0,Cash,20120328,537525517,0,488,0,0,74.73,0,Mutual Fund
901720070,North South (scholarships),3/28/2012,DODGE & COX FUNDS BALANCED FUND DIVIDEND REINVEST 1.001 @74.64,DODBX,TRN,1.001,74.64,-74.73,0,Cash,20120328,537525518,0,709,1.001,74.64,-74.73,0,Mutual Fund
901720070,North South (scholarships),3/28/2012,MANAGERS FREMONT BOND FUND ORDINARY DIVIDEND PAID 24.89 FOR 1104.06 SHARES ON PAYABLE DATE 03/27/2012 AND RECORD DATE 03/27/2012,MBDFX,DIV,0,0,24.89,0,Cash,20120328,537525519,0,488,0,0,24.89,0,Mutual Fund
901720070,North South (scholarships),3/28/2012,MANAGERS FREMONT BOND FUND DIVIDEND REINVEST 2.328 @10.69,MBDFX,TRN,2.328,10.69,-24.89,0,Cash,20120328,537525520,0,709,2.328,10.69,-24.89,0,Mutual Fund
901720070,North South (scholarships),3/30/2012,VANGUARD/WELLINGTON FD INC COM ORDINARY DIVIDEND PAID 103.14 FOR 459.442 SHARES ON PAYABLE DATE 03/30/2012 AND RECORD DATE 03/28/2012,VWELX,DIV,0,0,103.14,0,Cash,20120330,540602804,0,488,0,0,103.14,0,Mutual Fund
901720070,North South (scholarships),3/30/2012,VANGUARD/WELLINGTON FD INC COM DIVIDEND REINVEST 3.09 @33.38,VWELX,TRN,3.09,33.38,-103.14,0,Cash,20120330,540602805,0,709,3.09,33.38,-103.14,0,Mutual Fund
901720070,North South (scholarships),3/30/2012,VANGUARD INFLATION PROTECTED SEC FD ORDINARY DIVIDEND PAID 31.41 FOR 874.665 SHARES ON PAYABLE DATE 03/30/2012 AND RECORD DATE 03/28/2012,VIPSX,DIV,0,0,31.41,0,Cash,20120330,540602806,0,488,0,0,31.41,0,Mutual Fund
901720070,North South (scholarships),3/30/2012,VANGUARD INFLATION PROTECTED SEC FD DIVIDEND REINVEST 2.206 @14.24,VIPSX,TRN,2.206,14.24,-31.41,0,Cash,20120330,540602807,0,709,2.206,14.24,-31.41,0,Mutual Fund
901720070,North South (scholarships),3/30/2012,FDIC INSURED DEPOSIT ACCOUNT  IDA12 NOT COVERED BY SIPC MONEY MARKET INTEREST,IDA12,DIV,0.2,0,0,0,Cash,20120330,540602808,0,740,0.2,0,0,0,Money Market
901720070,North South (scholarships),4/16/2012,TD BANK USA CHECKING Check #:166,,TRN,0,0,-600,0,Cash,20120416,547911832,0,447,0,0,-600,0,
901720070,North South (scholarships),4/17/2012,REDEMPTION FDIC INSURED DEPOSIT ACCOUNT    FOR 600,,TRD,0,0,600,0,Cash,20120417,548461400,0,742,0,0,600,0,
901720070,North South (scholarships),4/17/2012,FDIC INSURED DEPOSIT ACCOUNT  IDA12 NOT COVERED BY SIPC MONEY MARKET REDEMPTION,IDA12,TRD,-600,0,0,0,Cash,20120417,548461401,0,744,-600,0,0,0,Money Market
901720070,North South (scholarships),4/26/2012,MANAGERS FREMONT BOND FUND ORDINARY DIVIDEND PAID 24.85 FOR 1106.367 SHARES ON PAYABLE DATE 04/25/2012 AND RECORD DATE 04/25/2012,MBDFX,DIV,0,0,24.85,0,Cash,20120426,550745064,0,488,0,0,24.85,0,Mutual Fund
901720070,North South (scholarships),4/26/2012,MANAGERS FREMONT BOND FUND DIVIDEND REINVEST 2.307 @10.77,MBDFX,TRN,2.307,10.77,-24.85,0,Cash,20120426,550745065,0,709,2.307,10.77,-24.85,0,Mutual Fund
901720070,North South (scholarships),4/30/2012,FDIC INSURED DEPOSIT ACCOUNT  IDA12 NOT COVERED BY SIPC MONEY MARKET INTEREST,IDA12,DIV,0.19,0,0,0,Cash,20120430,551581536,0,740,0.19,0,0,0,Money Market
