Time: 06-09-2018 09:21:05 AM
-----------------------------------------------------------
Date & Time: 06-09-2018 09:21:05
Coach Name: 30674
CoachName Status: 30674
ProductGroup: 41

product: SATE
-----------------------------------------------------------

Time: 06-09-2018 10:15:53 AM
-----------------------------------------------------------
Date & Time: 06-09-2018 10:15:53
Coach Name: 22419
CoachName Status: 22419
ProductGroup: 31

product: MB3
-----------------------------------------------------------

Time: 06-09-2018 10:18:31 AM
-----------------------------------------------------------
Date & Time: 06-09-2018 10:18:31
Coach Name: 94056
CoachName Status: 94056
ProductGroup: 31

product: MB2
-----------------------------------------------------------

Time: 06-09-2018 10:22:04 AM
-----------------------------------------------------------
Date & Time: 06-09-2018 10:22:04
Coach Name: 94056
CoachName Status: 94056
ProductGroup: 31

product: MB2
-----------------------------------------------------------

Time: 06-09-2018 11:53:13 AM
-----------------------------------------------------------
Date & Time: 06-09-2018 11:53:13
Coach Name: 64212
CoachName Status: 64212
ProductGroup: 41

product: SATE
-----------------------------------------------------------

Time: 06-09-2018 11:56:00 AM
-----------------------------------------------------------
Date & Time: 06-09-2018 11:56:00
Coach Name: 88503
CoachName Status: 88503
ProductGroup: 31

product: MB2
-----------------------------------------------------------

Time: 06-09-2018 12:07:12 PM
-----------------------------------------------------------
Date & Time: 06-09-2018 12:07:12
Coach Name: 74106
CoachName Status: 74106
ProductGroup: 32

product: SGB
-----------------------------------------------------------

Time: 06-09-2018 12:08:11 PM
-----------------------------------------------------------
Date & Time: 06-09-2018 12:08:11
Coach Name: 74106
CoachName Status: 74106
ProductGroup: 32

product: SGB
-----------------------------------------------------------

Time: 06-09-2018 03:24:12 PM
-----------------------------------------------------------
Date & Time: 06-09-2018 15:24:12
Coach Name: 85334
CoachName Status: 85334
ProductGroup: 31

product: MB2
-----------------------------------------------------------

