Time: 26-06-2018 03:30:29 PM
-----------------------------------------------------------
Date & Time: 26-06-2018 15:30:29
Coach Name: 
Validation Status: Exception
Source: Free Event Registration

Exception: Input string was not in a correct format.
-----------------------------------------------------------

Time: 26-06-2018 05:26:31 PM
-----------------------------------------------------------
Date & Time: 26-06-2018 17:26:31
Coach Name: 
Validation Status: Exception
Source: Free Event Registration

Exception: Input string was not in a correct format.
-----------------------------------------------------------

Time: 26-06-2018 05:33:12 PM
-----------------------------------------------------------
Date & Time: 26-06-2018 17:33:12
Coach Name: 
Validation Status: Exception
Source: Free Event Registration

Exception: Input string was not in a correct format.
-----------------------------------------------------------

Time: 26-06-2018 05:33:18 PM
-----------------------------------------------------------
Date & Time: 26-06-2018 17:33:18
Coach Name: 
Validation Status: Exception
Source: Free Event Registration

Exception: Input string was not in a correct format.
-----------------------------------------------------------

Time: 26-06-2018 05:34:35 PM
-----------------------------------------------------------
Date & Time: 26-06-2018 17:34:35
Coach Name: 
Validation Status: Exception
Source: Free Event Registration

Exception: Input string was not in a correct format.
-----------------------------------------------------------

Time: 26-06-2018 05:34:47 PM
-----------------------------------------------------------
Date & Time: 26-06-2018 17:34:47
Coach Name: 
Validation Status: Exception
Source: Free Event Registration

Exception: Input string was not in a correct format.
-----------------------------------------------------------

Time: 26-06-2018 05:37:57 PM
-----------------------------------------------------------
Date & Time: 26-06-2018 17:37:57
Coach Name: 
Validation Status: Exception
Source: Free Event Registration

Exception: Input string was not in a correct format.
-----------------------------------------------------------

Time: 26-06-2018 05:38:00 PM
-----------------------------------------------------------
Date & Time: 26-06-2018 17:38:00
Coach Name: 
Validation Status: Exception
Source: Free Event Registration

Exception: Input string was not in a correct format.
-----------------------------------------------------------

Time: 26-06-2018 05:38:44 PM
-----------------------------------------------------------
Date & Time: 26-06-2018 17:38:44
Coach Name: 
Validation Status: Exception
Source: Free Event Registration

Exception: The conversion of a varchar data type to a datetime data type resulted in an out-of-range value.
The statement has been terminated.
-----------------------------------------------------------

Time: 26-06-2018 05:43:04 PM
-----------------------------------------------------------
Date & Time: 26-06-2018 17:43:04
Coach Name: 
Validation Status: Exception
Source: Free Event Registration

Exception: Input string was not in a correct format.
-----------------------------------------------------------

Time: 26-06-2018 05:45:37 PM
-----------------------------------------------------------
Date & Time: 26-06-2018 17:45:37
Coach Name: 
Validation Status: Exception
Source: Free Event Registration

Exception: Input string was not in a correct format.
-----------------------------------------------------------

Time: 26-06-2018 05:46:56 PM
-----------------------------------------------------------
Date & Time: 26-06-2018 17:46:56
Coach Name: 
Validation Status: Exception
Source: Free Event Registration

Exception: Input string was not in a correct format.
-----------------------------------------------------------

Time: 26-06-2018 06:09:21 PM
-----------------------------------------------------------
Date & Time: 26-06-2018 18:09:21
Coach Name: 
Validation Status: Exception
Source: Free Event Registration

Exception: Input string was not in a correct format.
-----------------------------------------------------------

Time: 26-06-2018 06:14:08 PM
-----------------------------------------------------------
Date & Time: 26-06-2018 18:14:08
Coach Name: 
Validation Status: Exception
Source: Free Event Registration

Exception: Input string was not in a correct format.
-----------------------------------------------------------

Time: 26-06-2018 06:14:44 PM
-----------------------------------------------------------
Date & Time: 26-06-2018 18:14:44
Coach Name: 
Validation Status: Exception
Source: Free Event Registration

Exception: Input string was not in a correct format.
-----------------------------------------------------------

Time: 26-06-2018 06:15:43 PM
-----------------------------------------------------------
Date & Time: 26-06-2018 18:15:43
Coach Name: 
Validation Status: Exception
Source: Free Event Registration

Exception: Input string was not in a correct format.
-----------------------------------------------------------

Time: 26-06-2018 06:17:14 PM
-----------------------------------------------------------
Date & Time: 26-06-2018 18:17:14
Coach Name: 
Validation Status: Exception
Source: Free Event Registration

Exception: Input string was not in a correct format.
-----------------------------------------------------------

Time: 26-06-2018 06:22:50 PM
-----------------------------------------------------------
Date & Time: 26-06-2018 18:22:50
Coach Name: 
Validation Status: Exception
Source: Free Event Registration

Exception: Input string was not in a correct format.
-----------------------------------------------------------

Time: 26-06-2018 06:27:08 PM
-----------------------------------------------------------
Date & Time: 26-06-2018 18:27:08
Coach Name: 
Validation Status: Exception
Source: Free Event Registration

Exception: Input string was not in a correct format.
-----------------------------------------------------------

Time: 26-06-2018 06:29:22 PM
-----------------------------------------------------------
Date & Time: 26-06-2018 18:29:22
Coach Name: 
Validation Status: Exception
Source: Free Event Registration

Exception: Input string was not in a correct format.
-----------------------------------------------------------

Time: 26-06-2018 06:31:48 PM
-----------------------------------------------------------
Date & Time: 26-06-2018 18:31:48
Coach Name: 
Validation Status: Exception
Source: Free Event Registration

Exception: Input string was not in a correct format.
-----------------------------------------------------------

Time: 26-06-2018 07:23:21 PM
-----------------------------------------------------------
Date & Time: 26-06-2018 19:23:21
Coach Name: 
Validation Status: Exception
Source: Free Event Registration

Exception: Input string was not in a correct format.
-----------------------------------------------------------

Time: 26-06-2018 07:24:08 PM
-----------------------------------------------------------
Date & Time: 26-06-2018 19:24:08
Coach Name: 
Validation Status: Exception
Source: Free Event Registration

Exception: Input string was not in a correct format.
-----------------------------------------------------------

Time: 26-06-2018 07:45:19 PM
-----------------------------------------------------------
Date & Time: 26-06-2018 19:45:19
Coach Name: 
Validation Status: Exception
Source: Free Event Registration

Exception: Input string was not in a correct format.
-----------------------------------------------------------

Time: 26-06-2018 07:45:28 PM
-----------------------------------------------------------
Date & Time: 26-06-2018 19:45:28
Coach Name: 
Validation Status: Exception
Source: Free Event Registration

Exception: Input string was not in a correct format.
-----------------------------------------------------------

