Time: 07-06-2018 12:34:39 PM
-----------------------------------------------------------
Date & Time: 07-06-2018 12:34:39
Coach Name: 
Validation Status: Exception
Source: Calendar Signup

Exception: String was not recognized as a valid DateTime.
-----------------------------------------------------------

