Time: 08/11/2017 03:24:57 PM
-----------------------------------------------------------
Date & Time: 11/8/2017 3:24:57 PM
Coach Name: ChildName: 0
Validation Status: Exception
Source: Coaching Status

Exception: Input string was not in a correct format.Couldn't store <> in CoachClassCalID Column.  Expected type is Int32.
-----------------------------------------------------------

Time: 08/11/2017 03:25:26 PM
-----------------------------------------------------------
Date & Time: 11/8/2017 3:25:26 PM
Coach Name: ChildName: 0
Validation Status: Exception
Source: Coaching Status

Exception: Input string was not in a correct format.Couldn't store <> in CoachClassCalID Column.  Expected type is Int32.
-----------------------------------------------------------

Time: 08/11/2017 03:27:02 PM
-----------------------------------------------------------
Date & Time: 11/8/2017 3:27:02 PM
Coach Name: ChildName: 0
Validation Status: Exception
Source: Coaching Status

Exception: Input string was not in a correct format.Couldn't store <> in CoachClassCalID Column.  Expected type is Int32.
-----------------------------------------------------------

Time: 08/11/2017 03:28:44 PM
-----------------------------------------------------------
Date & Time: 11/8/2017 3:28:44 PM
Coach Name: ChildName: 0
Validation Status: Exception
Source: Coaching Status

Exception: Input string was not in a correct format.Couldn't store <> in CoachClassCalID Column.  Expected type is Int32.
-----------------------------------------------------------

Time: 08/11/2017 03:30:18 PM
-----------------------------------------------------------
Date & Time: 11/8/2017 3:30:18 PM
Coach Name: ChildName: 0
Validation Status: Exception
Source: Coaching Status

Exception: Input string was not in a correct format.Couldn't store <> in CoachClassCalID Column.  Expected type is Int32.
-----------------------------------------------------------

Time: 08/11/2017 03:30:50 PM
-----------------------------------------------------------
Date & Time: 11/8/2017 3:30:50 PM
Coach Name: ChildName: 0
Validation Status: Exception
Source: Coaching Status

Exception: Input string was not in a correct format.Couldn't store <John> in MemberId Column.  Expected type is Int32.
-----------------------------------------------------------

Time: 08/11/2017 03:37:29 PM
-----------------------------------------------------------
Date & Time: 11/8/2017 3:37:29 PM
Coach Name: ChildName: 0
Validation Status: Exception
Source: Coaching Status

Exception: String was not recognized as a valid TimeSpan.Couldn't store <John> in Time Column.  Expected type is TimeSpan.
-----------------------------------------------------------

Time: 08/11/2017 03:38:27 PM
-----------------------------------------------------------
Date & Time: 11/8/2017 3:38:27 PM
Coach Name: ChildName: 0
Validation Status: Exception
Source: Coaching Status

Exception: String was not recognized as a valid TimeSpan.Couldn't store <John> in Time Column.  Expected type is TimeSpan.
-----------------------------------------------------------

Time: 08/11/2017 03:41:36 PM
-----------------------------------------------------------
Date & Time: 11/8/2017 3:41:36 PM
Coach Name: ChildName: 0
Validation Status: Exception
Source: Coaching Status

Exception: Input string was not in a correct format.Couldn't store <> in WeekNo Column.  Expected type is Int32.
-----------------------------------------------------------

Time: 08/11/2017 03:42:10 PM
-----------------------------------------------------------
Date & Time: 11/8/2017 3:42:10 PM
Coach Name: ChildName: 0
Validation Status: Exception
Source: Coaching Status

Exception: String was not recognized as a valid DateTime.Couldn't store <81194> in ModifyDate Column.  Expected type is DateTime.
-----------------------------------------------------------

Time: 08/11/2017 03:42:59 PM
-----------------------------------------------------------
Date & Time: 11/8/2017 3:42:59 PM
Coach Name: ChildName: 0
Validation Status: Exception
Source: Coaching Status

Exception: String was not recognized as a valid DateTime.Couldn't store <81194> in ModifyDate Column.  Expected type is DateTime.
-----------------------------------------------------------

Time: 08/11/2017 03:43:44 PM
-----------------------------------------------------------
Date & Time: 11/8/2017 3:43:44 PM
Coach Name: ChildName: 0
Validation Status: Exception
Source: Coaching Status

Exception: String was not recognized as a valid DateTime.Couldn't store <> in ModifyDate Column.  Expected type is DateTime.
-----------------------------------------------------------

Time: 08/11/2017 03:45:01 PM
-----------------------------------------------------------
Date & Time: 11/8/2017 3:45:01 PM
Coach Name: ChildName: 0
Validation Status: Exception
Source: Coaching Status

Exception: Input string was not in a correct format.Couldn't store <> in ModifiedBy Column.  Expected type is Int32.
-----------------------------------------------------------

Time: 08/11/2017 03:45:56 PM
-----------------------------------------------------------
Date & Time: 11/8/2017 3:45:56 PM
Coach Name: ChildName: 0
Validation Status: Exception
Source: Coaching Status

Exception: Public member 'dr' on type 'DBNull' not found.
-----------------------------------------------------------

Time: 08/11/2017 04:07:57 PM
-----------------------------------------------------------
Date & Time: 11/8/2017 4:07:57 PM
Coach Name: ChildName: 0
Validation Status: Exception
Source: Coaching Status

Exception: Public member 'dr' on type 'DBNull' not found.
-----------------------------------------------------------

Time: 08/11/2017 04:09:02 PM
-----------------------------------------------------------
Date & Time: 11/8/2017 4:09:02 PM
Coach Name: ChildName: 0
Validation Status: Exception
Source: Coaching Status

Exception: This row already belongs to another table.
-----------------------------------------------------------

Time: 08/11/2017 04:18:30 PM
-----------------------------------------------------------
Date & Time: 11/8/2017 4:18:30 PM
Coach Name: ChildName: 0
Validation Status: Exception
Source: Coaching Status

Exception: A DataTable named 'Table' already belongs to this DataSet.
-----------------------------------------------------------

Time: 08/11/2017 04:19:31 PM
-----------------------------------------------------------
Date & Time: 11/8/2017 4:19:31 PM
Coach Name: ChildName: 0
Validation Status: Exception
Source: Coaching Status

Exception: A DataTable named 'Table' already belongs to this DataSet.
-----------------------------------------------------------

Time: 08/11/2017 04:31:09 PM
-----------------------------------------------------------
Date & Time: 11/8/2017 4:31:09 PM
Coach Name: ChildName: 0
Validation Status: Exception
Source: Coaching Status

Exception: Cannot find column Week.
-----------------------------------------------------------

Time: 08/11/2017 04:31:43 PM
-----------------------------------------------------------
Date & Time: 11/8/2017 4:31:43 PM
Coach Name: ChildName: 0
Validation Status: Exception
Source: Coaching Status

Exception: Cannot find column Week.
-----------------------------------------------------------

