Time: 21-05-2018 04:32:42 PM
-----------------------------------------------------------
Date & Time: 21-05-2018 16:32:42
Coach Name: 
Validation Status: Exception
Source: Set up Webinar

Exception: Object reference not set to an instance of an object.
-----------------------------------------------------------

Time: 21-05-2018 04:33:49 PM
-----------------------------------------------------------
Date & Time: 21-05-2018 16:33:49
Coach Name: 
Validation Status: Exception
Source: Set up Webinar

Exception: Object reference not set to an instance of an object.
-----------------------------------------------------------

Time: 21-05-2018 04:34:08 PM
-----------------------------------------------------------
Date & Time: 21-05-2018 16:34:08
Coach Name: 
Validation Status: Exception
Source: Set up Webinar

Exception: Object reference not set to an instance of an object.
-----------------------------------------------------------

Time: 21-05-2018 04:34:38 PM
-----------------------------------------------------------
Date & Time: 21-05-2018 16:34:38
Coach Name: 
Validation Status: Exception
Source: Set up Webinar

Exception: Object reference not set to an instance of an object.
-----------------------------------------------------------

