Time: 18-07-2018 02:56:46 PM
-----------------------------------------------------------
Date & Time: 18-07-2018 14:56:46
Coach Name: 
Validation Status: Exception
Source: Calendar Signup

Exception: Object reference not set to an instance of an object.
-----------------------------------------------------------

