Time: 20/06/2017 09:25:20 AM
-----------------------------------------------------------
Date & Time: 6/20/2017 9:25:20 AM
Coach Name: 
Validation Status: Exception
Source: Calendar Signup

Exception: Incorrect syntax near the keyword 'order'.
-----------------------------------------------------------

Time: 20/06/2017 09:25:21 AM
-----------------------------------------------------------
Date & Time: 6/20/2017 9:25:21 AM
Coach Name: 
Validation Status: Exception
Source: Calendar Signup

Exception: Incorrect syntax near the keyword 'order'.
-----------------------------------------------------------

Time: 20/06/2017 09:25:22 AM
-----------------------------------------------------------
Date & Time: 6/20/2017 9:25:22 AM
Coach Name: 
Validation Status: Exception
Source: Calendar Signup

Exception: Incorrect syntax near '='.
-----------------------------------------------------------

