Time: 29-08-2018 09:55:56 AM
-----------------------------------------------------------
Date & Time: 29-08-2018 09:55:56
Coach Name: 
Validation Status: Exception
Source: Calendar Signup

Exception: Incorrect syntax near 'VC'.
-----------------------------------------------------------

Time: 29-08-2018 10:05:08 AM
-----------------------------------------------------------
Date & Time: 29-08-2018 10:05:08
Coach Name: 
Validation Status: Exception
Source: Calendar Signup

Exception: Incorrect syntax near 'VC'.
-----------------------------------------------------------

Time: 29-08-2018 10:06:07 AM
-----------------------------------------------------------
Date & Time: 29-08-2018 10:06:07
Coach Name: 
Validation Status: Exception
Source: Calendar Signup

Exception: Incorrect syntax near 'VC'.
-----------------------------------------------------------

Time: 29-08-2018 10:07:43 AM
-----------------------------------------------------------
Date & Time: 29-08-2018 10:07:43
Coach Name: 
Validation Status: Exception
Source: Calendar Signup

Exception: Incorrect syntax near 'VC'.
-----------------------------------------------------------

