Time: 03/03/2017 10:53:10 AM
-----------------------------------------------------------
Date & Time: 3/3/2017 10:53:10 AM
Coach Name: 
Validation Status: Exception
Source: Calendar Signup

Exception: Invalid column name 'training'.
-----------------------------------------------------------

Time: 03/03/2017 02:46:20 PM
-----------------------------------------------------------
Date & Time: 3/3/2017 2:46:20 PM
Coach Name: 
Validation Status: Exception
Source: Calendar Signup

Exception: Incorrect syntax near 'EF'.
-----------------------------------------------------------

Time: 03/03/2017 02:47:02 PM
-----------------------------------------------------------
Date & Time: 3/3/2017 2:47:02 PM
Coach Name: 
Validation Status: Exception
Source: Calendar Signup

Exception: Incorrect syntax near 'EF'.
-----------------------------------------------------------

Time: 03/03/2017 02:47:21 PM
-----------------------------------------------------------
Date & Time: 3/3/2017 2:47:21 PM
Coach Name: 
Validation Status: Exception
Source: Calendar Signup

Exception: Incorrect syntax near 'EF'.
-----------------------------------------------------------

Time: 03/03/2017 02:47:37 PM
-----------------------------------------------------------
Date & Time: 3/3/2017 2:47:37 PM
Coach Name: 
Validation Status: Exception
Source: Calendar Signup

Exception: Incorrect syntax near 'EF'.
-----------------------------------------------------------

Time: 03/03/2017 02:47:47 PM
-----------------------------------------------------------
Date & Time: 3/3/2017 2:47:47 PM
Coach Name: 
Validation Status: Exception
Source: Calendar Signup

Exception: Incorrect syntax near 'EF'.
-----------------------------------------------------------

Time: 03/03/2017 02:48:00 PM
-----------------------------------------------------------
Date & Time: 3/3/2017 2:48:00 PM
Coach Name: 
Validation Status: Exception
Source: Calendar Signup

Exception: Incorrect syntax near 'EF'.
-----------------------------------------------------------

Time: 03/03/2017 05:01:46 PM
-----------------------------------------------------------
Date & Time: 3/3/2017 5:01:46 PM
Coach Name: 
Validation Status: Exception
Source: Calendar Signup

Exception: Invalid column name 'training'.
-----------------------------------------------------------

