Time: 28/11/2016 12:47:31 PM
-----------------------------------------------------------
Date & Time: 11/28/2016 12:47:31 PM
Coach Name: 
Validation Status: Exception
Source: Calendar Signup

Exception: Index was out of range. Must be non-negative and less than the size of the collection.
Parameter name: index
-----------------------------------------------------------

Time: 28/11/2016 12:47:32 PM
-----------------------------------------------------------
Date & Time: 11/28/2016 12:47:32 PM
Coach Name: 
Validation Status: Exception
Source: Calendar Signup

Exception: Invalid column name 'training'.
-----------------------------------------------------------

Time: 28/11/2016 12:47:33 PM
-----------------------------------------------------------
Date & Time: 11/28/2016 12:47:33 PM
Coach Name: 
Validation Status: Exception
Source: Calendar Signup

Exception: The string was not recognized as a valid DateTime. There is an unknown word starting at index 0.
-----------------------------------------------------------

Time: 28/11/2016 12:49:56 PM
-----------------------------------------------------------
Date & Time: 11/28/2016 12:49:56 PM
Coach Name: 
Validation Status: Exception
Source: Calendar Signup

Exception: Index was out of range. Must be non-negative and less than the size of the collection.
Parameter name: index
-----------------------------------------------------------

Time: 28/11/2016 12:49:57 PM
-----------------------------------------------------------
Date & Time: 11/28/2016 12:49:57 PM
Coach Name: 
Validation Status: Exception
Source: Calendar Signup

Exception: Invalid column name 'training'.
-----------------------------------------------------------

Time: 28/11/2016 12:49:58 PM
-----------------------------------------------------------
Date & Time: 11/28/2016 12:49:58 PM
Coach Name: 
Validation Status: Exception
Source: Calendar Signup

Exception: The string was not recognized as a valid DateTime. There is an unknown word starting at index 0.
-----------------------------------------------------------

Time: 28/11/2016 12:52:00 PM
-----------------------------------------------------------
Date & Time: 11/28/2016 12:52:00 PM
Coach Name: 
Validation Status: Exception
Source: Calendar Signup

Exception: Index was out of range. Must be non-negative and less than the size of the collection.
Parameter name: index
-----------------------------------------------------------

Time: 28/11/2016 12:52:01 PM
-----------------------------------------------------------
Date & Time: 11/28/2016 12:52:01 PM
Coach Name: 
Validation Status: Exception
Source: Calendar Signup

Exception: Invalid column name 'training'.
-----------------------------------------------------------

Time: 28/11/2016 12:52:02 PM
-----------------------------------------------------------
Date & Time: 11/28/2016 12:52:02 PM
Coach Name: 
Validation Status: Exception
Source: Calendar Signup

Exception: The string was not recognized as a valid DateTime. There is an unknown word starting at index 0.
-----------------------------------------------------------

Time: 28/11/2016 12:53:33 PM
-----------------------------------------------------------
Date & Time: 11/28/2016 12:53:33 PM
Coach Name: 
Validation Status: Exception
Source: Calendar Signup

Exception: Index was out of range. Must be non-negative and less than the size of the collection.
Parameter name: index
-----------------------------------------------------------

Time: 28/11/2016 12:53:35 PM
-----------------------------------------------------------
Date & Time: 11/28/2016 12:53:35 PM
Coach Name: 
Validation Status: Exception
Source: Calendar Signup

Exception: Invalid column name 'training'.
-----------------------------------------------------------

Time: 28/11/2016 12:53:35 PM
-----------------------------------------------------------
Date & Time: 11/28/2016 12:53:35 PM
Coach Name: 
Validation Status: Exception
Source: Calendar Signup

Exception: The string was not recognized as a valid DateTime. There is an unknown word starting at index 0.
-----------------------------------------------------------

Time: 28/11/2016 01:02:49 PM
-----------------------------------------------------------
Date & Time: 11/28/2016 1:02:49 PM
Coach Name: 
Validation Status: Exception
Source: Calendar Signup

Exception: Index was out of range. Must be non-negative and less than the size of the collection.
Parameter name: index
-----------------------------------------------------------

Time: 28/11/2016 01:02:50 PM
-----------------------------------------------------------
Date & Time: 11/28/2016 1:02:50 PM
Coach Name: 
Validation Status: Exception
Source: Calendar Signup

Exception: Invalid column name 'training'.
-----------------------------------------------------------

Time: 28/11/2016 01:02:51 PM
-----------------------------------------------------------
Date & Time: 11/28/2016 1:02:51 PM
Coach Name: 
Validation Status: Exception
Source: Calendar Signup

Exception: The string was not recognized as a valid DateTime. There is an unknown word starting at index 0.
-----------------------------------------------------------

Time: 28/11/2016 01:10:11 PM
-----------------------------------------------------------
Date & Time: 11/28/2016 1:10:11 PM
Coach Name: 
Validation Status: Exception
Source: Calendar Signup

Exception: Index was out of range. Must be non-negative and less than the size of the collection.
Parameter name: index
-----------------------------------------------------------

Time: 28/11/2016 01:10:13 PM
-----------------------------------------------------------
Date & Time: 11/28/2016 1:10:13 PM
Coach Name: 
Validation Status: Exception
Source: Calendar Signup

Exception: Invalid column name 'training'.
-----------------------------------------------------------

Time: 28/11/2016 01:10:14 PM
-----------------------------------------------------------
Date & Time: 11/28/2016 1:10:14 PM
Coach Name: 
Validation Status: Exception
Source: Calendar Signup

Exception: The string was not recognized as a valid DateTime. There is an unknown word starting at index 0.
-----------------------------------------------------------

Time: 28/11/2016 01:28:13 PM
-----------------------------------------------------------
Date & Time: 11/28/2016 1:28:13 PM
Coach Name: 
Validation Status: Exception
Source: Calendar Signup

Exception: Index was out of range. Must be non-negative and less than the size of the collection.
Parameter name: index
-----------------------------------------------------------

Time: 28/11/2016 01:28:15 PM
-----------------------------------------------------------
Date & Time: 11/28/2016 1:28:15 PM
Coach Name: 
Validation Status: Exception
Source: Calendar Signup

Exception: Invalid column name 'training'.
-----------------------------------------------------------

Time: 28/11/2016 01:28:16 PM
-----------------------------------------------------------
Date & Time: 11/28/2016 1:28:16 PM
Coach Name: 
Validation Status: Exception
Source: Calendar Signup

Exception: The string was not recognized as a valid DateTime. There is an unknown word starting at index 0.
-----------------------------------------------------------

Time: 28/11/2016 01:29:39 PM
-----------------------------------------------------------
Date & Time: 11/28/2016 1:29:39 PM
Coach Name: 
Validation Status: Exception
Source: Calendar Signup

Exception: DataBinding: 'System.Data.DataRowView' does not contain a property with the name 'DataItem'.
-----------------------------------------------------------

Time: 28/11/2016 01:29:41 PM
-----------------------------------------------------------
Date & Time: 11/28/2016 1:29:41 PM
Coach Name: 
Validation Status: Exception
Source: Calendar Signup

Exception: Invalid column name 'training'.
-----------------------------------------------------------

Time: 28/11/2016 01:29:42 PM
-----------------------------------------------------------
Date & Time: 11/28/2016 1:29:42 PM
Coach Name: 
Validation Status: Exception
Source: Calendar Signup

Exception: The string was not recognized as a valid DateTime. There is an unknown word starting at index 0.
-----------------------------------------------------------

Time: 28/11/2016 01:30:14 PM
-----------------------------------------------------------
Date & Time: 11/28/2016 1:30:14 PM
Coach Name: 
Validation Status: Exception
Source: Calendar Signup

Exception: Index was out of range. Must be non-negative and less than the size of the collection.
Parameter name: index
-----------------------------------------------------------

Time: 28/11/2016 01:30:16 PM
-----------------------------------------------------------
Date & Time: 11/28/2016 1:30:16 PM
Coach Name: 
Validation Status: Exception
Source: Calendar Signup

Exception: Invalid column name 'training'.
-----------------------------------------------------------

Time: 28/11/2016 01:30:16 PM
-----------------------------------------------------------
Date & Time: 11/28/2016 1:30:16 PM
Coach Name: 
Validation Status: Exception
Source: Calendar Signup

Exception: The string was not recognized as a valid DateTime. There is an unknown word starting at index 0.
-----------------------------------------------------------

Time: 28/11/2016 01:33:06 PM
-----------------------------------------------------------
Date & Time: 11/28/2016 1:33:06 PM
Coach Name: 
Validation Status: Exception
Source: Calendar Signup

Exception: Index was out of range. Must be non-negative and less than the size of the collection.
Parameter name: index
-----------------------------------------------------------

Time: 28/11/2016 01:33:08 PM
-----------------------------------------------------------
Date & Time: 11/28/2016 1:33:08 PM
Coach Name: 
Validation Status: Exception
Source: Calendar Signup

Exception: Invalid column name 'training'.
-----------------------------------------------------------

Time: 28/11/2016 01:33:08 PM
-----------------------------------------------------------
Date & Time: 11/28/2016 1:33:08 PM
Coach Name: 
Validation Status: Exception
Source: Calendar Signup

Exception: The string was not recognized as a valid DateTime. There is an unknown word starting at index 0.
-----------------------------------------------------------

Time: 28/11/2016 02:41:05 PM
-----------------------------------------------------------
Date & Time: 11/28/2016 2:41:05 PM
Coach Name: 
Validation Status: Exception
Source: Calendar Signup

Exception: Index was out of range. Must be non-negative and less than the size of the collection.
Parameter name: index
-----------------------------------------------------------

Time: 28/11/2016 02:41:07 PM
-----------------------------------------------------------
Date & Time: 11/28/2016 2:41:07 PM
Coach Name: 
Validation Status: Exception
Source: Calendar Signup

Exception: Invalid column name 'training'.
-----------------------------------------------------------

Time: 28/11/2016 02:41:08 PM
-----------------------------------------------------------
Date & Time: 11/28/2016 2:41:08 PM
Coach Name: 
Validation Status: Exception
Source: Calendar Signup

Exception: The string was not recognized as a valid DateTime. There is an unknown word starting at index 0.
-----------------------------------------------------------

Time: 28/11/2016 02:41:22 PM
-----------------------------------------------------------
Date & Time: 11/28/2016 2:41:22 PM
Coach Name: 
Validation Status: Exception
Source: Calendar Signup

Exception: Invalid column name 'training'.
-----------------------------------------------------------

Time: 28/11/2016 02:41:23 PM
-----------------------------------------------------------
Date & Time: 11/28/2016 2:41:23 PM
Coach Name: 
Validation Status: Exception
Source: Calendar Signup

Exception: The string was not recognized as a valid DateTime. There is an unknown word starting at index 0.
-----------------------------------------------------------

Time: 28/11/2016 02:42:00 PM
-----------------------------------------------------------
Date & Time: 11/28/2016 2:42:00 PM
Coach Name: 
Validation Status: Exception
Source: Calendar Signup

Exception: Index was out of range. Must be non-negative and less than the size of the collection.
Parameter name: index
-----------------------------------------------------------

Time: 28/11/2016 02:42:02 PM
-----------------------------------------------------------
Date & Time: 11/28/2016 2:42:02 PM
Coach Name: 
Validation Status: Exception
Source: Calendar Signup

Exception: Invalid column name 'training'.
-----------------------------------------------------------

Time: 28/11/2016 02:42:03 PM
-----------------------------------------------------------
Date & Time: 11/28/2016 2:42:03 PM
Coach Name: 
Validation Status: Exception
Source: Calendar Signup

Exception: The string was not recognized as a valid DateTime. There is an unknown word starting at index 0.
-----------------------------------------------------------

Time: 28/11/2016 02:42:18 PM
-----------------------------------------------------------
Date & Time: 11/28/2016 2:42:18 PM
Coach Name: 
Validation Status: Exception
Source: Calendar Signup

Exception: Index was out of range. Must be non-negative and less than the size of the collection.
Parameter name: index
-----------------------------------------------------------

Time: 28/11/2016 02:42:20 PM
-----------------------------------------------------------
Date & Time: 11/28/2016 2:42:20 PM
Coach Name: 
Validation Status: Exception
Source: Calendar Signup

Exception: Invalid column name 'training'.
-----------------------------------------------------------

Time: 28/11/2016 02:42:20 PM
-----------------------------------------------------------
Date & Time: 11/28/2016 2:42:20 PM
Coach Name: 
Validation Status: Exception
Source: Calendar Signup

Exception: The string was not recognized as a valid DateTime. There is an unknown word starting at index 0.
-----------------------------------------------------------

