Time: 10-09-2018 09:37:15 AM
-----------------------------------------------------------
Date & Time: 10-09-2018 09:37:15
Coach Name: 
Validation Status: Exception
Source: Calendar Signup

Exception: Object reference not set to an instance of an object.
-----------------------------------------------------------

Time: 10-09-2018 12:08:21 PM
-----------------------------------------------------------
Date & Time: 10-09-2018 12:08:21
Coach Name: 
Validation Status: Exception
Source: Calendar Signup

Exception: Object reference not set to an instance of an object.
-----------------------------------------------------------

Time: 10-09-2018 12:08:58 PM
-----------------------------------------------------------
Date & Time: 10-09-2018 12:08:58
Coach Name: 
Validation Status: Exception
Source: Calendar Signup

Exception: Object reference not set to an instance of an object.
-----------------------------------------------------------

Time: 10-09-2018 12:09:25 PM
-----------------------------------------------------------
Date & Time: 10-09-2018 12:09:25
Coach Name: 
Validation Status: Exception
Source: Calendar Signup

Exception: Object reference not set to an instance of an object.
-----------------------------------------------------------

Time: 10-09-2018 12:12:18 PM
-----------------------------------------------------------
Date & Time: 10-09-2018 12:12:18
Coach Name: 
Validation Status: Exception
Source: Calendar Signup

Exception: Object reference not set to an instance of an object.
-----------------------------------------------------------

Time: 10-09-2018 12:12:45 PM
-----------------------------------------------------------
Date & Time: 10-09-2018 12:12:45
Coach Name: 
Validation Status: Exception
Source: Calendar Signup

Exception: Object reference not set to an instance of an object.
-----------------------------------------------------------

Time: 10-09-2018 12:53:25 PM
-----------------------------------------------------------
Date & Time: 10-09-2018 12:53:25
Coach Name: 
Validation Status: Exception
Source: Setup Zoom Sessions

Exception: Incorrect syntax near the keyword 'Select'.
Incorrect syntax near ')'.
-----------------------------------------------------------

Time: 10-09-2018 12:53:33 PM
-----------------------------------------------------------
Date & Time: 10-09-2018 12:53:33
Coach Name: 
Validation Status: Exception
Source: Setup Zoom Sessions

Exception: Incorrect syntax near the keyword 'Select'.
Incorrect syntax near ')'.
-----------------------------------------------------------

Time: 10-09-2018 12:55:27 PM
-----------------------------------------------------------
Date & Time: 10-09-2018 12:55:27
Coach Name: 
Validation Status: Exception
Source: Setup Zoom Sessions

Exception: Incorrect syntax near the keyword 'Select'.
Incorrect syntax near ')'.
-----------------------------------------------------------

Time: 10-09-2018 12:56:02 PM
-----------------------------------------------------------
Date & Time: 10-09-2018 12:56:02
Coach Name: 
Validation Status: Exception
Source: Setup Zoom Sessions

Exception: Incorrect syntax near the keyword 'Select'.
Incorrect syntax near ')'.
-----------------------------------------------------------

