Time: 14-08-2018 12:47:49 PM
-----------------------------------------------------------
Date & Time: 14-08-2018 12:47:49
Coach Name: 
Validation Status: Exception
Source: Calendar Signup

Exception: Incorrect syntax near the keyword 'order'.
-----------------------------------------------------------

Time: 14-08-2018 12:47:49 PM
-----------------------------------------------------------
Date & Time: 14-08-2018 12:47:49
Coach Name: 
Validation Status: Exception
Source: Calendar Signup

Exception: Incorrect syntax near the keyword 'order'.
-----------------------------------------------------------

Time: 14-08-2018 12:47:50 PM
-----------------------------------------------------------
Date & Time: 14-08-2018 12:47:50
Coach Name: 
Validation Status: Exception
Source: Calendar Signup

Exception: Incorrect syntax near '='.
-----------------------------------------------------------

Time: 14-08-2018 12:50:45 PM
-----------------------------------------------------------
Date & Time: 14-08-2018 12:50:45
Coach Name: 
Validation Status: Exception
Source: Calendar Signup

Exception: Incorrect syntax near the keyword 'order'.
-----------------------------------------------------------

Time: 14-08-2018 12:50:46 PM
-----------------------------------------------------------
Date & Time: 14-08-2018 12:50:46
Coach Name: 
Validation Status: Exception
Source: Calendar Signup

Exception: Incorrect syntax near the keyword 'order'.
-----------------------------------------------------------

Time: 14-08-2018 12:50:47 PM
-----------------------------------------------------------
Date & Time: 14-08-2018 12:50:47
Coach Name: 
Validation Status: Exception
Source: Calendar Signup

Exception: Incorrect syntax near '='.
-----------------------------------------------------------

Time: 14-08-2018 12:53:46 PM
-----------------------------------------------------------
Date & Time: 14-08-2018 12:53:46
Coach Name: 
Validation Status: Exception
Source: Calendar Signup

Exception: Incorrect syntax near the keyword 'and'.
-----------------------------------------------------------

Time: 14-08-2018 04:45:52 PM
-----------------------------------------------------------
Date & Time: 14-08-2018 16:45:52
Coach Name: 
Validation Status: Exception
Source: Calendar Signup

Exception: Incorrect syntax near the keyword 'order'.
-----------------------------------------------------------

Time: 14-08-2018 04:45:52 PM
-----------------------------------------------------------
Date & Time: 14-08-2018 16:45:52
Coach Name: 
Validation Status: Exception
Source: Calendar Signup

Exception: Incorrect syntax near the keyword 'order'.
-----------------------------------------------------------

Time: 14-08-2018 04:45:52 PM
-----------------------------------------------------------
Date & Time: 14-08-2018 16:45:52
Coach Name: 
Validation Status: Exception
Source: Calendar Signup

Exception: Incorrect syntax near '='.
-----------------------------------------------------------

