Time: 28/11/2017 01:07:12 PM
-----------------------------------------------------------
Date & Time: 11/28/2017 1:07:12 PM
Coach Name: 
Validation Status: Exception
Source: Calendar Signup

Exception: Conversion failed when converting the varchar value 'Senior' to data type int.
-----------------------------------------------------------

