Time: 24/01/2017 05:43:15 PM
-----------------------------------------------------------
Date & Time: 1/24/2017 5:43:15 PM
Coach Name: 
Validation Status: Exception
Source: Calendar Signup

Exception: Invalid column name 'training'.
-----------------------------------------------------------

