Time: 22/12/2016 12:47:31 PM
-----------------------------------------------------------
Date & Time: 12/22/2016 12:47:31 PM
Coach Name: 
Validation Status: Exception
Source: Calendar Signup

Exception: Index was out of range. Must be non-negative and less than the size of the collection.
Parameter name: index
-----------------------------------------------------------

Time: 22/12/2016 12:51:38 PM
-----------------------------------------------------------
Date & Time: 12/22/2016 12:51:38 PM
Coach Name: 
Validation Status: Exception
Source: Calendar Signup

Exception: The string was not recognized as a valid DateTime. There is an unknown word starting at index 0.
-----------------------------------------------------------

Time: 22/12/2016 12:52:01 PM
-----------------------------------------------------------
Date & Time: 12/22/2016 12:52:01 PM
Coach Name: 
Validation Status: Exception
Source: Calendar Signup

Exception: Index was out of range. Must be non-negative and less than the size of the collection.
Parameter name: index
-----------------------------------------------------------

Time: 22/12/2016 12:57:34 PM
-----------------------------------------------------------
Date & Time: 12/22/2016 12:57:34 PM
Coach Name: 
Validation Status: Exception
Source: Calendar Signup

Exception: The string was not recognized as a valid DateTime. There is an unknown word starting at index 0.
-----------------------------------------------------------

Time: 22/12/2016 12:57:55 PM
-----------------------------------------------------------
Date & Time: 12/22/2016 12:57:55 PM
Coach Name: 
Validation Status: Exception
Source: Calendar Signup

Exception: The string was not recognized as a valid DateTime. There is an unknown word starting at index 0.
-----------------------------------------------------------

Time: 22/12/2016 12:58:29 PM
-----------------------------------------------------------
Date & Time: 12/22/2016 12:58:29 PM
Coach Name: 
Validation Status: Exception
Source: Calendar Signup

Exception: Index was out of range. Must be non-negative and less than the size of the collection.
Parameter name: index
-----------------------------------------------------------

Time: 22/12/2016 01:03:47 PM
-----------------------------------------------------------
Date & Time: 12/22/2016 1:03:47 PM
Coach Name: 
Validation Status: Exception
Source: Calendar Signup

Exception: The string was not recognized as a valid DateTime. There is an unknown word starting at index 0.
-----------------------------------------------------------

Time: 22/12/2016 01:07:58 PM
-----------------------------------------------------------
Date & Time: 12/22/2016 1:07:58 PM
Coach Name: 
Validation Status: Exception
Source: Calendar Signup

Exception: The string was not recognized as a valid DateTime. There is an unknown word starting at index 0.
-----------------------------------------------------------

Time: 22/12/2016 01:08:48 PM
-----------------------------------------------------------
Date & Time: 12/22/2016 1:08:48 PM
Coach Name: 
Validation Status: Exception
Source: Calendar Signup

Exception: The string was not recognized as a valid DateTime. There is an unknown word starting at index 0.
-----------------------------------------------------------

Time: 22/12/2016 01:10:35 PM
-----------------------------------------------------------
Date & Time: 12/22/2016 1:10:35 PM
Coach Name: 
Validation Status: Exception
Source: Calendar Signup

Exception: The string was not recognized as a valid DateTime. There is an unknown word starting at index 0.
-----------------------------------------------------------

Time: 22/12/2016 01:12:23 PM
-----------------------------------------------------------
Date & Time: 12/22/2016 1:12:23 PM
Coach Name: 
Validation Status: Exception
Source: Calendar Signup

Exception: Index was out of range. Must be non-negative and less than the size of the collection.
Parameter name: index
-----------------------------------------------------------

Time: 22/12/2016 01:13:35 PM
-----------------------------------------------------------
Date & Time: 12/22/2016 1:13:35 PM
Coach Name: 
Validation Status: Exception
Source: Calendar Signup

Exception: Index was out of range. Must be non-negative and less than the size of the collection.
Parameter name: index
-----------------------------------------------------------

Time: 22/12/2016 01:33:40 PM
-----------------------------------------------------------
Date & Time: 12/22/2016 1:33:40 PM
Coach Name: 
Validation Status: Exception
Source: Calendar Signup

Exception: Index was out of range. Must be non-negative and less than the size of the collection.
Parameter name: index
-----------------------------------------------------------

Time: 22/12/2016 01:34:36 PM
-----------------------------------------------------------
Date & Time: 12/22/2016 1:34:36 PM
Coach Name: 
Validation Status: Exception
Source: Calendar Signup

Exception: Index was out of range. Must be non-negative and less than the size of the collection.
Parameter name: index
-----------------------------------------------------------

Time: 22/12/2016 03:15:25 PM
-----------------------------------------------------------
Date & Time: 12/22/2016 3:15:25 PM
Coach Name: 
Validation Status: Exception
Source: Setup Zoom Sessions

Exception: Object reference not set to an instance of an object.
-----------------------------------------------------------

Time: 22/12/2016 03:44:00 PM
-----------------------------------------------------------
Date & Time: 12/22/2016 3:44:00 PM
Coach Name: 
Validation Status: Exception
Source: Setup Zoom Sessions

Exception: Object reference not set to an instance of an object.
-----------------------------------------------------------

Time: 22/12/2016 06:17:17 PM
-----------------------------------------------------------
Date & Time: 12/22/2016 6:17:17 PM
Coach Name: 
Validation Status: Exception
Source: Calendar Signup

Exception: Invalid column name 'training'.
-----------------------------------------------------------

Time: 22/12/2016 06:18:48 PM
-----------------------------------------------------------
Date & Time: 12/22/2016 6:18:48 PM
Coach Name: 
Validation Status: Exception
Source: Calendar Signup

Exception: Invalid column name 'training'.
-----------------------------------------------------------

