Time: 30/01/2017 11:13:23 AM
-----------------------------------------------------------
Date & Time: 1/30/2017 11:13:23 AM
Coach Name: 
Validation Status: Exception
Source: Calendar Signup

Exception: Invalid column name 'undefined'.
-----------------------------------------------------------

Time: 30/01/2017 11:13:25 AM
-----------------------------------------------------------
Date & Time: 1/30/2017 11:13:25 AM
Coach Name: 
Validation Status: Exception
Source: Calendar Signup

Exception: Incorrect syntax near the keyword 'by'.
-----------------------------------------------------------

Time: 30/01/2017 11:13:28 AM
-----------------------------------------------------------
Date & Time: 1/30/2017 11:13:28 AM
Coach Name: 
Validation Status: Exception
Source: Calendar Signup

Exception: Invalid column name 'undefined'.
-----------------------------------------------------------

Time: 30/01/2017 11:13:28 AM
-----------------------------------------------------------
Date & Time: 1/30/2017 11:13:28 AM
Coach Name: 
Validation Status: Exception
Source: Calendar Signup

Exception: Invalid column name 'undefined'.
-----------------------------------------------------------

Time: 30/01/2017 11:13:29 AM
-----------------------------------------------------------
Date & Time: 1/30/2017 11:13:29 AM
Coach Name: 
Validation Status: Exception
Source: Calendar Signup

Exception: Incorrect syntax near the keyword 'and'.
-----------------------------------------------------------

Time: 30/01/2017 11:56:45 AM
-----------------------------------------------------------
Date & Time: 1/30/2017 11:56:45 AM
Coach Name: 
Validation Status: Exception
Source: Calendar Signup

Exception: Incorrect syntax near the keyword 'and'.
-----------------------------------------------------------

Time: 30/01/2017 04:23:59 PM
-----------------------------------------------------------
Date & Time: 1/30/2017 4:23:59 PM
Coach Name: 
Validation Status: Exception
Source: Calendar Signup

Exception: Incorrect syntax near the keyword 'and'.
-----------------------------------------------------------

Time: 30/01/2017 05:19:02 PM
-----------------------------------------------------------
Date & Time: 1/30/2017 5:19:02 PM
Coach Name: 
Validation Status: Exception
Source: Calendar Signup

Exception: Incorrect syntax near the keyword 'and'.
-----------------------------------------------------------

