Time: 31-07-2018 01:14:20 PM
-----------------------------------------------------------
Date & Time: 31-07-2018 13:14:20
Coach Name: 
Validation Status: Exception
Source: Setup Zoom Sessions

Exception: A field or property with the name 'RecurringType' was not found on the selected data source.
-----------------------------------------------------------

Time: 31-07-2018 01:15:12 PM
-----------------------------------------------------------
Date & Time: 31-07-2018 13:15:12
Coach Name: 
Validation Status: Exception
Source: Setup Zoom Sessions

Exception: A field or property with the name 'RecurringType' was not found on the selected data source.
-----------------------------------------------------------

Time: 31-07-2018 01:15:26 PM
-----------------------------------------------------------
Date & Time: 31-07-2018 13:15:26
Coach Name: 
Validation Status: Exception
Source: Setup Zoom Sessions

Exception: A field or property with the name 'RecurringType' was not found on the selected data source.
-----------------------------------------------------------

Time: 31-07-2018 01:17:40 PM
-----------------------------------------------------------
Date & Time: 31-07-2018 13:17:40
Coach Name: 
Validation Status: Exception
Source: Setup Zoom Sessions

Exception: A field or property with the name 'RecurringType' was not found on the selected data source.
-----------------------------------------------------------

Time: 31-07-2018 02:29:31 PM
-----------------------------------------------------------
Date & Time: 31-07-2018 14:29:31
Coach Name: 
Validation Status: Exception
Source: Setup Zoom Sessions

Exception: A field or property with the name 'RecurringType' was not found on the selected data source.
-----------------------------------------------------------

Time: 31-07-2018 02:29:55 PM
-----------------------------------------------------------
Date & Time: 31-07-2018 14:29:55
Coach Name: 
Validation Status: Exception
Source: Setup Zoom Sessions

Exception: A field or property with the name 'RecurringType' was not found on the selected data source.
-----------------------------------------------------------

Time: 31-07-2018 02:30:50 PM
-----------------------------------------------------------
Date & Time: 31-07-2018 14:30:50
Coach Name: 
Validation Status: Exception
Source: Setup Zoom Sessions

Exception: A field or property with the name 'RecurringType' was not found on the selected data source.
-----------------------------------------------------------

Time: 31-07-2018 02:33:35 PM
-----------------------------------------------------------
Date & Time: 31-07-2018 14:33:35
Coach Name: 
Validation Status: Exception
Source: Setup Zoom Sessions

Exception: A field or property with the name 'RecurringType' was not found on the selected data source.
-----------------------------------------------------------

Time: 31-07-2018 02:33:46 PM
-----------------------------------------------------------
Date & Time: 31-07-2018 14:33:46
Coach Name: 
Validation Status: Exception
Source: Setup Zoom Sessions

Exception: A field or property with the name 'RecurringType' was not found on the selected data source.
-----------------------------------------------------------

Time: 31-07-2018 02:34:38 PM
-----------------------------------------------------------
Date & Time: 31-07-2018 14:34:38
Coach Name: 
Validation Status: Exception
Source: Setup Zoom Sessions

Exception: A field or property with the name 'RecurringType' was not found on the selected data source.
-----------------------------------------------------------

Time: 31-07-2018 02:35:13 PM
-----------------------------------------------------------
Date & Time: 31-07-2018 14:35:13
Coach Name: 
Validation Status: Exception
Source: Setup Zoom Sessions

Exception: A field or property with the name 'RecurringType' was not found on the selected data source.
-----------------------------------------------------------

Time: 31-07-2018 02:38:33 PM
-----------------------------------------------------------
Date & Time: 31-07-2018 14:38:33
Coach Name: 
Validation Status: Exception
Source: Setup Zoom Sessions

Exception: A field or property with the name 'RecurringType' was not found on the selected data source.
-----------------------------------------------------------

Time: 31-07-2018 02:42:59 PM
-----------------------------------------------------------
Date & Time: 31-07-2018 14:42:59
Coach Name: 
Validation Status: Exception
Source: Setup Zoom Sessions

Exception: A field or property with the name 'RecurringType' was not found on the selected data source.
-----------------------------------------------------------

Time: 31-07-2018 02:43:29 PM
-----------------------------------------------------------
Date & Time: 31-07-2018 14:43:29
Coach Name: 
Validation Status: Exception
Source: Setup Zoom Sessions

Exception: A field or property with the name 'RecurringType' was not found on the selected data source.
-----------------------------------------------------------

Time: 31-07-2018 02:43:35 PM
-----------------------------------------------------------
Date & Time: 31-07-2018 14:43:35
Coach Name: 
Validation Status: Exception
Source: Setup Zoom Sessions

Exception: A field or property with the name 'RecurringType' was not found on the selected data source.
-----------------------------------------------------------

Time: 31-07-2018 02:43:56 PM
-----------------------------------------------------------
Date & Time: 31-07-2018 14:43:56
Coach Name: 
Validation Status: Exception
Source: Setup Zoom Sessions

Exception: A field or property with the name 'RecurringType' was not found on the selected data source.
-----------------------------------------------------------

Time: 31-07-2018 02:44:18 PM
-----------------------------------------------------------
Date & Time: 31-07-2018 14:44:18
Coach Name: 
Validation Status: Exception
Source: Setup Zoom Sessions

Exception: A field or property with the name 'RecurringType' was not found on the selected data source.
-----------------------------------------------------------

Time: 31-07-2018 02:48:47 PM
-----------------------------------------------------------
Date & Time: 31-07-2018 14:48:47
Coach Name: 
Validation Status: Exception
Source: Setup Zoom Sessions

Exception: A field or property with the name 'RecurringType' was not found on the selected data source.
-----------------------------------------------------------

Time: 31-07-2018 02:50:01 PM
-----------------------------------------------------------
Date & Time: 31-07-2018 14:50:01
Coach Name: 
Validation Status: Exception
Source: Setup Zoom Sessions

Exception: A field or property with the name 'RecurringType' was not found on the selected data source.
-----------------------------------------------------------

