Time: 20/12/2017 11:26:14 AM
-----------------------------------------------------------
Date & Time: 12/20/2017 11:26:14 AM
Coach Name: 
Validation Status: Exception
Source: Calendar Signup

Exception: Conversion failed when converting the varchar value 'One Level' to data type int.
-----------------------------------------------------------

Time: 20/12/2017 11:35:32 AM
-----------------------------------------------------------
Date & Time: 12/20/2017 11:35:32 AM
Coach Name: 
Validation Status: Exception
Source: Calendar Signup

Exception: Conversion failed when converting the varchar value 'One Level' to data type int.
-----------------------------------------------------------

Time: 20/12/2017 11:35:37 AM
-----------------------------------------------------------
Date & Time: 12/20/2017 11:35:37 AM
Coach Name: 
Validation Status: Exception
Source: Calendar Signup

Exception: Conversion failed when converting the varchar value 'One Level' to data type int.
-----------------------------------------------------------

Time: 20/12/2017 12:09:31 PM
-----------------------------------------------------------
Date & Time: 12/20/2017 12:09:31 PM
Coach Name: 
Validation Status: Exception
Source: Calendar Signup

Exception: Conversion failed when converting the varchar value 'Senior' to data type int.
-----------------------------------------------------------

Time: 20/12/2017 12:09:32 PM
-----------------------------------------------------------
Date & Time: 12/20/2017 12:09:32 PM
Coach Name: 
Validation Status: Exception
Source: Calendar Signup

Exception: Conversion failed when converting the varchar value 'Senior' to data type int.
-----------------------------------------------------------

Time: 20/12/2017 12:09:52 PM
-----------------------------------------------------------
Date & Time: 12/20/2017 12:09:52 PM
Coach Name: 
Validation Status: Exception
Source: Calendar Signup

Exception: Conversion failed when converting the varchar value 'Senior' to data type int.
-----------------------------------------------------------

Time: 20/12/2017 12:09:53 PM
-----------------------------------------------------------
Date & Time: 12/20/2017 12:09:53 PM
Coach Name: 
Validation Status: Exception
Source: Calendar Signup

Exception: Conversion failed when converting the varchar value 'Senior' to data type int.
-----------------------------------------------------------

Time: 20/12/2017 12:09:59 PM
-----------------------------------------------------------
Date & Time: 12/20/2017 12:09:59 PM
Coach Name: 
Validation Status: Exception
Source: Calendar Signup

Exception: Conversion failed when converting the varchar value 'Senior' to data type int.
-----------------------------------------------------------

Time: 20/12/2017 12:09:59 PM
-----------------------------------------------------------
Date & Time: 12/20/2017 12:09:59 PM
Coach Name: 
Validation Status: Exception
Source: Calendar Signup

Exception: Conversion failed when converting the varchar value 'Senior' to data type int.
-----------------------------------------------------------

Time: 20/12/2017 12:10:15 PM
-----------------------------------------------------------
Date & Time: 12/20/2017 12:10:15 PM
Coach Name: 
Validation Status: Exception
Source: Calendar Signup

Exception: Conversion failed when converting the varchar value 'Senior' to data type int.
-----------------------------------------------------------

Time: 20/12/2017 12:10:16 PM
-----------------------------------------------------------
Date & Time: 12/20/2017 12:10:16 PM
Coach Name: 
Validation Status: Exception
Source: Calendar Signup

Exception: Conversion failed when converting the varchar value 'Senior' to data type int.
-----------------------------------------------------------

Time: 20/12/2017 12:11:26 PM
-----------------------------------------------------------
Date & Time: 12/20/2017 12:11:26 PM
Coach Name: 
Validation Status: Exception
Source: Calendar Signup

Exception: Conversion failed when converting the varchar value 'Senior' to data type int.
-----------------------------------------------------------

Time: 20/12/2017 12:11:27 PM
-----------------------------------------------------------
Date & Time: 12/20/2017 12:11:27 PM
Coach Name: 
Validation Status: Exception
Source: Calendar Signup

Exception: Conversion failed when converting the varchar value 'Senior' to data type int.
-----------------------------------------------------------

Time: 20/12/2017 12:12:38 PM
-----------------------------------------------------------
Date & Time: 12/20/2017 12:12:38 PM
Coach Name: 
Validation Status: Exception
Source: Calendar Signup

Exception: Conversion failed when converting the varchar value 'Senior' to data type int.
-----------------------------------------------------------

Time: 20/12/2017 12:12:39 PM
-----------------------------------------------------------
Date & Time: 12/20/2017 12:12:39 PM
Coach Name: 
Validation Status: Exception
Source: Calendar Signup

Exception: Conversion failed when converting the varchar value 'Senior' to data type int.
-----------------------------------------------------------

Time: 20/12/2017 12:13:34 PM
-----------------------------------------------------------
Date & Time: 12/20/2017 12:13:34 PM
Coach Name: 
Validation Status: Exception
Source: Calendar Signup

Exception: Conversion failed when converting the varchar value 'Senior' to data type int.
-----------------------------------------------------------

Time: 20/12/2017 12:13:35 PM
-----------------------------------------------------------
Date & Time: 12/20/2017 12:13:35 PM
Coach Name: 
Validation Status: Exception
Source: Calendar Signup

Exception: Conversion failed when converting the varchar value 'Senior' to data type int.
-----------------------------------------------------------

