Time: 29/12/2016 12:34:12 PM
-----------------------------------------------------------
Date & Time: 12/29/2016 12:34:12 PM
Coach Name: 
Validation Status: Exception
Source: Calendar Signup

Exception: Invalid column name 'training'.
-----------------------------------------------------------

Time: 29/12/2016 12:35:55 PM
-----------------------------------------------------------
Date & Time: 12/29/2016 12:35:55 PM
Coach Name: 
Validation Status: Exception
Source: Calendar Signup

Exception: Invalid column name 'training'.
-----------------------------------------------------------

Time: 29/12/2016 01:25:46 PM
-----------------------------------------------------------
Date & Time: 12/29/2016 1:25:46 PM
Coach Name: 
Validation Status: Exception
Source: Calendar Signup

Exception: Invalid column name 'training'.
-----------------------------------------------------------

Time: 29/12/2016 01:28:26 PM
-----------------------------------------------------------
Date & Time: 12/29/2016 1:28:26 PM
Coach Name: 
Validation Status: Exception
Source: Calendar Signup

Exception: Invalid column name 'training'.
-----------------------------------------------------------

