Time: 21/06/2017 11:42:44 AM
-----------------------------------------------------------
Date & Time: 6/21/2017 11:42:44 AM
Coach Name: ChildName: 0
Validation Status: Exception
Source: Coaching Status

Exception: Failed to convert parameter value from a String to a Int32.
-----------------------------------------------------------

Time: 21/06/2017 11:43:24 AM
-----------------------------------------------------------
Date & Time: 6/21/2017 11:43:24 AM
Coach Name: ChildName: Chetan Borra
Validation Status: Failure
Source: Coaching Status

Exception: 
-----------------------------------------------------------

Time: 21/06/2017 05:27:48 PM
-----------------------------------------------------------
Date & Time: 6/21/2017 5:27:48 PM
Coach Name: Sulekha Avasthi
Validation Status: Failed
Source: Makeup Sessions

Exception: 
-----------------------------------------------------------

Time: 21/06/2017 05:29:34 PM
-----------------------------------------------------------
Date & Time: 6/21/2017 5:29:34 PM
Coach Name: Sulekha Avasthi
Validation Status: Failed
Source: Makeup Sessions

Exception: 
-----------------------------------------------------------

Time: 21/06/2017 05:29:37 PM
-----------------------------------------------------------
Date & Time: 6/21/2017 5:29:37 PM
Coach Name: Sulekha Avasthi
Validation Status: Failed
Source: Makeup Sessions

Exception: 
-----------------------------------------------------------

Time: 21/06/2017 05:30:03 PM
-----------------------------------------------------------
Date & Time: 6/21/2017 5:30:03 PM
Coach Name: Sulekha Avasthi
Validation Status: Failed
Source: Makeup Sessions

Exception: 
-----------------------------------------------------------

Time: 21/06/2017 05:31:41 PM
-----------------------------------------------------------
Date & Time: 6/21/2017 5:31:41 PM
Coach Name: Sulekha Avasthi
Validation Status: Failed
Source: Makeup Sessions

Exception: 
-----------------------------------------------------------

Time: 21/06/2017 05:32:42 PM
-----------------------------------------------------------
Date & Time: 6/21/2017 5:32:42 PM
Coach Name: Sulekha Avasthi
Validation Status: Failed
Source: Makeup Sessions

Exception: 
-----------------------------------------------------------

Time: 21/06/2017 05:33:38 PM
-----------------------------------------------------------
Date & Time: 6/21/2017 5:33:38 PM
Coach Name: Sulekha Avasthi
Validation Status: Failed
Source: Makeup Sessions

Exception: 
-----------------------------------------------------------

Time: 21/06/2017 05:34:21 PM
-----------------------------------------------------------
Date & Time: 6/21/2017 5:34:21 PM
Coach Name: Sulekha Avasthi
Validation Status: Failed
Source: Makeup Sessions

Exception: 
-----------------------------------------------------------

Time: 21/06/2017 05:34:24 PM
-----------------------------------------------------------
Date & Time: 6/21/2017 5:34:24 PM
Coach Name: Sulekha Avasthi
Validation Status: Success
Source: Makeup Sessions

Exception: 
-----------------------------------------------------------

Time: 21/06/2017 05:34:41 PM
-----------------------------------------------------------
Date & Time: 6/21/2017 5:34:41 PM
Coach Name: Sulekha Avasthi
Validation Status: Failed
Source: Makeup Sessions

Exception: 
-----------------------------------------------------------

Time: 21/06/2017 05:34:53 PM
-----------------------------------------------------------
Date & Time: 6/21/2017 5:34:53 PM
Coach Name: Sulekha Avasthi
Validation Status: Success
Source: Makeup Sessions

Exception: 
-----------------------------------------------------------

Time: 21/06/2017 05:35:02 PM
-----------------------------------------------------------
Date & Time: 6/21/2017 5:35:02 PM
Coach Name: Sulekha Avasthi
Validation Status: Failed
Source: Makeup Sessions

Exception: 
-----------------------------------------------------------

Time: 21/06/2017 05:35:07 PM
-----------------------------------------------------------
Date & Time: 6/21/2017 5:35:07 PM
Coach Name: Sulekha Avasthi
Validation Status: Success
Source: Makeup Sessions

Exception: 
-----------------------------------------------------------

Time: 21/06/2017 05:35:18 PM
-----------------------------------------------------------
Date & Time: 6/21/2017 5:35:18 PM
Coach Name: Sulekha Avasthi
Validation Status: Failed
Source: Makeup Sessions

Exception: 
-----------------------------------------------------------

Time: 21/06/2017 05:35:37 PM
-----------------------------------------------------------
Date & Time: 6/21/2017 5:35:37 PM
Coach Name: Sulekha Avasthi
Validation Status: Success
Source: Makeup Sessions

Exception: 
-----------------------------------------------------------

Time: 21/06/2017 05:36:48 PM
-----------------------------------------------------------
Date & Time: 6/21/2017 5:36:48 PM
Coach Name: Sulekha Avasthi
Validation Status: Failed
Source: Makeup Sessions

Exception: 
-----------------------------------------------------------

Time: 21/06/2017 05:36:50 PM
-----------------------------------------------------------
Date & Time: 6/21/2017 5:36:50 PM
Coach Name: Sulekha Avasthi
Validation Status: Success
Source: Makeup Sessions

Exception: 
-----------------------------------------------------------

Time: 21/06/2017 05:55:18 PM
-----------------------------------------------------------
Date & Time: 6/21/2017 5:55:18 PM
Coach Name: ChildName: 0
Validation Status: Exception
Source: Coaching Status

Exception: Failed to convert parameter value from a String to a Int32.
-----------------------------------------------------------

