Time: 17-09-2018 09:52:46 AM
-----------------------------------------------------------
Date & Time: 17-09-2018 09:52:46
Coach Name: 
Validation Status: Exception
Source: Calendar Signup

Exception: Object reference not set to an instance of an object.
-----------------------------------------------------------

Time: 17-09-2018 09:53:50 AM
-----------------------------------------------------------
Date & Time: 17-09-2018 09:53:50
Coach Name: 
Validation Status: Exception
Source: Calendar Signup

Exception: String was not recognized as a valid DateTime.
-----------------------------------------------------------

Time: 17-09-2018 09:55:04 AM
-----------------------------------------------------------
Date & Time: 17-09-2018 09:55:04
Coach Name: 
Validation Status: Exception
Source: Calendar Signup

Exception: Incorrect syntax near the keyword 'order'.
-----------------------------------------------------------

Time: 17-09-2018 09:55:05 AM
-----------------------------------------------------------
Date & Time: 17-09-2018 09:55:05
Coach Name: 
Validation Status: Exception
Source: Calendar Signup

Exception: Incorrect syntax near the keyword 'order'.
-----------------------------------------------------------

Time: 17-09-2018 09:55:05 AM
-----------------------------------------------------------
Date & Time: 17-09-2018 09:55:05
Coach Name: 
Validation Status: Exception
Source: Calendar Signup

Exception: Incorrect syntax near '='.
-----------------------------------------------------------

Time: 17-09-2018 10:17:06 AM
-----------------------------------------------------------
Date & Time: 17-09-2018 10:17:06
Coach Name: 
Validation Status: Exception
Source: Calendar Signup

Exception: Object reference not set to an instance of an object.
-----------------------------------------------------------

Time: 17-09-2018 10:17:32 AM
-----------------------------------------------------------
Date & Time: 17-09-2018 10:17:32
Coach Name: 
Validation Status: Exception
Source: Calendar Signup

Exception: Object reference not set to an instance of an object.
-----------------------------------------------------------

Time: 17-09-2018 10:17:50 AM
-----------------------------------------------------------
Date & Time: 17-09-2018 10:17:50
Coach Name: 
Validation Status: Exception
Source: Calendar Signup

Exception: Object reference not set to an instance of an object.
-----------------------------------------------------------

Time: 17-09-2018 10:17:51 AM
-----------------------------------------------------------
Date & Time: 17-09-2018 10:17:51
Coach Name: 
Validation Status: Exception
Source: Calendar Signup

Exception: String was not recognized as a valid DateTime.
-----------------------------------------------------------

Time: 17-09-2018 10:18:33 AM
-----------------------------------------------------------
Date & Time: 17-09-2018 10:18:33
Coach Name: 
Validation Status: Exception
Source: Calendar Signup

Exception: Object reference not set to an instance of an object.
-----------------------------------------------------------

Time: 17-09-2018 10:19:27 AM
-----------------------------------------------------------
Date & Time: 17-09-2018 10:19:27
Coach Name: 
Validation Status: Exception
Source: Calendar Signup

Exception: Object reference not set to an instance of an object.
-----------------------------------------------------------

Time: 17-09-2018 10:19:39 AM
-----------------------------------------------------------
Date & Time: 17-09-2018 10:19:39
Coach Name: 
Validation Status: Exception
Source: Calendar Signup

Exception: Object reference not set to an instance of an object.
-----------------------------------------------------------

Time: 17-09-2018 10:19:39 AM
-----------------------------------------------------------
Date & Time: 17-09-2018 10:19:39
Coach Name: 
Validation Status: Exception
Source: Calendar Signup

Exception: String was not recognized as a valid DateTime.
-----------------------------------------------------------

Time: 17-09-2018 10:28:29 AM
-----------------------------------------------------------
Date & Time: 17-09-2018 10:28:29
Coach Name: 
Validation Status: Exception
Source: Calendar Signup

Exception: Object reference not set to an instance of an object.
-----------------------------------------------------------

Time: 17-09-2018 10:28:44 AM
-----------------------------------------------------------
Date & Time: 17-09-2018 10:28:44
Coach Name: 
Validation Status: Exception
Source: Calendar Signup

Exception: Object reference not set to an instance of an object.
-----------------------------------------------------------

Time: 17-09-2018 10:28:44 AM
-----------------------------------------------------------
Date & Time: 17-09-2018 10:28:44
Coach Name: 
Validation Status: Exception
Source: Calendar Signup

Exception: String was not recognized as a valid DateTime.
-----------------------------------------------------------

Time: 17-09-2018 10:28:50 AM
-----------------------------------------------------------
Date & Time: 17-09-2018 10:28:50
Coach Name: 
Validation Status: Exception
Source: Calendar Signup

Exception: Object reference not set to an instance of an object.
-----------------------------------------------------------

Time: 17-09-2018 10:29:44 AM
-----------------------------------------------------------
Date & Time: 17-09-2018 10:29:44
Coach Name: 
Validation Status: Exception
Source: Calendar Signup

Exception: Object reference not set to an instance of an object.
-----------------------------------------------------------

Time: 17-09-2018 10:30:01 AM
-----------------------------------------------------------
Date & Time: 17-09-2018 10:30:01
Coach Name: 
Validation Status: Exception
Source: Calendar Signup

Exception: Object reference not set to an instance of an object.
-----------------------------------------------------------

Time: 17-09-2018 10:53:03 AM
-----------------------------------------------------------
Date & Time: 17-09-2018 10:53:03
Coach Name: 
Validation Status: Exception
Source: Calendar Signup

Exception: Object reference not set to an instance of an object.
-----------------------------------------------------------

Time: 17-09-2018 10:53:16 AM
-----------------------------------------------------------
Date & Time: 17-09-2018 10:53:16
Coach Name: 
Validation Status: Exception
Source: Calendar Signup

Exception: Object reference not set to an instance of an object.
-----------------------------------------------------------

Time: 17-09-2018 10:53:16 AM
-----------------------------------------------------------
Date & Time: 17-09-2018 10:53:16
Coach Name: 
Validation Status: Exception
Source: Calendar Signup

Exception: String was not recognized as a valid DateTime.
-----------------------------------------------------------

Time: 17-09-2018 10:53:28 AM
-----------------------------------------------------------
Date & Time: 17-09-2018 10:53:28
Coach Name: 
Validation Status: Exception
Source: Calendar Signup

Exception: Object reference not set to an instance of an object.
-----------------------------------------------------------

Time: 17-09-2018 10:54:03 AM
-----------------------------------------------------------
Date & Time: 17-09-2018 10:54:03
Coach Name: 
Validation Status: Exception
Source: Calendar Signup

Exception: Object reference not set to an instance of an object.
-----------------------------------------------------------

Time: 17-09-2018 10:54:26 AM
-----------------------------------------------------------
Date & Time: 17-09-2018 10:54:26
Coach Name: 
Validation Status: Exception
Source: Calendar Signup

Exception: Object reference not set to an instance of an object.
-----------------------------------------------------------

Time: 17-09-2018 10:54:26 AM
-----------------------------------------------------------
Date & Time: 17-09-2018 10:54:26
Coach Name: 
Validation Status: Exception
Source: Calendar Signup

Exception: String was not recognized as a valid DateTime.
-----------------------------------------------------------

Time: 17-09-2018 11:32:29 AM
-----------------------------------------------------------
Date & Time: 17-09-2018 11:32:29
Coach Name: 
Validation Status: Exception
Source: Calendar Signup

Exception: Object reference not set to an instance of an object.
-----------------------------------------------------------

Time: 17-09-2018 11:32:42 AM
-----------------------------------------------------------
Date & Time: 17-09-2018 11:32:42
Coach Name: 
Validation Status: Exception
Source: Calendar Signup

Exception: Object reference not set to an instance of an object.
-----------------------------------------------------------

Time: 17-09-2018 11:32:42 AM
-----------------------------------------------------------
Date & Time: 17-09-2018 11:32:42
Coach Name: 
Validation Status: Exception
Source: Calendar Signup

Exception: String was not recognized as a valid DateTime.
-----------------------------------------------------------

Time: 17-09-2018 11:33:38 AM
-----------------------------------------------------------
Date & Time: 17-09-2018 11:33:38
Coach Name: 
Validation Status: Exception
Source: Calendar Signup

Exception: Object reference not set to an instance of an object.
-----------------------------------------------------------

Time: 17-09-2018 11:36:31 AM
-----------------------------------------------------------
Date & Time: 17-09-2018 11:36:31
Coach Name: 
Validation Status: Exception
Source: Calendar Signup

Exception: Object reference not set to an instance of an object.
-----------------------------------------------------------

Time: 17-09-2018 11:36:48 AM
-----------------------------------------------------------
Date & Time: 17-09-2018 11:36:48
Coach Name: 
Validation Status: Exception
Source: Calendar Signup

Exception: Object reference not set to an instance of an object.
-----------------------------------------------------------

Time: 17-09-2018 11:36:49 AM
-----------------------------------------------------------
Date & Time: 17-09-2018 11:36:49
Coach Name: 
Validation Status: Exception
Source: Calendar Signup

Exception: String was not recognized as a valid DateTime.
-----------------------------------------------------------

Time: 17-09-2018 11:36:56 AM
-----------------------------------------------------------
Date & Time: 17-09-2018 11:36:56
Coach Name: 
Validation Status: Exception
Source: Calendar Signup

Exception: Object reference not set to an instance of an object.
-----------------------------------------------------------

Time: 17-09-2018 11:40:30 AM
-----------------------------------------------------------
Date & Time: 17-09-2018 11:40:30
Coach Name: 
Validation Status: Exception
Source: Calendar Signup

Exception: Object reference not set to an instance of an object.
-----------------------------------------------------------

Time: 17-09-2018 11:41:17 AM
-----------------------------------------------------------
Date & Time: 17-09-2018 11:41:17
Coach Name: 
Validation Status: Exception
Source: Calendar Signup

Exception: Object reference not set to an instance of an object.
-----------------------------------------------------------

Time: 17-09-2018 11:41:18 AM
-----------------------------------------------------------
Date & Time: 17-09-2018 11:41:18
Coach Name: 
Validation Status: Exception
Source: Calendar Signup

Exception: String was not recognized as a valid DateTime.
-----------------------------------------------------------

Time: 17-09-2018 11:41:31 AM
-----------------------------------------------------------
Date & Time: 17-09-2018 11:41:31
Coach Name: 
Validation Status: Exception
Source: Calendar Signup

Exception: Object reference not set to an instance of an object.
-----------------------------------------------------------

Time: 17-09-2018 11:42:03 AM
-----------------------------------------------------------
Date & Time: 17-09-2018 11:42:03
Coach Name: 
Validation Status: Exception
Source: Calendar Signup

Exception: Object reference not set to an instance of an object.
-----------------------------------------------------------

Time: 17-09-2018 11:42:58 AM
-----------------------------------------------------------
Date & Time: 17-09-2018 11:42:58
Coach Name: 
Validation Status: Exception
Source: Calendar Signup

Exception: Incorrect syntax near the keyword 'order'.
-----------------------------------------------------------

Time: 17-09-2018 11:42:58 AM
-----------------------------------------------------------
Date & Time: 17-09-2018 11:42:58
Coach Name: 
Validation Status: Exception
Source: Calendar Signup

Exception: Incorrect syntax near the keyword 'order'.
-----------------------------------------------------------

Time: 17-09-2018 11:42:59 AM
-----------------------------------------------------------
Date & Time: 17-09-2018 11:42:59
Coach Name: 
Validation Status: Exception
Source: Calendar Signup

Exception: Incorrect syntax near '='.
-----------------------------------------------------------

Time: 17-09-2018 11:49:50 AM
-----------------------------------------------------------
Date & Time: 17-09-2018 11:49:50
Coach Name: 
Validation Status: Exception
Source: Calendar Signup

Exception: Object reference not set to an instance of an object.
-----------------------------------------------------------

Time: 17-09-2018 11:50:05 AM
-----------------------------------------------------------
Date & Time: 17-09-2018 11:50:05
Coach Name: 
Validation Status: Exception
Source: Calendar Signup

Exception: Object reference not set to an instance of an object.
-----------------------------------------------------------

Time: 17-09-2018 11:50:05 AM
-----------------------------------------------------------
Date & Time: 17-09-2018 11:50:05
Coach Name: 
Validation Status: Exception
Source: Calendar Signup

Exception: String was not recognized as a valid DateTime.
-----------------------------------------------------------

Time: 17-09-2018 11:50:10 AM
-----------------------------------------------------------
Date & Time: 17-09-2018 11:50:10
Coach Name: 
Validation Status: Exception
Source: Calendar Signup

Exception: Object reference not set to an instance of an object.
-----------------------------------------------------------

Time: 17-09-2018 11:51:39 AM
-----------------------------------------------------------
Date & Time: 17-09-2018 11:51:39
Coach Name: 
Validation Status: Exception
Source: Calendar Signup

Exception: Object reference not set to an instance of an object.
-----------------------------------------------------------

Time: 17-09-2018 11:52:57 AM
-----------------------------------------------------------
Date & Time: 17-09-2018 11:52:57
Coach Name: 
Validation Status: Exception
Source: Calendar Signup

Exception: Object reference not set to an instance of an object.
-----------------------------------------------------------

Time: 17-09-2018 12:11:09 PM
-----------------------------------------------------------
Date & Time: 17-09-2018 12:11:09
Coach Name: 
Validation Status: Exception
Source: Calendar Signup

Exception: Incorrect syntax near the keyword 'order'.
-----------------------------------------------------------

Time: 17-09-2018 12:11:10 PM
-----------------------------------------------------------
Date & Time: 17-09-2018 12:11:10
Coach Name: 
Validation Status: Exception
Source: Calendar Signup

Exception: Incorrect syntax near the keyword 'order'.
-----------------------------------------------------------

Time: 17-09-2018 12:11:10 PM
-----------------------------------------------------------
Date & Time: 17-09-2018 12:11:10
Coach Name: 
Validation Status: Exception
Source: Calendar Signup

Exception: Incorrect syntax near '='.
-----------------------------------------------------------

Time: 17-09-2018 12:16:29 PM
-----------------------------------------------------------
Date & Time: 17-09-2018 12:16:29
Coach Name: 
Validation Status: Exception
Source: Calendar Signup

Exception: Incorrect syntax near the keyword 'order'.
-----------------------------------------------------------

Time: 17-09-2018 12:16:29 PM
-----------------------------------------------------------
Date & Time: 17-09-2018 12:16:29
Coach Name: 
Validation Status: Exception
Source: Calendar Signup

Exception: Incorrect syntax near the keyword 'order'.
-----------------------------------------------------------

Time: 17-09-2018 12:16:29 PM
-----------------------------------------------------------
Date & Time: 17-09-2018 12:16:29
Coach Name: 
Validation Status: Exception
Source: Calendar Signup

Exception: Incorrect syntax near '='.
-----------------------------------------------------------

Time: 17-09-2018 12:17:30 PM
-----------------------------------------------------------
Date & Time: 17-09-2018 12:17:30
Coach Name: 
Validation Status: Exception
Source: Calendar Signup

Exception: Object reference not set to an instance of an object.
-----------------------------------------------------------

Time: 17-09-2018 12:17:59 PM
-----------------------------------------------------------
Date & Time: 17-09-2018 12:17:59
Coach Name: 
Validation Status: Exception
Source: Calendar Signup

Exception: Object reference not set to an instance of an object.
-----------------------------------------------------------

Time: 17-09-2018 12:18:15 PM
-----------------------------------------------------------
Date & Time: 17-09-2018 12:18:15
Coach Name: 
Validation Status: Exception
Source: Calendar Signup

Exception: String was not recognized as a valid DateTime.
-----------------------------------------------------------

Time: 17-09-2018 12:19:11 PM
-----------------------------------------------------------
Date & Time: 17-09-2018 12:19:11
Coach Name: 
Validation Status: Exception
Source: Calendar Signup

Exception: Object reference not set to an instance of an object.
-----------------------------------------------------------

Time: 17-09-2018 12:19:30 PM
-----------------------------------------------------------
Date & Time: 17-09-2018 12:19:30
Coach Name: 
Validation Status: Exception
Source: Calendar Signup

Exception: Object reference not set to an instance of an object.
-----------------------------------------------------------

Time: 17-09-2018 12:20:04 PM
-----------------------------------------------------------
Date & Time: 17-09-2018 12:20:04
Coach Name: 
Validation Status: Exception
Source: Calendar Signup

Exception: String was not recognized as a valid DateTime.
-----------------------------------------------------------

Time: 17-09-2018 12:29:14 PM
-----------------------------------------------------------
Date & Time: 17-09-2018 12:29:14
Coach Name: 
Validation Status: Exception
Source: Calendar Signup

Exception: Object reference not set to an instance of an object.
-----------------------------------------------------------

Time: 17-09-2018 12:29:32 PM
-----------------------------------------------------------
Date & Time: 17-09-2018 12:29:32
Coach Name: 
Validation Status: Exception
Source: Calendar Signup

Exception: Object reference not set to an instance of an object.
-----------------------------------------------------------

Time: 17-09-2018 12:29:49 PM
-----------------------------------------------------------
Date & Time: 17-09-2018 12:29:49
Coach Name: 
Validation Status: Exception
Source: Calendar Signup

Exception: String was not recognized as a valid DateTime.
-----------------------------------------------------------

Time: 17-09-2018 12:30:20 PM
-----------------------------------------------------------
Date & Time: 17-09-2018 12:30:20
Coach Name: 
Validation Status: Exception
Source: Calendar Signup

Exception: Object reference not set to an instance of an object.
-----------------------------------------------------------

Time: 17-09-2018 12:31:09 PM
-----------------------------------------------------------
Date & Time: 17-09-2018 12:31:09
Coach Name: 
Validation Status: Exception
Source: Calendar Signup

Exception: Object reference not set to an instance of an object.
-----------------------------------------------------------

Time: 17-09-2018 12:31:25 PM
-----------------------------------------------------------
Date & Time: 17-09-2018 12:31:25
Coach Name: 
Validation Status: Exception
Source: Calendar Signup

Exception: String was not recognized as a valid DateTime.
-----------------------------------------------------------

Time: 17-09-2018 12:35:28 PM
-----------------------------------------------------------
Date & Time: 17-09-2018 12:35:28
Coach Name: 
Validation Status: Exception
Source: Calendar Signup

Exception: Object reference not set to an instance of an object.
-----------------------------------------------------------

Time: 17-09-2018 12:35:44 PM
-----------------------------------------------------------
Date & Time: 17-09-2018 12:35:44
Coach Name: 
Validation Status: Exception
Source: Calendar Signup

Exception: String was not recognized as a valid DateTime.
-----------------------------------------------------------

Time: 17-09-2018 12:36:33 PM
-----------------------------------------------------------
Date & Time: 17-09-2018 12:36:33
Coach Name: 
Validation Status: Exception
Source: Calendar Signup

Exception: Object reference not set to an instance of an object.
-----------------------------------------------------------

Time: 17-09-2018 12:36:49 PM
-----------------------------------------------------------
Date & Time: 17-09-2018 12:36:49
Coach Name: 
Validation Status: Exception
Source: Calendar Signup

Exception: Object reference not set to an instance of an object.
-----------------------------------------------------------

Time: 17-09-2018 12:37:26 PM
-----------------------------------------------------------
Date & Time: 17-09-2018 12:37:26
Coach Name: 
Validation Status: Exception
Source: Calendar Signup

Exception: String was not recognized as a valid DateTime.
-----------------------------------------------------------

Time: 17-09-2018 12:38:55 PM
-----------------------------------------------------------
Date & Time: 17-09-2018 12:38:55
Coach Name: 
Validation Status: Exception
Source: Calendar Signup

Exception: Incorrect syntax near the keyword 'order'.
-----------------------------------------------------------

Time: 17-09-2018 12:38:55 PM
-----------------------------------------------------------
Date & Time: 17-09-2018 12:38:55
Coach Name: 
Validation Status: Exception
Source: Calendar Signup

Exception: Incorrect syntax near the keyword 'order'.
-----------------------------------------------------------

Time: 17-09-2018 12:38:56 PM
-----------------------------------------------------------
Date & Time: 17-09-2018 12:38:56
Coach Name: 
Validation Status: Exception
Source: Calendar Signup

Exception: Incorrect syntax near '='.
-----------------------------------------------------------

Time: 17-09-2018 12:49:45 PM
-----------------------------------------------------------
Date & Time: 17-09-2018 12:49:45
Coach Name: 
Validation Status: Exception
Source: Calendar Signup

Exception: Incorrect syntax near the keyword 'order'.
-----------------------------------------------------------

Time: 17-09-2018 12:49:46 PM
-----------------------------------------------------------
Date & Time: 17-09-2018 12:49:46
Coach Name: 
Validation Status: Exception
Source: Calendar Signup

Exception: Incorrect syntax near the keyword 'order'.
-----------------------------------------------------------

Time: 17-09-2018 12:49:46 PM
-----------------------------------------------------------
Date & Time: 17-09-2018 12:49:46
Coach Name: 
Validation Status: Exception
Source: Calendar Signup

Exception: Incorrect syntax near '='.
-----------------------------------------------------------

Time: 17-09-2018 12:55:12 PM
-----------------------------------------------------------
Date & Time: 17-09-2018 12:55:12
Coach Name: 
Validation Status: Exception
Source: Calendar Signup

Exception: Incorrect syntax near the keyword 'order'.
-----------------------------------------------------------

Time: 17-09-2018 12:55:12 PM
-----------------------------------------------------------
Date & Time: 17-09-2018 12:55:12
Coach Name: 
Validation Status: Exception
Source: Calendar Signup

Exception: Incorrect syntax near the keyword 'order'.
-----------------------------------------------------------

Time: 17-09-2018 12:55:13 PM
-----------------------------------------------------------
Date & Time: 17-09-2018 12:55:13
Coach Name: 
Validation Status: Exception
Source: Calendar Signup

Exception: Incorrect syntax near '='.
-----------------------------------------------------------

Time: 17-09-2018 12:57:51 PM
-----------------------------------------------------------
Date & Time: 17-09-2018 12:57:51
Coach Name: 
Validation Status: Exception
Source: Calendar Signup

Exception: Incorrect syntax near the keyword 'order'.
-----------------------------------------------------------

Time: 17-09-2018 12:57:52 PM
-----------------------------------------------------------
Date & Time: 17-09-2018 12:57:52
Coach Name: 
Validation Status: Exception
Source: Calendar Signup

Exception: Incorrect syntax near the keyword 'order'.
-----------------------------------------------------------

Time: 17-09-2018 12:57:52 PM
-----------------------------------------------------------
Date & Time: 17-09-2018 12:57:52
Coach Name: 
Validation Status: Exception
Source: Calendar Signup

Exception: Incorrect syntax near '='.
-----------------------------------------------------------

Time: 17-09-2018 12:59:12 PM
-----------------------------------------------------------
Date & Time: 17-09-2018 12:59:12
Coach Name: 
Validation Status: Exception
Source: Calendar Signup

Exception: Incorrect syntax near the keyword 'order'.
-----------------------------------------------------------

Time: 17-09-2018 12:59:12 PM
-----------------------------------------------------------
Date & Time: 17-09-2018 12:59:12
Coach Name: 
Validation Status: Exception
Source: Calendar Signup

Exception: Incorrect syntax near the keyword 'order'.
-----------------------------------------------------------

Time: 17-09-2018 12:59:12 PM
-----------------------------------------------------------
Date & Time: 17-09-2018 12:59:12
Coach Name: 
Validation Status: Exception
Source: Calendar Signup

Exception: Incorrect syntax near '='.
-----------------------------------------------------------

