Time: 04/08/2017 08:09:50 PM
-----------------------------------------------------------
Date & Time: 8/4/2017 8:09:50 PM
Coach Name: Esha Ghosalkar
Validation Status: Exception
Source: Coach Class Calendar

Exception: Incorrect syntax near the keyword 'and'.
-----------------------------------------------------------

