Time: 17/12/2016 11:28:17 PM
-----------------------------------------------------------
Date & Time: 12/17/2016 11:28:17 PM
Coach Name: 
Validation Status: Exception
Source: Setup Zoom Sessions

Exception: Object reference not set to an instance of an object.
-----------------------------------------------------------

Time: 17/12/2016 11:29:12 PM
-----------------------------------------------------------
Date & Time: 12/17/2016 11:29:12 PM
Coach Name: 
Validation Status: Exception
Source: Setup Zoom Sessions

Exception: Incorrect syntax near the keyword 'where'.
-----------------------------------------------------------

Time: 17/12/2016 11:29:24 PM
-----------------------------------------------------------
Date & Time: 12/17/2016 11:29:24 PM
Coach Name: 
Validation Status: Exception
Source: Setup Zoom Sessions

Exception: Incorrect syntax near the keyword 'where'.
-----------------------------------------------------------

Time: 17/12/2016 11:29:41 PM
-----------------------------------------------------------
Date & Time: 12/17/2016 11:29:41 PM
Coach Name: 
Validation Status: Exception
Source: Setup Zoom Sessions

Exception: Incorrect syntax near the keyword 'where'.
-----------------------------------------------------------

Time: 17/12/2016 11:30:32 PM
-----------------------------------------------------------
Date & Time: 12/17/2016 11:30:32 PM
Coach Name: 
Validation Status: Exception
Source: Setup Zoom Sessions

Exception: Object reference not set to an instance of an object.
-----------------------------------------------------------

Time: 17/12/2016 11:33:06 PM
-----------------------------------------------------------
Date & Time: 12/17/2016 11:33:06 PM
Coach Name: 
Validation Status: Exception
Source: Setup Zoom Sessions

Exception: Object reference not set to an instance of an object.
-----------------------------------------------------------

Time: 17/12/2016 11:40:33 PM
-----------------------------------------------------------
Date & Time: 12/17/2016 11:40:33 PM
Coach Name: 
Validation Status: Exception
Source: Setup Zoom Sessions

Exception: Object reference not set to an instance of an object.
-----------------------------------------------------------

Time: 17/12/2016 11:43:17 PM
-----------------------------------------------------------
Date & Time: 12/17/2016 11:43:17 PM
Coach Name: 
Validation Status: Exception
Source: Setup Zoom Sessions

Exception: Object reference not set to an instance of an object.
-----------------------------------------------------------

Time: 17/12/2016 11:46:55 PM
-----------------------------------------------------------
Date & Time: 12/17/2016 11:46:55 PM
Coach Name: 
Validation Status: Exception
Source: Setup Zoom Sessions

Exception: Object reference not set to an instance of an object.
-----------------------------------------------------------

