Time: 27/09/2017 09:38:57 AM
-----------------------------------------------------------
Date & Time: 9/27/2017 9:38:57 AM
Coach Name: 
Validation Status: Exception
Source: Calendar Signup

Exception: Index was out of range. Must be non-negative and less than the size of the collection.
Parameter name: index
-----------------------------------------------------------

Time: 27/09/2017 09:39:02 AM
-----------------------------------------------------------
Date & Time: 9/27/2017 9:39:02 AM
Coach Name: 
Validation Status: Exception
Source: Calendar Signup

Exception: String was not recognized as a valid DateTime.
-----------------------------------------------------------

Time: 27/09/2017 09:41:10 AM
-----------------------------------------------------------
Date & Time: 9/27/2017 9:41:10 AM
Coach Name: 
Validation Status: Exception
Source: Calendar Signup

Exception: Index was out of range. Must be non-negative and less than the size of the collection.
Parameter name: index
-----------------------------------------------------------

Time: 27/09/2017 09:41:25 AM
-----------------------------------------------------------
Date & Time: 9/27/2017 9:41:25 AM
Coach Name: 
Validation Status: Exception
Source: Calendar Signup

Exception: String was not recognized as a valid DateTime.
-----------------------------------------------------------

Time: 27/09/2017 09:48:13 AM
-----------------------------------------------------------
Date & Time: 9/27/2017 9:48:13 AM
Coach Name: 
Validation Status: Exception
Source: Calendar Signup

Exception: Index was out of range. Must be non-negative and less than the size of the collection.
Parameter name: index
-----------------------------------------------------------

Time: 27/09/2017 09:48:15 AM
-----------------------------------------------------------
Date & Time: 9/27/2017 9:48:15 AM
Coach Name: 
Validation Status: Exception
Source: Calendar Signup

Exception: String was not recognized as a valid DateTime.
-----------------------------------------------------------

Time: 27/09/2017 10:43:19 AM
-----------------------------------------------------------
Date & Time: 9/27/2017 10:43:19 AM
Coach Name: 
Validation Status: Exception
Source: Calendar Signup

Exception: Index was out of range. Must be non-negative and less than the size of the collection.
Parameter name: index
-----------------------------------------------------------

Time: 27/09/2017 10:43:22 AM
-----------------------------------------------------------
Date & Time: 9/27/2017 10:43:22 AM
Coach Name: 
Validation Status: Exception
Source: Calendar Signup

Exception: A field or property with the name 'Session' was not found on the selected data source.
-----------------------------------------------------------

Time: 27/09/2017 10:44:08 AM
-----------------------------------------------------------
Date & Time: 9/27/2017 10:44:08 AM
Coach Name: 
Validation Status: Exception
Source: Calendar Signup

Exception: Index was out of range. Must be non-negative and less than the size of the collection.
Parameter name: index
-----------------------------------------------------------

Time: 27/09/2017 10:45:06 AM
-----------------------------------------------------------
Date & Time: 9/27/2017 10:45:06 AM
Coach Name: 
Validation Status: Exception
Source: Calendar Signup

Exception: A field or property with the name 'Session' was not found on the selected data source.
-----------------------------------------------------------

Time: 27/09/2017 10:46:57 AM
-----------------------------------------------------------
Date & Time: 9/27/2017 10:46:57 AM
Coach Name: 
Validation Status: Exception
Source: Calendar Signup

Exception: Index was out of range. Must be non-negative and less than the size of the collection.
Parameter name: index
-----------------------------------------------------------

Time: 27/09/2017 10:47:01 AM
-----------------------------------------------------------
Date & Time: 9/27/2017 10:47:01 AM
Coach Name: 
Validation Status: Exception
Source: Calendar Signup

Exception: A field or property with the name 'MeetingPwd' was not found on the selected data source.
-----------------------------------------------------------

Time: 27/09/2017 10:47:28 AM
-----------------------------------------------------------
Date & Time: 9/27/2017 10:47:28 AM
Coach Name: 
Validation Status: Exception
Source: Calendar Signup

Exception: Index was out of range. Must be non-negative and less than the size of the collection.
Parameter name: index
-----------------------------------------------------------

Time: 27/09/2017 10:47:45 AM
-----------------------------------------------------------
Date & Time: 9/27/2017 10:47:45 AM
Coach Name: 
Validation Status: Exception
Source: Calendar Signup

Exception: A field or property with the name 'MeetingPwd' was not found on the selected data source.
-----------------------------------------------------------

Time: 27/09/2017 10:48:34 AM
-----------------------------------------------------------
Date & Time: 9/27/2017 10:48:34 AM
Coach Name: 
Validation Status: Exception
Source: Calendar Signup

Exception: Index was out of range. Must be non-negative and less than the size of the collection.
Parameter name: index
-----------------------------------------------------------

Time: 27/09/2017 10:48:47 AM
-----------------------------------------------------------
Date & Time: 9/27/2017 10:48:47 AM
Coach Name: 
Validation Status: Exception
Source: Calendar Signup

Exception: A field or property with the name 'StartDate' was not found on the selected data source.
-----------------------------------------------------------

Time: 27/09/2017 10:49:49 AM
-----------------------------------------------------------
Date & Time: 9/27/2017 10:49:49 AM
Coach Name: 
Validation Status: Exception
Source: Calendar Signup

Exception: Index was out of range. Must be non-negative and less than the size of the collection.
Parameter name: index
-----------------------------------------------------------

Time: 27/09/2017 10:49:58 AM
-----------------------------------------------------------
Date & Time: 9/27/2017 10:49:58 AM
Coach Name: 
Validation Status: Exception
Source: Calendar Signup

Exception: Index was out of range. Must be non-negative and less than the size of the collection.
Parameter name: index
-----------------------------------------------------------

Time: 27/09/2017 10:51:30 AM
-----------------------------------------------------------
Date & Time: 9/27/2017 10:51:30 AM
Coach Name: 
Validation Status: Exception
Source: Calendar Signup

Exception: Index was out of range. Must be non-negative and less than the size of the collection.
Parameter name: index
-----------------------------------------------------------

Time: 27/09/2017 10:51:32 AM
-----------------------------------------------------------
Date & Time: 9/27/2017 10:51:32 AM
Coach Name: 
Validation Status: Exception
Source: Calendar Signup

Exception: Index was out of range. Must be non-negative and less than the size of the collection.
Parameter name: index
-----------------------------------------------------------

Time: 27/09/2017 10:53:38 AM
-----------------------------------------------------------
Date & Time: 9/27/2017 10:53:38 AM
Coach Name: 
Validation Status: Exception
Source: Calendar Signup

Exception: Index was out of range. Must be non-negative and less than the size of the collection.
Parameter name: index
-----------------------------------------------------------

Time: 27/09/2017 10:53:41 AM
-----------------------------------------------------------
Date & Time: 9/27/2017 10:53:41 AM
Coach Name: 
Validation Status: Exception
Source: Calendar Signup

Exception: Index was out of range. Must be non-negative and less than the size of the collection.
Parameter name: index
-----------------------------------------------------------

Time: 27/09/2017 11:58:03 AM
-----------------------------------------------------------
Date & Time: 9/27/2017 11:58:03 AM
Coach Name: 
Validation Status: Exception
Source: Calendar Signup

Exception: Index was out of range. Must be non-negative and less than the size of the collection.
Parameter name: index
-----------------------------------------------------------

Time: 27/09/2017 11:58:07 AM
-----------------------------------------------------------
Date & Time: 9/27/2017 11:58:07 AM
Coach Name: 
Validation Status: Exception
Source: Calendar Signup

Exception: Index was out of range. Must be non-negative and less than the size of the collection.
Parameter name: index
-----------------------------------------------------------

Time: 27/09/2017 12:01:58 PM
-----------------------------------------------------------
Date & Time: 9/27/2017 12:01:58 PM
Coach Name: 
Validation Status: Exception
Source: Calendar Signup

Exception: Index was out of range. Must be non-negative and less than the size of the collection.
Parameter name: index
-----------------------------------------------------------

Time: 27/09/2017 12:02:01 PM
-----------------------------------------------------------
Date & Time: 9/27/2017 12:02:01 PM
Coach Name: 
Validation Status: Exception
Source: Calendar Signup

Exception: Index was out of range. Must be non-negative and less than the size of the collection.
Parameter name: index
-----------------------------------------------------------

Time: 27/09/2017 12:06:29 PM
-----------------------------------------------------------
Date & Time: 9/27/2017 12:06:29 PM
Coach Name: 
Validation Status: Exception
Source: Calendar Signup

Exception: Index was out of range. Must be non-negative and less than the size of the collection.
Parameter name: index
-----------------------------------------------------------

Time: 27/09/2017 12:07:59 PM
-----------------------------------------------------------
Date & Time: 9/27/2017 12:07:59 PM
Coach Name: 
Validation Status: Exception
Source: Calendar Signup

Exception: Index was out of range. Must be non-negative and less than the size of the collection.
Parameter name: index
-----------------------------------------------------------

Time: 27/09/2017 12:11:56 PM
-----------------------------------------------------------
Date & Time: 9/27/2017 12:11:56 PM
Coach Name: 
Validation Status: Exception
Source: Calendar Signup

Exception: Index was out of range. Must be non-negative and less than the size of the collection.
Parameter name: index
-----------------------------------------------------------

Time: 27/09/2017 12:13:06 PM
-----------------------------------------------------------
Date & Time: 9/27/2017 12:13:06 PM
Coach Name: 
Validation Status: Exception
Source: Calendar Signup

Exception: Index was out of range. Must be non-negative and less than the size of the collection.
Parameter name: index
-----------------------------------------------------------

Time: 27/09/2017 12:13:09 PM
-----------------------------------------------------------
Date & Time: 9/27/2017 12:13:09 PM
Coach Name: 
Validation Status: Exception
Source: Calendar Signup

Exception: Index was out of range. Must be non-negative and less than the size of the collection.
Parameter name: index
-----------------------------------------------------------

Time: 27/09/2017 12:14:02 PM
-----------------------------------------------------------
Date & Time: 9/27/2017 12:14:02 PM
Coach Name: 
Validation Status: Exception
Source: Calendar Signup

Exception: Index was out of range. Must be non-negative and less than the size of the collection.
Parameter name: index
-----------------------------------------------------------

Time: 27/09/2017 12:15:07 PM
-----------------------------------------------------------
Date & Time: 9/27/2017 12:15:07 PM
Coach Name: 
Validation Status: Exception
Source: Calendar Signup

Exception: Index was out of range. Must be non-negative and less than the size of the collection.
Parameter name: index
-----------------------------------------------------------

Time: 27/09/2017 12:15:22 PM
-----------------------------------------------------------
Date & Time: 9/27/2017 12:15:22 PM
Coach Name: 
Validation Status: Exception
Source: Calendar Signup

Exception: Index was out of range. Must be non-negative and less than the size of the collection.
Parameter name: index
-----------------------------------------------------------

Time: 27/09/2017 12:16:27 PM
-----------------------------------------------------------
Date & Time: 9/27/2017 12:16:27 PM
Coach Name: 
Validation Status: Exception
Source: Calendar Signup

Exception: Index was out of range. Must be non-negative and less than the size of the collection.
Parameter name: index
-----------------------------------------------------------

Time: 27/09/2017 12:16:58 PM
-----------------------------------------------------------
Date & Time: 9/27/2017 12:16:58 PM
Coach Name: 
Validation Status: Exception
Source: Calendar Signup

Exception: Index was out of range. Must be non-negative and less than the size of the collection.
Parameter name: index
-----------------------------------------------------------

Time: 27/09/2017 12:18:31 PM
-----------------------------------------------------------
Date & Time: 9/27/2017 12:18:31 PM
Coach Name: 
Validation Status: Exception
Source: Calendar Signup

Exception: Index was out of range. Must be non-negative and less than the size of the collection.
Parameter name: index
-----------------------------------------------------------

Time: 27/09/2017 12:22:34 PM
-----------------------------------------------------------
Date & Time: 9/27/2017 12:22:34 PM
Coach Name: 
Validation Status: Exception
Source: Calendar Signup

Exception: Index was out of range. Must be non-negative and less than the size of the collection.
Parameter name: index
-----------------------------------------------------------

Time: 27/09/2017 12:23:47 PM
-----------------------------------------------------------
Date & Time: 9/27/2017 12:23:47 PM
Coach Name: 
Validation Status: Exception
Source: Calendar Signup

Exception: Index was out of range. Must be non-negative and less than the size of the collection.
Parameter name: index
-----------------------------------------------------------

Time: 27/09/2017 12:26:05 PM
-----------------------------------------------------------
Date & Time: 9/27/2017 12:26:05 PM
Coach Name: 
Validation Status: Exception
Source: Calendar Signup

Exception: Index was out of range. Must be non-negative and less than the size of the collection.
Parameter name: index
-----------------------------------------------------------

Time: 27/09/2017 01:29:14 PM
-----------------------------------------------------------
Date & Time: 9/27/2017 1:29:14 PM
Coach Name: 
Validation Status: Exception
Source: Calendar Signup

Exception: Index was out of range. Must be non-negative and less than the size of the collection.
Parameter name: index
-----------------------------------------------------------

Time: 27/09/2017 02:24:48 PM
-----------------------------------------------------------
Date & Time: 9/27/2017 2:24:48 PM
Coach Name: 
Validation Status: Exception
Source: Calendar Signup

Exception: Index was out of range. Must be non-negative and less than the size of the collection.
Parameter name: index
-----------------------------------------------------------

Time: 27/09/2017 02:25:02 PM
-----------------------------------------------------------
Date & Time: 9/27/2017 2:25:02 PM
Coach Name: 
Validation Status: Exception
Source: Calendar Signup

Exception: DataBinding: 'System.Data.DataRowView' does not contain a property with the name 'SubCoach'.
-----------------------------------------------------------

Time: 27/09/2017 02:25:04 PM
-----------------------------------------------------------
Date & Time: 9/27/2017 2:25:04 PM
Coach Name: 
Validation Status: Exception
Source: Calendar Signup

Exception: DataBinding: 'System.Data.DataRowView' does not contain a property with the name 'SubCoach'.
-----------------------------------------------------------

Time: 27/09/2017 02:25:28 PM
-----------------------------------------------------------
Date & Time: 9/27/2017 2:25:28 PM
Coach Name: 
Validation Status: Exception
Source: Calendar Signup

Exception: Index was out of range. Must be non-negative and less than the size of the collection.
Parameter name: index
-----------------------------------------------------------

Time: 27/09/2017 02:25:47 PM
-----------------------------------------------------------
Date & Time: 9/27/2017 2:25:47 PM
Coach Name: 
Validation Status: Exception
Source: Calendar Signup

Exception: DataBinding: 'System.Data.DataRowView' does not contain a property with the name 'SubCoach'.
-----------------------------------------------------------

Time: 27/09/2017 02:25:48 PM
-----------------------------------------------------------
Date & Time: 9/27/2017 2:25:48 PM
Coach Name: 
Validation Status: Exception
Source: Calendar Signup

Exception: DataBinding: 'System.Data.DataRowView' does not contain a property with the name 'SubCoach'.
-----------------------------------------------------------

Time: 27/09/2017 02:29:20 PM
-----------------------------------------------------------
Date & Time: 9/27/2017 2:29:20 PM
Coach Name: 
Validation Status: Exception
Source: Calendar Signup

Exception: Index was out of range. Must be non-negative and less than the size of the collection.
Parameter name: index
-----------------------------------------------------------

Time: 27/09/2017 02:29:25 PM
-----------------------------------------------------------
Date & Time: 9/27/2017 2:29:25 PM
Coach Name: 
Validation Status: Exception
Source: Calendar Signup

Exception: A field or property with the name 'Date' was not found on the selected data source.
-----------------------------------------------------------

Time: 27/09/2017 02:29:37 PM
-----------------------------------------------------------
Date & Time: 9/27/2017 2:29:37 PM
Coach Name: 
Validation Status: Exception
Source: Calendar Signup

Exception: DataBinding: 'System.Data.DataRowView' does not contain a property with the name 'SubCoach'.
-----------------------------------------------------------

Time: 27/09/2017 02:32:37 PM
-----------------------------------------------------------
Date & Time: 9/27/2017 2:32:37 PM
Coach Name: 
Validation Status: Exception
Source: Calendar Signup

Exception: Index was out of range. Must be non-negative and less than the size of the collection.
Parameter name: index
-----------------------------------------------------------

Time: 27/09/2017 02:32:42 PM
-----------------------------------------------------------
Date & Time: 9/27/2017 2:32:42 PM
Coach Name: 
Validation Status: Exception
Source: Calendar Signup

Exception: A field or property with the name 'Date' was not found on the selected data source.
-----------------------------------------------------------

Time: 27/09/2017 02:32:43 PM
-----------------------------------------------------------
Date & Time: 9/27/2017 2:32:43 PM
Coach Name: 
Validation Status: Exception
Source: Calendar Signup

Exception: A field or property with the name 'Date' was not found on the selected data source.
-----------------------------------------------------------

Time: 27/09/2017 02:34:16 PM
-----------------------------------------------------------
Date & Time: 9/27/2017 2:34:16 PM
Coach Name: 
Validation Status: Exception
Source: Calendar Signup

Exception: Index was out of range. Must be non-negative and less than the size of the collection.
Parameter name: index
-----------------------------------------------------------

Time: 27/09/2017 02:34:25 PM
-----------------------------------------------------------
Date & Time: 9/27/2017 2:34:25 PM
Coach Name: 
Validation Status: Exception
Source: Calendar Signup

Exception: DataBinding: 'System.Data.DataRowView' does not contain a property with the name 'Time'.
-----------------------------------------------------------

Time: 27/09/2017 02:34:26 PM
-----------------------------------------------------------
Date & Time: 9/27/2017 2:34:26 PM
Coach Name: 
Validation Status: Exception
Source: Calendar Signup

Exception: A field or property with the name 'Date' was not found on the selected data source.
-----------------------------------------------------------

Time: 27/09/2017 02:34:43 PM
-----------------------------------------------------------
Date & Time: 9/27/2017 2:34:43 PM
Coach Name: 
Validation Status: Exception
Source: Calendar Signup

Exception: Index was out of range. Must be non-negative and less than the size of the collection.
Parameter name: index
-----------------------------------------------------------

Time: 27/09/2017 02:34:50 PM
-----------------------------------------------------------
Date & Time: 9/27/2017 2:34:50 PM
Coach Name: 
Validation Status: Exception
Source: Calendar Signup

Exception: DataBinding: 'System.Data.DataRowView' does not contain a property with the name 'Time'.
-----------------------------------------------------------

Time: 27/09/2017 02:34:50 PM
-----------------------------------------------------------
Date & Time: 9/27/2017 2:34:50 PM
Coach Name: 
Validation Status: Exception
Source: Calendar Signup

Exception: A field or property with the name 'Date' was not found on the selected data source.
-----------------------------------------------------------

Time: 27/09/2017 02:35:32 PM
-----------------------------------------------------------
Date & Time: 9/27/2017 2:35:32 PM
Coach Name: 
Validation Status: Exception
Source: Calendar Signup

Exception: Index was out of range. Must be non-negative and less than the size of the collection.
Parameter name: index
-----------------------------------------------------------

Time: 27/09/2017 02:35:37 PM
-----------------------------------------------------------
Date & Time: 9/27/2017 2:35:37 PM
Coach Name: 
Validation Status: Exception
Source: Calendar Signup

Exception: String was not recognized as a valid DateTime.
-----------------------------------------------------------

Time: 27/09/2017 02:35:37 PM
-----------------------------------------------------------
Date & Time: 9/27/2017 2:35:37 PM
Coach Name: 
Validation Status: Exception
Source: Calendar Signup

Exception: A field or property with the name 'SubstituteDate' was not found on the selected data source.
-----------------------------------------------------------

Time: 27/09/2017 02:38:05 PM
-----------------------------------------------------------
Date & Time: 9/27/2017 2:38:05 PM
Coach Name: 
Validation Status: Exception
Source: Calendar Signup

Exception: Index was out of range. Must be non-negative and less than the size of the collection.
Parameter name: index
-----------------------------------------------------------

Time: 27/09/2017 02:38:13 PM
-----------------------------------------------------------
Date & Time: 9/27/2017 2:38:13 PM
Coach Name: 
Validation Status: Exception
Source: Calendar Signup

Exception: String was not recognized as a valid DateTime.
-----------------------------------------------------------

Time: 27/09/2017 02:38:14 PM
-----------------------------------------------------------
Date & Time: 9/27/2017 2:38:14 PM
Coach Name: 
Validation Status: Exception
Source: Calendar Signup

Exception: String was not recognized as a valid DateTime.
-----------------------------------------------------------

Time: 27/09/2017 02:38:53 PM
-----------------------------------------------------------
Date & Time: 9/27/2017 2:38:53 PM
Coach Name: 
Validation Status: Exception
Source: Calendar Signup

Exception: Index was out of range. Must be non-negative and less than the size of the collection.
Parameter name: index
-----------------------------------------------------------

Time: 27/09/2017 02:38:55 PM
-----------------------------------------------------------
Date & Time: 9/27/2017 2:38:55 PM
Coach Name: 
Validation Status: Exception
Source: Calendar Signup

Exception: String was not recognized as a valid DateTime.
-----------------------------------------------------------

Time: 27/09/2017 02:39:18 PM
-----------------------------------------------------------
Date & Time: 9/27/2017 2:39:18 PM
Coach Name: 
Validation Status: Exception
Source: Calendar Signup

Exception: String was not recognized as a valid DateTime.
-----------------------------------------------------------

Time: 27/09/2017 02:42:52 PM
-----------------------------------------------------------
Date & Time: 9/27/2017 2:42:52 PM
Coach Name: 
Validation Status: Exception
Source: Calendar Signup

Exception: Index was out of range. Must be non-negative and less than the size of the collection.
Parameter name: index
-----------------------------------------------------------

Time: 27/09/2017 02:42:54 PM
-----------------------------------------------------------
Date & Time: 9/27/2017 2:42:54 PM
Coach Name: 
Validation Status: Exception
Source: Calendar Signup

Exception: String was not recognized as a valid DateTime.
-----------------------------------------------------------

Time: 27/09/2017 02:43:54 PM
-----------------------------------------------------------
Date & Time: 9/27/2017 2:43:54 PM
Coach Name: 
Validation Status: Exception
Source: Calendar Signup

Exception: Index was out of range. Must be non-negative and less than the size of the collection.
Parameter name: index
-----------------------------------------------------------

Time: 27/09/2017 02:43:56 PM
-----------------------------------------------------------
Date & Time: 9/27/2017 2:43:56 PM
Coach Name: 
Validation Status: Exception
Source: Calendar Signup

Exception: String was not recognized as a valid DateTime.
-----------------------------------------------------------

Time: 27/09/2017 02:44:42 PM
-----------------------------------------------------------
Date & Time: 9/27/2017 2:44:42 PM
Coach Name: 
Validation Status: Exception
Source: Calendar Signup

Exception: Index was out of range. Must be non-negative and less than the size of the collection.
Parameter name: index
-----------------------------------------------------------

Time: 27/09/2017 02:44:43 PM
-----------------------------------------------------------
Date & Time: 9/27/2017 2:44:43 PM
Coach Name: 
Validation Status: Exception
Source: Calendar Signup

Exception: String was not recognized as a valid DateTime.
-----------------------------------------------------------

Time: 27/09/2017 02:45:06 PM
-----------------------------------------------------------
Date & Time: 9/27/2017 2:45:06 PM
Coach Name: 
Validation Status: Exception
Source: Calendar Signup

Exception: Index was out of range. Must be non-negative and less than the size of the collection.
Parameter name: index
-----------------------------------------------------------

Time: 27/09/2017 02:45:09 PM
-----------------------------------------------------------
Date & Time: 9/27/2017 2:45:09 PM
Coach Name: 
Validation Status: Exception
Source: Calendar Signup

Exception: String was not recognized as a valid DateTime.
-----------------------------------------------------------

Time: 27/09/2017 02:54:25 PM
-----------------------------------------------------------
Date & Time: 9/27/2017 2:54:25 PM
Coach Name: 
Validation Status: Exception
Source: Calendar Signup

Exception: Index was out of range. Must be non-negative and less than the size of the collection.
Parameter name: index
-----------------------------------------------------------

Time: 27/09/2017 02:54:47 PM
-----------------------------------------------------------
Date & Time: 9/27/2017 2:54:47 PM
Coach Name: 
Validation Status: Exception
Source: Calendar Signup

Exception: Incorrect syntax near 'nullorder'.
-----------------------------------------------------------

Time: 27/09/2017 02:54:49 PM
-----------------------------------------------------------
Date & Time: 9/27/2017 2:54:49 PM
Coach Name: 
Validation Status: Exception
Source: Calendar Signup

Exception: String was not recognized as a valid DateTime.
-----------------------------------------------------------

Time: 27/09/2017 02:56:44 PM
-----------------------------------------------------------
Date & Time: 9/27/2017 2:56:44 PM
Coach Name: 
Validation Status: Exception
Source: Calendar Signup

Exception: Index was out of range. Must be non-negative and less than the size of the collection.
Parameter name: index
-----------------------------------------------------------

Time: 27/09/2017 02:56:46 PM
-----------------------------------------------------------
Date & Time: 9/27/2017 2:56:46 PM
Coach Name: 
Validation Status: Exception
Source: Calendar Signup

Exception: String was not recognized as a valid DateTime.
-----------------------------------------------------------

Time: 27/09/2017 02:56:48 PM
-----------------------------------------------------------
Date & Time: 9/27/2017 2:56:48 PM
Coach Name: 
Validation Status: Exception
Source: Calendar Signup

Exception: String was not recognized as a valid DateTime.
-----------------------------------------------------------

Time: 27/09/2017 03:17:33 PM
-----------------------------------------------------------
Date & Time: 9/27/2017 3:17:33 PM
Coach Name: 
Validation Status: Exception
Source: Calendar Signup

Exception: Index was out of range. Must be non-negative and less than the size of the collection.
Parameter name: index
-----------------------------------------------------------

Time: 27/09/2017 03:17:35 PM
-----------------------------------------------------------
Date & Time: 9/27/2017 3:17:35 PM
Coach Name: 
Validation Status: Exception
Source: Calendar Signup

Exception: String was not recognized as a valid DateTime.
-----------------------------------------------------------

Time: 27/09/2017 03:17:37 PM
-----------------------------------------------------------
Date & Time: 9/27/2017 3:17:37 PM
Coach Name: 
Validation Status: Exception
Source: Calendar Signup

Exception: String was not recognized as a valid DateTime.
-----------------------------------------------------------

Time: 27/09/2017 03:20:18 PM
-----------------------------------------------------------
Date & Time: 9/27/2017 3:20:18 PM
Coach Name: 
Validation Status: Exception
Source: Calendar Signup

Exception: Index was out of range. Must be non-negative and less than the size of the collection.
Parameter name: index
-----------------------------------------------------------

Time: 27/09/2017 03:20:20 PM
-----------------------------------------------------------
Date & Time: 9/27/2017 3:20:20 PM
Coach Name: 
Validation Status: Exception
Source: Calendar Signup

Exception: String was not recognized as a valid DateTime.
-----------------------------------------------------------

Time: 27/09/2017 03:20:21 PM
-----------------------------------------------------------
Date & Time: 9/27/2017 3:20:21 PM
Coach Name: 
Validation Status: Exception
Source: Calendar Signup

Exception: String was not recognized as a valid DateTime.
-----------------------------------------------------------

Time: 27/09/2017 03:37:40 PM
-----------------------------------------------------------
Date & Time: 9/27/2017 3:37:40 PM
Coach Name: 
Validation Status: Exception
Source: Calendar Signup

Exception: Index was out of range. Must be non-negative and less than the size of the collection.
Parameter name: index
-----------------------------------------------------------

Time: 27/09/2017 03:46:24 PM
-----------------------------------------------------------
Date & Time: 9/27/2017 3:46:24 PM
Coach Name: 
Validation Status: Exception
Source: Calendar Signup

Exception: Index was out of range. Must be non-negative and less than the size of the collection.
Parameter name: index
-----------------------------------------------------------

Time: 27/09/2017 04:02:47 PM
-----------------------------------------------------------
Date & Time: 9/27/2017 4:02:47 PM
Coach Name: 
Validation Status: Exception
Source: Calendar Signup

Exception: String was not recognized as a valid DateTime.
-----------------------------------------------------------

Time: 27/09/2017 04:07:47 PM
-----------------------------------------------------------
Date & Time: 9/27/2017 4:07:47 PM
Coach Name: 
Validation Status: Exception
Source: Calendar Signup

Exception: String was not recognized as a valid DateTime.
-----------------------------------------------------------

