Time: 13/04/2017 05:08:48 PM
-----------------------------------------------------------
Date & Time: 4/13/2017 5:08:48 PM
Coach Name: 
Validation Status: Exception
Source: Bulk Change Coaching

Exception: Ambiguous column name 'EventID'.
-----------------------------------------------------------

Time: 13/04/2017 05:09:03 PM
-----------------------------------------------------------
Date & Time: 4/13/2017 5:09:03 PM
Coach Name: 
Validation Status: Exception
Source: Bulk Change Coaching

Exception: Ambiguous column name 'EventID'.
-----------------------------------------------------------

