Time: 13/09/2017 01:38:02 PM
-----------------------------------------------------------
Date & Time: 9/13/2017 1:38:02 PM
Coach Name: 
Validation Status: Exception
Source: Calendar Signup

Exception: Index was out of range. Must be non-negative and less than the size of the collection.
Parameter name: index
-----------------------------------------------------------

Time: 13/09/2017 01:44:52 PM
-----------------------------------------------------------
Date & Time: 9/13/2017 1:44:52 PM
Coach Name: 
Validation Status: Exception
Source: Calendar Signup

Exception: Thread was being aborted.
-----------------------------------------------------------

Time: 13/09/2017 01:48:41 PM
-----------------------------------------------------------
Date & Time: 9/13/2017 1:48:41 PM
Coach Name: 
Validation Status: Exception
Source: Calendar Signup

Exception: Index was out of range. Must be non-negative and less than the size of the collection.
Parameter name: index
-----------------------------------------------------------

Time: 13/09/2017 01:50:10 PM
-----------------------------------------------------------
Date & Time: 9/13/2017 1:50:10 PM
Coach Name: 
Validation Status: Exception
Source: Calendar Signup

Exception: Thread was being aborted.
-----------------------------------------------------------

Time: 13/09/2017 02:58:18 PM
-----------------------------------------------------------
Date & Time: 9/13/2017 2:58:18 PM
Coach Name: 
Validation Status: Exception
Source: Calendar Signup

Exception: Index was out of range. Must be non-negative and less than the size of the collection.
Parameter name: index
-----------------------------------------------------------

Time: 13/09/2017 02:58:58 PM
-----------------------------------------------------------
Date & Time: 9/13/2017 2:58:58 PM
Coach Name: 
Validation Status: Exception
Source: Calendar Signup

Exception: Thread was being aborted.
-----------------------------------------------------------

Time: 13/09/2017 03:07:48 PM
-----------------------------------------------------------
Date & Time: 9/13/2017 3:07:48 PM
Coach Name: 
Validation Status: Exception
Source: Calendar Signup

Exception: Index was out of range. Must be non-negative and less than the size of the collection.
Parameter name: index
-----------------------------------------------------------

Time: 13/09/2017 03:08:32 PM
-----------------------------------------------------------
Date & Time: 9/13/2017 3:08:32 PM
Coach Name: 
Validation Status: Exception
Source: Calendar Signup

Exception: Index was out of range. Must be non-negative and less than the size of the collection.
Parameter name: index
-----------------------------------------------------------

Time: 13/09/2017 03:09:00 PM
-----------------------------------------------------------
Date & Time: 9/13/2017 3:09:00 PM
Coach Name: 
Validation Status: Exception
Source: Calendar Signup

Exception: Index was out of range. Must be non-negative and less than the size of the collection.
Parameter name: index
-----------------------------------------------------------

Time: 13/09/2017 03:11:09 PM
-----------------------------------------------------------
Date & Time: 9/13/2017 3:11:09 PM
Coach Name: 
Validation Status: Exception
Source: Calendar Signup

Exception: Index was out of range. Must be non-negative and less than the size of the collection.
Parameter name: index
-----------------------------------------------------------

Time: 13/09/2017 03:14:20 PM
-----------------------------------------------------------
Date & Time: 9/13/2017 3:14:20 PM
Coach Name: 
Validation Status: Exception
Source: Calendar Signup

Exception: Index was out of range. Must be non-negative and less than the size of the collection.
Parameter name: index
-----------------------------------------------------------

Time: 13/09/2017 03:15:17 PM
-----------------------------------------------------------
Date & Time: 9/13/2017 3:15:17 PM
Coach Name: 
Validation Status: Exception
Source: Calendar Signup

Exception: Incorrect syntax near the keyword 'Select'.
-----------------------------------------------------------

Time: 13/09/2017 03:15:49 PM
-----------------------------------------------------------
Date & Time: 9/13/2017 3:15:49 PM
Coach Name: 
Validation Status: Exception
Source: Calendar Signup

Exception: Incorrect syntax near the keyword 'Select'.
-----------------------------------------------------------

Time: 13/09/2017 03:17:51 PM
-----------------------------------------------------------
Date & Time: 9/13/2017 3:17:51 PM
Coach Name: 
Validation Status: Exception
Source: Calendar Signup

Exception: Index was out of range. Must be non-negative and less than the size of the collection.
Parameter name: index
-----------------------------------------------------------

Time: 13/09/2017 03:30:19 PM
-----------------------------------------------------------
Date & Time: 9/13/2017 3:30:19 PM
Coach Name: 
Validation Status: Exception
Source: Calendar Signup

Exception: Index was out of range. Must be non-negative and less than the size of the collection.
Parameter name: index
-----------------------------------------------------------

Time: 13/09/2017 03:46:34 PM
-----------------------------------------------------------
Date & Time: 9/13/2017 3:46:34 PM
Coach Name: 
Validation Status: Exception
Source: Calendar Signup

Exception: Index was out of range. Must be non-negative and less than the size of the collection.
Parameter name: index
-----------------------------------------------------------

Time: 13/09/2017 03:50:06 PM
-----------------------------------------------------------
Date & Time: 9/13/2017 3:50:06 PM
Coach Name: 
Validation Status: Exception
Source: Calendar Signup

Exception: Index was out of range. Must be non-negative and less than the size of the collection.
Parameter name: index
-----------------------------------------------------------

Time: 13/09/2017 03:54:14 PM
-----------------------------------------------------------
Date & Time: 9/13/2017 3:54:14 PM
Coach Name: 
Validation Status: Exception
Source: Calendar Signup

Exception: Index was out of range. Must be non-negative and less than the size of the collection.
Parameter name: index
-----------------------------------------------------------

Time: 13/09/2017 03:55:02 PM
-----------------------------------------------------------
Date & Time: 9/13/2017 3:55:02 PM
Coach Name: 
Validation Status: Exception
Source: Calendar Signup

Exception: Index was out of range. Must be non-negative and less than the size of the collection.
Parameter name: index
-----------------------------------------------------------

Time: 13/09/2017 03:57:21 PM
-----------------------------------------------------------
Date & Time: 9/13/2017 3:57:21 PM
Coach Name: 
Validation Status: Exception
Source: Calendar Signup

Exception: Index was out of range. Must be non-negative and less than the size of the collection.
Parameter name: index
-----------------------------------------------------------

Time: 13/09/2017 04:00:07 PM
-----------------------------------------------------------
Date & Time: 9/13/2017 4:00:07 PM
Coach Name: 
Validation Status: Exception
Source: Calendar Signup

Exception: Index was out of range. Must be non-negative and less than the size of the collection.
Parameter name: index
-----------------------------------------------------------

Time: 13/09/2017 04:04:04 PM
-----------------------------------------------------------
Date & Time: 9/13/2017 4:04:04 PM
Coach Name: 
Validation Status: Exception
Source: Calendar Signup

Exception: Index was out of range. Must be non-negative and less than the size of the collection.
Parameter name: index
-----------------------------------------------------------

Time: 13/09/2017 04:05:17 PM
-----------------------------------------------------------
Date & Time: 9/13/2017 4:05:17 PM
Coach Name: 
Validation Status: Exception
Source: Calendar Signup

Exception: Index was out of range. Must be non-negative and less than the size of the collection.
Parameter name: index
-----------------------------------------------------------

Time: 13/09/2017 04:10:35 PM
-----------------------------------------------------------
Date & Time: 9/13/2017 4:10:35 PM
Coach Name: 
Validation Status: Exception
Source: Calendar Signup

Exception: Index was out of range. Must be non-negative and less than the size of the collection.
Parameter name: index
-----------------------------------------------------------

Time: 13/09/2017 04:10:53 PM
-----------------------------------------------------------
Date & Time: 9/13/2017 4:10:53 PM
Coach Name: 
Validation Status: Exception
Source: Calendar Signup

Exception: Index was out of range. Must be non-negative and less than the size of the collection.
Parameter name: index
-----------------------------------------------------------

Time: 13/09/2017 04:13:05 PM
-----------------------------------------------------------
Date & Time: 9/13/2017 4:13:05 PM
Coach Name: 
Validation Status: Exception
Source: Calendar Signup

Exception: Index was out of range. Must be non-negative and less than the size of the collection.
Parameter name: index
-----------------------------------------------------------

Time: 13/09/2017 04:13:21 PM
-----------------------------------------------------------
Date & Time: 9/13/2017 4:13:21 PM
Coach Name: 
Validation Status: Exception
Source: Calendar Signup

Exception: Index was out of range. Must be non-negative and less than the size of the collection.
Parameter name: index
-----------------------------------------------------------

Time: 13/09/2017 04:15:03 PM
-----------------------------------------------------------
Date & Time: 9/13/2017 4:15:03 PM
Coach Name: 
Validation Status: Exception
Source: Calendar Signup

Exception: Index was out of range. Must be non-negative and less than the size of the collection.
Parameter name: index
-----------------------------------------------------------

Time: 13/09/2017 04:20:09 PM
-----------------------------------------------------------
Date & Time: 9/13/2017 4:20:09 PM
Coach Name: 
Validation Status: Exception
Source: Calendar Signup

Exception: Index was out of range. Must be non-negative and less than the size of the collection.
Parameter name: index
-----------------------------------------------------------

Time: 13/09/2017 04:20:45 PM
-----------------------------------------------------------
Date & Time: 9/13/2017 4:20:45 PM
Coach Name: 
Validation Status: Exception
Source: Calendar Signup

Exception: Index was out of range. Must be non-negative and less than the size of the collection.
Parameter name: index
-----------------------------------------------------------

Time: 13/09/2017 05:31:45 PM
-----------------------------------------------------------
Date & Time: 9/13/2017 5:31:45 PM
Coach Name: 
Validation Status: Exception
Source: Calendar Signup

Exception: Index was out of range. Must be non-negative and less than the size of the collection.
Parameter name: index
-----------------------------------------------------------

Time: 13/09/2017 05:33:48 PM
-----------------------------------------------------------
Date & Time: 9/13/2017 5:33:48 PM
Coach Name: 
Validation Status: Exception
Source: Calendar Signup

Exception: Index was out of range. Must be non-negative and less than the size of the collection.
Parameter name: index
-----------------------------------------------------------

Time: 13/09/2017 05:41:58 PM
-----------------------------------------------------------
Date & Time: 9/13/2017 5:41:58 PM
Coach Name: 
Validation Status: Exception
Source: Calendar Signup

Exception: Index was out of range. Must be non-negative and less than the size of the collection.
Parameter name: index
-----------------------------------------------------------

Time: 13/09/2017 05:44:16 PM
-----------------------------------------------------------
Date & Time: 9/13/2017 5:44:16 PM
Coach Name: 
Validation Status: Exception
Source: Calendar Signup

Exception: Index was out of range. Must be non-negative and less than the size of the collection.
Parameter name: index
-----------------------------------------------------------

Time: 13/09/2017 05:46:33 PM
-----------------------------------------------------------
Date & Time: 9/13/2017 5:46:33 PM
Coach Name: 
Validation Status: Exception
Source: Calendar Signup

Exception: Index was out of range. Must be non-negative and less than the size of the collection.
Parameter name: index
-----------------------------------------------------------

