Time: 14/03/2017 10:07:46 AM
-----------------------------------------------------------
Date & Time: 3/14/2017 10:07:46 AM
Coach Name: Akshay Gowrishankar
Validation Status: Exception
Source: Coach Class Calendar

Exception: Index was out of range. Must be non-negative and less than the size of the collection.
Parameter name: index
-----------------------------------------------------------

Time: 14/03/2017 10:08:47 AM
-----------------------------------------------------------
Date & Time: 3/14/2017 10:08:47 AM
Coach Name: Akshay Gowrishankar
Validation Status: Exception
Source: Coach Class Calendar

Exception: Index was out of range. Must be non-negative and less than the size of the collection.
Parameter name: index
-----------------------------------------------------------

Time: 14/03/2017 10:09:58 AM
-----------------------------------------------------------
Date & Time: 3/14/2017 10:09:58 AM
Coach Name: Akshay Gowrishankar
Validation Status: Exception
Source: Coach Class Calendar

Exception: Index was out of range. Must be non-negative and less than the size of the collection.
Parameter name: index
-----------------------------------------------------------

Time: 14/03/2017 10:15:30 AM
-----------------------------------------------------------
Date & Time: 3/14/2017 10:15:30 AM
Coach Name: 
Validation Status: Exception
Source: Setup Zoom Sessions

Exception: 'ddlLevel' has a SelectedIndex which is invalid because it does not exist in the list of items.
Parameter name: value
-----------------------------------------------------------

Time: 14/03/2017 10:15:31 AM
-----------------------------------------------------------
Date & Time: 3/14/2017 10:15:31 AM
Coach Name: 
Validation Status: Exception
Source: Setup Zoom Sessions

Exception: 'ddlSessionNo' has a SelectedIndex which is invalid because it does not exist in the list of items.
Parameter name: value
-----------------------------------------------------------

Time: 14/03/2017 10:20:55 AM
-----------------------------------------------------------
Date & Time: 3/14/2017 10:20:55 AM
Coach Name: 
Validation Status: Exception
Source: Setup Zoom Sessions

Exception: 'ddlLevel' has a SelectedIndex which is invalid because it does not exist in the list of items.
Parameter name: value
-----------------------------------------------------------

Time: 14/03/2017 10:20:56 AM
-----------------------------------------------------------
Date & Time: 3/14/2017 10:20:56 AM
Coach Name: 
Validation Status: Exception
Source: Setup Zoom Sessions

Exception: 'ddlSessionNo' has a SelectedIndex which is invalid because it does not exist in the list of items.
Parameter name: value
-----------------------------------------------------------

Time: 14/03/2017 10:45:53 AM
-----------------------------------------------------------
Date & Time: 3/14/2017 10:45:53 AM
Coach Name: 
Validation Status: Exception
Source: Calendar Signup

Exception: Invalid column name 'training'.
-----------------------------------------------------------

Time: 14/03/2017 10:45:57 AM
-----------------------------------------------------------
Date & Time: 3/14/2017 10:45:57 AM
Coach Name: 
Validation Status: Exception
Source: Calendar Signup

Exception: Invalid column name 'training'.
-----------------------------------------------------------

Time: 14/03/2017 11:06:12 AM
-----------------------------------------------------------
Date & Time: 3/14/2017 11:06:12 AM
Coach Name: 
Validation Status: Exception
Source: Calendar Signup

Exception: The control collection cannot be modified during DataBind, Init, Load, PreRender or Unload phases.
-----------------------------------------------------------

Time: 14/03/2017 11:06:16 AM
-----------------------------------------------------------
Date & Time: 3/14/2017 11:06:16 AM
Coach Name: 
Validation Status: Exception
Source: Calendar Signup

Exception: The control collection cannot be modified during DataBind, Init, Load, PreRender or Unload phases.
-----------------------------------------------------------

Time: 14/03/2017 11:06:19 AM
-----------------------------------------------------------
Date & Time: 3/14/2017 11:06:19 AM
Coach Name: 
Validation Status: Exception
Source: Calendar Signup

Exception: Invalid column name 'training'.
-----------------------------------------------------------

Time: 14/03/2017 03:29:53 PM
-----------------------------------------------------------
Date & Time: 3/14/2017 3:29:53 PM
Coach Name: 
Validation Status: Exception
Source: Calendar Signup

Exception: Invalid column name 'training'.
-----------------------------------------------------------

Time: 14/03/2017 03:29:58 PM
-----------------------------------------------------------
Date & Time: 3/14/2017 3:29:58 PM
Coach Name: 
Validation Status: Exception
Source: Calendar Signup

Exception: Invalid column name 'training'.
-----------------------------------------------------------

Time: 14/03/2017 03:41:53 PM
-----------------------------------------------------------
Date & Time: 3/14/2017 3:41:53 PM
Coach Name: 
Validation Status: Exception
Source: Calendar Signup

Exception: Invalid column name 'training'.
-----------------------------------------------------------

Time: 14/03/2017 03:41:59 PM
-----------------------------------------------------------
Date & Time: 3/14/2017 3:41:59 PM
Coach Name: 
Validation Status: Exception
Source: Calendar Signup

Exception: Invalid column name 'training'.
-----------------------------------------------------------

Time: 14/03/2017 03:42:27 PM
-----------------------------------------------------------
Date & Time: 3/14/2017 3:42:27 PM
Coach Name: 
Validation Status: Exception
Source: Calendar Signup

Exception: The control collection cannot be modified during DataBind, Init, Load, PreRender or Unload phases.
-----------------------------------------------------------

Time: 14/03/2017 03:42:30 PM
-----------------------------------------------------------
Date & Time: 3/14/2017 3:42:30 PM
Coach Name: 
Validation Status: Exception
Source: Calendar Signup

Exception: The control collection cannot be modified during DataBind, Init, Load, PreRender or Unload phases.
-----------------------------------------------------------

Time: 14/03/2017 03:42:32 PM
-----------------------------------------------------------
Date & Time: 3/14/2017 3:42:32 PM
Coach Name: 
Validation Status: Exception
Source: Calendar Signup

Exception: Invalid column name 'training'.
-----------------------------------------------------------

Time: 14/03/2017 03:43:04 PM
-----------------------------------------------------------
Date & Time: 3/14/2017 3:43:04 PM
Coach Name: 
Validation Status: Exception
Source: Calendar Signup

Exception: The control collection cannot be modified during DataBind, Init, Load, PreRender or Unload phases.
-----------------------------------------------------------

Time: 14/03/2017 03:43:05 PM
-----------------------------------------------------------
Date & Time: 3/14/2017 3:43:05 PM
Coach Name: 
Validation Status: Exception
Source: Calendar Signup

Exception: The control collection cannot be modified during DataBind, Init, Load, PreRender or Unload phases.
-----------------------------------------------------------

Time: 14/03/2017 03:43:07 PM
-----------------------------------------------------------
Date & Time: 3/14/2017 3:43:07 PM
Coach Name: 
Validation Status: Exception
Source: Calendar Signup

Exception: Invalid column name 'training'.
-----------------------------------------------------------

Time: 14/03/2017 03:43:26 PM
-----------------------------------------------------------
Date & Time: 3/14/2017 3:43:26 PM
Coach Name: 
Validation Status: Exception
Source: Calendar Signup

Exception: The control collection cannot be modified during DataBind, Init, Load, PreRender or Unload phases.
-----------------------------------------------------------

Time: 14/03/2017 03:43:27 PM
-----------------------------------------------------------
Date & Time: 3/14/2017 3:43:27 PM
Coach Name: 
Validation Status: Exception
Source: Calendar Signup

Exception: The control collection cannot be modified during DataBind, Init, Load, PreRender or Unload phases.
-----------------------------------------------------------

Time: 14/03/2017 03:43:29 PM
-----------------------------------------------------------
Date & Time: 3/14/2017 3:43:29 PM
Coach Name: 
Validation Status: Exception
Source: Calendar Signup

Exception: Invalid column name 'training'.
-----------------------------------------------------------

Time: 14/03/2017 03:44:03 PM
-----------------------------------------------------------
Date & Time: 3/14/2017 3:44:03 PM
Coach Name: 
Validation Status: Exception
Source: Calendar Signup

Exception: The control collection cannot be modified during DataBind, Init, Load, PreRender or Unload phases.
-----------------------------------------------------------

Time: 14/03/2017 03:44:07 PM
-----------------------------------------------------------
Date & Time: 3/14/2017 3:44:07 PM
Coach Name: 
Validation Status: Exception
Source: Calendar Signup

Exception: The control collection cannot be modified during DataBind, Init, Load, PreRender or Unload phases.
-----------------------------------------------------------

Time: 14/03/2017 03:44:09 PM
-----------------------------------------------------------
Date & Time: 3/14/2017 3:44:09 PM
Coach Name: 
Validation Status: Exception
Source: Calendar Signup

Exception: Invalid column name 'training'.
-----------------------------------------------------------

Time: 14/03/2017 03:44:35 PM
-----------------------------------------------------------
Date & Time: 3/14/2017 3:44:35 PM
Coach Name: 
Validation Status: Exception
Source: Calendar Signup

Exception: Invalid column name 'training'.
-----------------------------------------------------------

Time: 14/03/2017 03:44:41 PM
-----------------------------------------------------------
Date & Time: 3/14/2017 3:44:41 PM
Coach Name: 
Validation Status: Exception
Source: Calendar Signup

Exception: Invalid column name 'training'.
-----------------------------------------------------------

Time: 14/03/2017 03:45:04 PM
-----------------------------------------------------------
Date & Time: 3/14/2017 3:45:04 PM
Coach Name: 
Validation Status: Exception
Source: Calendar Signup

Exception: The control collection cannot be modified during DataBind, Init, Load, PreRender or Unload phases.
-----------------------------------------------------------

Time: 14/03/2017 03:45:05 PM
-----------------------------------------------------------
Date & Time: 3/14/2017 3:45:05 PM
Coach Name: 
Validation Status: Exception
Source: Calendar Signup

Exception: The control collection cannot be modified during DataBind, Init, Load, PreRender or Unload phases.
-----------------------------------------------------------

Time: 14/03/2017 03:45:07 PM
-----------------------------------------------------------
Date & Time: 3/14/2017 3:45:07 PM
Coach Name: 
Validation Status: Exception
Source: Calendar Signup

Exception: Invalid column name 'training'.
-----------------------------------------------------------

Time: 14/03/2017 03:45:21 PM
-----------------------------------------------------------
Date & Time: 3/14/2017 3:45:21 PM
Coach Name: 
Validation Status: Exception
Source: Calendar Signup

Exception: The control collection cannot be modified during DataBind, Init, Load, PreRender or Unload phases.
-----------------------------------------------------------

Time: 14/03/2017 03:45:22 PM
-----------------------------------------------------------
Date & Time: 3/14/2017 3:45:22 PM
Coach Name: 
Validation Status: Exception
Source: Calendar Signup

Exception: The control collection cannot be modified during DataBind, Init, Load, PreRender or Unload phases.
-----------------------------------------------------------

Time: 14/03/2017 03:45:24 PM
-----------------------------------------------------------
Date & Time: 3/14/2017 3:45:24 PM
Coach Name: 
Validation Status: Exception
Source: Calendar Signup

Exception: Invalid column name 'training'.
-----------------------------------------------------------

Time: 14/03/2017 03:45:58 PM
-----------------------------------------------------------
Date & Time: 3/14/2017 3:45:58 PM
Coach Name: 
Validation Status: Exception
Source: Calendar Signup

Exception: Invalid column name 'training'.
-----------------------------------------------------------

Time: 14/03/2017 03:46:01 PM
-----------------------------------------------------------
Date & Time: 3/14/2017 3:46:01 PM
Coach Name: 
Validation Status: Exception
Source: Calendar Signup

Exception: Invalid column name 'training'.
-----------------------------------------------------------

Time: 14/03/2017 04:04:43 PM
-----------------------------------------------------------
Date & Time: 3/14/2017 4:04:43 PM
Coach Name: 
Validation Status: Exception
Source: Calendar Signup

Exception: Invalid column name 'training'.
-----------------------------------------------------------

Time: 14/03/2017 04:04:47 PM
-----------------------------------------------------------
Date & Time: 3/14/2017 4:04:47 PM
Coach Name: 
Validation Status: Exception
Source: Calendar Signup

Exception: Invalid column name 'training'.
-----------------------------------------------------------

Time: 14/03/2017 04:04:53 PM
-----------------------------------------------------------
Date & Time: 3/14/2017 4:04:53 PM
Coach Name: 
Validation Status: Exception
Source: Calendar Signup

Exception: Invalid column name 'training'.
-----------------------------------------------------------

Time: 14/03/2017 04:05:41 PM
-----------------------------------------------------------
Date & Time: 3/14/2017 4:05:41 PM
Coach Name: 
Validation Status: Exception
Source: Calendar Signup

Exception: Invalid column name 'training'.
-----------------------------------------------------------

Time: 14/03/2017 04:05:44 PM
-----------------------------------------------------------
Date & Time: 3/14/2017 4:05:44 PM
Coach Name: 
Validation Status: Exception
Source: Calendar Signup

Exception: Invalid column name 'training'.
-----------------------------------------------------------

