Time: 27/11/2017 05:54:32 PM
-----------------------------------------------------------
Date & Time: 11/27/2017 5:54:32 PM
Coach Name: 
Validation Status: Exception
Source: Calendar Signup

Exception: Incorrect syntax near 'nullorder'.
-----------------------------------------------------------

Time: 27/11/2017 05:59:43 PM
-----------------------------------------------------------
Date & Time: 11/27/2017 5:59:43 PM
Coach Name: 
Validation Status: Exception
Source: Calendar Signup

Exception: Incorrect syntax near 'nullorder'.
-----------------------------------------------------------

