Time: 01/03/2017 12:24:16 PM
-----------------------------------------------------------
Date & Time: 3/1/2017 12:24:16 PM
Coach Name: 
Validation Status: Exception
Source: Calendar Signup

Exception: Invalid column name 'training'.
-----------------------------------------------------------

Time: 01/03/2017 02:55:14 PM
-----------------------------------------------------------
Date & Time: 3/1/2017 2:55:14 PM
Coach Name: 
Validation Status: Exception
Source: Calendar Signup

Exception: Invalid column name 'training'.
-----------------------------------------------------------

