Time: 15/12/2017 04:22:07 PM
-----------------------------------------------------------
Date & Time: 12/15/2017 4:22:07 PM
Coach Name: 
Validation Status: Exception
Source: Calendar Signup

Exception: Ambiguous column name 'ProductGroupID'.
Ambiguous column name 'ProductID'.
-----------------------------------------------------------

Time: 15/12/2017 04:25:45 PM
-----------------------------------------------------------
Date & Time: 12/15/2017 4:25:45 PM
Coach Name: 
Validation Status: Exception
Source: Calendar Signup

Exception: Ambiguous column name 'ProductGroupID'.
Ambiguous column name 'ProductID'.
-----------------------------------------------------------

Time: 15/12/2017 06:41:03 PM
-----------------------------------------------------------
Date & Time: 12/15/2017 6:41:03 PM
Coach Name: 
Validation Status: Exception
Source: Calendar Signup

Exception: Ambiguous column name 'Semester'.
-----------------------------------------------------------

Time: 15/12/2017 06:41:04 PM
-----------------------------------------------------------
Date & Time: 12/15/2017 6:41:04 PM
Coach Name: 
Validation Status: Exception
Source: Calendar Signup

Exception: Ambiguous column name 'Semester'.
-----------------------------------------------------------

Time: 15/12/2017 06:43:05 PM
-----------------------------------------------------------
Date & Time: 12/15/2017 6:43:05 PM
Coach Name: 
Validation Status: Exception
Source: Calendar Signup

Exception: An expression of non-boolean type specified in a context where a condition is expected, near ')'.
Incorrect syntax near the keyword 'and'.
-----------------------------------------------------------

Time: 15/12/2017 06:43:08 PM
-----------------------------------------------------------
Date & Time: 12/15/2017 6:43:08 PM
Coach Name: 
Validation Status: Exception
Source: Calendar Signup

Exception: Incorrect syntax near the keyword 'Select'.
-----------------------------------------------------------

Time: 15/12/2017 06:43:09 PM
-----------------------------------------------------------
Date & Time: 12/15/2017 6:43:09 PM
Coach Name: 
Validation Status: Exception
Source: Calendar Signup

Exception: Incorrect syntax near the keyword 'Select'.
-----------------------------------------------------------

Time: 15/12/2017 06:44:47 PM
-----------------------------------------------------------
Date & Time: 12/15/2017 6:44:47 PM
Coach Name: 
Validation Status: Exception
Source: Calendar Signup

Exception: An expression of non-boolean type specified in a context where a condition is expected, near ')'.
Incorrect syntax near the keyword 'and'.
-----------------------------------------------------------

Time: 15/12/2017 06:44:50 PM
-----------------------------------------------------------
Date & Time: 12/15/2017 6:44:50 PM
Coach Name: 
Validation Status: Exception
Source: Calendar Signup

Exception: Incorrect syntax near the keyword 'Select'.
-----------------------------------------------------------

Time: 15/12/2017 06:44:51 PM
-----------------------------------------------------------
Date & Time: 12/15/2017 6:44:51 PM
Coach Name: 
Validation Status: Exception
Source: Calendar Signup

Exception: Incorrect syntax near the keyword 'Select'.
-----------------------------------------------------------

Time: 15/12/2017 06:46:16 PM
-----------------------------------------------------------
Date & Time: 12/15/2017 6:46:16 PM
Coach Name: 
Validation Status: Exception
Source: Calendar Signup

Exception: An expression of non-boolean type specified in a context where a condition is expected, near ')'.
Incorrect syntax near the keyword 'and'.
-----------------------------------------------------------

Time: 15/12/2017 06:46:18 PM
-----------------------------------------------------------
Date & Time: 12/15/2017 6:46:18 PM
Coach Name: 
Validation Status: Exception
Source: Calendar Signup

Exception: Incorrect syntax near the keyword 'Select'.
-----------------------------------------------------------

Time: 15/12/2017 06:46:19 PM
-----------------------------------------------------------
Date & Time: 12/15/2017 6:46:19 PM
Coach Name: 
Validation Status: Exception
Source: Calendar Signup

Exception: Incorrect syntax near the keyword 'Select'.
-----------------------------------------------------------

Time: 15/12/2017 06:47:40 PM
-----------------------------------------------------------
Date & Time: 12/15/2017 6:47:40 PM
Coach Name: 
Validation Status: Exception
Source: Calendar Signup

Exception: Ambiguous column name 'Semester'.
-----------------------------------------------------------

Time: 15/12/2017 06:47:42 PM
-----------------------------------------------------------
Date & Time: 12/15/2017 6:47:42 PM
Coach Name: 
Validation Status: Exception
Source: Calendar Signup

Exception: Ambiguous column name 'Semester'.
-----------------------------------------------------------

