Time: 26/12/2016 01:03:27 PM
-----------------------------------------------------------
Date & Time: 12/26/2016 1:03:27 PM
Coach Name: 
Validation Status: Exception
Source: Calendar Signup

Exception: String was not recognized as a valid DateTime.
-----------------------------------------------------------

Time: 26/12/2016 01:11:41 PM
-----------------------------------------------------------
Date & Time: 12/26/2016 1:11:41 PM
Coach Name: 
Validation Status: Exception
Source: Calendar Signup

Exception: String was not recognized as a valid DateTime.
-----------------------------------------------------------

Time: 26/12/2016 02:03:39 PM
-----------------------------------------------------------
Date & Time: 12/26/2016 2:03:39 PM
Coach Name: 
Validation Status: Exception
Source: Calendar Signup

Exception: String was not recognized as a valid DateTime.
-----------------------------------------------------------

Time: 26/12/2016 02:11:21 PM
-----------------------------------------------------------
Date & Time: 12/26/2016 2:11:21 PM
Coach Name: 
Validation Status: Exception
Source: Calendar Signup

Exception: String was not recognized as a valid DateTime.
-----------------------------------------------------------

Time: 26/12/2016 02:13:36 PM
-----------------------------------------------------------
Date & Time: 12/26/2016 2:13:36 PM
Coach Name: 
Validation Status: Exception
Source: Calendar Signup

Exception: String was not recognized as a valid DateTime.
-----------------------------------------------------------

Time: 26/12/2016 02:17:21 PM
-----------------------------------------------------------
Date & Time: 12/26/2016 2:17:21 PM
Coach Name: 
Validation Status: Exception
Source: Calendar Signup

Exception: String was not recognized as a valid DateTime.
-----------------------------------------------------------

Time: 26/12/2016 02:22:21 PM
-----------------------------------------------------------
Date & Time: 12/26/2016 2:22:21 PM
Coach Name: 
Validation Status: Exception
Source: Calendar Signup

Exception: String was not recognized as a valid DateTime.
-----------------------------------------------------------

Time: 26/12/2016 02:26:35 PM
-----------------------------------------------------------
Date & Time: 12/26/2016 2:26:35 PM
Coach Name: 
Validation Status: Exception
Source: Calendar Signup

Exception: String was not recognized as a valid DateTime.
-----------------------------------------------------------

Time: 26/12/2016 02:32:13 PM
-----------------------------------------------------------
Date & Time: 12/26/2016 2:32:13 PM
Coach Name: 
Validation Status: Exception
Source: Calendar Signup

Exception: String was not recognized as a valid DateTime.
-----------------------------------------------------------

Time: 26/12/2016 02:34:39 PM
-----------------------------------------------------------
Date & Time: 12/26/2016 2:34:39 PM
Coach Name: 
Validation Status: Exception
Source: Calendar Signup

Exception: String was not recognized as a valid DateTime.
-----------------------------------------------------------

Time: 26/12/2016 02:37:58 PM
-----------------------------------------------------------
Date & Time: 12/26/2016 2:37:58 PM
Coach Name: 
Validation Status: Exception
Source: Calendar Signup

Exception: String was not recognized as a valid DateTime.
-----------------------------------------------------------

Time: 26/12/2016 02:42:14 PM
-----------------------------------------------------------
Date & Time: 12/26/2016 2:42:14 PM
Coach Name: 
Validation Status: Exception
Source: Calendar Signup

Exception: String was not recognized as a valid DateTime.
-----------------------------------------------------------

Time: 26/12/2016 02:43:21 PM
-----------------------------------------------------------
Date & Time: 12/26/2016 2:43:21 PM
Coach Name: 
Validation Status: Exception
Source: Calendar Signup

Exception: String was not recognized as a valid DateTime.
-----------------------------------------------------------

Time: 26/12/2016 02:45:52 PM
-----------------------------------------------------------
Date & Time: 12/26/2016 2:45:52 PM
Coach Name: 
Validation Status: Exception
Source: Calendar Signup

Exception: String was not recognized as a valid DateTime.
-----------------------------------------------------------

Time: 26/12/2016 02:53:02 PM
-----------------------------------------------------------
Date & Time: 12/26/2016 2:53:02 PM
Coach Name: 
Validation Status: Exception
Source: Calendar Signup

Exception: String was not recognized as a valid DateTime.
-----------------------------------------------------------

Time: 26/12/2016 02:55:18 PM
-----------------------------------------------------------
Date & Time: 12/26/2016 2:55:18 PM
Coach Name: 
Validation Status: Exception
Source: Calendar Signup

Exception: String was not recognized as a valid DateTime.
-----------------------------------------------------------

Time: 26/12/2016 03:06:37 PM
-----------------------------------------------------------
Date & Time: 12/26/2016 3:06:37 PM
Coach Name: 
Validation Status: Exception
Source: Calendar Signup

Exception: String was not recognized as a valid DateTime.
-----------------------------------------------------------

Time: 26/12/2016 03:09:00 PM
-----------------------------------------------------------
Date & Time: 12/26/2016 3:09:00 PM
Coach Name: 
Validation Status: Exception
Source: Calendar Signup

Exception: String was not recognized as a valid DateTime.
-----------------------------------------------------------

Time: 26/12/2016 03:10:36 PM
-----------------------------------------------------------
Date & Time: 12/26/2016 3:10:36 PM
Coach Name: 
Validation Status: Exception
Source: Calendar Signup

Exception: String was not recognized as a valid DateTime.
-----------------------------------------------------------

Time: 26/12/2016 03:12:47 PM
-----------------------------------------------------------
Date & Time: 12/26/2016 3:12:47 PM
Coach Name: 
Validation Status: Exception
Source: Calendar Signup

Exception: String was not recognized as a valid DateTime.
-----------------------------------------------------------

Time: 26/12/2016 03:17:31 PM
-----------------------------------------------------------
Date & Time: 12/26/2016 3:17:31 PM
Coach Name: 
Validation Status: Exception
Source: Calendar Signup

Exception: String was not recognized as a valid DateTime.
-----------------------------------------------------------

Time: 26/12/2016 04:55:31 PM
-----------------------------------------------------------
Date & Time: 12/26/2016 4:55:31 PM
Coach Name: 
Validation Status: Exception
Source: Calendar Signup

Exception: String was not recognized as a valid DateTime.
-----------------------------------------------------------

