Time: 12/10/2017 12:55:08 PM
-----------------------------------------------------------
Date & Time: 10/12/2017 12:55:08 PM
Coach Name: ChildName: 0
Validation Status: Exception
Source: Coaching Status

Exception: Failed to convert parameter value from a String to a Int32.
-----------------------------------------------------------

Time: 12/10/2017 12:56:09 PM
-----------------------------------------------------------
Date & Time: 10/12/2017 12:56:09 PM
Coach Name: ChildName: 0
Validation Status: Exception
Source: Coaching Status

Exception: Failed to convert parameter value from a String to a Int32.
-----------------------------------------------------------

Time: 12/10/2017 12:57:43 PM
-----------------------------------------------------------
Date & Time: 10/12/2017 12:57:43 PM
Coach Name: ChildName: 0
Validation Status: Exception
Source: Coaching Status

Exception: Failed to convert parameter value from a String to a Int32.
-----------------------------------------------------------

Time: 12/10/2017 01:38:56 PM
-----------------------------------------------------------
Date & Time: 10/12/2017 1:38:56 PM
Coach Name: ChildName: 0
Validation Status: Exception
Source: Coaching Status

Exception: Failed to convert parameter value from a String to a Int32.
-----------------------------------------------------------

Time: 12/10/2017 01:39:26 PM
-----------------------------------------------------------
Date & Time: 10/12/2017 1:39:26 PM
Coach Name: 
Validation Status: Exception
Source: Coaching Status

Exception: Invalid column name 'Capacity'.
Invalid column name 'ProductGroupCode'.
Invalid column name 'ProductGroupCode'.
Invalid column name 'ProductGroupCode'.
Invalid column name 'ProductGroupCode'.
Invalid column name 'ProductGroupCode'.
Invalid column name 'ProductGroupCode'.
-----------------------------------------------------------

Time: 12/10/2017 01:43:13 PM
-----------------------------------------------------------
Date & Time: 10/12/2017 1:43:13 PM
Coach Name: ChildName: 0
Validation Status: Exception
Source: Coaching Status

Exception: Failed to convert parameter value from a String to a Int32.
-----------------------------------------------------------

Time: 12/10/2017 01:43:38 PM
-----------------------------------------------------------
Date & Time: 10/12/2017 1:43:38 PM
Coach Name: 
Validation Status: Exception
Source: Coaching Status

Exception: Invalid column name 'Capacity'.
-----------------------------------------------------------

Time: 12/10/2017 01:43:44 PM
-----------------------------------------------------------
Date & Time: 10/12/2017 1:43:44 PM
Coach Name: ChildName: 0
Validation Status: Exception
Source: Coaching Status

Exception: Failed to convert parameter value from a String to a Int32.
-----------------------------------------------------------

Time: 12/10/2017 01:44:44 PM
-----------------------------------------------------------
Date & Time: 10/12/2017 1:44:44 PM
Coach Name: ChildName: 0
Validation Status: Exception
Source: Coaching Status

Exception: Failed to convert parameter value from a String to a Int32.
-----------------------------------------------------------

Time: 12/10/2017 01:44:53 PM
-----------------------------------------------------------
Date & Time: 10/12/2017 1:44:53 PM
Coach Name: 
Validation Status: Exception
Source: Coaching Status

Exception: A field or property with the name 'CoachRegID' was not found on the selected data source.
-----------------------------------------------------------

Time: 12/10/2017 02:32:48 PM
-----------------------------------------------------------
Date & Time: 10/12/2017 2:32:48 PM
Coach Name: ChildName: 0
Validation Status: Exception
Source: Coaching Status

Exception: Failed to convert parameter value from a String to a Int32.
-----------------------------------------------------------

Time: 12/10/2017 02:32:52 PM
-----------------------------------------------------------
Date & Time: 10/12/2017 2:32:52 PM
Coach Name: 
Validation Status: Exception
Source: Coaching Status

Exception: A field or property with the name 'CoachRegID' was not found on the selected data source.
-----------------------------------------------------------

Time: 12/10/2017 02:33:11 PM
-----------------------------------------------------------
Date & Time: 10/12/2017 2:33:11 PM
Coach Name: ChildName: 0
Validation Status: Exception
Source: Coaching Status

Exception: Failed to convert parameter value from a String to a Int32.
-----------------------------------------------------------

Time: 12/10/2017 02:33:24 PM
-----------------------------------------------------------
Date & Time: 10/12/2017 2:33:24 PM
Coach Name: 
Validation Status: Exception
Source: Coaching Status

Exception: A field or property with the name 'CoachRegID' was not found on the selected data source.
-----------------------------------------------------------

Time: 12/10/2017 02:33:52 PM
-----------------------------------------------------------
Date & Time: 10/12/2017 2:33:52 PM
Coach Name: ChildName: 0
Validation Status: Exception
Source: Coaching Status

Exception: Failed to convert parameter value from a String to a Int32.
-----------------------------------------------------------

Time: 12/10/2017 02:34:02 PM
-----------------------------------------------------------
Date & Time: 10/12/2017 2:34:02 PM
Coach Name: 
Validation Status: Exception
Source: Coaching Status

Exception: DataBinding: 'System.Data.Common.DataRecordInternal' does not contain a property with the name 'ProductName'.
-----------------------------------------------------------

Time: 12/10/2017 02:34:26 PM
-----------------------------------------------------------
Date & Time: 10/12/2017 2:34:26 PM
Coach Name: ChildName: 0
Validation Status: Exception
Source: Coaching Status

Exception: Failed to convert parameter value from a String to a Int32.
-----------------------------------------------------------

Time: 12/10/2017 02:34:34 PM
-----------------------------------------------------------
Date & Time: 10/12/2017 2:34:34 PM
Coach Name: 
Validation Status: Exception
Source: Coaching Status

Exception: DataBinding: 'System.Data.Common.DataRecordInternal' does not contain a property with the name 'SessionKey'.
-----------------------------------------------------------

Time: 12/10/2017 02:35:02 PM
-----------------------------------------------------------
Date & Time: 10/12/2017 2:35:02 PM
Coach Name: ChildName: 0
Validation Status: Exception
Source: Coaching Status

Exception: Failed to convert parameter value from a String to a Int32.
-----------------------------------------------------------

Time: 12/10/2017 02:37:59 PM
-----------------------------------------------------------
Date & Time: 10/12/2017 2:37:59 PM
Coach Name: ChildName: 0
Validation Status: Exception
Source: Coaching Status

Exception: Failed to convert parameter value from a String to a Int32.
-----------------------------------------------------------

Time: 12/10/2017 02:41:23 PM
-----------------------------------------------------------
Date & Time: 10/12/2017 2:41:23 PM
Coach Name: ChildName: 0
Validation Status: Exception
Source: Coaching Status

Exception: Failed to convert parameter value from a String to a Int32.
-----------------------------------------------------------

Time: 12/10/2017 02:41:45 PM
-----------------------------------------------------------
Date & Time: 10/12/2017 2:41:45 PM
Coach Name: ChildName:Anjali Mettai
Validation Status: Exception
Source: Coaching Status

Exception: Object reference not set to an instance of an object.
-----------------------------------------------------------

Time: 12/10/2017 02:42:21 PM
-----------------------------------------------------------
Date & Time: 10/12/2017 2:42:21 PM
Coach Name: ChildName: 0
Validation Status: Exception
Source: Coaching Status

Exception: Failed to convert parameter value from a String to a Int32.
-----------------------------------------------------------

Time: 12/10/2017 02:42:51 PM
-----------------------------------------------------------
Date & Time: 10/12/2017 2:42:51 PM
Coach Name: ChildName: Anjali Mettai
Validation Status: Failure
Source: Coaching Status

Exception: 
-----------------------------------------------------------

Time: 12/10/2017 03:17:00 PM
-----------------------------------------------------------
Date & Time: 10/12/2017 3:17:00 PM
Coach Name: ChildName: 0
Validation Status: Exception
Source: Coaching Status

Exception: Failed to convert parameter value from a String to a Int32.
-----------------------------------------------------------

Time: 12/10/2017 03:17:33 PM
-----------------------------------------------------------
Date & Time: 10/12/2017 3:17:33 PM
Coach Name: ChildName: Akshita Balaji
Validation Status: Failure
Source: Coaching Status

Exception: 
-----------------------------------------------------------

Time: 12/10/2017 03:18:21 PM
-----------------------------------------------------------
Date & Time: 10/12/2017 3:18:21 PM
Coach Name: ChildName: 0
Validation Status: Exception
Source: Coaching Status

Exception: Failed to convert parameter value from a String to a Int32.
-----------------------------------------------------------

Time: 12/10/2017 03:18:37 PM
-----------------------------------------------------------
Date & Time: 10/12/2017 3:18:37 PM
Coach Name: ChildName: Akshita Balaji
Validation Status: Failure
Source: Coaching Status

Exception: 
-----------------------------------------------------------

