Time: 12-06-2018 11:26:36 AM
-----------------------------------------------------------
Date & Time: 12-06-2018 11:26:36
Coach Name: 
Validation Status: Exception
Source: Change Coaching

Exception: Value cannot be null.
Parameter name: commandText
-----------------------------------------------------------

Time: 12-06-2018 12:12:48 PM
-----------------------------------------------------------
Date & Time: 12-06-2018 12:12:48
Coach Name: 
Validation Status: Exception
Source: Change Coaching

Exception: Value cannot be null.
Parameter name: commandText
-----------------------------------------------------------

Time: 12-06-2018 12:19:11 PM
-----------------------------------------------------------
Date & Time: 12-06-2018 12:19:11
Coach Name: 
Validation Status: Exception
Source: Change Coaching

Exception: Value cannot be null.
Parameter name: commandText
-----------------------------------------------------------

Time: 12-06-2018 06:16:48 PM
-----------------------------------------------------------
Date & Time: 12-06-2018 18:16:48
Coach Name: 
Validation Status: Exception
Source: Bulk Change Coaching

Exception: Incorrect syntax near the keyword 'distinct'.
-----------------------------------------------------------

Time: 12-06-2018 06:18:32 PM
-----------------------------------------------------------
Date & Time: 12-06-2018 18:18:32
Coach Name: 
Validation Status: Exception
Source: Bulk Change Coaching

Exception: Incorrect syntax near the keyword 'as'.
-----------------------------------------------------------

