Time: 27-06-2018 10:37:46 AM
-----------------------------------------------------------
Date & Time: 27-06-2018 10:37:46
Coach Name: 
Validation Status: Exception
Source: Free Event Registration

Exception: Input string was not in a correct format.
-----------------------------------------------------------

Time: 27-06-2018 11:45:18 AM
-----------------------------------------------------------
Date & Time: 27-06-2018 11:45:18
Coach Name: 
Validation Status: Exception
Source: Free Event Registration

Exception: Input string was not in a correct format.
-----------------------------------------------------------

Time: 27-06-2018 11:46:07 AM
-----------------------------------------------------------
Date & Time: 27-06-2018 11:46:07
Coach Name: 
Validation Status: Exception
Source: Free Event Registration

Exception: Input string was not in a correct format.
-----------------------------------------------------------

Time: 27-06-2018 11:46:07 AM
-----------------------------------------------------------
Date & Time: 27-06-2018 11:46:07
Coach Name: 
Validation Status: Exception
Source: Free Event Registration

Exception: Input string was not in a correct format.
-----------------------------------------------------------

Time: 27-06-2018 11:47:07 AM
-----------------------------------------------------------
Date & Time: 27-06-2018 11:47:07
Coach Name: 
Validation Status: Exception
Source: Free Event Registration

Exception: Input string was not in a correct format.
-----------------------------------------------------------

Time: 27-06-2018 11:48:11 AM
-----------------------------------------------------------
Date & Time: 27-06-2018 11:48:11
Coach Name: 
Validation Status: Exception
Source: Free Event Registration

Exception: Input string was not in a correct format.
-----------------------------------------------------------

Time: 27-06-2018 11:52:18 AM
-----------------------------------------------------------
Date & Time: 27-06-2018 11:52:18
Coach Name: 
Validation Status: Exception
Source: Free Event Registration

Exception: Input string was not in a correct format.
-----------------------------------------------------------

Time: 27-06-2018 11:56:03 AM
-----------------------------------------------------------
Date & Time: 27-06-2018 11:56:03
Coach Name: 
Validation Status: Exception
Source: Free Event Registration

Exception: Input string was not in a correct format.
-----------------------------------------------------------

Time: 27-06-2018 11:56:43 AM
-----------------------------------------------------------
Date & Time: 27-06-2018 11:56:43
Coach Name: 
Validation Status: Exception
Source: Free Event Registration

Exception: Input string was not in a correct format.
-----------------------------------------------------------

Time: 27-06-2018 11:57:12 AM
-----------------------------------------------------------
Date & Time: 27-06-2018 11:57:12
Coach Name: 
Validation Status: Exception
Source: Free Event Registration

Exception: Input string was not in a correct format.
-----------------------------------------------------------

Time: 27-06-2018 12:02:22 PM
-----------------------------------------------------------
Date & Time: 27-06-2018 12:02:22
Coach Name: 
Validation Status: Exception
Source: Free Event Registration

Exception: Input string was not in a correct format.
-----------------------------------------------------------

Time: 27-06-2018 12:03:02 PM
-----------------------------------------------------------
Date & Time: 27-06-2018 12:03:02
Coach Name: 
Validation Status: Exception
Source: Free Event Registration

Exception: Input string was not in a correct format.
-----------------------------------------------------------

Time: 27-06-2018 12:04:17 PM
-----------------------------------------------------------
Date & Time: 27-06-2018 12:04:17
Coach Name: 
Validation Status: Exception
Source: Free Event Registration

Exception: Input string was not in a correct format.
-----------------------------------------------------------

Time: 27-06-2018 12:04:53 PM
-----------------------------------------------------------
Date & Time: 27-06-2018 12:04:53
Coach Name: 
Validation Status: Exception
Source: Free Event Registration

Exception: Input string was not in a correct format.
-----------------------------------------------------------

Time: 27-06-2018 12:06:27 PM
-----------------------------------------------------------
Date & Time: 27-06-2018 12:06:27
Coach Name: 
Validation Status: Exception
Source: Free Event Registration

Exception: Input string was not in a correct format.
-----------------------------------------------------------

Time: 27-06-2018 12:39:17 PM
-----------------------------------------------------------
Date & Time: 27-06-2018 12:39:17
Coach Name: 
Validation Status: Exception
Source: Free Event Registration

Exception: Input string was not in a correct format.
-----------------------------------------------------------

Time: 27-06-2018 12:43:11 PM
-----------------------------------------------------------
Date & Time: 27-06-2018 12:43:11
Coach Name: 
Validation Status: Exception
Source: Free Event Registration

Exception: Input string was not in a correct format.
-----------------------------------------------------------

Time: 27-06-2018 12:43:57 PM
-----------------------------------------------------------
Date & Time: 27-06-2018 12:43:57
Coach Name: 
Validation Status: Exception
Source: Free Event Registration

Exception: Input string was not in a correct format.
-----------------------------------------------------------

Time: 27-06-2018 12:46:41 PM
-----------------------------------------------------------
Date & Time: 27-06-2018 12:46:41
Coach Name: 
Validation Status: Exception
Source: Free Event Registration

Exception: Input string was not in a correct format.
-----------------------------------------------------------

Time: 27-06-2018 12:52:56 PM
-----------------------------------------------------------
Date & Time: 27-06-2018 12:52:56
Coach Name: 
Validation Status: Exception
Source: Free Event Registration

Exception: Input string was not in a correct format.
-----------------------------------------------------------

Time: 27-06-2018 12:53:36 PM
-----------------------------------------------------------
Date & Time: 27-06-2018 12:53:36
Coach Name: 
Validation Status: Exception
Source: Free Event Registration

Exception: Input string was not in a correct format.
-----------------------------------------------------------

Time: 27-06-2018 12:54:16 PM
-----------------------------------------------------------
Date & Time: 27-06-2018 12:54:16
Coach Name: 
Validation Status: Exception
Source: Free Event Registration

Exception: Input string was not in a correct format.
-----------------------------------------------------------

Time: 27-06-2018 12:59:44 PM
-----------------------------------------------------------
Date & Time: 27-06-2018 12:59:44
Coach Name: 
Validation Status: Exception
Source: Free Event Registration

Exception: Input string was not in a correct format.
-----------------------------------------------------------

Time: 27-06-2018 01:00:36 PM
-----------------------------------------------------------
Date & Time: 27-06-2018 13:00:36
Coach Name: 
Validation Status: Exception
Source: Free Event Registration

Exception: Input string was not in a correct format.
-----------------------------------------------------------

Time: 27-06-2018 01:01:23 PM
-----------------------------------------------------------
Date & Time: 27-06-2018 13:01:23
Coach Name: 
Validation Status: Exception
Source: Free Event Registration

Exception: Input string was not in a correct format.
-----------------------------------------------------------

Time: 27-06-2018 01:02:20 PM
-----------------------------------------------------------
Date & Time: 27-06-2018 13:02:20
Coach Name: 
Validation Status: Exception
Source: Free Event Registration

Exception: Input string was not in a correct format.
-----------------------------------------------------------

Time: 27-06-2018 01:03:16 PM
-----------------------------------------------------------
Date & Time: 27-06-2018 13:03:16
Coach Name: 
Validation Status: Exception
Source: Free Event Registration

Exception: Input string was not in a correct format.
-----------------------------------------------------------

Time: 27-06-2018 01:06:49 PM
-----------------------------------------------------------
Date & Time: 27-06-2018 13:06:49
Coach Name: 
Validation Status: Exception
Source: Free Event Registration

Exception: Input string was not in a correct format.
-----------------------------------------------------------

Time: 27-06-2018 01:07:23 PM
-----------------------------------------------------------
Date & Time: 27-06-2018 13:07:23
Coach Name: 
Validation Status: Exception
Source: Free Event Registration

Exception: Input string was not in a correct format.
-----------------------------------------------------------

Time: 27-06-2018 01:10:10 PM
-----------------------------------------------------------
Date & Time: 27-06-2018 13:10:10
Coach Name: 
Validation Status: Exception
Source: Free Event Registration

Exception: Input string was not in a correct format.
-----------------------------------------------------------

Time: 27-06-2018 01:10:19 PM
-----------------------------------------------------------
Date & Time: 27-06-2018 13:10:19
Coach Name: 
Validation Status: Exception
Source: Free Event Registration

Exception: Input string was not in a correct format.
-----------------------------------------------------------

Time: 27-06-2018 01:11:19 PM
-----------------------------------------------------------
Date & Time: 27-06-2018 13:11:19
Coach Name: 
Validation Status: Exception
Source: Free Event Registration

Exception: Input string was not in a correct format.
-----------------------------------------------------------

Time: 27-06-2018 01:12:30 PM
-----------------------------------------------------------
Date & Time: 27-06-2018 13:12:30
Coach Name: 
Validation Status: Exception
Source: Free Event Registration

Exception: Input string was not in a correct format.
-----------------------------------------------------------

Time: 27-06-2018 01:12:47 PM
-----------------------------------------------------------
Date & Time: 27-06-2018 13:12:47
Coach Name: 
Validation Status: Exception
Source: Free Event Registration

Exception: Input string was not in a correct format.
-----------------------------------------------------------

Time: 27-06-2018 02:21:42 PM
-----------------------------------------------------------
Date & Time: 27-06-2018 14:21:42
Coach Name: 
Validation Status: Exception
Source: Free Event Registration

Exception: Input string was not in a correct format.
-----------------------------------------------------------

Time: 27-06-2018 02:29:53 PM
-----------------------------------------------------------
Date & Time: 27-06-2018 14:29:53
Coach Name: 
Validation Status: Exception
Source: Free Event Registration

Exception: Input string was not in a correct format.
-----------------------------------------------------------

Time: 27-06-2018 02:32:43 PM
-----------------------------------------------------------
Date & Time: 27-06-2018 14:32:43
Coach Name: 
Validation Status: Exception
Source: Free Event Registration

Exception: Input string was not in a correct format.
-----------------------------------------------------------

Time: 27-06-2018 02:47:10 PM
-----------------------------------------------------------
Date & Time: 27-06-2018 14:47:10
Coach Name: 
Validation Status: Exception
Source: Free Event Registration

Exception: Input string was not in a correct format.
-----------------------------------------------------------

Time: 27-06-2018 03:09:39 PM
-----------------------------------------------------------
Date & Time: 27-06-2018 15:09:39
Coach Name: 
Validation Status: Exception
Source: Free Event Registration

Exception: Input string was not in a correct format.
-----------------------------------------------------------

Time: 27-06-2018 03:21:41 PM
-----------------------------------------------------------
Date & Time: 27-06-2018 15:21:41
Coach Name: 
Validation Status: Exception
Source: Free Event Registration

Exception: Input string was not in a correct format.
-----------------------------------------------------------

Time: 27-06-2018 03:24:18 PM
-----------------------------------------------------------
Date & Time: 27-06-2018 15:24:18
Coach Name: 
Validation Status: Exception
Source: Free Event Registration

Exception: Input string was not in a correct format.
-----------------------------------------------------------

Time: 27-06-2018 03:29:47 PM
-----------------------------------------------------------
Date & Time: 27-06-2018 15:29:47
Coach Name: 
Validation Status: Exception
Source: Free Event Registration

Exception: String was not recognized as a valid DateTime.
-----------------------------------------------------------

Time: 27-06-2018 03:31:33 PM
-----------------------------------------------------------
Date & Time: 27-06-2018 15:31:33
Coach Name: 
Validation Status: Exception
Source: Free Event Registration

Exception: Input string was not in a correct format.
-----------------------------------------------------------

Time: 27-06-2018 03:33:17 PM
-----------------------------------------------------------
Date & Time: 27-06-2018 15:33:17
Coach Name: 
Validation Status: Exception
Source: Free Event Registration

Exception: Input string was not in a correct format.
-----------------------------------------------------------

Time: 27-06-2018 03:34:19 PM
-----------------------------------------------------------
Date & Time: 27-06-2018 15:34:19
Coach Name: 
Validation Status: Exception
Source: Free Event Registration

Exception: String was not recognized as a valid DateTime.
-----------------------------------------------------------

Time: 27-06-2018 03:35:15 PM
-----------------------------------------------------------
Date & Time: 27-06-2018 15:35:15
Coach Name: 
Validation Status: Exception
Source: Free Event Registration

Exception: Input string was not in a correct format.
-----------------------------------------------------------

Time: 27-06-2018 04:21:13 PM
-----------------------------------------------------------
Date & Time: 27-06-2018 16:21:13
Coach Name: 
Validation Status: Exception
Source: Free Event Registration

Exception: Input string was not in a correct format.
-----------------------------------------------------------

Time: 27-06-2018 04:21:17 PM
-----------------------------------------------------------
Date & Time: 27-06-2018 16:21:17
Coach Name: 
Validation Status: Exception
Source: Free Event Registration

Exception: Input string was not in a correct format.
-----------------------------------------------------------

Time: 27-06-2018 04:38:12 PM
-----------------------------------------------------------
Date & Time: 27-06-2018 16:38:12
Coach Name: 
Validation Status: Exception
Source: Free Event Registration

Exception: Index was outside the bounds of the array.
-----------------------------------------------------------

Time: 27-06-2018 05:28:19 PM
-----------------------------------------------------------
Date & Time: 27-06-2018 17:28:19
Coach Name: 
Validation Status: Exception
Source: Free Event Registration

Exception: Index was outside the bounds of the array.
-----------------------------------------------------------

Time: 27-06-2018 05:38:41 PM
-----------------------------------------------------------
Date & Time: 27-06-2018 17:38:41
Coach Name: 
Validation Status: Exception
Source: Free Event Registration

Exception: Index was outside the bounds of the array.
-----------------------------------------------------------

