Time: 22/02/2018 04:01:34 PM
-----------------------------------------------------------
Date & Time: 2/22/2018 4:01:34 PM
Coach Name: 
Validation Status: Exception
Source: Practice Session

Exception: Incorrect syntax near the keyword 'and'.
-----------------------------------------------------------

