Time: 15/09/2017 09:48:20 AM
-----------------------------------------------------------
Date & Time: 9/15/2017 9:48:20 AM
Coach Name: 
Validation Status: Exception
Source: Calendar Signup

Exception: Index was out of range. Must be non-negative and less than the size of the collection.
Parameter name: index
-----------------------------------------------------------

Time: 15/09/2017 09:48:34 AM
-----------------------------------------------------------
Date & Time: 9/15/2017 9:48:34 AM
Coach Name: 
Validation Status: Exception
Source: Calendar Signup

Exception: Invalid column name 'Intermediate'.
-----------------------------------------------------------

Time: 15/09/2017 09:49:37 AM
-----------------------------------------------------------
Date & Time: 9/15/2017 9:49:37 AM
Coach Name: 
Validation Status: Exception
Source: Calendar Signup

Exception: Index was out of range. Must be non-negative and less than the size of the collection.
Parameter name: index
-----------------------------------------------------------

Time: 15/09/2017 09:49:51 AM
-----------------------------------------------------------
Date & Time: 9/15/2017 9:49:51 AM
Coach Name: 
Validation Status: Exception
Source: Calendar Signup

Exception: Invalid column name 'Intermediate'.
-----------------------------------------------------------

Time: 15/09/2017 09:51:34 AM
-----------------------------------------------------------
Date & Time: 9/15/2017 9:51:34 AM
Coach Name: 
Validation Status: Exception
Source: Calendar Signup

Exception: Invalid column name 'Intermediate'.
-----------------------------------------------------------

Time: 15/09/2017 09:58:51 AM
-----------------------------------------------------------
Date & Time: 9/15/2017 9:58:51 AM
Coach Name: 
Validation Status: Exception
Source: Calendar Signup

Exception: Index was out of range. Must be non-negative and less than the size of the collection.
Parameter name: index
-----------------------------------------------------------

Time: 15/09/2017 09:59:29 AM
-----------------------------------------------------------
Date & Time: 9/15/2017 9:59:29 AM
Coach Name: 
Validation Status: Exception
Source: Calendar Signup

Exception: Index was out of range. Must be non-negative and less than the size of the collection.
Parameter name: index
-----------------------------------------------------------

Time: 15/09/2017 10:01:19 AM
-----------------------------------------------------------
Date & Time: 9/15/2017 10:01:19 AM
Coach Name: 
Validation Status: Exception
Source: Calendar Signup

Exception: Invalid column name 'Intermediate'.
-----------------------------------------------------------

Time: 15/09/2017 10:01:25 AM
-----------------------------------------------------------
Date & Time: 9/15/2017 10:01:25 AM
Coach Name: 
Validation Status: Exception
Source: Calendar Signup

Exception: Incorrect syntax near the keyword 'Select'.
-----------------------------------------------------------

Time: 15/09/2017 10:01:28 AM
-----------------------------------------------------------
Date & Time: 9/15/2017 10:01:28 AM
Coach Name: 
Validation Status: Exception
Source: Calendar Signup

Exception: Incorrect syntax near the keyword 'Select'.
-----------------------------------------------------------

Time: 15/09/2017 10:01:41 AM
-----------------------------------------------------------
Date & Time: 9/15/2017 10:01:41 AM
Coach Name: 
Validation Status: Exception
Source: Calendar Signup

Exception: Incorrect syntax near the keyword 'Select'.
-----------------------------------------------------------

Time: 15/09/2017 10:02:05 AM
-----------------------------------------------------------
Date & Time: 9/15/2017 10:02:05 AM
Coach Name: 
Validation Status: Exception
Source: Calendar Signup

Exception: Incorrect syntax near the keyword 'Select'.
-----------------------------------------------------------

Time: 15/09/2017 10:03:49 AM
-----------------------------------------------------------
Date & Time: 9/15/2017 10:03:49 AM
Coach Name: 
Validation Status: Exception
Source: Calendar Signup

Exception: Index was out of range. Must be non-negative and less than the size of the collection.
Parameter name: index
-----------------------------------------------------------

Time: 15/09/2017 10:04:19 AM
-----------------------------------------------------------
Date & Time: 9/15/2017 10:04:19 AM
Coach Name: 
Validation Status: Exception
Source: Calendar Signup

Exception: Invalid column name 'Intermediate'.
-----------------------------------------------------------

Time: 15/09/2017 10:04:33 AM
-----------------------------------------------------------
Date & Time: 9/15/2017 10:04:33 AM
Coach Name: 
Validation Status: Exception
Source: Calendar Signup

Exception: Index was out of range. Must be non-negative and less than the size of the collection.
Parameter name: index
-----------------------------------------------------------

Time: 15/09/2017 10:07:30 AM
-----------------------------------------------------------
Date & Time: 9/15/2017 10:07:30 AM
Coach Name: 
Validation Status: Exception
Source: Calendar Signup

Exception: Index was out of range. Must be non-negative and less than the size of the collection.
Parameter name: index
-----------------------------------------------------------

Time: 15/09/2017 10:07:48 AM
-----------------------------------------------------------
Date & Time: 9/15/2017 10:07:48 AM
Coach Name: 
Validation Status: Exception
Source: Calendar Signup

Exception: Invalid column name 'Intermediate'.
-----------------------------------------------------------

Time: 15/09/2017 10:11:29 AM
-----------------------------------------------------------
Date & Time: 9/15/2017 10:11:29 AM
Coach Name: 
Validation Status: Exception
Source: Calendar Signup

Exception: Index was out of range. Must be non-negative and less than the size of the collection.
Parameter name: index
-----------------------------------------------------------

Time: 15/09/2017 10:12:45 AM
-----------------------------------------------------------
Date & Time: 9/15/2017 10:12:45 AM
Coach Name: 
Validation Status: Exception
Source: Calendar Signup

Exception: Index was out of range. Must be non-negative and less than the size of the collection.
Parameter name: index
-----------------------------------------------------------

Time: 15/09/2017 10:14:02 AM
-----------------------------------------------------------
Date & Time: 9/15/2017 10:14:02 AM
Coach Name: 
Validation Status: Exception
Source: Calendar Signup

Exception: Index was out of range. Must be non-negative and less than the size of the collection.
Parameter name: index
-----------------------------------------------------------

Time: 15/09/2017 10:58:09 AM
-----------------------------------------------------------
Date & Time: 9/15/2017 10:58:09 AM
Coach Name: 
Validation Status: Exception
Source: Calendar Signup

Exception: Index was out of range. Must be non-negative and less than the size of the collection.
Parameter name: index
-----------------------------------------------------------

