Time: 05-09-2018 12:42:17 PM
-----------------------------------------------------------
Date & Time: 05-09-2018 12:42:17
Coach Name: 
Validation Status: Exception
Source: Calendar Signup

Exception: Object reference not set to an instance of an object.
-----------------------------------------------------------

