Time: 09/11/2017 12:36:23 PM
-----------------------------------------------------------
Date & Time: 11/9/2017 12:36:23 PM
Coach Name: 
Validation Status: Exception
Source: Calendar Signup

Exception: Index was out of range. Must be non-negative and less than the size of the collection.
Parameter name: index
-----------------------------------------------------------

Time: 09/11/2017 01:42:58 PM
-----------------------------------------------------------
Date & Time: 11/9/2017 1:42:58 PM
Coach Name: 
Validation Status: Exception
Source: Calendar Signup

Exception: Incorrect syntax near '='.
-----------------------------------------------------------

Time: 09/11/2017 01:42:59 PM
-----------------------------------------------------------
Date & Time: 11/9/2017 1:42:59 PM
Coach Name: 
Validation Status: Exception
Source: Calendar Signup

Exception: Incorrect syntax near the keyword 'order'.
-----------------------------------------------------------

Time: 09/11/2017 01:44:07 PM
-----------------------------------------------------------
Date & Time: 11/9/2017 1:44:07 PM
Coach Name: 
Validation Status: Exception
Source: Calendar Signup

Exception: Incorrect syntax near the keyword 'order'.
-----------------------------------------------------------

Time: 09/11/2017 02:58:56 PM
-----------------------------------------------------------
Date & Time: 11/9/2017 2:58:56 PM
Coach Name: 
Validation Status: Exception
Source: Calendar Signup

Exception: Invalid column name 'Junior'.
-----------------------------------------------------------

Time: 09/11/2017 03:00:11 PM
-----------------------------------------------------------
Date & Time: 11/9/2017 3:00:11 PM
Coach Name: 
Validation Status: Exception
Source: Calendar Signup

Exception: 'ddlProductGroupFilter' has a SelectedValue which is invalid because it does not exist in the list of items.
Parameter name: value
-----------------------------------------------------------

Time: 09/11/2017 03:00:13 PM
-----------------------------------------------------------
Date & Time: 11/9/2017 3:00:13 PM
Coach Name: 
Validation Status: Exception
Source: Calendar Signup

Exception: 'ddlProductFilter' has a SelectedValue which is invalid because it does not exist in the list of items.
Parameter name: value
-----------------------------------------------------------

Time: 09/11/2017 03:00:13 PM
-----------------------------------------------------------
Date & Time: 11/9/2017 3:00:13 PM
Coach Name: 
Validation Status: Exception
Source: Calendar Signup

Exception: 'ddlLevelFilter' has a SelectedValue which is invalid because it does not exist in the list of items.
Parameter name: value
-----------------------------------------------------------

Time: 09/11/2017 03:00:14 PM
-----------------------------------------------------------
Date & Time: 11/9/2017 3:00:14 PM
Coach Name: 
Validation Status: Exception
Source: Calendar Signup

Exception: Invalid column name 'Junior'.
-----------------------------------------------------------

Time: 09/11/2017 03:01:05 PM
-----------------------------------------------------------
Date & Time: 11/9/2017 3:01:05 PM
Coach Name: 
Validation Status: Exception
Source: Calendar Signup

Exception: 'ddlProductGroupFilter' has a SelectedValue which is invalid because it does not exist in the list of items.
Parameter name: value
-----------------------------------------------------------

Time: 09/11/2017 03:01:07 PM
-----------------------------------------------------------
Date & Time: 11/9/2017 3:01:07 PM
Coach Name: 
Validation Status: Exception
Source: Calendar Signup

Exception: 'ddlProductFilter' has a SelectedValue which is invalid because it does not exist in the list of items.
Parameter name: value
-----------------------------------------------------------

Time: 09/11/2017 03:01:07 PM
-----------------------------------------------------------
Date & Time: 11/9/2017 3:01:07 PM
Coach Name: 
Validation Status: Exception
Source: Calendar Signup

Exception: 'ddlLevelFilter' has a SelectedValue which is invalid because it does not exist in the list of items.
Parameter name: value
-----------------------------------------------------------

Time: 09/11/2017 03:01:08 PM
-----------------------------------------------------------
Date & Time: 11/9/2017 3:01:08 PM
Coach Name: 
Validation Status: Exception
Source: Calendar Signup

Exception: Invalid column name 'Junior'.
-----------------------------------------------------------

Time: 09/11/2017 03:02:50 PM
-----------------------------------------------------------
Date & Time: 11/9/2017 3:02:50 PM
Coach Name: 
Validation Status: Exception
Source: Calendar Signup

Exception: 'ddlProductGroupFilter' has a SelectedValue which is invalid because it does not exist in the list of items.
Parameter name: value
-----------------------------------------------------------

Time: 09/11/2017 03:02:52 PM
-----------------------------------------------------------
Date & Time: 11/9/2017 3:02:52 PM
Coach Name: 
Validation Status: Exception
Source: Calendar Signup

Exception: 'ddlProductFilter' has a SelectedValue which is invalid because it does not exist in the list of items.
Parameter name: value
-----------------------------------------------------------

Time: 09/11/2017 03:02:53 PM
-----------------------------------------------------------
Date & Time: 11/9/2017 3:02:53 PM
Coach Name: 
Validation Status: Exception
Source: Calendar Signup

Exception: 'ddlLevelFilter' has a SelectedValue which is invalid because it does not exist in the list of items.
Parameter name: value
-----------------------------------------------------------

Time: 09/11/2017 03:02:54 PM
-----------------------------------------------------------
Date & Time: 11/9/2017 3:02:54 PM
Coach Name: 
Validation Status: Exception
Source: Calendar Signup

Exception: Invalid column name 'Junior'.
-----------------------------------------------------------

Time: 09/11/2017 03:04:01 PM
-----------------------------------------------------------
Date & Time: 11/9/2017 3:04:01 PM
Coach Name: 
Validation Status: Exception
Source: Calendar Signup

Exception: 'ddlProductGroupFilter' has a SelectedValue which is invalid because it does not exist in the list of items.
Parameter name: value
-----------------------------------------------------------

Time: 09/11/2017 03:04:19 PM
-----------------------------------------------------------
Date & Time: 11/9/2017 3:04:19 PM
Coach Name: 
Validation Status: Exception
Source: Calendar Signup

Exception: 'ddlProductFilter' has a SelectedValue which is invalid because it does not exist in the list of items.
Parameter name: value
-----------------------------------------------------------

Time: 09/11/2017 03:04:20 PM
-----------------------------------------------------------
Date & Time: 11/9/2017 3:04:20 PM
Coach Name: 
Validation Status: Exception
Source: Calendar Signup

Exception: 'ddlLevelFilter' has a SelectedValue which is invalid because it does not exist in the list of items.
Parameter name: value
-----------------------------------------------------------

Time: 09/11/2017 03:04:20 PM
-----------------------------------------------------------
Date & Time: 11/9/2017 3:04:20 PM
Coach Name: 
Validation Status: Exception
Source: Calendar Signup

Exception: Invalid column name 'Junior'.
-----------------------------------------------------------

Time: 09/11/2017 03:05:03 PM
-----------------------------------------------------------
Date & Time: 11/9/2017 3:05:03 PM
Coach Name: 
Validation Status: Exception
Source: Calendar Signup

Exception: 'ddlProductGroupFilter' has a SelectedValue which is invalid because it does not exist in the list of items.
Parameter name: value
-----------------------------------------------------------

Time: 09/11/2017 03:05:05 PM
-----------------------------------------------------------
Date & Time: 11/9/2017 3:05:05 PM
Coach Name: 
Validation Status: Exception
Source: Calendar Signup

Exception: 'ddlProductFilter' has a SelectedValue which is invalid because it does not exist in the list of items.
Parameter name: value
-----------------------------------------------------------

Time: 09/11/2017 03:05:05 PM
-----------------------------------------------------------
Date & Time: 11/9/2017 3:05:05 PM
Coach Name: 
Validation Status: Exception
Source: Calendar Signup

Exception: 'ddlLevelFilter' has a SelectedValue which is invalid because it does not exist in the list of items.
Parameter name: value
-----------------------------------------------------------

Time: 09/11/2017 03:05:06 PM
-----------------------------------------------------------
Date & Time: 11/9/2017 3:05:06 PM
Coach Name: 
Validation Status: Exception
Source: Calendar Signup

Exception: Invalid column name 'Junior'.
-----------------------------------------------------------

Time: 09/11/2017 06:36:51 PM
-----------------------------------------------------------
Date & Time: 11/9/2017 6:36:51 PM
Coach Name: 
Validation Status: Exception
Source: Calendar Signup

Exception: Invalid column name 'Advanced'.
-----------------------------------------------------------

Time: 09/11/2017 06:38:09 PM
-----------------------------------------------------------
Date & Time: 11/9/2017 6:38:09 PM
Coach Name: 
Validation Status: Exception
Source: Calendar Signup

Exception: Invalid column name 'Beginner'.
-----------------------------------------------------------

Time: 09/11/2017 06:38:14 PM
-----------------------------------------------------------
Date & Time: 11/9/2017 6:38:14 PM
Coach Name: 
Validation Status: Exception
Source: Calendar Signup

Exception: Incorrect syntax near 'Level'.
-----------------------------------------------------------

