Time: 19-09-2018 05:36:01 PM
-----------------------------------------------------------
Date & Time: 19-09-2018 17:36:01
Coach Name: 
Validation Status: Exception
Source: Calendar Signup

Exception: Multiple controls with the same ID 'lblEventYear' were found. FindControl requires that controls have unique IDs.
-----------------------------------------------------------

Time: 19-09-2018 05:36:15 PM
-----------------------------------------------------------
Date & Time: 19-09-2018 17:36:15
Coach Name: 
Validation Status: Exception
Source: Calendar Signup

Exception: Multiple controls with the same ID 'lblEventYear' were found. FindControl requires that controls have unique IDs.
-----------------------------------------------------------

