Time: 20/09/2017 03:19:47 PM
-----------------------------------------------------------
Date & Time: 9/20/2017 3:19:47 PM
Coach Name: 
Validation Status: Exception
Source: Calendar Signup

Exception: Index was out of range. Must be non-negative and less than the size of the collection.
Parameter name: index
-----------------------------------------------------------

Time: 20/09/2017 03:25:19 PM
-----------------------------------------------------------
Date & Time: 9/20/2017 3:25:19 PM
Coach Name: 
Validation Status: Exception
Source: Calendar Signup

Exception: Index was out of range. Must be non-negative and less than the size of the collection.
Parameter name: index
-----------------------------------------------------------

Time: 20/09/2017 04:01:47 PM
-----------------------------------------------------------
Date & Time: 9/20/2017 4:01:47 PM
Coach Name: 
Validation Status: Exception
Source: Calendar Signup

Exception: Index was out of range. Must be non-negative and less than the size of the collection.
Parameter name: index
-----------------------------------------------------------

