Time: 07/12/2016 09:52:36 AM
-----------------------------------------------------------
Date & Time: 12/7/2016 9:52:36 AM
Coach Name: 
Validation Status: Exception
Source: Calendar Signup

Exception: Index was out of range. Must be non-negative and less than the size of the collection.
Parameter name: index
-----------------------------------------------------------

Time: 07/12/2016 09:52:38 AM
-----------------------------------------------------------
Date & Time: 12/7/2016 9:52:38 AM
Coach Name: 
Validation Status: Exception
Source: Calendar Signup

Exception: Invalid column name 'training'.
-----------------------------------------------------------

Time: 07/12/2016 09:52:38 AM
-----------------------------------------------------------
Date & Time: 12/7/2016 9:52:38 AM
Coach Name: 
Validation Status: Exception
Source: Calendar Signup

Exception: The string was not recognized as a valid DateTime. There is an unknown word starting at index 0.
-----------------------------------------------------------

Time: 07/12/2016 09:53:12 AM
-----------------------------------------------------------
Date & Time: 12/7/2016 9:53:12 AM
Coach Name: 
Validation Status: Exception
Source: Calendar Signup

Exception: Index was out of range. Must be non-negative and less than the size of the collection.
Parameter name: index
-----------------------------------------------------------

Time: 07/12/2016 09:53:21 AM
-----------------------------------------------------------
Date & Time: 12/7/2016 9:53:21 AM
Coach Name: 
Validation Status: Exception
Source: Calendar Signup

Exception: Input string was not in a correct format.
-----------------------------------------------------------

Time: 07/12/2016 10:58:57 AM
-----------------------------------------------------------
Date & Time: 12/7/2016 10:58:57 AM
Coach Name: 
Validation Status: Exception
Source: Calendar Signup

Exception: Index was out of range. Must be non-negative and less than the size of the collection.
Parameter name: index
-----------------------------------------------------------

Time: 07/12/2016 10:58:59 AM
-----------------------------------------------------------
Date & Time: 12/7/2016 10:58:59 AM
Coach Name: 
Validation Status: Exception
Source: Calendar Signup

Exception: Invalid column name 'training'.
-----------------------------------------------------------

Time: 07/12/2016 10:58:59 AM
-----------------------------------------------------------
Date & Time: 12/7/2016 10:58:59 AM
Coach Name: 
Validation Status: Exception
Source: Calendar Signup

Exception: The string was not recognized as a valid DateTime. There is an unknown word starting at index 0.
-----------------------------------------------------------

Time: 07/12/2016 10:59:15 AM
-----------------------------------------------------------
Date & Time: 12/7/2016 10:59:15 AM
Coach Name: 
Validation Status: Exception
Source: Calendar Signup

Exception: Index was out of range. Must be non-negative and less than the size of the collection.
Parameter name: index
-----------------------------------------------------------

Time: 07/12/2016 10:59:34 AM
-----------------------------------------------------------
Date & Time: 12/7/2016 10:59:34 AM
Coach Name: 
Validation Status: Exception
Source: Calendar Signup

Exception: Index was out of range. Must be non-negative and less than the size of the collection.
Parameter name: index
-----------------------------------------------------------

Time: 07/12/2016 11:00:06 AM
-----------------------------------------------------------
Date & Time: 12/7/2016 11:00:06 AM
Coach Name: 
Validation Status: Exception
Source: Calendar Signup

Exception: Index was out of range. Must be non-negative and less than the size of the collection.
Parameter name: index
-----------------------------------------------------------

Time: 07/12/2016 11:00:08 AM
-----------------------------------------------------------
Date & Time: 12/7/2016 11:00:08 AM
Coach Name: 
Validation Status: Exception
Source: Calendar Signup

Exception: Invalid column name 'training'.
-----------------------------------------------------------

Time: 07/12/2016 11:00:08 AM
-----------------------------------------------------------
Date & Time: 12/7/2016 11:00:08 AM
Coach Name: 
Validation Status: Exception
Source: Calendar Signup

Exception: The string was not recognized as a valid DateTime. There is an unknown word starting at index 0.
-----------------------------------------------------------

