Time: 07-08-2018 01:36:39 PM
-----------------------------------------------------------
Date & Time: 07-08-2018 13:36:39
Coach Name: 
Validation Status: Exception
Source: Setup Zoom Sessions

Exception: String was not recognized as a valid DateTime.
-----------------------------------------------------------

Time: 07-08-2018 01:37:18 PM
-----------------------------------------------------------
Date & Time: 07-08-2018 13:37:18
Coach Name: 
Validation Status: Exception
Source: Setup Zoom Sessions

Exception: String was not recognized as a valid DateTime.
-----------------------------------------------------------

Time: 07-08-2018 02:56:46 PM
-----------------------------------------------------------
Date & Time: 07-08-2018 14:56:46
Coach Name: 
Validation Status: Exception
Source: Setup Zoom Sessions

Exception: String was not recognized as a valid DateTime.
-----------------------------------------------------------

Time: 07-08-2018 03:02:10 PM
-----------------------------------------------------------
Date & Time: 07-08-2018 15:02:10
Coach Name: 
Validation Status: Exception
Source: Setup Zoom Sessions

Exception: String was not recognized as a valid DateTime.
-----------------------------------------------------------

Time: 07-08-2018 03:22:30 PM
-----------------------------------------------------------
Date & Time: 07-08-2018 15:22:30
Coach Name: 
Validation Status: Exception
Source: Setup Zoom Sessions

Exception: String was not recognized as a valid DateTime.
-----------------------------------------------------------

Time: 07-08-2018 03:31:35 PM
-----------------------------------------------------------
Date & Time: 07-08-2018 15:31:35
Coach Name: 
Validation Status: Exception
Source: Setup Zoom Sessions

Exception: String was not recognized as a valid DateTime.
-----------------------------------------------------------

Time: 07-08-2018 03:32:22 PM
-----------------------------------------------------------
Date & Time: 07-08-2018 15:32:22
Coach Name: 
Validation Status: Exception
Source: Setup Zoom Sessions

Exception: String was not recognized as a valid DateTime.
-----------------------------------------------------------

Time: 07-08-2018 03:42:14 PM
-----------------------------------------------------------
Date & Time: 07-08-2018 15:42:14
Coach Name: 
Validation Status: Exception
Source: Setup Zoom Sessions

Exception: String was not recognized as a valid DateTime.
-----------------------------------------------------------

Time: 07-08-2018 03:46:17 PM
-----------------------------------------------------------
Date & Time: 07-08-2018 15:46:17
Coach Name: 
Validation Status: Exception
Source: Setup Zoom Sessions

Exception: String was not recognized as a valid DateTime.
-----------------------------------------------------------

Time: 07-08-2018 04:04:00 PM
-----------------------------------------------------------
Date & Time: 07-08-2018 16:04:00
Coach Name: 
Validation Status: Exception
Source: Setup Zoom Sessions

Exception: String was not recognized as a valid DateTime.
-----------------------------------------------------------

Time: 07-08-2018 06:07:20 PM
-----------------------------------------------------------
Date & Time: 07-08-2018 18:07:20
Coach Name: 
Validation Status: Exception
Source: Setup Zoom Sessions

Exception: String was not recognized as a valid DateTime.
-----------------------------------------------------------

Time: 07-08-2018 06:08:36 PM
-----------------------------------------------------------
Date & Time: 07-08-2018 18:08:36
Coach Name: 
Validation Status: Exception
Source: Setup Zoom Sessions

Exception: String was not recognized as a valid DateTime.
-----------------------------------------------------------

Time: 07-08-2018 06:09:07 PM
-----------------------------------------------------------
Date & Time: 07-08-2018 18:09:07
Coach Name: 
Validation Status: Exception
Source: Setup Zoom Sessions

Exception: String was not recognized as a valid DateTime.
-----------------------------------------------------------

